<?xml version="1.0" encoding="utf-8"?>
<!-- Generator: Adobe Illustrator 17.0.0, SVG Export Plug-In . SVG Version: 6.00 Build 0)  -->
<!DOCTYPE svg PUBLIC "-//W3C//DTD SVG 1.1//EN" "http://www.w3.org/Graphics/SVG/1.1/DTD/svg11.dtd">
<svg version="1.1" id="Layer_1" xmlns="http://www.w3.org/2000/svg" xmlns:xlink="http://www.w3.org/1999/xlink" x="0px" y="0px"
	 width="56px" height="56px" viewBox="0 0 56 56" enable-background="new 0 0 56 56" xml:space="preserve">
<g>
	<g>
		<defs>
			<path id="SVGID_1_" d="M55.842,1.846C51.52,22.317,42.828,39.707,30.174,54.154C22.335,38.861,12.45,24.929,0.347,12.435
				C19.621,10.287,38.137,6.797,55.842,1.846z"/>
		</defs>
		<clipPath id="SVGID_2_">
			<use xlink:href="#SVGID_1_"  overflow="visible"/>
		</clipPath>
		<g clip-path="url(#SVGID_2_)">
			
				<rect x="14.321" y="5.623" transform="matrix(-0.8072 0.5903 -0.5903 -0.8072 51.0515 45.851)" fill-rule="evenodd" clip-rule="evenodd" fill="#FF0000" width="7.432" height="51.282"/>
		</g>
		<g clip-path="url(#SVGID_2_)">
			
				<rect x="20.967" y="3.41" transform="matrix(-0.8074 0.59 -0.59 -0.8074 55.2084 40.0799)" fill-rule="evenodd" clip-rule="evenodd" fill="#FF0000" width="0.191" height="51.282"/>
		</g>
		<g clip-path="url(#SVGID_2_)">
			
				<rect x="21.07" y="3.335" transform="matrix(-0.8072 0.5903 -0.5903 -0.8072 55.3543 39.8703)" fill-rule="evenodd" clip-rule="evenodd" fill="#FF0000" width="0.191" height="51.282"/>
		</g>
		<g clip-path="url(#SVGID_2_)">
			
				<rect x="21.173" y="3.259" transform="matrix(-0.8072 0.5903 -0.5903 -0.8072 55.4959 39.6734)" fill-rule="evenodd" clip-rule="evenodd" fill="#FF0000" width="0.191" height="51.282"/>
		</g>
		<g clip-path="url(#SVGID_2_)">
			
				<rect x="21.276" y="3.184" transform="matrix(-0.8071 0.5904 -0.5904 -0.8071 55.6389 39.4721)" fill-rule="evenodd" clip-rule="evenodd" fill="#FF0700" width="0.191" height="51.282"/>
		</g>
		<g clip-path="url(#SVGID_2_)">
			
				<rect x="21.379" y="3.109" transform="matrix(-0.8071 0.5904 -0.5904 -0.8071 55.7811 39.2737)" fill-rule="evenodd" clip-rule="evenodd" fill="#FF0700" width="0.191" height="51.282"/>
		</g>
		<g clip-path="url(#SVGID_2_)">
			
				<rect x="21.482" y="3.033" transform="matrix(-0.8072 0.5903 -0.5903 -0.8072 55.921 39.0825)" fill-rule="evenodd" clip-rule="evenodd" fill="#FF0700" width="0.191" height="51.282"/>
		</g>
		<g clip-path="url(#SVGID_2_)">
			
				<rect x="21.585" y="2.958" transform="matrix(-0.8072 0.5903 -0.5903 -0.8072 56.0626 38.8855)" fill-rule="evenodd" clip-rule="evenodd" fill="#FF0700" width="0.191" height="51.282"/>
		</g>
		<g clip-path="url(#SVGID_2_)">
			
				<rect x="21.688" y="2.883" transform="matrix(-0.8071 0.5904 -0.5904 -0.8071 56.2056 38.6839)" fill-rule="evenodd" clip-rule="evenodd" fill="#FF0700" width="0.192" height="51.282"/>
		</g>
		<g clip-path="url(#SVGID_2_)">
			
				<rect x="21.791" y="2.807" transform="matrix(-0.8071 0.5904 -0.5904 -0.8071 56.3478 38.4859)" fill-rule="evenodd" clip-rule="evenodd" fill="#FF0A00" width="0.191" height="51.282"/>
		</g>
		<g clip-path="url(#SVGID_2_)">
			
				<rect x="21.894" y="2.732" transform="matrix(-0.8072 0.5903 -0.5903 -0.8072 56.4876 38.2948)" fill-rule="evenodd" clip-rule="evenodd" fill="#FF0A00" width="0.191" height="51.282"/>
		</g>
		<g clip-path="url(#SVGID_2_)">
			
				<rect x="21.997" y="2.657" transform="matrix(-0.8072 0.5903 -0.5903 -0.8072 56.6293 38.0977)" fill-rule="evenodd" clip-rule="evenodd" fill="#FF0A00" width="0.191" height="51.282"/>
		</g>
		<g clip-path="url(#SVGID_2_)">
			
				<rect x="22.1" y="2.581" transform="matrix(-0.8071 0.5904 -0.5904 -0.8071 56.7723 37.8966)" fill-rule="evenodd" clip-rule="evenodd" fill="#FF0A00" width="0.191" height="51.282"/>
		</g>
		<g clip-path="url(#SVGID_2_)">
			
				<rect x="22.203" y="2.506" transform="matrix(-0.8072 0.5903 -0.5903 -0.8072 56.9127 37.7039)" fill-rule="evenodd" clip-rule="evenodd" fill="#FF0A00" width="0.191" height="51.282"/>
		</g>
		<g clip-path="url(#SVGID_2_)">
			
				<rect x="22.306" y="2.431" transform="matrix(-0.8072 0.5903 -0.5903 -0.8072 57.0545 37.5069)" fill-rule="evenodd" clip-rule="evenodd" fill="#FF0A00" width="0.191" height="51.282"/>
		</g>
		<g clip-path="url(#SVGID_2_)">
			
				<rect x="22.409" y="2.356" transform="matrix(-0.8074 0.59 -0.59 -0.8074 57.1926 37.3231)" fill-rule="evenodd" clip-rule="evenodd" fill="#FF0A00" width="0.191" height="51.282"/>
		</g>
		<g clip-path="url(#SVGID_2_)">
			
				<rect x="22.512" y="2.28" transform="matrix(-0.8072 0.5903 -0.5903 -0.8072 57.3378 37.1131)" fill-rule="evenodd" clip-rule="evenodd" fill="#FF0A00" width="0.191" height="51.282"/>
		</g>
		<g clip-path="url(#SVGID_2_)">
			
				<rect x="22.615" y="2.205" transform="matrix(-0.8072 0.5903 -0.5903 -0.8072 57.4794 36.9161)" fill-rule="evenodd" clip-rule="evenodd" fill="#FF0D00" width="0.191" height="51.282"/>
		</g>
		<g clip-path="url(#SVGID_2_)">
			
				<rect x="22.718" y="2.129" transform="matrix(-0.8072 0.5903 -0.5903 -0.8072 57.6211 36.7191)" fill-rule="evenodd" clip-rule="evenodd" fill="#FF0D00" width="0.191" height="51.282"/>
		</g>
		<g clip-path="url(#SVGID_2_)">
			
				<rect x="22.821" y="2.054" transform="matrix(-0.8072 0.5903 -0.5903 -0.8072 57.7629 36.5223)" fill-rule="evenodd" clip-rule="evenodd" fill="#FF0D00" width="0.191" height="51.282"/>
		</g>
		<g clip-path="url(#SVGID_2_)">
			
				<rect x="22.924" y="1.979" transform="matrix(-0.8073 0.5901 -0.5901 -0.8073 57.9023 36.334)" fill-rule="evenodd" clip-rule="evenodd" fill="#FF0D00" width="0.191" height="51.282"/>
		</g>
		<g clip-path="url(#SVGID_2_)">
			
				<rect x="23.027" y="1.903" transform="matrix(-0.8072 0.5903 -0.5903 -0.8072 58.0462 36.1283)" fill-rule="evenodd" clip-rule="evenodd" fill="#FF0D00" width="0.191" height="51.282"/>
		</g>
		<g clip-path="url(#SVGID_2_)">
			
				<rect x="23.13" y="1.828" transform="matrix(-0.8072 0.5903 -0.5903 -0.8072 58.1879 35.9315)" fill-rule="evenodd" clip-rule="evenodd" fill="#FF0F00" width="0.191" height="51.282"/>
		</g>
		<g clip-path="url(#SVGID_2_)">
			
				<rect x="23.233" y="1.753" transform="matrix(-0.8072 0.5903 -0.5903 -0.8072 58.3295 35.7345)" fill-rule="evenodd" clip-rule="evenodd" fill="#FF0F00" width="0.191" height="51.282"/>
		</g>
		<g clip-path="url(#SVGID_2_)">
			
				<rect x="23.336" y="1.677" transform="matrix(-0.8072 0.5903 -0.5903 -0.8072 58.4712 35.5375)" fill-rule="evenodd" clip-rule="evenodd" fill="#FF0F00" width="0.191" height="51.282"/>
		</g>
		<g clip-path="url(#SVGID_2_)">
			
				<rect x="23.439" y="1.602" transform="matrix(-0.8071 0.5904 -0.5904 -0.8071 58.6143 35.3348)" fill-rule="evenodd" clip-rule="evenodd" fill="#FF0F00" width="0.191" height="51.282"/>
		</g>
		<g clip-path="url(#SVGID_2_)">
			
				<rect x="23.542" y="1.527" transform="matrix(-0.8072 0.5903 -0.5903 -0.8072 58.7546 35.1437)" fill-rule="evenodd" clip-rule="evenodd" fill="#FF0F00" width="0.191" height="51.282"/>
		</g>
		<g clip-path="url(#SVGID_2_)">
			
				<rect x="23.645" y="1.451" transform="matrix(-0.8074 0.59 -0.59 -0.8074 58.8933 34.9598)" fill-rule="evenodd" clip-rule="evenodd" fill="#FF0F00" width="0.191" height="51.282"/>
		</g>
		<g clip-path="url(#SVGID_2_)">
			
				<rect x="23.748" y="1.376" transform="matrix(-0.8072 0.5903 -0.5903 -0.8072 59.0379 34.7497)" fill-rule="evenodd" clip-rule="evenodd" fill="#FF0F00" width="0.191" height="51.282"/>
		</g>
		<g clip-path="url(#SVGID_2_)">
			
				<rect x="23.851" y="1.301" transform="matrix(-0.8071 0.5904 -0.5904 -0.8071 59.1809 34.5469)" fill-rule="evenodd" clip-rule="evenodd" fill="#FF1100" width="0.191" height="51.282"/>
		</g>
		<g clip-path="url(#SVGID_2_)">
			
				<rect x="23.954" y="1.226" transform="matrix(-0.8071 0.5904 -0.5904 -0.8071 59.3222 34.3515)" fill-rule="evenodd" clip-rule="evenodd" fill="#FF1100" width="0.191" height="51.282"/>
		</g>
		<g clip-path="url(#SVGID_2_)">
			
				<rect x="24.057" y="1.15" transform="matrix(-0.8072 0.5903 -0.5903 -0.8072 59.4629 34.1589)" fill-rule="evenodd" clip-rule="evenodd" fill="#FF1100" width="0.191" height="51.282"/>
		</g>
		<g clip-path="url(#SVGID_2_)">
			
				<rect x="24.16" y="1.075" transform="matrix(-0.8072 0.5903 -0.5903 -0.8072 59.6047 33.9621)" fill-rule="evenodd" clip-rule="evenodd" fill="#FF1100" width="0.191" height="51.282"/>
		</g>
		<g clip-path="url(#SVGID_2_)">
			
				<rect x="24.263" y="1" transform="matrix(-0.8072 0.5903 -0.5903 -0.8072 59.7463 33.7651)" fill-rule="evenodd" clip-rule="evenodd" fill="#FF1100" width="0.191" height="51.282"/>
		</g>
		<g clip-path="url(#SVGID_2_)">
			
				<rect x="24.366" y="0.924" transform="matrix(-0.8074 0.59 -0.59 -0.8074 59.8853 33.5813)" fill-rule="evenodd" clip-rule="evenodd" fill="#FF1100" width="0.191" height="51.282"/>
		</g>
		<g clip-path="url(#SVGID_2_)">
			
				<rect x="24.469" y="0.849" transform="matrix(-0.8072 0.5903 -0.5903 -0.8072 60.0298 33.3712)" fill-rule="evenodd" clip-rule="evenodd" fill="#FF1100" width="0.191" height="51.282"/>
		</g>
		<g clip-path="url(#SVGID_2_)">
			
				<rect x="24.572" y="0.774" transform="matrix(-0.8072 0.5903 -0.5903 -0.8072 60.1713 33.1743)" fill-rule="evenodd" clip-rule="evenodd" fill="#FF1100" width="0.191" height="51.282"/>
		</g>
		<g clip-path="url(#SVGID_2_)">
			
				<rect x="24.675" y="0.698" transform="matrix(-0.8072 0.5903 -0.5903 -0.8072 60.3131 32.9773)" fill-rule="evenodd" clip-rule="evenodd" fill="#FF1300" width="0.191" height="51.282"/>
		</g>
		<g clip-path="url(#SVGID_2_)">
			
				<rect x="24.778" y="0.623" transform="matrix(-0.8071 0.5904 -0.5904 -0.8071 60.4556 32.7759)" fill-rule="evenodd" clip-rule="evenodd" fill="#FF1300" width="0.191" height="51.282"/>
		</g>
		<g clip-path="url(#SVGID_2_)">
			
				<rect x="24.881" y="0.548" transform="matrix(-0.8074 0.59 -0.59 -0.8074 60.594 32.5968)" fill-rule="evenodd" clip-rule="evenodd" fill="#FF1300" width="0.191" height="51.282"/>
		</g>
		<g clip-path="url(#SVGID_2_)">
			
				<rect x="24.984" y="0.472" transform="matrix(-0.8072 0.5903 -0.5903 -0.8072 60.7382 32.3864)" fill-rule="evenodd" clip-rule="evenodd" fill="#FF1300" width="0.191" height="51.282"/>
		</g>
		<g clip-path="url(#SVGID_2_)">
			
				<rect x="25.087" y="0.397" transform="matrix(-0.8072 0.5903 -0.5903 -0.8072 60.8797 32.1895)" fill-rule="evenodd" clip-rule="evenodd" fill="#FF1300" width="0.191" height="51.282"/>
		</g>
		<g clip-path="url(#SVGID_2_)">
			
				<rect x="25.19" y="0.322" transform="matrix(-0.8072 0.5903 -0.5903 -0.8072 61.0215 31.9927)" fill-rule="evenodd" clip-rule="evenodd" fill="#FF1500" width="0.191" height="51.282"/>
		</g>
		<g clip-path="url(#SVGID_2_)">
			
				<rect x="25.293" y="0.246" transform="matrix(-0.8072 0.5903 -0.5903 -0.8072 61.1632 31.7957)" fill-rule="evenodd" clip-rule="evenodd" fill="#FF1500" width="0.191" height="51.282"/>
		</g>
		<g clip-path="url(#SVGID_2_)">
			
				<rect x="25.396" y="0.171" transform="matrix(-0.8072 0.5903 -0.5903 -0.8072 61.3048 31.5986)" fill-rule="evenodd" clip-rule="evenodd" fill="#FF1500" width="0.191" height="51.282"/>
		</g>
		<g clip-path="url(#SVGID_2_)">
			
				<rect x="25.499" y="0.096" transform="matrix(-0.8071 0.5904 -0.5904 -0.8071 61.4475 31.3957)" fill-rule="evenodd" clip-rule="evenodd" fill="#FF1500" width="0.191" height="51.282"/>
		</g>
		<g clip-path="url(#SVGID_2_)">
			
				<rect x="25.602" y="0.02" transform="matrix(-0.8073 0.5901 -0.5901 -0.8073 61.5868 31.2138)" fill-rule="evenodd" clip-rule="evenodd" fill="#FF1500" width="0.191" height="51.282"/>
		</g>
		<g clip-path="url(#SVGID_2_)">
			
				<rect x="25.705" y="-0.055" transform="matrix(-0.8072 0.5903 -0.5903 -0.8072 61.7299 31.0078)" fill-rule="evenodd" clip-rule="evenodd" fill="#FF1500" width="0.191" height="51.282"/>
		</g>
		<g clip-path="url(#SVGID_2_)">
			
				<rect x="25.808" y="-0.131" transform="matrix(-0.8072 0.5903 -0.5903 -0.8072 61.8715 30.8108)" fill-rule="evenodd" clip-rule="evenodd" fill="#FF1500" width="0.191" height="51.282"/>
		</g>
		<g clip-path="url(#SVGID_2_)">
			
				<rect x="25.911" y="-0.206" transform="matrix(-0.8071 0.5904 -0.5904 -0.8071 62.0141 30.608)" fill-rule="evenodd" clip-rule="evenodd" fill="#FF1600" width="0.191" height="51.282"/>
		</g>
		<g clip-path="url(#SVGID_2_)">
			
				<rect x="26.014" y="-0.281" transform="matrix(-0.8072 0.5903 -0.5903 -0.8072 62.1549 30.4171)" fill-rule="evenodd" clip-rule="evenodd" fill="#FF1600" width="0.191" height="51.282"/>
		</g>
		<g clip-path="url(#SVGID_2_)">
			
				<rect x="26.117" y="-0.356" transform="matrix(-0.8072 0.5903 -0.5903 -0.8072 62.2966 30.22)" fill-rule="evenodd" clip-rule="evenodd" fill="#FF1600" width="0.191" height="51.282"/>
		</g>
		<g clip-path="url(#SVGID_2_)">
			
				<rect x="26.22" y="-0.432" transform="matrix(-0.8072 0.5903 -0.5903 -0.8072 62.4383 30.0232)" fill-rule="evenodd" clip-rule="evenodd" fill="#FF1600" width="0.191" height="51.282"/>
		</g>
		<g clip-path="url(#SVGID_2_)">
			
				<rect x="26.323" y="-0.507" transform="matrix(-0.8072 0.5903 -0.5903 -0.8072 62.5799 29.8263)" fill-rule="evenodd" clip-rule="evenodd" fill="#FF1600" width="0.191" height="51.282"/>
		</g>
		<g clip-path="url(#SVGID_2_)">
			
				<rect x="26.426" y="-0.582" transform="matrix(-0.8072 0.5903 -0.5903 -0.8072 62.7217 29.6293)" fill-rule="evenodd" clip-rule="evenodd" fill="#FF1800" width="0.191" height="51.282"/>
		</g>
		<g clip-path="url(#SVGID_2_)">
			
				<rect x="26.529" y="-0.658" transform="matrix(-0.8069 0.5907 -0.5907 -0.8069 62.8656 29.4139)" fill-rule="evenodd" clip-rule="evenodd" fill="#FF1800" width="0.191" height="51.282"/>
		</g>
		<g clip-path="url(#SVGID_2_)">
			
				<rect x="26.632" y="-0.733" transform="matrix(-0.8071 0.5904 -0.5904 -0.8071 63.0056 29.2309)" fill-rule="evenodd" clip-rule="evenodd" fill="#FF1800" width="0.191" height="51.282"/>
		</g>
		<g clip-path="url(#SVGID_2_)">
			
				<rect x="26.735" y="-0.808" transform="matrix(-0.8072 0.5903 -0.5903 -0.8072 63.1467 29.0384)" fill-rule="evenodd" clip-rule="evenodd" fill="#FF1800" width="0.191" height="51.282"/>
		</g>
		<g clip-path="url(#SVGID_2_)">
			
				<rect x="26.838" y="-0.884" transform="matrix(-0.8074 0.59 -0.59 -0.8074 63.2868 28.855)" fill-rule="evenodd" clip-rule="evenodd" fill="#FF1800" width="0.191" height="51.282"/>
		</g>
		<g clip-path="url(#SVGID_2_)">
			
				<rect x="26.941" y="-0.959" transform="matrix(-0.8072 0.5903 -0.5903 -0.8072 63.4301 28.6446)" fill-rule="evenodd" clip-rule="evenodd" fill="#FF1800" width="0.191" height="51.282"/>
		</g>
		<g clip-path="url(#SVGID_2_)">
			
				<rect x="27.044" y="-1.034" transform="matrix(-0.8072 0.5903 -0.5903 -0.8072 63.5717 28.4476)" fill-rule="evenodd" clip-rule="evenodd" fill="#FF1800" width="0.191" height="51.282"/>
		</g>
		<g clip-path="url(#SVGID_2_)">
			
				<rect x="27.147" y="-1.11" transform="matrix(-0.8072 0.5903 -0.5903 -0.8072 63.7134 28.2506)" fill-rule="evenodd" clip-rule="evenodd" fill="#FF1800" width="0.191" height="51.282"/>
		</g>
		<g clip-path="url(#SVGID_2_)">
			
				<rect x="27.25" y="-1.185" transform="matrix(-0.8072 0.5903 -0.5903 -0.8072 63.8551 28.0538)" fill-rule="evenodd" clip-rule="evenodd" fill="#FF1900" width="0.191" height="51.282"/>
		</g>
		<g clip-path="url(#SVGID_2_)">
			
				<rect x="27.353" y="-1.26" transform="matrix(-0.8072 0.5903 -0.5903 -0.8072 63.9968 27.8568)" fill-rule="evenodd" clip-rule="evenodd" fill="#FF1900" width="0.191" height="51.282"/>
		</g>
		<g clip-path="url(#SVGID_2_)">
			
				<rect x="27.456" y="-1.336" transform="matrix(-0.8071 0.5904 -0.5904 -0.8071 64.1389 27.6553)" fill-rule="evenodd" clip-rule="evenodd" fill="#FF1900" width="0.191" height="51.282"/>
		</g>
		<g clip-path="url(#SVGID_2_)">
			
				<rect x="27.559" y="-1.411" transform="matrix(-0.8071 0.5904 -0.5904 -0.8071 64.2805 27.458)" fill-rule="evenodd" clip-rule="evenodd" fill="#FF1900" width="0.192" height="51.282"/>
		</g>
		<g clip-path="url(#SVGID_2_)">
			
				<rect x="27.662" y="-1.486" transform="matrix(-0.8072 0.5903 -0.5903 -0.8072 64.4219 27.266)" fill-rule="evenodd" clip-rule="evenodd" fill="#FF1900" width="0.191" height="51.282"/>
		</g>
		<g clip-path="url(#SVGID_2_)">
			
				<rect x="27.765" y="-1.562" transform="matrix(-0.8072 0.5903 -0.5903 -0.8072 64.5634 27.0691)" fill-rule="evenodd" clip-rule="evenodd" fill="#FF1D00" width="0.191" height="51.282"/>
		</g>
		<g clip-path="url(#SVGID_2_)">
			
				<rect x="27.868" y="-1.637" transform="matrix(-0.8072 0.5903 -0.5903 -0.8072 64.7051 26.872)" fill-rule="evenodd" clip-rule="evenodd" fill="#FF1D00" width="0.191" height="51.282"/>
		</g>
		<g clip-path="url(#SVGID_2_)">
			
				<rect x="27.971" y="-1.712" transform="matrix(-0.8071 0.5904 -0.5904 -0.8071 64.8474 26.669)" fill-rule="evenodd" clip-rule="evenodd" fill="#FF1D00" width="0.191" height="51.282"/>
		</g>
		<g clip-path="url(#SVGID_2_)">
			
				<rect x="28.074" y="-1.788" transform="matrix(-0.8072 0.5903 -0.5903 -0.8072 64.9885 26.4782)" fill-rule="evenodd" clip-rule="evenodd" fill="#FF1D00" width="0.191" height="51.282"/>
		</g>
		<g clip-path="url(#SVGID_2_)">
			
				<rect x="28.177" y="-1.863" transform="matrix(-0.8072 0.5903 -0.5903 -0.8072 65.1302 26.2812)" fill-rule="evenodd" clip-rule="evenodd" fill="#FF1D00" width="0.191" height="51.282"/>
		</g>
		<g clip-path="url(#SVGID_2_)">
			
				<rect x="28.28" y="-1.938" transform="matrix(-0.8072 0.5903 -0.5903 -0.8072 65.2719 26.0844)" fill-rule="evenodd" clip-rule="evenodd" fill="#FF1D00" width="0.191" height="51.282"/>
		</g>
		<g clip-path="url(#SVGID_2_)">
			
				<rect x="28.383" y="-2.014" transform="matrix(-0.8071 0.5904 -0.5904 -0.8071 65.414 25.8811)" fill-rule="evenodd" clip-rule="evenodd" fill="#FF1D00" width="0.191" height="51.282"/>
		</g>
		<g clip-path="url(#SVGID_2_)">
			
				<rect x="28.486" y="-2.089" transform="matrix(-0.8072 0.5903 -0.5903 -0.8072 65.5552 25.6904)" fill-rule="evenodd" clip-rule="evenodd" fill="#FF2000" width="0.191" height="51.282"/>
		</g>
		<g clip-path="url(#SVGID_2_)">
			
				<rect x="28.589" y="-2.164" transform="matrix(-0.8069 0.5907 -0.5907 -0.8069 65.6979 25.4747)" fill-rule="evenodd" clip-rule="evenodd" fill="#FF2000" width="0.191" height="51.282"/>
		</g>
		<g clip-path="url(#SVGID_2_)">
			
				<rect x="28.692" y="-2.24" transform="matrix(-0.8072 0.5903 -0.5903 -0.8072 65.8386 25.2966)" fill-rule="evenodd" clip-rule="evenodd" fill="#FF2000" width="0.191" height="51.282"/>
		</g>
		<g clip-path="url(#SVGID_2_)">
			
				<rect x="28.795" y="-2.315" transform="matrix(-0.8073 0.5901 -0.5901 -0.8073 65.9798 25.1088)" fill-rule="evenodd" clip-rule="evenodd" fill="#FF2000" width="0.191" height="51.282"/>
		</g>
		<g clip-path="url(#SVGID_2_)">
			
				<rect x="28.898" y="-2.39" transform="matrix(-0.8072 0.5903 -0.5903 -0.8072 66.122 24.9026)" fill-rule="evenodd" clip-rule="evenodd" fill="#FF2000" width="0.191" height="51.282"/>
		</g>
		<g clip-path="url(#SVGID_2_)">
			
				<rect x="29.001" y="-2.466" transform="matrix(-0.8072 0.5903 -0.5903 -0.8072 66.2637 24.7058)" fill-rule="evenodd" clip-rule="evenodd" fill="#FF2200" width="0.191" height="51.282"/>
		</g>
		<g clip-path="url(#SVGID_2_)">
			
				<rect x="29.104" y="-2.541" transform="matrix(-0.8072 0.5903 -0.5903 -0.8072 66.4053 24.5088)" fill-rule="evenodd" clip-rule="evenodd" fill="#FF2200" width="0.191" height="51.282"/>
		</g>
		<g clip-path="url(#SVGID_2_)">
			
				<rect x="29.207" y="-2.616" transform="matrix(-0.8072 0.5903 -0.5903 -0.8072 66.547 24.3118)" fill-rule="evenodd" clip-rule="evenodd" fill="#FF2200" width="0.191" height="51.282"/>
		</g>
		<g clip-path="url(#SVGID_2_)">
			
				<rect x="29.31" y="-2.692" transform="matrix(-0.8071 0.5904 -0.5904 -0.8071 66.6889 24.1104)" fill-rule="evenodd" clip-rule="evenodd" fill="#FF2200" width="0.191" height="51.282"/>
		</g>
		<g clip-path="url(#SVGID_2_)">
			
				<rect x="29.413" y="-2.767" transform="matrix(-0.8072 0.5903 -0.5903 -0.8072 66.8304 23.918)" fill-rule="evenodd" clip-rule="evenodd" fill="#FF2200" width="0.191" height="51.282"/>
		</g>
		<g clip-path="url(#SVGID_2_)">
			
				<rect x="29.516" y="-2.842" transform="matrix(-0.8074 0.59 -0.59 -0.8074 66.9716 23.7349)" fill-rule="evenodd" clip-rule="evenodd" fill="#FF2200" width="0.191" height="51.282"/>
		</g>
		<g clip-path="url(#SVGID_2_)">
			
				<rect x="29.619" y="-2.918" transform="matrix(-0.8072 0.5903 -0.5903 -0.8072 67.1137 23.524)" fill-rule="evenodd" clip-rule="evenodd" fill="#FF2200" width="0.191" height="51.282"/>
		</g>
		<g clip-path="url(#SVGID_2_)">
			
				<rect x="29.722" y="-2.993" transform="matrix(-0.8072 0.5903 -0.5903 -0.8072 67.2554 23.3272)" fill-rule="evenodd" clip-rule="evenodd" fill="#FF2200" width="0.191" height="51.282"/>
		</g>
		<g clip-path="url(#SVGID_2_)">
			
				<rect x="29.825" y="-3.068" transform="matrix(-0.8072 0.5903 -0.5903 -0.8072 67.3971 23.1302)" fill-rule="evenodd" clip-rule="evenodd" fill="#FF2500" width="0.191" height="51.282"/>
		</g>
		<g clip-path="url(#SVGID_2_)">
			
				<rect x="29.928" y="-3.144" transform="matrix(-0.8072 0.5903 -0.5903 -0.8072 67.5387 22.9332)" fill-rule="evenodd" clip-rule="evenodd" fill="#FF2500" width="0.191" height="51.282"/>
		</g>
		<g clip-path="url(#SVGID_2_)">
			
				<rect x="30.031" y="-3.219" transform="matrix(-0.8071 0.5904 -0.5904 -0.8071 67.6806 22.73)" fill-rule="evenodd" clip-rule="evenodd" fill="#FF2500" width="0.191" height="51.282"/>
		</g>
		<g clip-path="url(#SVGID_2_)">
			
				<rect x="30.134" y="-3.294" transform="matrix(-0.8071 0.5904 -0.5904 -0.8071 67.8223 22.5347)" fill-rule="evenodd" clip-rule="evenodd" fill="#FF2500" width="0.191" height="51.282"/>
		</g>
		<g clip-path="url(#SVGID_2_)">
			
				<rect x="30.237" y="-3.37" transform="matrix(-0.8072 0.5903 -0.5903 -0.8072 67.9637 22.3424)" fill-rule="evenodd" clip-rule="evenodd" fill="#FF2500" width="0.191" height="51.282"/>
		</g>
		<g clip-path="url(#SVGID_2_)">
			
				<rect x="30.34" y="-3.445" transform="matrix(-0.8072 0.5903 -0.5903 -0.8072 68.1055 22.1456)" fill-rule="evenodd" clip-rule="evenodd" fill="#FF2800" width="0.191" height="51.282"/>
		</g>
		<g clip-path="url(#SVGID_2_)">
			
				<rect x="30.443" y="-3.52" transform="matrix(-0.8071 0.5904 -0.5904 -0.8071 68.2471 21.9422)" fill-rule="evenodd" clip-rule="evenodd" fill="#FF2800" width="0.191" height="51.282"/>
		</g>
		<g clip-path="url(#SVGID_2_)">
			
				<rect x="30.546" y="-3.596" transform="matrix(-0.8072 0.5903 -0.5903 -0.8072 68.3889 21.7516)" fill-rule="evenodd" clip-rule="evenodd" fill="#FF2800" width="0.191" height="51.282"/>
		</g>
		<g clip-path="url(#SVGID_2_)">
			
				<rect x="30.649" y="-3.671" transform="matrix(-0.8072 0.5903 -0.5903 -0.8072 68.5306 21.5546)" fill-rule="evenodd" clip-rule="evenodd" fill="#FF2800" width="0.191" height="51.282"/>
		</g>
		<g clip-path="url(#SVGID_2_)">
			
				<rect x="30.752" y="-3.746" transform="matrix(-0.8074 0.59 -0.59 -0.8074 68.6723 21.3719)" fill-rule="evenodd" clip-rule="evenodd" fill="#FF2800" width="0.191" height="51.282"/>
		</g>
		<g clip-path="url(#SVGID_2_)">
			
				<rect x="30.855" y="-3.822" transform="matrix(-0.8072 0.5903 -0.5903 -0.8072 68.814 21.1608)" fill-rule="evenodd" clip-rule="evenodd" fill="#FF2800" width="0.191" height="51.282"/>
		</g>
		<g clip-path="url(#SVGID_2_)">
			
				<rect x="30.958" y="-3.897" transform="matrix(-0.8072 0.5903 -0.5903 -0.8072 68.9555 20.9638)" fill-rule="evenodd" clip-rule="evenodd" fill="#FF2800" width="0.191" height="51.282"/>
		</g>
		<g clip-path="url(#SVGID_2_)">
			
				<rect x="31.061" y="-3.972" transform="matrix(-0.8072 0.5903 -0.5903 -0.8072 69.0973 20.767)" fill-rule="evenodd" clip-rule="evenodd" fill="#FF2A00" width="0.191" height="51.282"/>
		</g>
		<g clip-path="url(#SVGID_2_)">
			
				<rect x="31.164" y="-4.048" transform="matrix(-0.8072 0.5903 -0.5903 -0.8072 69.239 20.57)" fill-rule="evenodd" clip-rule="evenodd" fill="#FF2A00" width="0.191" height="51.282"/>
		</g>
		<g clip-path="url(#SVGID_2_)">
			
				<rect x="31.267" y="-4.123" transform="matrix(-0.8072 0.5903 -0.5903 -0.8072 69.3806 20.373)" fill-rule="evenodd" clip-rule="evenodd" fill="#FF2A00" width="0.191" height="51.282"/>
		</g>
		<g clip-path="url(#SVGID_2_)">
			
				<rect x="31.37" y="-4.198" transform="matrix(-0.8072 0.5903 -0.5903 -0.8072 69.5223 20.1761)" fill-rule="evenodd" clip-rule="evenodd" fill="#FF2A00" width="0.191" height="51.282"/>
		</g>
		<g clip-path="url(#SVGID_2_)">
			
				<rect x="31.473" y="-4.274" transform="matrix(-0.8073 0.5901 -0.5901 -0.8073 69.6643 19.9886)" fill-rule="evenodd" clip-rule="evenodd" fill="#FF2A00" width="0.191" height="51.282"/>
		</g>
		<g clip-path="url(#SVGID_2_)">
			
				<rect x="31.576" y="-4.349" transform="matrix(-0.8072 0.5903 -0.5903 -0.8072 69.8057 19.7821)" fill-rule="evenodd" clip-rule="evenodd" fill="#FF2A00" width="0.191" height="51.282"/>
		</g>
		<g clip-path="url(#SVGID_2_)">
			
				<rect x="31.679" y="-4.424" transform="matrix(-0.8072 0.5903 -0.5903 -0.8072 69.9473 19.5852)" fill-rule="evenodd" clip-rule="evenodd" fill="#FF2A00" width="0.191" height="51.282"/>
		</g>
		<g clip-path="url(#SVGID_2_)">
			
				<rect x="31.782" y="-4.5" transform="matrix(-0.8072 0.5903 -0.5903 -0.8072 70.089 19.3884)" fill-rule="evenodd" clip-rule="evenodd" fill="#FF2A00" width="0.191" height="51.282"/>
		</g>
		<g clip-path="url(#SVGID_2_)">
			
				<rect x="31.885" y="-4.575" transform="matrix(-0.8072 0.5903 -0.5903 -0.8072 70.2307 19.1914)" fill-rule="evenodd" clip-rule="evenodd" fill="#FF2C00" width="0.191" height="51.282"/>
		</g>
		<g clip-path="url(#SVGID_2_)">
			
				<rect x="31.988" y="-4.65" transform="matrix(-0.8073 0.5901 -0.5901 -0.8073 70.3728 19.0039)" fill-rule="evenodd" clip-rule="evenodd" fill="#FF2C00" width="0.191" height="51.282"/>
		</g>
		<g clip-path="url(#SVGID_2_)">
			
				<rect x="32.091" y="-4.726" transform="matrix(-0.8071 0.5904 -0.5904 -0.8071 70.5138 18.7911)" fill-rule="evenodd" clip-rule="evenodd" fill="#FF2C00" width="0.191" height="51.282"/>
		</g>
		<g clip-path="url(#SVGID_2_)">
			
				<rect x="32.194" y="-4.801" transform="matrix(-0.8072 0.5903 -0.5903 -0.8072 70.6557 18.6006)" fill-rule="evenodd" clip-rule="evenodd" fill="#FF2C00" width="0.191" height="51.282"/>
		</g>
		<g clip-path="url(#SVGID_2_)">
			
				<rect x="32.297" y="-4.876" transform="matrix(-0.8072 0.5903 -0.5903 -0.8072 70.7974 18.4036)" fill-rule="evenodd" clip-rule="evenodd" fill="#FF2C00" width="0.191" height="51.282"/>
		</g>
		<g clip-path="url(#SVGID_2_)">
			
				<rect x="32.4" y="-4.952" transform="matrix(-0.8072 0.5903 -0.5903 -0.8072 70.9391 18.2067)" fill-rule="evenodd" clip-rule="evenodd" fill="#FF2F00" width="0.191" height="51.282"/>
		</g>
		<g clip-path="url(#SVGID_2_)">
			
				<rect x="32.503" y="-5.027" transform="matrix(-0.8071 0.5904 -0.5904 -0.8071 71.0804 18.0032)" fill-rule="evenodd" clip-rule="evenodd" fill="#FF2F00" width="0.191" height="51.282"/>
		</g>
		<g clip-path="url(#SVGID_2_)">
			
				<rect x="32.606" y="-5.102" transform="matrix(-0.8072 0.5903 -0.5903 -0.8072 71.2225 17.8128)" fill-rule="evenodd" clip-rule="evenodd" fill="#FF2F00" width="0.191" height="51.282"/>
		</g>
		<g clip-path="url(#SVGID_2_)">
			
				<rect x="32.709" y="-5.178" transform="matrix(-0.8074 0.59 -0.59 -0.8074 71.3651 17.6301)" fill-rule="evenodd" clip-rule="evenodd" fill="#FF2F00" width="0.191" height="51.282"/>
		</g>
		<g clip-path="url(#SVGID_2_)">
			
				<rect x="32.812" y="-5.253" transform="matrix(-0.8072 0.5903 -0.5903 -0.8072 71.5059 17.4189)" fill-rule="evenodd" clip-rule="evenodd" fill="#FF2F00" width="0.191" height="51.282"/>
		</g>
		<g clip-path="url(#SVGID_2_)">
			
				<rect x="32.915" y="-5.328" transform="matrix(-0.8072 0.5903 -0.5903 -0.8072 71.6475 17.222)" fill-rule="evenodd" clip-rule="evenodd" fill="#FF2F00" width="0.191" height="51.282"/>
		</g>
		<g clip-path="url(#SVGID_2_)">
			
				<rect x="33.018" y="-5.404" transform="matrix(-0.8072 0.5903 -0.5903 -0.8072 71.7892 17.025)" fill-rule="evenodd" clip-rule="evenodd" fill="#FF2F00" width="0.191" height="51.282"/>
		</g>
		<g clip-path="url(#SVGID_2_)">
			
				<rect x="33.121" y="-5.479" transform="matrix(-0.8072 0.5903 -0.5903 -0.8072 71.9309 16.8282)" fill-rule="evenodd" clip-rule="evenodd" fill="#FF3100" width="0.191" height="51.282"/>
		</g>
		<g clip-path="url(#SVGID_2_)">
			
				<rect x="33.224" y="-5.554" transform="matrix(-0.8072 0.5903 -0.5903 -0.8072 72.0726 16.6311)" fill-rule="evenodd" clip-rule="evenodd" fill="#FF3100" width="0.191" height="51.282"/>
		</g>
		<g clip-path="url(#SVGID_2_)">
			
				<rect x="33.327" y="-5.63" transform="matrix(-0.8072 0.5903 -0.5903 -0.8072 72.2143 16.4341)" fill-rule="evenodd" clip-rule="evenodd" fill="#FF3100" width="0.191" height="51.282"/>
		</g>
		<g clip-path="url(#SVGID_2_)">
			
				<rect x="33.43" y="-5.705" transform="matrix(-0.8071 0.5904 -0.5904 -0.8071 72.3553 16.232)" fill-rule="evenodd" clip-rule="evenodd" fill="#FF3100" width="0.192" height="51.282"/>
		</g>
		<g clip-path="url(#SVGID_2_)">
			
				<rect x="33.533" y="-5.78" transform="matrix(-0.8072 0.5903 -0.5903 -0.8072 72.4977 16.0403)" fill-rule="evenodd" clip-rule="evenodd" fill="#FF3100" width="0.191" height="51.282"/>
		</g>
		<g clip-path="url(#SVGID_2_)">
			
				<rect x="33.636" y="-5.856" transform="matrix(-0.8072 0.5903 -0.5903 -0.8072 72.6392 15.8433)" fill-rule="evenodd" clip-rule="evenodd" fill="#FF3300" width="0.191" height="51.282"/>
		</g>
		<g clip-path="url(#SVGID_2_)">
			
				<rect x="33.739" y="-5.931" transform="matrix(-0.8072 0.5903 -0.5903 -0.8072 72.7809 15.6463)" fill-rule="evenodd" clip-rule="evenodd" fill="#FF3300" width="0.191" height="51.282"/>
		</g>
		<g clip-path="url(#SVGID_2_)">
			
				<rect x="33.842" y="-6.006" transform="matrix(-0.8072 0.5903 -0.5903 -0.8072 72.9227 15.4495)" fill-rule="evenodd" clip-rule="evenodd" fill="#FF3300" width="0.191" height="51.282"/>
		</g>
		<g clip-path="url(#SVGID_2_)">
			
				<rect x="33.945" y="-6.082" transform="matrix(-0.8074 0.59 -0.59 -0.8074 73.0658 15.2671)" fill-rule="evenodd" clip-rule="evenodd" fill="#FF3300" width="0.191" height="51.282"/>
		</g>
		<g clip-path="url(#SVGID_2_)">
			
				<rect x="34.048" y="-6.157" transform="matrix(-0.8072 0.5903 -0.5903 -0.8072 73.206 15.0555)" fill-rule="evenodd" clip-rule="evenodd" fill="#FF3300" width="0.191" height="51.282"/>
		</g>
		<g clip-path="url(#SVGID_2_)">
			
				<rect x="34.151" y="-6.232" transform="matrix(-0.8071 0.5904 -0.5904 -0.8071 73.3469 14.8521)" fill-rule="evenodd" clip-rule="evenodd" fill="#FF3300" width="0.191" height="51.282"/>
		</g>
		<g clip-path="url(#SVGID_2_)">
			
				<rect x="34.254" y="-6.308" transform="matrix(-0.8072 0.5903 -0.5903 -0.8072 73.4893 14.6618)" fill-rule="evenodd" clip-rule="evenodd" fill="#FF3300" width="0.191" height="51.282"/>
		</g>
		<g clip-path="url(#SVGID_2_)">
			
				<rect x="34.357" y="-6.383" transform="matrix(-0.8072 0.5903 -0.5903 -0.8072 73.631 14.4647)" fill-rule="evenodd" clip-rule="evenodd" fill="#FF3300" width="0.191" height="51.282"/>
		</g>
		<g clip-path="url(#SVGID_2_)">
			
				<rect x="34.46" y="-6.458" transform="matrix(-0.8069 0.5907 -0.5907 -0.8069 73.7702 14.2479)" fill-rule="evenodd" clip-rule="evenodd" fill="#FF3600" width="0.191" height="51.282"/>
		</g>
		<g clip-path="url(#SVGID_2_)">
			
				<rect x="34.563" y="-6.534" transform="matrix(-0.8071 0.5904 -0.5904 -0.8071 73.9136 14.0643)" fill-rule="evenodd" clip-rule="evenodd" fill="#FF3600" width="0.191" height="51.282"/>
		</g>
		<g clip-path="url(#SVGID_2_)">
			
				<rect x="34.666" y="-6.609" transform="matrix(-0.8073 0.5901 -0.5901 -0.8073 74.0573 13.8837)" fill-rule="evenodd" clip-rule="evenodd" fill="#FF3600" width="0.191" height="51.282"/>
		</g>
		<g clip-path="url(#SVGID_2_)">
			
				<rect x="34.769" y="-6.684" transform="matrix(-0.8072 0.5903 -0.5903 -0.8072 74.1978 13.6769)" fill-rule="evenodd" clip-rule="evenodd" fill="#FF3600" width="0.191" height="51.282"/>
		</g>
		<g clip-path="url(#SVGID_2_)">
			
				<rect x="34.872" y="-6.76" transform="matrix(-0.8072 0.5903 -0.5903 -0.8072 74.3394 13.4801)" fill-rule="evenodd" clip-rule="evenodd" fill="#FF3600" width="0.191" height="51.282"/>
		</g>
		<g clip-path="url(#SVGID_2_)">
			
				<rect x="34.975" y="-6.835" transform="matrix(-0.8072 0.5903 -0.5903 -0.8072 74.4811 13.2831)" fill-rule="evenodd" clip-rule="evenodd" fill="#FF3900" width="0.191" height="51.282"/>
		</g>
		<g clip-path="url(#SVGID_2_)">
			
				<rect x="35.078" y="-6.91" transform="matrix(-0.8072 0.5903 -0.5903 -0.8072 74.6228 13.0861)" fill-rule="evenodd" clip-rule="evenodd" fill="#FF3900" width="0.191" height="51.282"/>
		</g>
		<g clip-path="url(#SVGID_2_)">
			
				<rect x="35.181" y="-6.986" transform="matrix(-0.8072 0.5903 -0.5903 -0.8072 74.7646 12.8893)" fill-rule="evenodd" clip-rule="evenodd" fill="#FF3900" width="0.191" height="51.282"/>
		</g>
		<g clip-path="url(#SVGID_2_)">
			
				<rect x="35.284" y="-7.061" transform="matrix(-0.8072 0.5903 -0.5903 -0.8072 74.9062 12.6923)" fill-rule="evenodd" clip-rule="evenodd" fill="#FF3900" width="0.191" height="51.282"/>
		</g>
		<g clip-path="url(#SVGID_2_)">
			
				<rect x="35.387" y="-7.136" transform="matrix(-0.8074 0.59 -0.59 -0.8074 75.05 12.5101)" fill-rule="evenodd" clip-rule="evenodd" fill="#FF3900" width="0.191" height="51.282"/>
		</g>
		<g clip-path="url(#SVGID_2_)">
			
				<rect x="35.49" y="-7.212" transform="matrix(-0.8069 0.5907 -0.5907 -0.8069 75.1865 12.2783)" fill-rule="evenodd" clip-rule="evenodd" fill="#FF3900" width="0.191" height="51.282"/>
		</g>
		<g clip-path="url(#SVGID_2_)">
			
				<rect x="35.593" y="-7.287" transform="matrix(-0.8072 0.5903 -0.5903 -0.8072 75.3312 12.1015)" fill-rule="evenodd" clip-rule="evenodd" fill="#FF3900" width="0.191" height="51.282"/>
		</g>
		<g clip-path="url(#SVGID_2_)">
			
				<rect x="35.696" y="-7.362" transform="matrix(-0.8072 0.5903 -0.5903 -0.8072 75.4729 11.9045)" fill-rule="evenodd" clip-rule="evenodd" fill="#FF3B00" width="0.191" height="51.282"/>
		</g>
		<g clip-path="url(#SVGID_2_)">
			
				<rect x="35.799" y="-7.438" transform="matrix(-0.8072 0.5903 -0.5903 -0.8072 75.6145 11.7075)" fill-rule="evenodd" clip-rule="evenodd" fill="#FF3B00" width="0.191" height="51.282"/>
		</g>
		<g clip-path="url(#SVGID_2_)">
			
				<rect x="35.902" y="-7.513" transform="matrix(-0.8074 0.59 -0.59 -0.8074 75.7587 11.5255)" fill-rule="evenodd" clip-rule="evenodd" fill="#FF3B00" width="0.191" height="51.282"/>
		</g>
		<g clip-path="url(#SVGID_2_)">
			
				<rect x="36.006" y="-7.588" transform="matrix(-0.8072 0.5903 -0.5903 -0.8072 75.898 11.3137)" fill-rule="evenodd" clip-rule="evenodd" fill="#FF3B00" width="0.191" height="51.282"/>
		</g>
		<g clip-path="url(#SVGID_2_)">
			
				<rect x="36.108" y="-7.664" transform="matrix(-0.8072 0.5903 -0.5903 -0.8072 76.0395 11.1167)" fill-rule="evenodd" clip-rule="evenodd" fill="#FF3B00" width="0.191" height="51.282"/>
		</g>
		<g clip-path="url(#SVGID_2_)">
			
				<rect x="36.211" y="-7.739" transform="matrix(-0.8071 0.5904 -0.5904 -0.8071 76.1801 10.9132)" fill-rule="evenodd" clip-rule="evenodd" fill="#FF3E00" width="0.191" height="51.282"/>
		</g>
		<g clip-path="url(#SVGID_2_)">
			
				<rect x="36.314" y="-7.814" transform="matrix(-0.8072 0.5903 -0.5903 -0.8072 76.323 10.7229)" fill-rule="evenodd" clip-rule="evenodd" fill="#FF3E00" width="0.191" height="51.282"/>
		</g>
		<g clip-path="url(#SVGID_2_)">
			
				<rect x="36.418" y="-7.89" transform="matrix(-0.8072 0.5903 -0.5903 -0.8072 76.4647 10.5259)" fill-rule="evenodd" clip-rule="evenodd" fill="#FF3E00" width="0.191" height="51.282"/>
		</g>
		<g clip-path="url(#SVGID_2_)">
			
				<rect x="36.521" y="-7.965" transform="matrix(-0.8072 0.5903 -0.5903 -0.8072 76.6064 10.3289)" fill-rule="evenodd" clip-rule="evenodd" fill="#FF3E00" width="0.191" height="51.282"/>
		</g>
		<g clip-path="url(#SVGID_2_)">
			
				<rect x="36.623" y="-8.04" transform="matrix(-0.8073 0.5901 -0.5901 -0.8073 76.7495 10.1402)" fill-rule="evenodd" clip-rule="evenodd" fill="#FF3E00" width="0.192" height="51.282"/>
		</g>
		<g clip-path="url(#SVGID_2_)">
			
				<rect x="36.727" y="-8.116" transform="matrix(-0.8072 0.5903 -0.5903 -0.8072 76.8898 9.9351)" fill-rule="evenodd" clip-rule="evenodd" fill="#FF3E00" width="0.191" height="51.282"/>
		</g>
		<g clip-path="url(#SVGID_2_)">
			
				<rect x="36.83" y="-8.191" transform="matrix(-0.8072 0.5903 -0.5903 -0.8072 77.0314 9.7381)" fill-rule="evenodd" clip-rule="evenodd" fill="#FF3E00" width="0.191" height="51.282"/>
		</g>
		<g clip-path="url(#SVGID_2_)">
			
				<rect x="36.933" y="-8.266" transform="matrix(-0.8072 0.5903 -0.5903 -0.8072 77.1731 9.5413)" fill-rule="evenodd" clip-rule="evenodd" fill="#FF3E00" width="0.191" height="51.282"/>
		</g>
		<g clip-path="url(#SVGID_2_)">
			
				<rect x="37.036" y="-8.342" transform="matrix(-0.8071 0.5904 -0.5904 -0.8071 77.3134 9.3375)" fill-rule="evenodd" clip-rule="evenodd" fill="#FF4000" width="0.191" height="51.282"/>
		</g>
		<g clip-path="url(#SVGID_2_)">
			
				<rect x="37.139" y="-8.417" transform="matrix(-0.8072 0.5903 -0.5903 -0.8072 77.4564 9.1473)" fill-rule="evenodd" clip-rule="evenodd" fill="#FF4000" width="0.191" height="51.282"/>
		</g>
		<g clip-path="url(#SVGID_2_)">
			
				<rect x="37.242" y="-8.492" transform="matrix(-0.8072 0.5903 -0.5903 -0.8072 77.5982 8.9505)" fill-rule="evenodd" clip-rule="evenodd" fill="#FF4000" width="0.191" height="51.282"/>
		</g>
		<g clip-path="url(#SVGID_2_)">
			
				<rect x="37.345" y="-8.568" transform="matrix(-0.8072 0.5903 -0.5903 -0.8072 77.7398 8.7535)" fill-rule="evenodd" clip-rule="evenodd" fill="#FF4000" width="0.191" height="51.282"/>
		</g>
		<g clip-path="url(#SVGID_2_)">
			
				<rect x="37.448" y="-8.643" transform="matrix(-0.8072 0.5903 -0.5903 -0.8072 77.8815 8.5565)" fill-rule="evenodd" clip-rule="evenodd" fill="#FF4000" width="0.191" height="51.282"/>
		</g>
		<g clip-path="url(#SVGID_2_)">
			
				<rect x="37.551" y="-8.718" transform="matrix(-0.8072 0.5903 -0.5903 -0.8072 78.0231 8.3595)" fill-rule="evenodd" clip-rule="evenodd" fill="#FF4000" width="0.191" height="51.282"/>
		</g>
		<g clip-path="url(#SVGID_2_)">
			
				<rect x="37.654" y="-8.794" transform="matrix(-0.8072 0.5903 -0.5903 -0.8072 78.1648 8.1627)" fill-rule="evenodd" clip-rule="evenodd" fill="#FF4000" width="0.191" height="51.282"/>
		</g>
		<g clip-path="url(#SVGID_2_)">
			
				<rect x="37.757" y="-8.869" transform="matrix(-0.8072 0.5903 -0.5903 -0.8072 78.3065 7.9657)" fill-rule="evenodd" clip-rule="evenodd" fill="#FF4300" width="0.191" height="51.282"/>
		</g>
		<g clip-path="url(#SVGID_2_)">
			
				<rect x="37.86" y="-8.944" transform="matrix(-0.8074 0.59 -0.59 -0.8074 78.4514 7.7838)" fill-rule="evenodd" clip-rule="evenodd" fill="#FF4300" width="0.191" height="51.282"/>
		</g>
		<g clip-path="url(#SVGID_2_)">
			
				<rect x="37.963" y="-9.02" transform="matrix(-0.8072 0.5903 -0.5903 -0.8072 78.5899 7.5719)" fill-rule="evenodd" clip-rule="evenodd" fill="#FF4300" width="0.191" height="51.282"/>
		</g>
		<g clip-path="url(#SVGID_2_)">
			
				<rect x="38.066" y="-9.095" transform="matrix(-0.8072 0.5903 -0.5903 -0.8072 78.7315 7.3749)" fill-rule="evenodd" clip-rule="evenodd" fill="#FF4300" width="0.191" height="51.282"/>
		</g>
		<g clip-path="url(#SVGID_2_)">
			
				<rect x="38.169" y="-9.17" transform="matrix(-0.8072 0.5903 -0.5903 -0.8072 78.8732 7.1779)" fill-rule="evenodd" clip-rule="evenodd" fill="#FF4300" width="0.191" height="51.282"/>
		</g>
		<g clip-path="url(#SVGID_2_)">
			
				<rect x="38.272" y="-9.246" transform="matrix(-0.8071 0.5904 -0.5904 -0.8071 79.0133 6.9741)" fill-rule="evenodd" clip-rule="evenodd" fill="#FF4500" width="0.191" height="51.282"/>
		</g>
		<g clip-path="url(#SVGID_2_)">
			
				<rect x="38.375" y="-9.321" transform="matrix(-0.8072 0.5903 -0.5903 -0.8072 79.1566 6.7841)" fill-rule="evenodd" clip-rule="evenodd" fill="#FF4500" width="0.191" height="51.282"/>
		</g>
		<g clip-path="url(#SVGID_2_)">
			
				<rect x="38.478" y="-9.396" transform="matrix(-0.8072 0.5903 -0.5903 -0.8072 79.2983 6.5871)" fill-rule="evenodd" clip-rule="evenodd" fill="#FF4500" width="0.191" height="51.282"/>
		</g>
		<g clip-path="url(#SVGID_2_)">
			
				<rect x="38.581" y="-9.472" transform="matrix(-0.8074 0.59 -0.59 -0.8074 79.4435 6.4052)" fill-rule="evenodd" clip-rule="evenodd" fill="#FF4500" width="0.191" height="51.282"/>
		</g>
		<g clip-path="url(#SVGID_2_)">
			
				<rect x="38.684" y="-9.547" transform="matrix(-0.8071 0.5904 -0.5904 -0.8071 79.5801 6.1863)" fill-rule="evenodd" clip-rule="evenodd" fill="#FF4500" width="0.191" height="51.282"/>
		</g>
		<g clip-path="url(#SVGID_2_)">
			
				<rect x="38.787" y="-9.622" transform="matrix(-0.8072 0.5903 -0.5903 -0.8072 79.7233 5.9963)" fill-rule="evenodd" clip-rule="evenodd" fill="#FF4500" width="0.191" height="51.282"/>
		</g>
		<g clip-path="url(#SVGID_2_)">
			
				<rect x="38.89" y="-9.698" transform="matrix(-0.8072 0.5903 -0.5903 -0.8072 79.865 5.7993)" fill-rule="evenodd" clip-rule="evenodd" fill="#FF4500" width="0.191" height="51.282"/>
		</g>
		<g clip-path="url(#SVGID_2_)">
			
				<rect x="38.993" y="-9.773" transform="matrix(-0.8072 0.5903 -0.5903 -0.8072 80.0067 5.6025)" fill-rule="evenodd" clip-rule="evenodd" fill="#FF4500" width="0.191" height="51.282"/>
		</g>
		<g clip-path="url(#SVGID_2_)">
			
				<rect x="39.096" y="-9.848" transform="matrix(-0.8071 0.5904 -0.5904 -0.8071 80.1466 5.3985)" fill-rule="evenodd" clip-rule="evenodd" fill="#FF4800" width="0.191" height="51.282"/>
		</g>
		<g clip-path="url(#SVGID_2_)">
			
				<rect x="39.199" y="-9.924" transform="matrix(-0.8072 0.5903 -0.5903 -0.8072 80.2901 5.2085)" fill-rule="evenodd" clip-rule="evenodd" fill="#FF4800" width="0.191" height="51.282"/>
		</g>
		<g clip-path="url(#SVGID_2_)">
			
				<rect x="39.302" y="-9.999" transform="matrix(-0.8072 0.5903 -0.5903 -0.8072 80.4316 5.0116)" fill-rule="evenodd" clip-rule="evenodd" fill="#FF4800" width="0.191" height="51.282"/>
		</g>
		<g clip-path="url(#SVGID_2_)">
			
				<rect x="39.405" y="-10.074" transform="matrix(-0.8072 0.5903 -0.5903 -0.8072 80.5735 4.8146)" fill-rule="evenodd" clip-rule="evenodd" fill="#FF4800" width="0.191" height="51.282"/>
		</g>
		<g clip-path="url(#SVGID_2_)">
			
				<rect x="39.508" y="-10.15" transform="matrix(-0.8072 0.5903 -0.5903 -0.8072 80.7151 4.6177)" fill-rule="evenodd" clip-rule="evenodd" fill="#FF4800" width="0.191" height="51.282"/>
		</g>
		<g clip-path="url(#SVGID_2_)">
			
				<rect x="39.611" y="-10.225" transform="matrix(-0.8072 0.5903 -0.5903 -0.8072 80.8567 4.4207)" fill-rule="evenodd" clip-rule="evenodd" fill="#FF4A00" width="0.191" height="51.282"/>
		</g>
		<g clip-path="url(#SVGID_2_)">
			
				<rect x="39.714" y="-10.3" transform="matrix(-0.8072 0.5903 -0.5903 -0.8072 80.9985 4.2239)" fill-rule="evenodd" clip-rule="evenodd" fill="#FF4A00" width="0.191" height="51.282"/>
		</g>
		<g clip-path="url(#SVGID_2_)">
			
				<rect x="39.817" y="-10.376" transform="matrix(-0.8074 0.59 -0.59 -0.8074 81.1442 4.0422)" fill-rule="evenodd" clip-rule="evenodd" fill="#FF4A00" width="0.191" height="51.282"/>
		</g>
		<g clip-path="url(#SVGID_2_)">
			
				<rect x="39.92" y="-10.451" transform="matrix(-0.8072 0.5903 -0.5903 -0.8072 81.2818 3.8298)" fill-rule="evenodd" clip-rule="evenodd" fill="#FF4A00" width="0.191" height="51.282"/>
		</g>
		<g clip-path="url(#SVGID_2_)">
			
				<rect x="40.023" y="-10.526" transform="matrix(-0.8072 0.5903 -0.5903 -0.8072 81.4235 3.633)" fill-rule="evenodd" clip-rule="evenodd" fill="#FF4A00" width="0.191" height="51.282"/>
		</g>
		<g clip-path="url(#SVGID_2_)">
			
				<rect x="40.126" y="-10.601" transform="matrix(-0.8072 0.5903 -0.5903 -0.8072 81.5651 3.4361)" fill-rule="evenodd" clip-rule="evenodd" fill="#FF4A00" width="0.191" height="51.282"/>
		</g>
		<g clip-path="url(#SVGID_2_)">
			
				<rect x="40.229" y="-10.677" transform="matrix(-0.8072 0.5903 -0.5903 -0.8072 81.7068 3.239)" fill-rule="evenodd" clip-rule="evenodd" fill="#FF4A00" width="0.191" height="51.282"/>
		</g>
		<g clip-path="url(#SVGID_2_)">
			
				<rect x="40.332" y="-10.752" transform="matrix(-0.8069 0.5907 -0.5907 -0.8069 81.8425 3.0211)" fill-rule="evenodd" clip-rule="evenodd" fill="#FF4D00" width="0.191" height="51.282"/>
		</g>
		<g clip-path="url(#SVGID_2_)">
			
				<rect x="40.435" y="-10.827" transform="matrix(-0.8072 0.5903 -0.5903 -0.8072 81.9902 2.8452)" fill-rule="evenodd" clip-rule="evenodd" fill="#FF4D00" width="0.191" height="51.282"/>
		</g>
		<g clip-path="url(#SVGID_2_)">
			
				<rect x="40.538" y="-10.903" transform="matrix(-0.8074 0.59 -0.59 -0.8074 82.1363 2.6637)" fill-rule="evenodd" clip-rule="evenodd" fill="#FF4D00" width="0.191" height="51.282"/>
		</g>
		<g clip-path="url(#SVGID_2_)">
			
				<rect x="40.641" y="-10.978" transform="matrix(-0.8072 0.5903 -0.5903 -0.8072 82.2736 2.4512)" fill-rule="evenodd" clip-rule="evenodd" fill="#FF4D00" width="0.191" height="51.282"/>
		</g>
		<g clip-path="url(#SVGID_2_)">
			
				<rect x="40.744" y="-11.053" transform="matrix(-0.8071 0.5904 -0.5904 -0.8071 82.4132 2.2474)" fill-rule="evenodd" clip-rule="evenodd" fill="#FF4D00" width="0.191" height="51.282"/>
		</g>
		<g clip-path="url(#SVGID_2_)">
			
				<rect x="40.847" y="-11.129" transform="matrix(-0.8072 0.5903 -0.5903 -0.8072 82.5569 2.0575)" fill-rule="evenodd" clip-rule="evenodd" fill="#FF4F00" width="0.191" height="51.282"/>
		</g>
		<g clip-path="url(#SVGID_2_)">
			
				<rect x="40.95" y="-11.204" transform="matrix(-0.8072 0.5903 -0.5903 -0.8072 82.6986 1.8604)" fill-rule="evenodd" clip-rule="evenodd" fill="#FF4F00" width="0.191" height="51.282"/>
		</g>
		<g clip-path="url(#SVGID_2_)">
			
				<rect x="41.053" y="-11.279" transform="matrix(-0.8072 0.5903 -0.5903 -0.8072 82.8404 1.6636)" fill-rule="evenodd" clip-rule="evenodd" fill="#FF4F00" width="0.191" height="51.282"/>
		</g>
		<g clip-path="url(#SVGID_2_)">
			
				<rect x="41.156" y="-11.355" transform="matrix(-0.8071 0.5904 -0.5904 -0.8071 82.9798 1.4596)" fill-rule="evenodd" clip-rule="evenodd" fill="#FF4F00" width="0.191" height="51.282"/>
		</g>
		<g clip-path="url(#SVGID_2_)">
			
				<rect x="41.259" y="-11.43" transform="matrix(-0.8072 0.5903 -0.5903 -0.8072 83.1236 1.2697)" fill-rule="evenodd" clip-rule="evenodd" fill="#FF4F00" width="0.191" height="51.282"/>
		</g>
		<g clip-path="url(#SVGID_2_)">
			
				<rect x="41.362" y="-11.505" transform="matrix(-0.8069 0.5907 -0.5907 -0.8069 83.2587 1.0515)" fill-rule="evenodd" clip-rule="evenodd" fill="#FF4F00" width="0.191" height="51.282"/>
		</g>
		<g clip-path="url(#SVGID_2_)">
			
				<rect x="41.465" y="-11.581" transform="matrix(-0.8072 0.5903 -0.5903 -0.8072 83.407 0.8758)" fill-rule="evenodd" clip-rule="evenodd" fill="#FF4F00" width="0.191" height="51.282"/>
		</g>
		<g clip-path="url(#SVGID_2_)">
			
				<rect x="41.568" y="-11.656" transform="matrix(-0.8072 0.5903 -0.5903 -0.8072 83.5487 0.6788)" fill-rule="evenodd" clip-rule="evenodd" fill="#FF4F00" width="0.191" height="51.282"/>
		</g>
		<g clip-path="url(#SVGID_2_)">
			
				<rect x="41.671" y="-11.732" transform="matrix(-0.8072 0.5903 -0.5903 -0.8072 83.6904 0.4818)" fill-rule="evenodd" clip-rule="evenodd" fill="#FF5200" width="0.191" height="51.282"/>
		</g>
		<g clip-path="url(#SVGID_2_)">
			
				<rect x="41.774" y="-11.807" transform="matrix(-0.8074 0.59 -0.59 -0.8074 83.837 0.3007)" fill-rule="evenodd" clip-rule="evenodd" fill="#FF5200" width="0.191" height="51.282"/>
		</g>
		<g clip-path="url(#SVGID_2_)">
			
				<rect x="41.877" y="-11.882" transform="matrix(-0.8072 0.5903 -0.5903 -0.8072 83.9738 0.088)" fill-rule="evenodd" clip-rule="evenodd" fill="#FF5200" width="0.191" height="51.282"/>
		</g>
		<g clip-path="url(#SVGID_2_)">
			
				<rect x="41.98" y="-11.958" transform="matrix(-0.8072 0.5903 -0.5903 -0.8072 84.1153 -0.109)" fill-rule="evenodd" clip-rule="evenodd" fill="#FF5200" width="0.191" height="51.282"/>
		</g>
		<g clip-path="url(#SVGID_2_)">
			
				<rect x="42.083" y="-12.033" transform="matrix(-0.8072 0.5903 -0.5903 -0.8072 84.2571 -0.3058)" fill-rule="evenodd" clip-rule="evenodd" fill="#FF5200" width="0.191" height="51.282"/>
		</g>
		<g clip-path="url(#SVGID_2_)">
			
				<rect x="42.186" y="-12.108" transform="matrix(-0.8071 0.5904 -0.5904 -0.8071 84.3971 -0.508)" fill-rule="evenodd" clip-rule="evenodd" fill="#FF5400" width="0.191" height="51.282"/>
		</g>
		<g clip-path="url(#SVGID_2_)">
			
				<rect x="42.289" y="-12.183" transform="matrix(-0.8072 0.5903 -0.5903 -0.8072 84.5404 -0.6998)" fill-rule="evenodd" clip-rule="evenodd" fill="#FF5400" width="0.191" height="51.282"/>
		</g>
		<g clip-path="url(#SVGID_2_)">
			
				<rect x="42.392" y="-12.259" transform="matrix(-0.8069 0.5907 -0.5907 -0.8069 84.6749 -0.9182)" fill-rule="evenodd" clip-rule="evenodd" fill="#FF5400" width="0.191" height="51.282"/>
		</g>
		<g clip-path="url(#SVGID_2_)">
			
				<rect x="42.495" y="-12.334" transform="matrix(-0.8074 0.59 -0.59 -0.8074 84.8291 -1.0779)" fill-rule="evenodd" clip-rule="evenodd" fill="#FF5400" width="0.191" height="51.282"/>
		</g>
		<g clip-path="url(#SVGID_2_)">
			
				<rect x="42.598" y="-12.409" transform="matrix(-0.8072 0.5903 -0.5903 -0.8072 84.9656 -1.2906)" fill-rule="evenodd" clip-rule="evenodd" fill="#FF5400" width="0.191" height="51.282"/>
		</g>
		<g clip-path="url(#SVGID_2_)">
			
				<rect x="42.701" y="-12.485" transform="matrix(-0.8072 0.5903 -0.5903 -0.8072 85.1071 -1.4876)" fill-rule="evenodd" clip-rule="evenodd" fill="#FF5400" width="0.191" height="51.282"/>
		</g>
		<g clip-path="url(#SVGID_2_)">
			
				<rect x="42.804" y="-12.56" transform="matrix(-0.8071 0.5904 -0.5904 -0.8071 85.2464 -1.6915)" fill-rule="evenodd" clip-rule="evenodd" fill="#FF5400" width="0.191" height="51.282"/>
		</g>
		<g clip-path="url(#SVGID_2_)">
			
				<rect x="42.907" y="-12.635" transform="matrix(-0.8072 0.5903 -0.5903 -0.8072 85.3906 -1.8814)" fill-rule="evenodd" clip-rule="evenodd" fill="#FF5700" width="0.191" height="51.282"/>
		</g>
		<g clip-path="url(#SVGID_2_)">
			
				<rect x="43.01" y="-12.711" transform="matrix(-0.8073 0.5901 -0.5901 -0.8073 85.5359 -2.0678)" fill-rule="evenodd" clip-rule="evenodd" fill="#FF5700" width="0.191" height="51.282"/>
		</g>
		<g clip-path="url(#SVGID_2_)">
			
				<rect x="43.113" y="-12.786" transform="matrix(-0.8072 0.5903 -0.5903 -0.8072 85.674 -2.2752)" fill-rule="evenodd" clip-rule="evenodd" fill="#FF5700" width="0.191" height="51.282"/>
		</g>
		<g clip-path="url(#SVGID_2_)">
			
				<rect x="43.216" y="-12.861" transform="matrix(-0.8071 0.5904 -0.5904 -0.8071 85.813 -2.4794)" fill-rule="evenodd" clip-rule="evenodd" fill="#FF5700" width="0.191" height="51.282"/>
		</g>
		<g clip-path="url(#SVGID_2_)">
			
				<rect x="43.319" y="-12.937" transform="matrix(-0.8072 0.5903 -0.5903 -0.8072 85.9572 -2.6692)" fill-rule="evenodd" clip-rule="evenodd" fill="#FF5700" width="0.191" height="51.282"/>
		</g>
		<g clip-path="url(#SVGID_2_)">
			
				<rect x="43.422" y="-13.012" transform="matrix(-0.8072 0.5903 -0.5903 -0.8072 86.0989 -2.8662)" fill-rule="evenodd" clip-rule="evenodd" fill="#FF5A00" width="0.191" height="51.282"/>
		</g>
		<g clip-path="url(#SVGID_2_)">
			
				<rect x="43.525" y="-13.087" transform="matrix(-0.8072 0.5903 -0.5903 -0.8072 86.2406 -3.063)" fill-rule="evenodd" clip-rule="evenodd" fill="#FF5A00" width="0.191" height="51.282"/>
		</g>
		<g clip-path="url(#SVGID_2_)">
			
				<rect x="43.628" y="-13.163" transform="matrix(-0.8072 0.5903 -0.5903 -0.8072 86.3823 -3.26)" fill-rule="evenodd" clip-rule="evenodd" fill="#FF5A00" width="0.191" height="51.282"/>
		</g>
		<g clip-path="url(#SVGID_2_)">
			
				<rect x="43.731" y="-13.238" transform="matrix(-0.8074 0.59 -0.59 -0.8074 86.5298 -3.4411)" fill-rule="evenodd" clip-rule="evenodd" fill="#FF5A00" width="0.191" height="51.282"/>
		</g>
		<g clip-path="url(#SVGID_2_)">
			
				<rect x="43.834" y="-13.313" transform="matrix(-0.8072 0.5903 -0.5903 -0.8072 86.6657 -3.6538)" fill-rule="evenodd" clip-rule="evenodd" fill="#FF5A00" width="0.191" height="51.282"/>
		</g>
		<g clip-path="url(#SVGID_2_)">
			
				<rect x="43.937" y="-13.389" transform="matrix(-0.8072 0.5903 -0.5903 -0.8072 86.8073 -3.8508)" fill-rule="evenodd" clip-rule="evenodd" fill="#FF5A00" width="0.191" height="51.282"/>
		</g>
		<g clip-path="url(#SVGID_2_)">
			
				<rect x="44.04" y="-13.464" transform="matrix(-0.8072 0.5903 -0.5903 -0.8072 86.949 -4.0478)" fill-rule="evenodd" clip-rule="evenodd" fill="#FF5A00" width="0.191" height="51.282"/>
		</g>
		<g clip-path="url(#SVGID_2_)">
			
				<rect x="44.143" y="-13.539" transform="matrix(-0.8072 0.5903 -0.5903 -0.8072 87.0907 -4.2446)" fill-rule="evenodd" clip-rule="evenodd" fill="#FF5A00" width="0.191" height="51.282"/>
		</g>
		<g clip-path="url(#SVGID_2_)">
			
				<rect x="44.246" y="-13.615" transform="matrix(-0.8072 0.5903 -0.5903 -0.8072 87.2324 -4.4416)" fill-rule="evenodd" clip-rule="evenodd" fill="#FF5C00" width="0.191" height="51.282"/>
		</g>
		<g clip-path="url(#SVGID_2_)">
			
				<rect x="44.349" y="-13.69" transform="matrix(-0.8072 0.5903 -0.5903 -0.8072 87.3741 -4.6386)" fill-rule="evenodd" clip-rule="evenodd" fill="#FF5C00" width="0.191" height="51.282"/>
		</g>
		<g clip-path="url(#SVGID_2_)">
			
				<rect x="44.452" y="-13.765" transform="matrix(-0.8074 0.59 -0.59 -0.8074 87.5219 -4.8196)" fill-rule="evenodd" clip-rule="evenodd" fill="#FF5C00" width="0.191" height="51.282"/>
		</g>
		<g clip-path="url(#SVGID_2_)">
			
				<rect x="44.555" y="-13.841" transform="matrix(-0.8072 0.5903 -0.5903 -0.8072 87.6575 -5.0325)" fill-rule="evenodd" clip-rule="evenodd" fill="#FF5C00" width="0.191" height="51.282"/>
		</g>
		<g clip-path="url(#SVGID_2_)">
			
				<rect x="44.658" y="-13.916" transform="matrix(-0.8072 0.5903 -0.5903 -0.8072 87.7991 -5.2294)" fill-rule="evenodd" clip-rule="evenodd" fill="#FF5C00" width="0.191" height="51.282"/>
		</g>
		<g clip-path="url(#SVGID_2_)">
			
				<rect x="44.761" y="-13.991" transform="matrix(-0.8072 0.5903 -0.5903 -0.8072 87.9408 -5.4264)" fill-rule="evenodd" clip-rule="evenodd" fill="#FF5C00" width="0.191" height="51.282"/>
		</g>
		<g clip-path="url(#SVGID_2_)">
			
				<rect x="44.864" y="-14.067" transform="matrix(-0.807 0.5905 -0.5905 -0.807 88.0775 -5.6359)" fill-rule="evenodd" clip-rule="evenodd" fill="#FF5C00" width="0.191" height="51.282"/>
		</g>
		<g clip-path="url(#SVGID_2_)">
			
				<rect x="44.967" y="-14.142" transform="matrix(-0.8074 0.59 -0.59 -0.8074 88.2305 -5.8041)" fill-rule="evenodd" clip-rule="evenodd" fill="#FF5F00" width="0.191" height="51.282"/>
		</g>
		<g clip-path="url(#SVGID_2_)">
			
				<rect x="45.07" y="-14.217" transform="matrix(-0.8072 0.5903 -0.5903 -0.8072 88.3659 -6.0172)" fill-rule="evenodd" clip-rule="evenodd" fill="#FF5F00" width="0.191" height="51.282"/>
		</g>
		<g clip-path="url(#SVGID_2_)">
			
				<rect x="45.173" y="-14.293" transform="matrix(-0.8072 0.5903 -0.5903 -0.8072 88.5074 -6.2141)" fill-rule="evenodd" clip-rule="evenodd" fill="#FF5F00" width="0.191" height="51.282"/>
		</g>
		<g clip-path="url(#SVGID_2_)">
			
				<rect x="45.276" y="-14.368" transform="matrix(-0.8071 0.5904 -0.5904 -0.8071 88.6462 -6.4183)" fill-rule="evenodd" clip-rule="evenodd" fill="#FF5F00" width="0.191" height="51.282"/>
		</g>
		<g clip-path="url(#SVGID_2_)">
			
				<rect x="45.379" y="-14.443" transform="matrix(-0.8072 0.5903 -0.5903 -0.8072 88.7909 -6.608)" fill-rule="evenodd" clip-rule="evenodd" fill="#FF5F00" width="0.191" height="51.282"/>
		</g>
		<g clip-path="url(#SVGID_2_)">
			
				<rect x="45.482" y="-14.519" transform="matrix(-0.8072 0.5903 -0.5903 -0.8072 88.9325 -6.805)" fill-rule="evenodd" clip-rule="evenodd" fill="#FF6100" width="0.191" height="51.282"/>
		</g>
		<g clip-path="url(#SVGID_2_)">
			
				<rect x="45.585" y="-14.594" transform="matrix(-0.8072 0.5903 -0.5903 -0.8072 89.0743 -7.0018)" fill-rule="evenodd" clip-rule="evenodd" fill="#FF6100" width="0.191" height="51.282"/>
		</g>
		<g clip-path="url(#SVGID_2_)">
			
				<rect x="45.688" y="-14.669" transform="matrix(-0.8072 0.5902 -0.5902 -0.8072 89.2173 -7.1954)" fill-rule="evenodd" clip-rule="evenodd" fill="#FF6100" width="0.191" height="51.282"/>
		</g>
		<g clip-path="url(#SVGID_2_)">
			
				<rect x="45.791" y="-14.745" transform="matrix(-0.8072 0.5903 -0.5903 -0.8072 89.3576 -7.3958)" fill-rule="evenodd" clip-rule="evenodd" fill="#FF6100" width="0.191" height="51.282"/>
		</g>
		<g clip-path="url(#SVGID_2_)">
			
				<rect x="45.894" y="-14.82" transform="matrix(-0.8072 0.5903 -0.5903 -0.8072 89.4993 -7.5926)" fill-rule="evenodd" clip-rule="evenodd" fill="#FF6100" width="0.191" height="51.282"/>
		</g>
		<g clip-path="url(#SVGID_2_)">
			
				<rect x="45.997" y="-14.895" transform="matrix(-0.8072 0.5903 -0.5903 -0.8072 89.6409 -7.7896)" fill-rule="evenodd" clip-rule="evenodd" fill="#FF6100" width="0.191" height="51.282"/>
		</g>
		<g clip-path="url(#SVGID_2_)">
			
				<rect x="46.1" y="-14.971" transform="matrix(-0.8072 0.5903 -0.5903 -0.8072 89.7826 -7.9866)" fill-rule="evenodd" clip-rule="evenodd" fill="#FF6100" width="0.191" height="51.282"/>
		</g>
		<g clip-path="url(#SVGID_2_)">
			
				<rect x="46.203" y="-15.046" transform="matrix(-0.8072 0.5903 -0.5903 -0.8072 89.9243 -8.1835)" fill-rule="evenodd" clip-rule="evenodd" fill="#FF6100" width="0.191" height="51.282"/>
		</g>
		<g clip-path="url(#SVGID_2_)">
			
				<rect x="46.306" y="-15.121" transform="matrix(-0.8072 0.5903 -0.5903 -0.8072 90.066 -8.3804)" fill-rule="evenodd" clip-rule="evenodd" fill="#FF6400" width="0.191" height="51.282"/>
		</g>
		<g clip-path="url(#SVGID_2_)">
			
				<rect x="46.409" y="-15.197" transform="matrix(-0.8074 0.59 -0.59 -0.8074 90.2147 -8.5612)" fill-rule="evenodd" clip-rule="evenodd" fill="#FF6400" width="0.191" height="51.282"/>
		</g>
		<g clip-path="url(#SVGID_2_)">
			
				<rect x="46.512" y="-15.272" transform="matrix(-0.8072 0.5903 -0.5903 -0.8072 90.3494 -8.7745)" fill-rule="evenodd" clip-rule="evenodd" fill="#FF6400" width="0.191" height="51.282"/>
		</g>
		<g clip-path="url(#SVGID_2_)">
			
				<rect x="46.615" y="-15.347" transform="matrix(-0.8072 0.5903 -0.5903 -0.8072 90.491 -8.9712)" fill-rule="evenodd" clip-rule="evenodd" fill="#FF6400" width="0.191" height="51.282"/>
		</g>
		<g clip-path="url(#SVGID_2_)">
			
				<rect x="46.718" y="-15.423" transform="matrix(-0.8071 0.5904 -0.5904 -0.8071 90.6303 -9.1737)" fill-rule="evenodd" clip-rule="evenodd" fill="#FF6400" width="0.191" height="51.282"/>
		</g>
		<g clip-path="url(#SVGID_2_)">
			
				<rect x="46.821" y="-15.498" transform="matrix(-0.8072 0.5903 -0.5903 -0.8072 90.7744 -9.3653)" fill-rule="evenodd" clip-rule="evenodd" fill="#FF6600" width="0.191" height="51.282"/>
		</g>
		<g clip-path="url(#SVGID_2_)">
			
				<rect x="46.924" y="-15.573" transform="matrix(-0.8073 0.5901 -0.5901 -0.8073 90.92 -9.5531)" fill-rule="evenodd" clip-rule="evenodd" fill="#FF6600" width="0.192" height="51.282"/>
		</g>
		<g clip-path="url(#SVGID_2_)">
			
				<rect x="47.027" y="-15.649" transform="matrix(-0.8072 0.5903 -0.5903 -0.8072 91.0578 -9.7591)" fill-rule="evenodd" clip-rule="evenodd" fill="#FF6600" width="0.191" height="51.282"/>
		</g>
		<g clip-path="url(#SVGID_2_)">
			
				<rect x="46.009" y="-19.155" transform="matrix(-0.8072 0.5903 -0.5903 -0.8072 97.6518 -18.9254)" fill-rule="evenodd" clip-rule="evenodd" fill="#FF6600" width="11.815" height="51.282"/>
		</g>
	</g>
</g>
<path fill-rule="evenodd" clip-rule="evenodd" fill="#FFFFFF" d="M44.96,18.303c-5.166,0.779-10.068,1.244-14.029,3.016
	c-3.68,1.646-6.549,4.421-8.062,9.623l-3.216-0.034C22.834,19.684,32.383,16.154,44.96,18.303z"/>
<path fill-rule="evenodd" clip-rule="evenodd" fill="#FFFFFF" d="M26.454,22.429c3.062,4.778,3.439,8.812,3.179,14.647
	c-3.452,1.902-5.437,2.737-7.39,6.15c2.327-1.199,6.673-3.279,9.961-3.825c1.226-3.461,2.097-7.007,1.904-10.998
	c-0.121-2.507-1.187-5.427-2.199-8.433C30.854,18.242,26.444,22.312,26.454,22.429z"/>
<path fill-rule="evenodd" clip-rule="evenodd" fill="#FFFFFF" d="M33.35,29.036c3.123,1.221,5.47,4.32,7.309,7.225
	c-1.775,3.686-2.852,6.679-3.87,10.861c-0.519-3.494-0.66-6.93,0.626-10.145c-1.08-1.724-2.714-2.949-4.895-3.681
	C32.797,31.876,33.073,30.456,33.35,29.036z"/>
<g>
	<path fill-rule="evenodd" clip-rule="evenodd" fill="#FFFFFF" d="M44.531,9.125c3.996-0.914,7.088,0.033,5.742,0.41l-13.925,3.907
		C32.515,14.518,40.535,10.039,44.531,9.125z"/>
	<path fill-rule="evenodd" clip-rule="evenodd" fill="#FFFFFF" d="M44.294,10.903c0,0-1.303,5.943-1.415,6.376
		c-0.112,0.432,0.569,0.735,1.386-0.369c0.817-1.104,2.384-6.668,2.384-6.668L44.294,10.903z"/>
	<path fill-rule="evenodd" clip-rule="evenodd" fill="#FFFFFF" d="M44.523,10.042c0,0-2.04-2.921-2.206-3.132
		c-0.165-0.21,0.47-0.453,1.418,0.017c0.948,0.47,3.202,3.161,3.202,3.161L44.523,10.042z"/>
	<path fill-rule="evenodd" clip-rule="evenodd" fill="#FFFFFF" d="M35.592,13.499c0,0-0.254,1.328-0.313,1.556
		c-0.059,0.227,0.3,0.387,0.73-0.194c0.43-0.581,1.002-1.724,1.002-1.724L35.592,13.499z"/>
	<path fill-rule="evenodd" clip-rule="evenodd" fill="#FFFFFF" d="M35.655,13.495c0,0-1.553-1.103-1.734-1.208
		c-0.181-0.105,0.033-0.303,0.701-0.222c0.668,0.081,2.301,0.708,2.301,0.708L35.655,13.495z"/>
	<path fill-rule="evenodd" clip-rule="evenodd" fill="#FFFFFF" d="M35.968,12.96c0,0-0.381-1.147-0.458-1.341
		c-0.077-0.194,0.177-0.386,0.59,0.071c0.413,0.457,1.013,1.395,1.013,1.395L35.968,12.96z"/>
</g>
<path fill-rule="evenodd" clip-rule="evenodd" fill="#FFFFFF" d="M31.049,13.552c0.264,6.681-3.605,8.342-7.819,5.637
	c-0.148-0.988,1.843-4.051,5.264-3.098c-1.495,0.6-2.705,1.681-3.042,2.693c2.343,0.753,3.701-0.473,4.001-4.114
	c-2.274-0.406-4.698-0.042-6.617,1.377c0.991-2.824,4.055-4.109,8.205-2.511c-0.005,0-0.011,0.002-0.017,0.003
	C31.037,13.544,31.045,13.549,31.049,13.552z"/>
</svg>
