<?xml version="1.0" encoding="utf-8"?>
<!-- Generator: Adobe Illustrator 17.0.0, SVG Export Plug-In . SVG Version: 6.00 Build 0)  -->
<!DOCTYPE svg PUBLIC "-//W3C//DTD SVG 1.1//EN" "http://www.w3.org/Graphics/SVG/1.1/DTD/svg11.dtd">
<svg version="1.1" id="Layer_1" xmlns="http://www.w3.org/2000/svg" xmlns:xlink="http://www.w3.org/1999/xlink" x="0px" y="0px"
	 width="56px" height="56px" viewBox="0 0 56 56" enable-background="new 0 0 56 56" xml:space="preserve">
<g>
	<g>
		<defs>
			<path id="SVGID_1_" d="M0.509,10.522c9.843,17.953,22.906,31.783,38.848,41.735c3.015-16.544,8.332-32.392,16.134-47.522
				C36.828,8.178,18.496,10.149,0.509,10.522z"/>
		</defs>
		<clipPath id="SVGID_2_">
			<use xlink:href="#SVGID_1_"  overflow="visible"/>
		</clipPath>
		<g clip-path="url(#SVGID_2_)">
			
				<rect x="19.875" y="22.054" transform="matrix(0.1943 -0.9809 0.9809 0.1943 -31.4859 58.5886)" fill-rule="evenodd" clip-rule="evenodd" fill="#101F8A" width="0.095" height="52.814"/>
		</g>
		<g clip-path="url(#SVGID_2_)">
			
				<rect x="19.683" y="22.021" transform="matrix(-0.1942 0.981 -0.981 -0.1942 71.3046 38.2804)" fill-rule="evenodd" clip-rule="evenodd" fill="#0F218B" width="0.493" height="52.814"/>
		</g>
		<g clip-path="url(#SVGID_2_)">
			
				<rect x="19.747" y="21.698" transform="matrix(-0.1941 0.981 -0.981 -0.1941 71.0639 37.8292)" fill-rule="evenodd" clip-rule="evenodd" fill="#0F218B" width="0.493" height="52.814"/>
		</g>
		<g clip-path="url(#SVGID_2_)">
			
				<rect x="19.81" y="21.376" transform="matrix(-0.1939 0.981 -0.981 -0.1939 70.8219 37.3716)" fill-rule="evenodd" clip-rule="evenodd" fill="#0F218B" width="0.493" height="52.814"/>
		</g>
		<g clip-path="url(#SVGID_2_)">
			
				<rect x="19.874" y="21.054" transform="matrix(-0.194 0.981 -0.981 -0.194 70.5835 36.9322)" fill-rule="evenodd" clip-rule="evenodd" fill="#0F228C" width="0.493" height="52.814"/>
		</g>
		<g clip-path="url(#SVGID_2_)">
			
				<rect x="19.938" y="20.732" transform="matrix(-0.1942 0.981 -0.981 -0.1942 70.3448 36.4913)" fill-rule="evenodd" clip-rule="evenodd" fill="#0F228C" width="0.493" height="52.814"/>
		</g>
		<g clip-path="url(#SVGID_2_)">
			
				<rect x="20.002" y="20.41" transform="matrix(-0.1941 0.981 -0.981 -0.1941 70.104 36.0401)" fill-rule="evenodd" clip-rule="evenodd" fill="#0F248C" width="0.493" height="52.814"/>
		</g>
		<g clip-path="url(#SVGID_2_)">
			
				<rect x="20.065" y="20.088" transform="matrix(-0.1939 0.981 -0.981 -0.1939 69.8619 35.5829)" fill-rule="evenodd" clip-rule="evenodd" fill="#0F248C" width="0.493" height="52.814"/>
		</g>
		<g clip-path="url(#SVGID_2_)">
			
				<rect x="20.129" y="19.765" transform="matrix(-0.194 0.981 -0.981 -0.194 69.6236 35.1433)" fill-rule="evenodd" clip-rule="evenodd" fill="#0F248C" width="0.493" height="52.814"/>
		</g>
		<g clip-path="url(#SVGID_2_)">
			
				<rect x="20.193" y="19.443" transform="matrix(-0.1941 0.981 -0.981 -0.1941 69.3842 34.6983)" fill-rule="evenodd" clip-rule="evenodd" fill="#0F268D" width="0.493" height="52.814"/>
		</g>
		<g clip-path="url(#SVGID_2_)">
			
				<rect x="20.256" y="19.121" transform="matrix(-0.1941 0.981 -0.981 -0.1941 69.1446 34.2528)" fill-rule="evenodd" clip-rule="evenodd" fill="#0F268D" width="0.493" height="52.814"/>
		</g>
		<g clip-path="url(#SVGID_2_)">
			
				<rect x="20.32" y="18.799" transform="matrix(-0.1938 0.981 -0.981 -0.1938 68.9011 33.7903)" fill-rule="evenodd" clip-rule="evenodd" fill="#0F278E" width="0.493" height="52.814"/>
		</g>
		<g clip-path="url(#SVGID_2_)">
			
				<rect x="20.384" y="18.477" transform="matrix(-0.1942 0.981 -0.981 -0.1942 68.6652 33.3603)" fill-rule="evenodd" clip-rule="evenodd" fill="#0F278E" width="0.493" height="52.814"/>
		</g>
		<g clip-path="url(#SVGID_2_)">
			
				<rect x="20.448" y="18.154" transform="matrix(-0.1941 0.981 -0.981 -0.1941 68.4244 32.9094)" fill-rule="evenodd" clip-rule="evenodd" fill="#0F278E" width="0.493" height="52.814"/>
		</g>
		<g clip-path="url(#SVGID_2_)">
			
				<rect x="20.511" y="17.832" transform="matrix(-0.1941 0.981 -0.981 -0.1941 68.1847 32.4637)" fill-rule="evenodd" clip-rule="evenodd" fill="#0F298F" width="0.493" height="52.814"/>
		</g>
		<g clip-path="url(#SVGID_2_)">
			
				<rect x="20.575" y="17.51" transform="matrix(-0.1938 0.981 -0.981 -0.1938 67.9411 32.0016)" fill-rule="evenodd" clip-rule="evenodd" fill="#0F298F" width="0.493" height="52.814"/>
		</g>
		<g clip-path="url(#SVGID_2_)">
			
				<rect x="20.639" y="17.188" transform="matrix(-0.1942 0.981 -0.981 -0.1942 67.7054 31.5712)" fill-rule="evenodd" clip-rule="evenodd" fill="#0F298F" width="0.493" height="52.814"/>
		</g>
		<g clip-path="url(#SVGID_2_)">
			
				<rect x="20.703" y="16.866" transform="matrix(-0.1941 0.981 -0.981 -0.1941 67.4645 31.1204)" fill-rule="evenodd" clip-rule="evenodd" fill="#0F2A8F" width="0.493" height="52.814"/>
		</g>
		<g clip-path="url(#SVGID_2_)">
			
				<rect x="20.766" y="16.543" transform="matrix(-0.194 0.981 -0.981 -0.194 67.224 30.671)" fill-rule="evenodd" clip-rule="evenodd" fill="#0F2A8F" width="0.493" height="52.814"/>
		</g>
		<g clip-path="url(#SVGID_2_)">
			
				<rect x="20.83" y="16.221" transform="matrix(-0.1938 0.981 -0.981 -0.1938 66.9811 30.2129)" fill-rule="evenodd" clip-rule="evenodd" fill="#0F2C90" width="0.493" height="52.814"/>
		</g>
		<g clip-path="url(#SVGID_2_)">
			
				<rect x="20.894" y="15.899" transform="matrix(-0.1941 0.981 -0.981 -0.1941 66.7446 29.7785)" fill-rule="evenodd" clip-rule="evenodd" fill="#0F2C90" width="0.493" height="52.814"/>
		</g>
		<g clip-path="url(#SVGID_2_)">
			
				<rect x="20.958" y="15.577" transform="matrix(-0.194 0.981 -0.981 -0.194 66.5041 29.3293)" fill-rule="evenodd" clip-rule="evenodd" fill="#0F2C90" width="0.493" height="52.814"/>
		</g>
		<g clip-path="url(#SVGID_2_)">
			
				<rect x="21.021" y="15.255" transform="matrix(-0.194 0.981 -0.981 -0.194 66.2641 28.882)" fill-rule="evenodd" clip-rule="evenodd" fill="#0E2E91" width="0.493" height="52.814"/>
		</g>
		<g clip-path="url(#SVGID_2_)">
			
				<rect x="21.085" y="14.932" transform="matrix(-0.1939 0.981 -0.981 -0.1939 66.0227 28.4299)" fill-rule="evenodd" clip-rule="evenodd" fill="#0E2E91" width="0.493" height="52.814"/>
		</g>
		<g clip-path="url(#SVGID_2_)">
			
				<rect x="21.149" y="14.61" transform="matrix(-0.1941 0.981 -0.981 -0.1941 65.7848 27.9896)" fill-rule="evenodd" clip-rule="evenodd" fill="#0E2F91" width="0.493" height="52.814"/>
		</g>
		<g clip-path="url(#SVGID_2_)">
			
				<rect x="21.213" y="14.288" transform="matrix(-0.1941 0.981 -0.981 -0.1941 65.5453 27.5438)" fill-rule="evenodd" clip-rule="evenodd" fill="#0E2F91" width="0.493" height="52.814"/>
		</g>
		<g clip-path="url(#SVGID_2_)">
			
				<rect x="21.276" y="13.966" transform="matrix(-0.194 0.981 -0.981 -0.194 65.3042 27.0931)" fill-rule="evenodd" clip-rule="evenodd" fill="#0E2F91" width="0.493" height="52.814"/>
		</g>
		<g clip-path="url(#SVGID_2_)">
			
				<rect x="21.34" y="13.644" transform="matrix(-0.1939 0.981 -0.981 -0.1939 65.0628 26.641)" fill-rule="evenodd" clip-rule="evenodd" fill="#0E3192" width="0.493" height="52.814"/>
		</g>
		<g clip-path="url(#SVGID_2_)">
			
				<rect x="21.404" y="13.321" transform="matrix(-0.1941 0.981 -0.981 -0.1941 64.825 26.2006)" fill-rule="evenodd" clip-rule="evenodd" fill="#0E3192" width="0.493" height="52.814"/>
		</g>
		<g clip-path="url(#SVGID_2_)">
			
				<rect x="21.467" y="12.999" transform="matrix(-0.1941 0.981 -0.981 -0.1941 64.5854 25.7548)" fill-rule="evenodd" clip-rule="evenodd" fill="#0E3293" width="0.493" height="52.814"/>
		</g>
		<g clip-path="url(#SVGID_2_)">
			
				<rect x="21.531" y="12.677" transform="matrix(-0.194 0.981 -0.981 -0.194 64.3443 25.3041)" fill-rule="evenodd" clip-rule="evenodd" fill="#0E3293" width="0.493" height="52.814"/>
		</g>
		<g clip-path="url(#SVGID_2_)">
			
				<rect x="21.595" y="12.355" transform="matrix(-0.1939 0.981 -0.981 -0.1939 64.1028 24.8522)" fill-rule="evenodd" clip-rule="evenodd" fill="#0E3293" width="0.493" height="52.814"/>
		</g>
		<g clip-path="url(#SVGID_2_)">
			
				<rect x="21.659" y="12.033" transform="matrix(-0.194 0.981 -0.981 -0.194 63.8645 24.4097)" fill-rule="evenodd" clip-rule="evenodd" fill="#0E3494" width="0.493" height="52.814"/>
		</g>
		<g clip-path="url(#SVGID_2_)">
			
				<rect x="21.722" y="11.71" transform="matrix(-0.194 0.981 -0.981 -0.194 63.6245 23.9624)" fill-rule="evenodd" clip-rule="evenodd" fill="#0E3494" width="0.493" height="52.814"/>
		</g>
		<g clip-path="url(#SVGID_2_)">
			
				<rect x="21.786" y="11.388" transform="matrix(-0.1942 0.981 -0.981 -0.1942 63.3862 23.5204)" fill-rule="evenodd" clip-rule="evenodd" fill="#0D3594" width="0.493" height="52.814"/>
		</g>
		<g clip-path="url(#SVGID_2_)">
			
				<rect x="21.85" y="11.066" transform="matrix(-0.1939 0.981 -0.981 -0.1939 63.1418 23.0602)" fill-rule="evenodd" clip-rule="evenodd" fill="#0D3594" width="0.493" height="52.814"/>
		</g>
		<g clip-path="url(#SVGID_2_)">
			
				<rect x="21.914" y="10.744" transform="matrix(-0.1941 0.981 -0.981 -0.1941 62.9057 22.624)" fill-rule="evenodd" clip-rule="evenodd" fill="#0D3594" width="0.493" height="52.814"/>
		</g>
		<g clip-path="url(#SVGID_2_)">
			
				<rect x="21.977" y="10.422" transform="matrix(-0.194 0.981 -0.981 -0.194 62.6646 22.1735)" fill-rule="evenodd" clip-rule="evenodd" fill="#0D3795" width="0.493" height="52.814"/>
		</g>
		<g clip-path="url(#SVGID_2_)">
			
				<rect x="22.041" y="10.099" transform="matrix(-0.1942 0.981 -0.981 -0.1942 62.4264 21.7312)" fill-rule="evenodd" clip-rule="evenodd" fill="#0D3795" width="0.493" height="52.814"/>
		</g>
		<g clip-path="url(#SVGID_2_)">
			
				<rect x="22.105" y="9.777" transform="matrix(-0.1938 0.981 -0.981 -0.1938 62.1814 21.2703)" fill-rule="evenodd" clip-rule="evenodd" fill="#0D3996" width="0.493" height="52.814"/>
		</g>
		<g clip-path="url(#SVGID_2_)">
			
				<rect x="22.169" y="9.455" transform="matrix(-0.1941 0.981 -0.981 -0.1941 61.9459 20.8349)" fill-rule="evenodd" clip-rule="evenodd" fill="#0D3996" width="0.493" height="52.814"/>
		</g>
		<g clip-path="url(#SVGID_2_)">
			
				<rect x="22.232" y="9.133" transform="matrix(-0.194 0.981 -0.981 -0.194 61.7048 20.3845)" fill-rule="evenodd" clip-rule="evenodd" fill="#0D3996" width="0.493" height="52.814"/>
		</g>
		<g clip-path="url(#SVGID_2_)">
			
				<rect x="22.296" y="8.811" transform="matrix(-0.1941 0.981 -0.981 -0.1941 61.4654 19.9391)" fill-rule="evenodd" clip-rule="evenodd" fill="#0D3A97" width="0.493" height="52.814"/>
		</g>
		<g clip-path="url(#SVGID_2_)">
			
				<rect x="22.36" y="8.489" transform="matrix(-0.1938 0.981 -0.981 -0.1938 61.2215 19.4816)" fill-rule="evenodd" clip-rule="evenodd" fill="#0D3A97" width="0.493" height="52.814"/>
		</g>
		<g clip-path="url(#SVGID_2_)">
			
				<rect x="22.424" y="8.166" transform="matrix(-0.194 0.981 -0.981 -0.194 60.9848 19.0428)" fill-rule="evenodd" clip-rule="evenodd" fill="#0D3A97" width="0.493" height="52.814"/>
		</g>
		<g clip-path="url(#SVGID_2_)">
			
				<rect x="22.487" y="7.844" transform="matrix(-0.1941 0.981 -0.981 -0.1941 60.7456 18.5974)" fill-rule="evenodd" clip-rule="evenodd" fill="#0D3C97" width="0.493" height="52.814"/>
		</g>
		<g clip-path="url(#SVGID_2_)">
			
				<rect x="22.551" y="7.522" transform="matrix(-0.1941 0.981 -0.981 -0.1941 60.5056 18.1501)" fill-rule="evenodd" clip-rule="evenodd" fill="#0D3C97" width="0.493" height="52.814"/>
		</g>
		<g clip-path="url(#SVGID_2_)">
			
				<rect x="22.615" y="7.2" transform="matrix(-0.1939 0.981 -0.981 -0.1939 60.2627 17.6959)" fill-rule="evenodd" clip-rule="evenodd" fill="#0C3D98" width="0.493" height="52.814"/>
		</g>
		<g clip-path="url(#SVGID_2_)">
			
				<rect x="22.678" y="6.878" transform="matrix(-0.194 0.981 -0.981 -0.194 60.025 17.2539)" fill-rule="evenodd" clip-rule="evenodd" fill="#0C3D98" width="0.493" height="52.814"/>
		</g>
		<g clip-path="url(#SVGID_2_)">
			
				<rect x="22.742" y="6.555" transform="matrix(-0.1942 0.981 -0.981 -0.1942 59.787 16.8112)" fill-rule="evenodd" clip-rule="evenodd" fill="#0C3D98" width="0.493" height="52.814"/>
		</g>
		<g clip-path="url(#SVGID_2_)">
			
				<rect x="22.806" y="6.233" transform="matrix(-0.194 0.981 -0.981 -0.194 59.5451 16.3595)" fill-rule="evenodd" clip-rule="evenodd" fill="#0C3F99" width="0.493" height="52.814"/>
		</g>
		<g clip-path="url(#SVGID_2_)">
			
				<rect x="22.87" y="5.911" transform="matrix(-0.1939 0.981 -0.981 -0.1939 59.3028 15.9071)" fill-rule="evenodd" clip-rule="evenodd" fill="#0C3F99" width="0.493" height="52.814"/>
		</g>
		<g clip-path="url(#SVGID_2_)">
			
				<rect x="22.933" y="5.589" transform="matrix(-0.194 0.981 -0.981 -0.194 59.0651 15.4649)" fill-rule="evenodd" clip-rule="evenodd" fill="#0C419A" width="0.493" height="52.814"/>
		</g>
		<g clip-path="url(#SVGID_2_)">
			
				<rect x="22.997" y="5.267" transform="matrix(-0.1942 0.981 -0.981 -0.1942 58.8272 15.0221)" fill-rule="evenodd" clip-rule="evenodd" fill="#0C419A" width="0.493" height="52.814"/>
		</g>
		<g clip-path="url(#SVGID_2_)">
			
				<rect x="23.061" y="4.944" transform="matrix(-0.194 0.981 -0.981 -0.194 58.5852 14.5705)" fill-rule="evenodd" clip-rule="evenodd" fill="#0C419A" width="0.493" height="52.814"/>
		</g>
		<g clip-path="url(#SVGID_2_)">
			
				<rect x="23.125" y="4.622" transform="matrix(-0.1939 0.981 -0.981 -0.1939 58.3429 14.1183)" fill-rule="evenodd" clip-rule="evenodd" fill="#0C429A" width="0.493" height="52.814"/>
		</g>
		<g clip-path="url(#SVGID_2_)">
			
				<rect x="23.188" y="4.3" transform="matrix(-0.1941 0.981 -0.981 -0.1941 58.106 13.6776)" fill-rule="evenodd" clip-rule="evenodd" fill="#0C429A" width="0.493" height="52.814"/>
		</g>
		<g clip-path="url(#SVGID_2_)">
			
				<rect x="23.252" y="3.978" transform="matrix(-0.1941 0.981 -0.981 -0.1941 57.8661 13.2303)" fill-rule="evenodd" clip-rule="evenodd" fill="#0C449B" width="0.493" height="52.814"/>
		</g>
		<g clip-path="url(#SVGID_2_)">
			
				<rect x="23.316" y="3.656" transform="matrix(-0.1941 0.981 -0.981 -0.1941 57.6267 12.7842)" fill-rule="evenodd" clip-rule="evenodd" fill="#0C449B" width="0.493" height="52.814"/>
		</g>
		<g clip-path="url(#SVGID_2_)">
			
				<rect x="23.38" y="3.333" transform="matrix(-0.1938 0.981 -0.981 -0.1938 57.3816 12.3268)" fill-rule="evenodd" clip-rule="evenodd" fill="#0C449B" width="0.493" height="52.814"/>
		</g>
		<g clip-path="url(#SVGID_2_)">
			
				<rect x="23.443" y="3.011" transform="matrix(-0.1942 0.981 -0.981 -0.1942 57.1475 11.8912)" fill-rule="evenodd" clip-rule="evenodd" fill="#0C459C" width="0.493" height="52.814"/>
		</g>
		<g clip-path="url(#SVGID_2_)">
			
				<rect x="23.507" y="2.689" transform="matrix(-0.1941 0.981 -0.981 -0.1941 56.9058 11.4403)" fill-rule="evenodd" clip-rule="evenodd" fill="#0C459C" width="0.493" height="52.814"/>
		</g>
		<g clip-path="url(#SVGID_2_)">
			
				<rect x="23.571" y="2.367" transform="matrix(-0.1941 0.981 -0.981 -0.1941 56.6668 10.9952)" fill-rule="evenodd" clip-rule="evenodd" fill="#0C479D" width="0.493" height="52.814"/>
		</g>
		<g clip-path="url(#SVGID_2_)">
			
				<rect x="23.635" y="2.045" transform="matrix(-0.1938 0.981 -0.981 -0.1938 56.4213 10.5377)" fill-rule="evenodd" clip-rule="evenodd" fill="#0C479D" width="0.493" height="52.814"/>
		</g>
		<g clip-path="url(#SVGID_2_)">
			
				<rect x="23.698" y="1.723" transform="matrix(-0.1942 0.981 -0.981 -0.1942 56.1877 10.1021)" fill-rule="evenodd" clip-rule="evenodd" fill="#0C479D" width="0.493" height="52.814"/>
		</g>
		<g clip-path="url(#SVGID_2_)">
			
				<rect x="23.762" y="1.4" transform="matrix(-0.1941 0.981 -0.981 -0.1941 55.9459 9.6514)" fill-rule="evenodd" clip-rule="evenodd" fill="#0B489D" width="0.493" height="52.814"/>
		</g>
		<g clip-path="url(#SVGID_2_)">
			
				<rect x="23.826" y="1.078" transform="matrix(-0.194 0.981 -0.981 -0.194 55.7056 9.2036)" fill-rule="evenodd" clip-rule="evenodd" fill="#0B489D" width="0.493" height="52.814"/>
		</g>
		<g clip-path="url(#SVGID_2_)">
			
				<rect x="23.89" y="0.756" transform="matrix(-0.1939 0.981 -0.981 -0.1939 55.4622 8.7505)" fill-rule="evenodd" clip-rule="evenodd" fill="#0B489D" width="0.493" height="52.814"/>
		</g>
		<g clip-path="url(#SVGID_2_)">
			
				<rect x="23.953" y="0.434" transform="matrix(-0.1941 0.981 -0.981 -0.1941 55.2265 8.3106)" fill-rule="evenodd" clip-rule="evenodd" fill="#0B4A9E" width="0.493" height="52.814"/>
		</g>
		<g clip-path="url(#SVGID_2_)">
			
				<rect x="24.017" y="0.112" transform="matrix(-0.1941 0.981 -0.981 -0.1941 54.986 7.8624)" fill-rule="evenodd" clip-rule="evenodd" fill="#0B4A9E" width="0.493" height="52.814"/>
		</g>
		<g clip-path="url(#SVGID_2_)">
			
				<rect x="24.081" y="-0.211" transform="matrix(-0.194 0.981 -0.981 -0.194 54.7457 7.4147)" fill-rule="evenodd" clip-rule="evenodd" fill="#0B4C9F" width="0.493" height="52.814"/>
		</g>
		<g clip-path="url(#SVGID_2_)">
			
				<rect x="24.144" y="-0.533" transform="matrix(-0.1939 0.981 -0.981 -0.1939 54.5037 6.9641)" fill-rule="evenodd" clip-rule="evenodd" fill="#0B4C9F" width="0.493" height="52.814"/>
		</g>
		<g clip-path="url(#SVGID_2_)">
			
				<rect x="24.208" y="-0.855" transform="matrix(-0.194 0.981 -0.981 -0.194 54.2659 6.5203)" fill-rule="evenodd" clip-rule="evenodd" fill="#0B4C9F" width="0.493" height="52.814"/>
		</g>
		<g clip-path="url(#SVGID_2_)">
			
				<rect x="24.272" y="-1.177" transform="matrix(-0.1941 0.981 -0.981 -0.1941 54.0276 6.0757)" fill-rule="evenodd" clip-rule="evenodd" fill="#0B4DA0" width="0.493" height="52.814"/>
		</g>
		<g clip-path="url(#SVGID_2_)">
			
				<rect x="24.336" y="-1.499" transform="matrix(-0.1941 0.981 -0.981 -0.1941 53.7868 5.6271)" fill-rule="evenodd" clip-rule="evenodd" fill="#0B4DA0" width="0.493" height="52.814"/>
		</g>
		<g clip-path="url(#SVGID_2_)">
			
				<rect x="24.399" y="-1.822" transform="matrix(-0.1939 0.981 -0.981 -0.1939 53.5438 5.1753)" fill-rule="evenodd" clip-rule="evenodd" fill="#0A4FA0" width="0.493" height="52.814"/>
		</g>
		<g clip-path="url(#SVGID_2_)">
			
				<rect x="24.463" y="-2.144" transform="matrix(-0.194 0.981 -0.981 -0.194 53.306 4.7313)" fill-rule="evenodd" clip-rule="evenodd" fill="#0A4FA0" width="0.493" height="52.814"/>
		</g>
		<g clip-path="url(#SVGID_2_)">
			
				<rect x="24.527" y="-2.466" transform="matrix(-0.1941 0.981 -0.981 -0.1941 53.0678 4.2867)" fill-rule="evenodd" clip-rule="evenodd" fill="#0A4FA0" width="0.493" height="52.814"/>
		</g>
		<g clip-path="url(#SVGID_2_)">
			
				<rect x="24.591" y="-2.788" transform="matrix(-0.1941 0.981 -0.981 -0.1941 52.8269 3.8381)" fill-rule="evenodd" clip-rule="evenodd" fill="#0A51A1" width="0.493" height="52.814"/>
		</g>
		<g clip-path="url(#SVGID_2_)">
			
				<rect x="24.654" y="-3.11" transform="matrix(-0.1939 0.981 -0.981 -0.1939 52.5839 3.3865)" fill-rule="evenodd" clip-rule="evenodd" fill="#0A51A1" width="0.493" height="52.814"/>
		</g>
		<g clip-path="url(#SVGID_2_)">
			
				<rect x="24.718" y="-3.433" transform="matrix(-0.194 0.981 -0.981 -0.194 52.3461 2.9424)" fill-rule="evenodd" clip-rule="evenodd" fill="#0A52A2" width="0.493" height="52.814"/>
		</g>
		<g clip-path="url(#SVGID_2_)">
			
				<rect x="24.782" y="-3.755" transform="matrix(-0.1941 0.981 -0.981 -0.1941 52.1064 2.4954)" fill-rule="evenodd" clip-rule="evenodd" fill="#0A52A2" width="0.493" height="52.814"/>
		</g>
		<g clip-path="url(#SVGID_2_)">
			
				<rect x="24.846" y="-4.077" transform="matrix(-0.1942 0.981 -0.981 -0.1942 51.8686 2.0512)" fill-rule="evenodd" clip-rule="evenodd" fill="#0A52A2" width="0.493" height="52.814"/>
		</g>
		<g clip-path="url(#SVGID_2_)">
			
				<rect x="24.909" y="-4.399" transform="matrix(-0.1938 0.981 -0.981 -0.1938 51.6218 1.5948)" fill-rule="evenodd" clip-rule="evenodd" fill="#0A54A3" width="0.493" height="52.814"/>
		</g>
		<g clip-path="url(#SVGID_2_)">
			
				<rect x="24.973" y="-4.721" transform="matrix(-0.1941 0.981 -0.981 -0.1941 51.3878 1.1555)" fill-rule="evenodd" clip-rule="evenodd" fill="#0A54A3" width="0.493" height="52.814"/>
		</g>
		<g clip-path="url(#SVGID_2_)">
			
				<rect x="25.037" y="-5.044" transform="matrix(-0.1941 0.981 -0.981 -0.1941 51.1475 0.7077)" fill-rule="evenodd" clip-rule="evenodd" fill="#0A55A3" width="0.493" height="52.814"/>
		</g>
		<g clip-path="url(#SVGID_2_)">
			
				<rect x="25.1" y="-5.366" transform="matrix(-0.1942 0.981 -0.981 -0.1942 50.9089 0.2621)" fill-rule="evenodd" clip-rule="evenodd" fill="#0A55A3" width="0.493" height="52.814"/>
		</g>
		<g clip-path="url(#SVGID_2_)">
			
				<rect x="25.164" y="-5.688" transform="matrix(-0.1938 0.981 -0.981 -0.1938 50.6618 -0.1939)" fill-rule="evenodd" clip-rule="evenodd" fill="#0A55A3" width="0.493" height="52.814"/>
		</g>
		<g clip-path="url(#SVGID_2_)">
			
				<rect x="25.228" y="-6.01" transform="matrix(-0.1941 0.981 -0.981 -0.1941 50.428 -0.6336)" fill-rule="evenodd" clip-rule="evenodd" fill="#0A57A4" width="0.493" height="52.814"/>
		</g>
		<g clip-path="url(#SVGID_2_)">
			
				<rect x="25.292" y="-6.332" transform="matrix(-0.1941 0.981 -0.981 -0.1941 50.1877 -1.0813)" fill-rule="evenodd" clip-rule="evenodd" fill="#0A57A4" width="0.493" height="52.814"/>
		</g>
		<g clip-path="url(#SVGID_2_)">
			
				<rect x="25.355" y="-6.655" transform="matrix(-0.1941 0.981 -0.981 -0.1941 49.9474 -1.5289)" fill-rule="evenodd" clip-rule="evenodd" fill="#0A58A5" width="0.493" height="52.814"/>
		</g>
		<g clip-path="url(#SVGID_2_)">
			
				<rect x="25.419" y="-6.977" transform="matrix(-0.1938 0.981 -0.981 -0.1938 49.7018 -1.9826)" fill-rule="evenodd" clip-rule="evenodd" fill="#0A58A5" width="0.493" height="52.814"/>
		</g>
		<g clip-path="url(#SVGID_2_)">
			
				<rect x="25.483" y="-7.299" transform="matrix(-0.194 0.981 -0.981 -0.194 49.4665 -2.4245)" fill-rule="evenodd" clip-rule="evenodd" fill="#0A58A5" width="0.493" height="52.814"/>
		</g>
		<g clip-path="url(#SVGID_2_)">
			
				<rect x="25.547" y="-7.621" transform="matrix(-0.1941 0.981 -0.981 -0.1941 49.2279 -2.8703)" fill-rule="evenodd" clip-rule="evenodd" fill="#095AA5" width="0.493" height="52.814"/>
		</g>
		<g clip-path="url(#SVGID_2_)">
			
				<rect x="25.61" y="-7.943" transform="matrix(-0.194 0.981 -0.981 -0.194 48.9866 -3.3189)" fill-rule="evenodd" clip-rule="evenodd" fill="#095AA5" width="0.493" height="52.814"/>
		</g>
		<g clip-path="url(#SVGID_2_)">
			
				<rect x="25.674" y="-8.265" transform="matrix(-0.1939 0.981 -0.981 -0.1939 48.7435 -3.7695)" fill-rule="evenodd" clip-rule="evenodd" fill="#095AA5" width="0.493" height="52.814"/>
		</g>
		<g clip-path="url(#SVGID_2_)">
			
				<rect x="25.738" y="-8.588" transform="matrix(-0.1941 0.981 -0.981 -0.1941 48.5076 -4.2124)" fill-rule="evenodd" clip-rule="evenodd" fill="#095CA6" width="0.493" height="52.814"/>
		</g>
		<g clip-path="url(#SVGID_2_)">
			
				<rect x="25.802" y="-8.91" transform="matrix(-0.1942 0.981 -0.981 -0.1942 48.2698 -4.6576)" fill-rule="evenodd" clip-rule="evenodd" fill="#095CA6" width="0.493" height="52.814"/>
		</g>
		<g clip-path="url(#SVGID_2_)">
			
				<rect x="25.865" y="-9.232" transform="matrix(-0.194 0.981 -0.981 -0.194 48.0267 -5.1079)" fill-rule="evenodd" clip-rule="evenodd" fill="#095DA7" width="0.493" height="52.814"/>
		</g>
		<g clip-path="url(#SVGID_2_)">
			
				<rect x="25.929" y="-9.554" transform="matrix(-0.1941 0.981 -0.981 -0.1941 47.7888 -5.5531)" fill-rule="evenodd" clip-rule="evenodd" fill="#095DA7" width="0.493" height="52.814"/>
		</g>
		<g clip-path="url(#SVGID_2_)">
			
				<rect x="25.993" y="-9.876" transform="matrix(-0.1941 0.981 -0.981 -0.1941 47.5478 -6.0014)" fill-rule="evenodd" clip-rule="evenodd" fill="#095DA7" width="0.493" height="52.814"/>
		</g>
		<g clip-path="url(#SVGID_2_)">
			
				<rect x="26.057" y="-10.199" transform="matrix(-0.1942 0.981 -0.981 -0.1942 47.31 -6.4467)" fill-rule="evenodd" clip-rule="evenodd" fill="#095FA8" width="0.493" height="52.814"/>
		</g>
		<g clip-path="url(#SVGID_2_)">
			
				<rect x="26.12" y="-10.521" transform="matrix(-0.194 0.981 -0.981 -0.194 47.0669 -6.8968)" fill-rule="evenodd" clip-rule="evenodd" fill="#095FA8" width="0.493" height="52.814"/>
		</g>
		<g clip-path="url(#SVGID_2_)">
			
				<rect x="26.184" y="-10.843" transform="matrix(-0.1941 0.981 -0.981 -0.1941 46.8272 -7.3438)" fill-rule="evenodd" clip-rule="evenodd" fill="#0860A8" width="0.493" height="52.814"/>
		</g>
		<g clip-path="url(#SVGID_2_)">
			
				<rect x="26.248" y="-11.165" transform="matrix(-0.1941 0.981 -0.981 -0.1941 46.5879 -7.7904)" fill-rule="evenodd" clip-rule="evenodd" fill="#0860A8" width="0.493" height="52.814"/>
		</g>
		<g clip-path="url(#SVGID_2_)">
			
				<rect x="26.311" y="-11.487" transform="matrix(-0.1941 0.981 -0.981 -0.1941 46.3474 -8.2383)" fill-rule="evenodd" clip-rule="evenodd" fill="#0860A8" width="0.493" height="52.814"/>
		</g>
		<g clip-path="url(#SVGID_2_)">
			
				<rect x="26.375" y="-11.81" transform="matrix(-0.1941 0.981 -0.981 -0.1941 46.1088 -8.6843)" fill-rule="evenodd" clip-rule="evenodd" fill="#0862A9" width="0.493" height="52.814"/>
		</g>
		<g clip-path="url(#SVGID_2_)">
			
				<rect x="26.439" y="-12.132" transform="matrix(-0.1941 0.981 -0.981 -0.1941 45.8684 -9.1319)" fill-rule="evenodd" clip-rule="evenodd" fill="#0862A9" width="0.493" height="52.814"/>
		</g>
		<g clip-path="url(#SVGID_2_)">
			
				<rect x="26.503" y="-12.454" transform="matrix(-0.1942 0.981 -0.981 -0.1942 45.63 -9.5779)" fill-rule="evenodd" clip-rule="evenodd" fill="#0864AA" width="0.493" height="52.814"/>
		</g>
		<g clip-path="url(#SVGID_2_)">
			
				<rect x="26.566" y="-12.776" transform="matrix(-0.1941 0.981 -0.981 -0.1941 45.3875 -10.0272)" fill-rule="evenodd" clip-rule="evenodd" fill="#0864AA" width="0.493" height="52.814"/>
		</g>
		<g clip-path="url(#SVGID_2_)">
			
				<rect x="26.63" y="-13.098" transform="matrix(-0.1941 0.981 -0.981 -0.1941 45.149 -10.4733)" fill-rule="evenodd" clip-rule="evenodd" fill="#0864AA" width="0.493" height="52.814"/>
		</g>
		<g clip-path="url(#SVGID_2_)">
			
				<rect x="26.694" y="-13.421" transform="matrix(-0.1941 0.981 -0.981 -0.1941 44.9086 -10.9209)" fill-rule="evenodd" clip-rule="evenodd" fill="#0865AB" width="0.493" height="52.814"/>
		</g>
		<g clip-path="url(#SVGID_2_)">
			
				<rect x="26.758" y="-13.743" transform="matrix(-0.1941 0.981 -0.981 -0.1941 44.6691 -11.3678)" fill-rule="evenodd" clip-rule="evenodd" fill="#0865AB" width="0.493" height="52.814"/>
		</g>
		<g clip-path="url(#SVGID_2_)">
			
				<rect x="26.821" y="-14.065" transform="matrix(-0.1941 0.981 -0.981 -0.1941 44.4276 -11.8162)" fill-rule="evenodd" clip-rule="evenodd" fill="#0867AB" width="0.493" height="52.814"/>
		</g>
		<g clip-path="url(#SVGID_2_)">
			
				<rect x="26.885" y="-14.387" transform="matrix(-0.194 0.981 -0.981 -0.194 44.1873 -12.2637)" fill-rule="evenodd" clip-rule="evenodd" fill="#0867AB" width="0.493" height="52.814"/>
		</g>
		<g clip-path="url(#SVGID_2_)">
			
				<rect x="26.949" y="-14.709" transform="matrix(-0.1941 0.981 -0.981 -0.1941 43.9487 -12.7099)" fill-rule="evenodd" clip-rule="evenodd" fill="#0867AB" width="0.493" height="52.814"/>
		</g>
		<g clip-path="url(#SVGID_2_)">
			
				<rect x="27.013" y="-15.031" transform="matrix(-0.194 0.981 -0.981 -0.194 43.7074 -13.1581)" fill-rule="evenodd" clip-rule="evenodd" fill="#0868AC" width="0.493" height="52.814"/>
		</g>
		<g clip-path="url(#SVGID_2_)">
			
				<rect x="27.076" y="-15.354" transform="matrix(-0.1941 0.981 -0.981 -0.1941 43.4678 -13.6052)" fill-rule="evenodd" clip-rule="evenodd" fill="#0868AC" width="0.493" height="52.814"/>
		</g>
		<g clip-path="url(#SVGID_2_)">
			
				<rect x="27.14" y="-15.676" transform="matrix(-0.1941 0.981 -0.981 -0.1941 43.2285 -14.0519)" fill-rule="evenodd" clip-rule="evenodd" fill="#0868AC" width="0.493" height="52.814"/>
		</g>
		<g clip-path="url(#SVGID_2_)">
			
				<rect x="27.204" y="-15.998" transform="matrix(-0.1942 0.981 -0.981 -0.1942 42.9909 -14.4977)" fill-rule="evenodd" clip-rule="evenodd" fill="#086AAD" width="0.493" height="52.814"/>
		</g>
		<g clip-path="url(#SVGID_2_)">
			
				<rect x="27.267" y="-16.32" transform="matrix(-0.194 0.981 -0.981 -0.194 42.7475 -14.9471)" fill-rule="evenodd" clip-rule="evenodd" fill="#086AAD" width="0.493" height="52.814"/>
		</g>
		<g clip-path="url(#SVGID_2_)">
			
				<rect x="27.331" y="-16.643" transform="matrix(-0.1941 0.981 -0.981 -0.1941 42.5099 -15.393)" fill-rule="evenodd" clip-rule="evenodd" fill="#076BAE" width="0.493" height="52.814"/>
		</g>
		<g clip-path="url(#SVGID_2_)">
			
				<rect x="27.395" y="-16.965" transform="matrix(-0.1941 0.981 -0.981 -0.1941 42.2687 -15.8409)" fill-rule="evenodd" clip-rule="evenodd" fill="#076BAE" width="0.493" height="52.814"/>
		</g>
		<g clip-path="url(#SVGID_2_)">
			
				<rect x="27.459" y="-17.287" transform="matrix(-0.1941 0.981 -0.981 -0.1941 42.0299 -16.2874)" fill-rule="evenodd" clip-rule="evenodd" fill="#076BAE" width="0.493" height="52.814"/>
		</g>
		<g clip-path="url(#SVGID_2_)">
			
				<rect x="27.522" y="-17.609" transform="matrix(-0.194 0.981 -0.981 -0.194 41.7876 -16.736)" fill-rule="evenodd" clip-rule="evenodd" fill="#076DAE" width="0.493" height="52.814"/>
		</g>
		<g clip-path="url(#SVGID_2_)">
			
				<rect x="27.586" y="-17.931" transform="matrix(-0.1941 0.981 -0.981 -0.1941 41.55 -17.1821)" fill-rule="evenodd" clip-rule="evenodd" fill="#076DAE" width="0.493" height="52.814"/>
		</g>
		<g clip-path="url(#SVGID_2_)">
			
				<rect x="27.65" y="-18.253" transform="matrix(-0.1941 0.981 -0.981 -0.1941 41.3088 -17.63)" fill-rule="evenodd" clip-rule="evenodd" fill="#076FAF" width="0.493" height="52.814"/>
		</g>
		<g clip-path="url(#SVGID_2_)">
			
				<rect x="27.714" y="-18.576" transform="matrix(-0.1941 0.981 -0.981 -0.1941 41.0681 -18.0775)" fill-rule="evenodd" clip-rule="evenodd" fill="#076FAF" width="0.493" height="52.814"/>
		</g>
		<g clip-path="url(#SVGID_2_)">
			
				<rect x="27.777" y="-18.898" transform="matrix(-0.194 0.981 -0.981 -0.194 40.8277 -18.525)" fill-rule="evenodd" clip-rule="evenodd" fill="#076FAF" width="0.493" height="52.814"/>
		</g>
		<g clip-path="url(#SVGID_2_)">
			
				<rect x="27.841" y="-19.22" transform="matrix(-0.1941 0.981 -0.981 -0.1941 40.5894 -18.9716)" fill-rule="evenodd" clip-rule="evenodd" fill="#0670B0" width="0.493" height="52.814"/>
		</g>
		<g clip-path="url(#SVGID_2_)">
			
				<rect x="27.905" y="-19.542" transform="matrix(-0.1941 0.981 -0.981 -0.1941 40.349 -19.4189)" fill-rule="evenodd" clip-rule="evenodd" fill="#0670B0" width="0.493" height="52.814"/>
		</g>
		<g clip-path="url(#SVGID_2_)">
			
				<rect x="27.969" y="-19.864" transform="matrix(-0.1941 0.981 -0.981 -0.1941 40.1082 -19.8665)" fill-rule="evenodd" clip-rule="evenodd" fill="#0672B1" width="0.493" height="52.814"/>
		</g>
		<g clip-path="url(#SVGID_2_)">
			
				<rect x="28.032" y="-20.187" transform="matrix(-0.194 0.981 -0.981 -0.194 39.8679 -20.3139)" fill-rule="evenodd" clip-rule="evenodd" fill="#0672B1" width="0.493" height="52.814"/>
		</g>
		<g clip-path="url(#SVGID_2_)">
			
				<rect x="28.096" y="-20.509" transform="matrix(-0.1941 0.981 -0.981 -0.1941 39.6296 -20.7606)" fill-rule="evenodd" clip-rule="evenodd" fill="#0672B1" width="0.493" height="52.814"/>
		</g>
		<g clip-path="url(#SVGID_2_)">
			
				<rect x="28.16" y="-20.831" transform="matrix(-0.1941 0.981 -0.981 -0.1941 39.3901 -21.2075)" fill-rule="evenodd" clip-rule="evenodd" fill="#0673B1" width="0.493" height="52.814"/>
		</g>
		<g clip-path="url(#SVGID_2_)">
			
				<rect x="28.223" y="-21.153" transform="matrix(-0.1941 0.981 -0.981 -0.1941 39.1484 -21.6555)" fill-rule="evenodd" clip-rule="evenodd" fill="#0673B1" width="0.493" height="52.814"/>
		</g>
		<g clip-path="url(#SVGID_2_)">
			
				<rect x="28.287" y="-21.475" transform="matrix(-0.1941 0.981 -0.981 -0.1941 38.9101 -22.1021)" fill-rule="evenodd" clip-rule="evenodd" fill="#0675B2" width="0.493" height="52.814"/>
		</g>
		<g clip-path="url(#SVGID_2_)">
			
				<rect x="28.351" y="-21.798" transform="matrix(-0.1941 0.981 -0.981 -0.1941 38.6697 -22.5496)" fill-rule="evenodd" clip-rule="evenodd" fill="#0675B2" width="0.493" height="52.814"/>
		</g>
		<g clip-path="url(#SVGID_2_)">
			
				<rect x="28.415" y="-22.12" transform="matrix(-0.194 0.981 -0.981 -0.194 38.4282 -22.9973)" fill-rule="evenodd" clip-rule="evenodd" fill="#0675B2" width="0.493" height="52.814"/>
		</g>
		<g clip-path="url(#SVGID_2_)">
			
				<rect x="28.478" y="-22.442" transform="matrix(-0.1941 0.981 -0.981 -0.1941 38.1885 -23.4444)" fill-rule="evenodd" clip-rule="evenodd" fill="#0677B3" width="0.493" height="52.814"/>
		</g>
		<g clip-path="url(#SVGID_2_)">
			
				<rect x="28.542" y="-22.764" transform="matrix(-0.1941 0.981 -0.981 -0.1941 37.9494 -23.8915)" fill-rule="evenodd" clip-rule="evenodd" fill="#0677B3" width="0.493" height="52.814"/>
		</g>
		<g clip-path="url(#SVGID_2_)">
			
				<rect x="28.606" y="-23.086" transform="matrix(-0.1941 0.981 -0.981 -0.1941 37.7099 -24.3386)" fill-rule="evenodd" clip-rule="evenodd" fill="#0678B4" width="0.493" height="52.814"/>
		</g>
		<g clip-path="url(#SVGID_2_)">
			
				<rect x="28.67" y="-23.409" transform="matrix(-0.194 0.981 -0.981 -0.194 37.4683 -24.7863)" fill-rule="evenodd" clip-rule="evenodd" fill="#0678B4" width="0.493" height="52.814"/>
		</g>
		<g clip-path="url(#SVGID_2_)">
			
				<rect x="28.733" y="-23.731" transform="matrix(-0.1941 0.981 -0.981 -0.1941 37.2308 -25.2328)" fill-rule="evenodd" clip-rule="evenodd" fill="#0678B4" width="0.493" height="52.814"/>
		</g>
		<g clip-path="url(#SVGID_2_)">
			
				<rect x="28.797" y="-24.053" transform="matrix(-0.1941 0.981 -0.981 -0.1941 36.9896 -25.6805)" fill-rule="evenodd" clip-rule="evenodd" fill="#067AB4" width="0.493" height="52.814"/>
		</g>
		<g clip-path="url(#SVGID_2_)">
			
				<rect x="28.861" y="-24.375" transform="matrix(-0.1941 0.981 -0.981 -0.1941 36.751 -26.1273)" fill-rule="evenodd" clip-rule="evenodd" fill="#067AB4" width="0.493" height="52.814"/>
		</g>
		<g clip-path="url(#SVGID_2_)">
			
				<rect x="28.925" y="-24.697" transform="matrix(-0.194 0.981 -0.981 -0.194 36.5084 -26.5752)" fill-rule="evenodd" clip-rule="evenodd" fill="#067AB4" width="0.493" height="52.814"/>
		</g>
		<g clip-path="url(#SVGID_2_)">
			
				<rect x="28.988" y="-25.02" transform="matrix(-0.1942 0.981 -0.981 -0.1942 36.2719 -27.0216)" fill-rule="evenodd" clip-rule="evenodd" fill="#067BB5" width="0.493" height="52.814"/>
		</g>
		<g clip-path="url(#SVGID_2_)">
			
				<rect x="29.052" y="-25.342" transform="matrix(-0.1941 0.981 -0.981 -0.1941 36.0298 -27.4694)" fill-rule="evenodd" clip-rule="evenodd" fill="#067BB5" width="0.493" height="52.814"/>
		</g>
		<g clip-path="url(#SVGID_2_)">
			
				<rect x="29.116" y="-25.664" transform="matrix(-0.1941 0.981 -0.981 -0.1941 35.7912 -27.9164)" fill-rule="evenodd" clip-rule="evenodd" fill="#057DB6" width="0.493" height="52.814"/>
		</g>
		<g clip-path="url(#SVGID_2_)">
			
				<rect x="29.18" y="-25.986" transform="matrix(-0.194 0.981 -0.981 -0.194 35.5485 -28.3642)" fill-rule="evenodd" clip-rule="evenodd" fill="#057DB6" width="0.493" height="52.814"/>
		</g>
		<g clip-path="url(#SVGID_2_)">
			
				<rect x="29.243" y="-26.308" transform="matrix(-0.1941 0.981 -0.981 -0.1941 35.3098 -28.8112)" fill-rule="evenodd" clip-rule="evenodd" fill="#057DB6" width="0.493" height="52.814"/>
		</g>
		<g clip-path="url(#SVGID_2_)">
			
				<rect x="29.307" y="-26.63" transform="matrix(-0.1941 0.981 -0.981 -0.1941 35.0699 -29.2584)" fill-rule="evenodd" clip-rule="evenodd" fill="#057FB6" width="0.493" height="52.814"/>
		</g>
		<g clip-path="url(#SVGID_2_)">
			
				<rect x="29.534" y="-26.753" transform="matrix(-0.1936 0.9811 -0.9811 -0.1936 34.9632 -29.4319)" fill-rule="evenodd" clip-rule="evenodd" fill="#057FB6" width="0.086" height="52.814"/>
		</g>
	</g>
</g>
<g>
	<g>
		<path fill-rule="evenodd" clip-rule="evenodd" fill="#FFFFFF" d="M50.115,30.985c-4.062-3.103-8.598-6.285-12.539-7.865
			c-3.662-1.468-11.157-1.543-17.065-0.684l-0.21-2.785C37.319,18.037,43.069,20.677,50.115,30.985z"/>
		<path fill-rule="evenodd" clip-rule="evenodd" fill="#FFFFFF" d="M38.08,21.021c-0.409,12.379,2.544,16.137,12.228,23.77
			c-10.312-1.382-19.683-12.67-18.882-24.435C34.045,20.163,38.051,20.909,38.08,21.021z"/>
		<path fill-rule="evenodd" clip-rule="evenodd" fill="#FFFFFF" d="M34.673,29.715c-3.239,2.812-4.734,7.553-5.702,11.843
			c3.721,3.678,6.305,6.821,9.326,11.423c-0.876-4.432-2.181-8.632-5.111-11.953c0.56-2.541,2.003-4.719,4.316-6.537
			C36.559,32.899,35.616,31.307,34.673,29.715z"/>
		<path fill-rule="evenodd" clip-rule="evenodd" fill="#FFFFFF" d="M30.459,14.157c1.952,6.245,6.064,6.505,9.059,2.627
			c-0.188-0.959-3.029-3.128-5.87-1.126c1.575,0.061,3.046,0.66,3.689,1.483c-1.912,1.464-3.567,0.78-5.04-2.478
			c1.963-1.122,4.316-1.582,6.552-0.905c-1.842-2.277-5.088-2.455-8.388,0.381c0.005-0.001,0.011-0.002,0.017-0.002
			C30.468,14.145,30.462,14.152,30.459,14.157z"/>
		<g>
			<path fill-rule="evenodd" clip-rule="evenodd" fill="#FFFFFF" d="M19.719,18.238l0.466,5.884c0,0-1.981-1.048-2.389-2.854
				C17.389,19.462,19.719,18.064,19.719,18.238z"/>
			<rect x="6.669" y="20.685" fill-rule="evenodd" clip-rule="evenodd" fill="#FFFFFF" width="12.409" height="0.524"/>
		</g>
	</g>
</g>
</svg>
