<?xml version="1.0" encoding="utf-8"?>
<!-- Generator: Adobe Illustrator 17.0.0, SVG Export Plug-In . SVG Version: 6.00 Build 0)  -->
<!DOCTYPE svg PUBLIC "-//W3C//DTD SVG 1.1//EN" "http://www.w3.org/Graphics/SVG/1.1/DTD/svg11.dtd">
<svg version="1.1" id="Layer_1" xmlns="http://www.w3.org/2000/svg" xmlns:xlink="http://www.w3.org/1999/xlink" x="0px" y="0px"
	 width="56px" height="56px" viewBox="0 0 56 56" enable-background="new 0 0 56 56" xml:space="preserve">
<g>
	<g>
		<defs>
			<path id="SVGID_1_" d="M0.217,1.906C21.603,2.684,38.223,4.122,55.783,12.92c-8.419,14.324-19.69,30.433-35.475,41.728
				C14.572,36.092,8.47,19.543,0.217,1.906z"/>
		</defs>
		<clipPath id="SVGID_2_">
			<use xlink:href="#SVGID_1_"  overflow="visible"/>
		</clipPath>
		<g clip-path="url(#SVGID_2_)">
			
				<rect x="5.388" y="-29.947" transform="matrix(0.6651 0.7467 -0.7467 0.6651 -0.2863 -5.012)" fill-rule="evenodd" clip-rule="evenodd" fill="#EE047F" width="0.113" height="54.244"/>
		</g>
		<g clip-path="url(#SVGID_2_)">
			
				<rect x="5.264" y="-29.944" transform="matrix(-0.665 -0.7469 0.7469 -0.665 11.178 -0.6295)" fill-rule="evenodd" clip-rule="evenodd" fill="#EE047F" width="0.368" height="54.244"/>
		</g>
		<g clip-path="url(#SVGID_2_)">
			
				<rect x="5.427" y="-29.761" transform="matrix(-0.6652 -0.7467 0.7467 -0.6652 11.3135 -0.2045)" fill-rule="evenodd" clip-rule="evenodd" fill="#EE047F" width="0.368" height="54.244"/>
		</g>
		<g clip-path="url(#SVGID_2_)">
			
				<rect x="5.59" y="-29.578" transform="matrix(-0.6648 -0.747 0.747 -0.6648 11.4469 0.2249)" fill-rule="evenodd" clip-rule="evenodd" fill="#EC047F" width="0.368" height="54.244"/>
		</g>
		<g clip-path="url(#SVGID_2_)">
			
				<rect x="5.753" y="-29.395" transform="matrix(-0.6651 -0.7467 0.7467 -0.6651 11.5827 0.6491)" fill-rule="evenodd" clip-rule="evenodd" fill="#EC047F" width="0.368" height="54.244"/>
		</g>
		<g clip-path="url(#SVGID_2_)">
			
				<rect x="5.916" y="-29.212" transform="matrix(-0.665 -0.7469 0.7469 -0.665 11.7169 1.0767)" fill-rule="evenodd" clip-rule="evenodd" fill="#EC047F" width="0.368" height="54.244"/>
		</g>
		<g clip-path="url(#SVGID_2_)">
			
				<rect x="6.079" y="-29.029" transform="matrix(-0.6651 -0.7467 0.7467 -0.6651 11.8523 1.5023)" fill-rule="evenodd" clip-rule="evenodd" fill="#E9047F" width="0.368" height="54.244"/>
		</g>
		<g clip-path="url(#SVGID_2_)">
			
				<rect x="6.242" y="-28.846" transform="matrix(-0.6649 -0.7469 0.7469 -0.6649 11.9862 1.9301)" fill-rule="evenodd" clip-rule="evenodd" fill="#E9047F" width="0.368" height="54.244"/>
		</g>
		<g clip-path="url(#SVGID_2_)">
			
				<rect x="6.405" y="-28.662" transform="matrix(-0.6651 -0.7467 0.7467 -0.6651 12.1217 2.3554)" fill-rule="evenodd" clip-rule="evenodd" fill="#E9047F" width="0.368" height="54.244"/>
		</g>
		<g clip-path="url(#SVGID_2_)">
			
				<rect x="6.568" y="-28.479" transform="matrix(-0.6651 -0.7467 0.7467 -0.6651 12.2565 2.7819)" fill-rule="evenodd" clip-rule="evenodd" fill="#E7047F" width="0.368" height="54.244"/>
		</g>
		<g clip-path="url(#SVGID_2_)">
			
				<rect x="6.731" y="-28.296" transform="matrix(-0.6651 -0.7468 0.7468 -0.6651 12.391 3.209)" fill-rule="evenodd" clip-rule="evenodd" fill="#E7047F" width="0.368" height="54.244"/>
		</g>
		<g clip-path="url(#SVGID_2_)">
			
				<rect x="6.894" y="-28.113" transform="matrix(-0.665 -0.7468 0.7468 -0.665 12.5253 3.636)" fill-rule="evenodd" clip-rule="evenodd" fill="#E7047F" width="0.368" height="54.244"/>
		</g>
		<g clip-path="url(#SVGID_2_)">
			
				<rect x="7.057" y="-27.93" transform="matrix(-0.6649 -0.7469 0.7469 -0.6649 12.6596 4.0631)" fill-rule="evenodd" clip-rule="evenodd" fill="#E5037F" width="0.368" height="54.244"/>
		</g>
		<g clip-path="url(#SVGID_2_)">
			
				<rect x="7.22" y="-27.747" transform="matrix(-0.6651 -0.7468 0.7468 -0.6651 12.7952 4.4887)" fill-rule="evenodd" clip-rule="evenodd" fill="#E5037F" width="0.368" height="54.244"/>
		</g>
		<g clip-path="url(#SVGID_2_)">
			
				<rect x="7.383" y="-27.564" transform="matrix(-0.6652 -0.7467 0.7467 -0.6652 12.9307 4.9146)" fill-rule="evenodd" clip-rule="evenodd" fill="#E5037F" width="0.368" height="54.244"/>
		</g>
		<g clip-path="url(#SVGID_2_)">
			
				<rect x="7.546" y="-27.381" transform="matrix(-0.6649 -0.7469 0.7469 -0.6649 13.0633 5.3431)" fill-rule="evenodd" clip-rule="evenodd" fill="#E5037F" width="0.368" height="54.244"/>
		</g>
		<g clip-path="url(#SVGID_2_)">
			
				<rect x="7.709" y="-27.198" transform="matrix(-0.6648 -0.747 0.747 -0.6648 13.1977 5.77)" fill-rule="evenodd" clip-rule="evenodd" fill="#E3037F" width="0.368" height="54.244"/>
		</g>
		<g clip-path="url(#SVGID_2_)">
			
				<rect x="7.872" y="-27.015" transform="matrix(-0.6652 -0.7467 0.7467 -0.6652 13.335 6.1943)" fill-rule="evenodd" clip-rule="evenodd" fill="#E3037F" width="0.368" height="54.244"/>
		</g>
		<g clip-path="url(#SVGID_2_)">
			
				<rect x="8.035" y="-26.832" transform="matrix(-0.6649 -0.7469 0.7469 -0.6649 13.4676 6.6227)" fill-rule="evenodd" clip-rule="evenodd" fill="#E0037F" width="0.368" height="54.244"/>
		</g>
		<g clip-path="url(#SVGID_2_)">
			
				<rect x="8.199" y="-26.649" transform="matrix(-0.665 -0.7468 0.7468 -0.665 13.603 7.0487)" fill-rule="evenodd" clip-rule="evenodd" fill="#E0037F" width="0.368" height="54.244"/>
		</g>
		<g clip-path="url(#SVGID_2_)">
			
				<rect x="8.362" y="-26.466" transform="matrix(-0.6648 -0.747 0.747 -0.6648 13.7359 7.4767)" fill-rule="evenodd" clip-rule="evenodd" fill="#E0037F" width="0.368" height="54.244"/>
		</g>
		<g clip-path="url(#SVGID_2_)">
			
				<rect x="8.525" y="-26.282" transform="matrix(-0.6651 -0.7467 0.7467 -0.6651 13.8736 7.901)" fill-rule="evenodd" clip-rule="evenodd" fill="#E0037F" width="0.368" height="54.244"/>
		</g>
		<g clip-path="url(#SVGID_2_)">
			
				<rect x="8.688" y="-26.099" transform="matrix(-0.665 -0.7468 0.7468 -0.665 14.0074 8.3282)" fill-rule="evenodd" clip-rule="evenodd" fill="#DE037F" width="0.368" height="54.244"/>
		</g>
		<g clip-path="url(#SVGID_2_)">
			
				<rect x="8.851" y="-25.916" transform="matrix(-0.665 -0.7469 0.7469 -0.665 14.1414 8.7554)" fill-rule="evenodd" clip-rule="evenodd" fill="#DE037F" width="0.368" height="54.244"/>
		</g>
		<g clip-path="url(#SVGID_2_)">
			
				<rect x="9.014" y="-25.733" transform="matrix(-0.6649 -0.7469 0.7469 -0.6649 14.2761 9.1819)" fill-rule="evenodd" clip-rule="evenodd" fill="#DC037F" width="0.368" height="54.244"/>
		</g>
		<g clip-path="url(#SVGID_2_)">
			
				<rect x="9.177" y="-25.55" transform="matrix(-0.6651 -0.7467 0.7467 -0.6651 14.4126 9.6073)" fill-rule="evenodd" clip-rule="evenodd" fill="#DC037F" width="0.368" height="54.244"/>
		</g>
		<g clip-path="url(#SVGID_2_)">
			
				<rect x="9.34" y="-25.367" transform="matrix(-0.6651 -0.7467 0.7467 -0.6651 14.5474 10.0339)" fill-rule="evenodd" clip-rule="evenodd" fill="#DC037F" width="0.368" height="54.244"/>
		</g>
		<g clip-path="url(#SVGID_2_)">
			
				<rect x="9.503" y="-25.184" transform="matrix(-0.6649 -0.7469 0.7469 -0.6649 14.6801 10.4618)" fill-rule="evenodd" clip-rule="evenodd" fill="#DA037F" width="0.368" height="54.244"/>
		</g>
		<g clip-path="url(#SVGID_2_)">
			
				<rect x="9.666" y="-25.001" transform="matrix(-0.665 -0.7469 0.7469 -0.665 14.8149 10.8882)" fill-rule="evenodd" clip-rule="evenodd" fill="#DA037F" width="0.368" height="54.244"/>
		</g>
		<g clip-path="url(#SVGID_2_)">
			
				<rect x="9.829" y="-24.818" transform="matrix(-0.6651 -0.7467 0.7467 -0.6651 14.9516 11.3138)" fill-rule="evenodd" clip-rule="evenodd" fill="#DA037F" width="0.368" height="54.244"/>
		</g>
		<g clip-path="url(#SVGID_2_)">
			
				<rect x="9.992" y="-24.635" transform="matrix(-0.6651 -0.7468 0.7468 -0.6651 15.0858 11.7406)" fill-rule="evenodd" clip-rule="evenodd" fill="#D8037F" width="0.368" height="54.244"/>
		</g>
		<g clip-path="url(#SVGID_2_)">
			
				<rect x="10.155" y="-24.452" transform="matrix(-0.665 -0.7468 0.7468 -0.665 15.2196 12.1677)" fill-rule="evenodd" clip-rule="evenodd" fill="#D8037F" width="0.368" height="54.244"/>
		</g>
		<g clip-path="url(#SVGID_2_)">
			
				<rect x="10.318" y="-24.269" transform="matrix(-0.6649 -0.7469 0.7469 -0.6649 15.3536 12.5946)" fill-rule="evenodd" clip-rule="evenodd" fill="#D8037F" width="0.368" height="54.244"/>
		</g>
		<g clip-path="url(#SVGID_2_)">
			
				<rect x="10.481" y="-24.086" transform="matrix(-0.6649 -0.7469 0.7469 -0.6649 15.4878 13.0214)" fill-rule="evenodd" clip-rule="evenodd" fill="#D5037F" width="0.368" height="54.244"/>
		</g>
		<g clip-path="url(#SVGID_2_)">
			
				<rect x="10.644" y="-23.902" transform="matrix(-0.6652 -0.7467 0.7467 -0.6652 15.6262 13.4463)" fill-rule="evenodd" clip-rule="evenodd" fill="#D5037F" width="0.368" height="54.244"/>
		</g>
		<g clip-path="url(#SVGID_2_)">
			
				<rect x="10.807" y="-23.719" transform="matrix(-0.6647 -0.7471 0.7471 -0.6647 15.7547 13.8756)" fill-rule="evenodd" clip-rule="evenodd" fill="#D5037F" width="0.368" height="54.244"/>
		</g>
		<g clip-path="url(#SVGID_2_)">
			
				<rect x="10.97" y="-23.536" transform="matrix(-0.665 -0.7468 0.7468 -0.665 15.8932 14.3006)" fill-rule="evenodd" clip-rule="evenodd" fill="#D3037F" width="0.368" height="54.244"/>
		</g>
		<g clip-path="url(#SVGID_2_)">
			
				<rect x="11.133" y="-23.353" transform="matrix(-0.665 -0.7468 0.7468 -0.665 16.0282 14.7269)" fill-rule="evenodd" clip-rule="evenodd" fill="#D3037F" width="0.368" height="54.244"/>
		</g>
		<g clip-path="url(#SVGID_2_)">
			
				<rect x="11.296" y="-23.17" transform="matrix(-0.6651 -0.7468 0.7468 -0.6651 16.1637 15.1533)" fill-rule="evenodd" clip-rule="evenodd" fill="#D3037F" width="0.368" height="54.244"/>
		</g>
		<g clip-path="url(#SVGID_2_)">
			
				<rect x="11.459" y="-22.987" transform="matrix(-0.665 -0.7468 0.7468 -0.665 16.2974 15.5802)" fill-rule="evenodd" clip-rule="evenodd" fill="#D1037F" width="0.368" height="54.244"/>
		</g>
		<g clip-path="url(#SVGID_2_)">
			
				<rect x="11.622" y="-22.804" transform="matrix(-0.665 -0.7469 0.7469 -0.665 16.4313 16.0072)" fill-rule="evenodd" clip-rule="evenodd" fill="#D1037F" width="0.368" height="54.244"/>
		</g>
		<g clip-path="url(#SVGID_2_)">
			
				<rect x="11.785" y="-22.621" transform="matrix(-0.6651 -0.7467 0.7467 -0.6651 16.5687 16.4326)" fill-rule="evenodd" clip-rule="evenodd" fill="#D1037F" width="0.368" height="54.244"/>
		</g>
		<g clip-path="url(#SVGID_2_)">
			
				<rect x="11.948" y="-22.438" transform="matrix(-0.6652 -0.7467 0.7467 -0.6652 16.7044 16.859)" fill-rule="evenodd" clip-rule="evenodd" fill="#CF037F" width="0.368" height="54.244"/>
		</g>
		<g clip-path="url(#SVGID_2_)">
			
				<rect x="12.111" y="-22.255" transform="matrix(-0.665 -0.7469 0.7469 -0.665 16.8354 17.2869)" fill-rule="evenodd" clip-rule="evenodd" fill="#CF037F" width="0.368" height="54.244"/>
		</g>
		<g clip-path="url(#SVGID_2_)">
			
				<rect x="12.274" y="-22.072" transform="matrix(-0.6649 -0.7469 0.7469 -0.6649 16.97 17.7136)" fill-rule="evenodd" clip-rule="evenodd" fill="#CF037F" width="0.368" height="54.244"/>
		</g>
		<g clip-path="url(#SVGID_2_)">
			
				<rect x="12.437" y="-21.889" transform="matrix(-0.6651 -0.7467 0.7467 -0.6651 17.1078 18.139)" fill-rule="evenodd" clip-rule="evenodd" fill="#CD037F" width="0.368" height="54.244"/>
		</g>
		<g clip-path="url(#SVGID_2_)">
			
				<rect x="12.6" y="-21.706" transform="matrix(-0.6651 -0.7467 0.7467 -0.6651 17.2425 18.5657)" fill-rule="evenodd" clip-rule="evenodd" fill="#CD037F" width="0.368" height="54.244"/>
		</g>
		<g clip-path="url(#SVGID_2_)">
			
				<rect x="12.763" y="-21.522" transform="matrix(-0.6649 -0.7469 0.7469 -0.6649 17.374 18.9933)" fill-rule="evenodd" clip-rule="evenodd" fill="#CD037F" width="0.368" height="54.244"/>
		</g>
		<g clip-path="url(#SVGID_2_)">
			
				<rect x="12.926" y="-21.339" transform="matrix(-0.6648 -0.747 0.747 -0.6648 17.506 19.4207)" fill-rule="evenodd" clip-rule="evenodd" fill="#CD037F" width="0.368" height="54.244"/>
		</g>
		<g clip-path="url(#SVGID_2_)">
			
				<rect x="13.089" y="-21.156" transform="matrix(-0.6651 -0.7467 0.7467 -0.6651 17.6467 19.8454)" fill-rule="evenodd" clip-rule="evenodd" fill="#CA037F" width="0.368" height="54.244"/>
		</g>
		<g clip-path="url(#SVGID_2_)">
			
				<rect x="13.252" y="-20.973" transform="matrix(-0.6649 -0.7469 0.7469 -0.6649 17.7776 20.2731)" fill-rule="evenodd" clip-rule="evenodd" fill="#CA037F" width="0.368" height="54.244"/>
		</g>
		<g clip-path="url(#SVGID_2_)">
			
				<rect x="13.415" y="-20.79" transform="matrix(-0.665 -0.7468 0.7468 -0.665 17.9139 20.6992)" fill-rule="evenodd" clip-rule="evenodd" fill="#C8037F" width="0.368" height="54.244"/>
		</g>
		<g clip-path="url(#SVGID_2_)">
			
				<rect x="13.578" y="-20.607" transform="matrix(-0.6648 -0.747 0.747 -0.6648 18.0445 21.127)" fill-rule="evenodd" clip-rule="evenodd" fill="#C8037F" width="0.368" height="54.244"/>
		</g>
		<g clip-path="url(#SVGID_2_)">
			
				<rect x="13.741" y="-20.424" transform="matrix(-0.6651 -0.7468 0.7468 -0.6651 18.1847 21.552)" fill-rule="evenodd" clip-rule="evenodd" fill="#C8037F" width="0.368" height="54.244"/>
		</g>
		<g clip-path="url(#SVGID_2_)">
			
				<rect x="13.905" y="-20.241" transform="matrix(-0.6652 -0.7467 0.7467 -0.6652 18.3218 21.9779)" fill-rule="evenodd" clip-rule="evenodd" fill="#C8037F" width="0.368" height="54.244"/>
		</g>
		<g clip-path="url(#SVGID_2_)">
			
				<rect x="14.068" y="-20.058" transform="matrix(-0.6649 -0.7469 0.7469 -0.6649 18.4505 22.4062)" fill-rule="evenodd" clip-rule="evenodd" fill="#C6037E" width="0.368" height="54.244"/>
		</g>
		<g clip-path="url(#SVGID_2_)">
			
				<rect x="14.231" y="-19.875" transform="matrix(-0.665 -0.7468 0.7468 -0.665 18.5876 22.8321)" fill-rule="evenodd" clip-rule="evenodd" fill="#C6037E" width="0.368" height="54.244"/>
		</g>
		<g clip-path="url(#SVGID_2_)">
			
				<rect x="14.394" y="-19.692" transform="matrix(-0.6652 -0.7467 0.7467 -0.6652 18.726 23.2578)" fill-rule="evenodd" clip-rule="evenodd" fill="#C4037E" width="0.368" height="54.244"/>
		</g>
		<g clip-path="url(#SVGID_2_)">
			
				<rect x="14.557" y="-19.509" transform="matrix(-0.6651 -0.7468 0.7468 -0.6651 18.8585 23.6849)" fill-rule="evenodd" clip-rule="evenodd" fill="#C4037E" width="0.368" height="54.244"/>
		</g>
		<g clip-path="url(#SVGID_2_)">
			
				<rect x="14.72" y="-19.326" transform="matrix(-0.665 -0.7468 0.7468 -0.665 18.9916 24.1119)" fill-rule="evenodd" clip-rule="evenodd" fill="#C4037E" width="0.368" height="54.244"/>
		</g>
		<g clip-path="url(#SVGID_2_)">
			
				<rect x="14.883" y="-19.143" transform="matrix(-0.665 -0.7469 0.7469 -0.665 19.1253 24.5387)" fill-rule="evenodd" clip-rule="evenodd" fill="#C2037E" width="0.368" height="54.244"/>
		</g>
		<g clip-path="url(#SVGID_2_)">
			
				<rect x="15.046" y="-18.959" transform="matrix(-0.6651 -0.7467 0.7467 -0.6651 19.2637 24.9645)" fill-rule="evenodd" clip-rule="evenodd" fill="#C2037E" width="0.368" height="54.244"/>
		</g>
		<g clip-path="url(#SVGID_2_)">
			
				<rect x="15.209" y="-18.776" transform="matrix(-0.6652 -0.7467 0.7467 -0.6652 19.3999 25.3907)" fill-rule="evenodd" clip-rule="evenodd" fill="#C2037E" width="0.368" height="54.244"/>
		</g>
		<g clip-path="url(#SVGID_2_)">
			
				<rect x="15.372" y="-18.593" transform="matrix(-0.6651 -0.7468 0.7468 -0.6651 19.532 25.8179)" fill-rule="evenodd" clip-rule="evenodd" fill="#BF037E" width="0.368" height="54.244"/>
		</g>
		<g clip-path="url(#SVGID_2_)">
			
				<rect x="15.535" y="-18.41" transform="matrix(-0.6649 -0.7469 0.7469 -0.6649 19.6639 26.2451)" fill-rule="evenodd" clip-rule="evenodd" fill="#BF037E" width="0.368" height="54.244"/>
		</g>
		<g clip-path="url(#SVGID_2_)">
			
				<rect x="15.698" y="-18.227" transform="matrix(-0.665 -0.7469 0.7469 -0.665 19.7992 26.6715)" fill-rule="evenodd" clip-rule="evenodd" fill="#BF037E" width="0.368" height="54.244"/>
		</g>
		<g clip-path="url(#SVGID_2_)">
			
				<rect x="15.861" y="-18.044" transform="matrix(-0.6651 -0.7467 0.7467 -0.6651 19.9376 27.0973)" fill-rule="evenodd" clip-rule="evenodd" fill="#BD037E" width="0.368" height="54.244"/>
		</g>
		<g clip-path="url(#SVGID_2_)">
			
				<rect x="16.024" y="-17.861" transform="matrix(-0.665 -0.7469 0.7469 -0.665 20.0685 27.5247)" fill-rule="evenodd" clip-rule="evenodd" fill="#BD037E" width="0.368" height="54.244"/>
		</g>
		<g clip-path="url(#SVGID_2_)">
			
				<rect x="16.187" y="-17.678" transform="matrix(-0.665 -0.7469 0.7469 -0.665 20.2029 27.9514)" fill-rule="evenodd" clip-rule="evenodd" fill="#BD037E" width="0.368" height="54.244"/>
		</g>
		<g clip-path="url(#SVGID_2_)">
			
				<rect x="16.35" y="-17.495" transform="matrix(-0.665 -0.7469 0.7469 -0.665 20.3379 28.3778)" fill-rule="evenodd" clip-rule="evenodd" fill="#BB037E" width="0.368" height="54.244"/>
		</g>
		<g clip-path="url(#SVGID_2_)">
			
				<rect x="16.513" y="-17.312" transform="matrix(-0.6651 -0.7468 0.7468 -0.6651 20.4753 28.804)" fill-rule="evenodd" clip-rule="evenodd" fill="#BB037E" width="0.368" height="54.244"/>
		</g>
		<g clip-path="url(#SVGID_2_)">
			
				<rect x="16.676" y="-17.129" transform="matrix(-0.6652 -0.7467 0.7467 -0.6652 20.6129 29.2299)" fill-rule="evenodd" clip-rule="evenodd" fill="#BB037E" width="0.368" height="54.244"/>
		</g>
		<g clip-path="url(#SVGID_2_)">
			
				<rect x="16.839" y="-16.946" transform="matrix(-0.6649 -0.7469 0.7469 -0.6649 20.7415 29.6578)" fill-rule="evenodd" clip-rule="evenodd" fill="#B9027E" width="0.368" height="54.244"/>
		</g>
		<g clip-path="url(#SVGID_2_)">
			
				<rect x="17.002" y="-16.763" transform="matrix(-0.6651 -0.7468 0.7468 -0.6651 20.8795 30.0836)" fill-rule="evenodd" clip-rule="evenodd" fill="#B9027E" width="0.368" height="54.244"/>
		</g>
		<g clip-path="url(#SVGID_2_)">
			
				<rect x="17.165" y="-16.579" transform="matrix(-0.6652 -0.7467 0.7467 -0.6652 21.0172 30.5098)" fill-rule="evenodd" clip-rule="evenodd" fill="#B9027E" width="0.368" height="54.244"/>
		</g>
		<g clip-path="url(#SVGID_2_)">
			
				<rect x="17.328" y="-16.396" transform="matrix(-0.6651 -0.7468 0.7468 -0.6651 21.1489 30.9368)" fill-rule="evenodd" clip-rule="evenodd" fill="#B9027E" width="0.368" height="54.244"/>
		</g>
		<g clip-path="url(#SVGID_2_)">
			
				<rect x="17.491" y="-16.213" transform="matrix(-0.665 -0.7468 0.7468 -0.665 21.2819 31.3638)" fill-rule="evenodd" clip-rule="evenodd" fill="#B6027E" width="0.368" height="54.244"/>
		</g>
		<g clip-path="url(#SVGID_2_)">
			
				<rect x="17.654" y="-16.03" transform="matrix(-0.6652 -0.7467 0.7467 -0.6652 21.4215 31.7895)" fill-rule="evenodd" clip-rule="evenodd" fill="#B6027E" width="0.368" height="54.244"/>
		</g>
		<g clip-path="url(#SVGID_2_)">
			
				<rect x="17.817" y="-15.847" transform="matrix(-0.6651 -0.7468 0.7468 -0.6651 21.5532 32.2167)" fill-rule="evenodd" clip-rule="evenodd" fill="#B4027E" width="0.368" height="54.244"/>
		</g>
		<g clip-path="url(#SVGID_2_)">
			
				<rect x="17.98" y="-15.664" transform="matrix(-0.6652 -0.7467 0.7467 -0.6652 21.691 32.6426)" fill-rule="evenodd" clip-rule="evenodd" fill="#B4027E" width="0.368" height="54.244"/>
		</g>
		<g clip-path="url(#SVGID_2_)">
			
				<rect x="18.143" y="-15.481" transform="matrix(-0.6648 -0.747 0.747 -0.6648 21.8147 33.0711)" fill-rule="evenodd" clip-rule="evenodd" fill="#B4027E" width="0.368" height="54.244"/>
		</g>
		<g clip-path="url(#SVGID_2_)">
			
				<rect x="18.306" y="-15.298" transform="matrix(-0.6651 -0.7467 0.7467 -0.6651 21.9589 33.4961)" fill-rule="evenodd" clip-rule="evenodd" fill="#B4027E" width="0.368" height="54.244"/>
		</g>
		<g clip-path="url(#SVGID_2_)">
			
				<rect x="18.469" y="-15.115" transform="matrix(-0.665 -0.7468 0.7468 -0.665 22.0908 33.9231)" fill-rule="evenodd" clip-rule="evenodd" fill="#B2027E" width="0.368" height="54.244"/>
		</g>
		<g clip-path="url(#SVGID_2_)">
			
				<rect x="18.632" y="-14.932" transform="matrix(-0.6651 -0.7468 0.7468 -0.6651 22.2268 34.3495)" fill-rule="evenodd" clip-rule="evenodd" fill="#B2027E" width="0.368" height="54.244"/>
		</g>
		<g clip-path="url(#SVGID_2_)">
			
				<rect x="18.795" y="-14.749" transform="matrix(-0.6648 -0.747 0.747 -0.6648 22.3532 34.7773)" fill-rule="evenodd" clip-rule="evenodd" fill="#B0027E" width="0.368" height="54.244"/>
		</g>
		<g clip-path="url(#SVGID_2_)">
			
				<rect x="18.958" y="-14.566" transform="matrix(-0.6651 -0.7467 0.7467 -0.6651 22.4981 35.2024)" fill-rule="evenodd" clip-rule="evenodd" fill="#B0027E" width="0.368" height="54.244"/>
		</g>
		<g clip-path="url(#SVGID_2_)">
			
				<rect x="19.121" y="-14.383" transform="matrix(-0.6651 -0.7467 0.7467 -0.6651 22.6327 35.629)" fill-rule="evenodd" clip-rule="evenodd" fill="#B0027E" width="0.368" height="54.244"/>
		</g>
		<g clip-path="url(#SVGID_2_)">
			
				<rect x="19.284" y="-14.199" transform="matrix(-0.6651 -0.7467 0.7467 -0.6651 22.7674 36.0557)" fill-rule="evenodd" clip-rule="evenodd" fill="#B0027E" width="0.368" height="54.244"/>
		</g>
		<g clip-path="url(#SVGID_2_)">
			
				<rect x="19.448" y="-14.016" transform="matrix(-0.665 -0.7469 0.7469 -0.665 22.8969 36.4829)" fill-rule="evenodd" clip-rule="evenodd" fill="#AE027E" width="0.368" height="54.244"/>
		</g>
		<g clip-path="url(#SVGID_2_)">
			
				<rect x="19.611" y="-13.833" transform="matrix(-0.6651 -0.7467 0.7467 -0.6651 23.0369 36.9088)" fill-rule="evenodd" clip-rule="evenodd" fill="#AE027E" width="0.368" height="54.244"/>
		</g>
		<g clip-path="url(#SVGID_2_)">
			
				<rect x="19.774" y="-13.65" transform="matrix(-0.6651 -0.7467 0.7467 -0.6651 23.1719 37.3353)" fill-rule="evenodd" clip-rule="evenodd" fill="#AB027E" width="0.368" height="54.244"/>
		</g>
		<g clip-path="url(#SVGID_2_)">
			
				<rect x="19.937" y="-13.467" transform="matrix(-0.6652 -0.7467 0.7467 -0.6652 23.3083 37.7618)" fill-rule="evenodd" clip-rule="evenodd" fill="#AB027E" width="0.368" height="54.244"/>
		</g>
		<g clip-path="url(#SVGID_2_)">
			
				<rect x="20.1" y="-13.284" transform="matrix(-0.6649 -0.7469 0.7469 -0.6649 23.4354 38.1893)" fill-rule="evenodd" clip-rule="evenodd" fill="#AB027E" width="0.368" height="54.244"/>
		</g>
		<g clip-path="url(#SVGID_2_)">
			
				<rect x="20.263" y="-13.101" transform="matrix(-0.6651 -0.7467 0.7467 -0.6651 23.5761 38.6151)" fill-rule="evenodd" clip-rule="evenodd" fill="#A9027E" width="0.368" height="54.244"/>
		</g>
		<g clip-path="url(#SVGID_2_)">
			
				<rect x="20.426" y="-12.918" transform="matrix(-0.6651 -0.7467 0.7467 -0.6651 23.7107 39.0417)" fill-rule="evenodd" clip-rule="evenodd" fill="#A9027E" width="0.368" height="54.244"/>
		</g>
		<g clip-path="url(#SVGID_2_)">
			
				<rect x="20.589" y="-12.735" transform="matrix(-0.6649 -0.7469 0.7469 -0.6649 23.8384 39.4691)" fill-rule="evenodd" clip-rule="evenodd" fill="#A9027E" width="0.368" height="54.244"/>
		</g>
		<g clip-path="url(#SVGID_2_)">
			
				<rect x="20.752" y="-12.552" transform="matrix(-0.665 -0.7468 0.7468 -0.665 23.9762 39.8954)" fill-rule="evenodd" clip-rule="evenodd" fill="#A7027E" width="0.368" height="54.244"/>
		</g>
		<g clip-path="url(#SVGID_2_)">
			
				<rect x="20.915" y="-12.369" transform="matrix(-0.665 -0.7469 0.7469 -0.665 24.1095 40.3221)" fill-rule="evenodd" clip-rule="evenodd" fill="#A7027E" width="0.368" height="54.244"/>
		</g>
		<g clip-path="url(#SVGID_2_)">
			
				<rect x="21.078" y="-12.186" transform="matrix(-0.6651 -0.7468 0.7468 -0.6651 24.2479 40.7483)" fill-rule="evenodd" clip-rule="evenodd" fill="#A7027E" width="0.368" height="54.244"/>
		</g>
		<g clip-path="url(#SVGID_2_)">
			
				<rect x="21.241" y="-12.003" transform="matrix(-0.665 -0.7468 0.7468 -0.665 24.381 41.1749)" fill-rule="evenodd" clip-rule="evenodd" fill="#A5027E" width="0.368" height="54.244"/>
		</g>
		<g clip-path="url(#SVGID_2_)">
			
				<rect x="21.404" y="-11.819" transform="matrix(-0.6649 -0.7469 0.7469 -0.6649 24.5111 41.6021)" fill-rule="evenodd" clip-rule="evenodd" fill="#A5027E" width="0.368" height="54.244"/>
		</g>
		<g clip-path="url(#SVGID_2_)">
			
				<rect x="21.567" y="-11.636" transform="matrix(-0.665 -0.7469 0.7469 -0.665 24.6484 42.0283)" fill-rule="evenodd" clip-rule="evenodd" fill="#A5027E" width="0.368" height="54.244"/>
		</g>
		<g clip-path="url(#SVGID_2_)">
			
				<rect x="21.73" y="-11.453" transform="matrix(-0.6652 -0.7467 0.7467 -0.6652 24.7909 42.4542)" fill-rule="evenodd" clip-rule="evenodd" fill="#A3027E" width="0.368" height="54.244"/>
		</g>
		<g clip-path="url(#SVGID_2_)">
			
				<rect x="21.893" y="-11.27" transform="matrix(-0.6651 -0.7468 0.7468 -0.6651 24.9216 42.8811)" fill-rule="evenodd" clip-rule="evenodd" fill="#A3027E" width="0.368" height="54.244"/>
		</g>
		<g clip-path="url(#SVGID_2_)">
			
				<rect x="22.056" y="-11.087" transform="matrix(-0.665 -0.7468 0.7468 -0.665 25.0539 43.3081)" fill-rule="evenodd" clip-rule="evenodd" fill="#A3027E" width="0.368" height="54.244"/>
		</g>
		<g clip-path="url(#SVGID_2_)">
			
				<rect x="22.219" y="-10.904" transform="matrix(-0.6651 -0.7467 0.7467 -0.6651 25.1932 43.7341)" fill-rule="evenodd" clip-rule="evenodd" fill="#A0027E" width="0.368" height="54.244"/>
		</g>
		<g clip-path="url(#SVGID_2_)">
			
				<rect x="22.382" y="-10.721" transform="matrix(-0.6651 -0.7467 0.7467 -0.6651 25.3278 44.1608)" fill-rule="evenodd" clip-rule="evenodd" fill="#A0027E" width="0.368" height="54.244"/>
		</g>
		<g clip-path="url(#SVGID_2_)">
			
				<rect x="22.545" y="-10.538" transform="matrix(-0.6652 -0.7467 0.7467 -0.6652 25.4648 44.5871)" fill-rule="evenodd" clip-rule="evenodd" fill="#A0027E" width="0.368" height="54.244"/>
		</g>
		<g clip-path="url(#SVGID_2_)">
			
				<rect x="22.708" y="-10.355" transform="matrix(-0.665 -0.7469 0.7469 -0.665 25.5908 45.0146)" fill-rule="evenodd" clip-rule="evenodd" fill="#A0027E" width="0.368" height="54.244"/>
		</g>
		<g clip-path="url(#SVGID_2_)">
			
				<rect x="22.871" y="-10.172" transform="matrix(-0.6651 -0.7467 0.7467 -0.6651 25.732 45.4405)" fill-rule="evenodd" clip-rule="evenodd" fill="#9E027E" width="0.368" height="54.244"/>
		</g>
		<g clip-path="url(#SVGID_2_)">
			
				<rect x="23.034" y="-9.989" transform="matrix(-0.6651 -0.7467 0.7467 -0.6651 25.867 45.8671)" fill-rule="evenodd" clip-rule="evenodd" fill="#9E027E" width="0.368" height="54.244"/>
		</g>
		<g clip-path="url(#SVGID_2_)">
			
				<rect x="23.197" y="-9.806" transform="matrix(-0.6651 -0.7467 0.7467 -0.6651 26.0016 46.2937)" fill-rule="evenodd" clip-rule="evenodd" fill="#9C027E" width="0.368" height="54.244"/>
		</g>
		<g clip-path="url(#SVGID_2_)">
			
				<rect x="23.36" y="-9.622" transform="matrix(-0.6648 -0.747 0.747 -0.6648 26.1232 46.7214)" fill-rule="evenodd" clip-rule="evenodd" fill="#9C027E" width="0.368" height="54.244"/>
		</g>
		<g clip-path="url(#SVGID_2_)">
			
				<rect x="23.523" y="-9.439" transform="matrix(-0.665 -0.7469 0.7469 -0.665 26.2644 47.1474)" fill-rule="evenodd" clip-rule="evenodd" fill="#9C027E" width="0.368" height="54.244"/>
		</g>
		<g clip-path="url(#SVGID_2_)">
			
				<rect x="23.686" y="-9.256" transform="matrix(-0.665 -0.7469 0.7469 -0.665 26.3996 47.5739)" fill-rule="evenodd" clip-rule="evenodd" fill="#9C027E" width="0.368" height="54.244"/>
		</g>
		<g clip-path="url(#SVGID_2_)">
			
				<rect x="23.849" y="-9.073" transform="matrix(-0.6651 -0.7468 0.7468 -0.6651 26.5385 48.0002)" fill-rule="evenodd" clip-rule="evenodd" fill="#9A027E" width="0.368" height="54.244"/>
		</g>
		<g clip-path="url(#SVGID_2_)">
			
				<rect x="24.012" y="-8.89" transform="matrix(-0.6648 -0.747 0.747 -0.6648 26.6642 48.4274)" fill-rule="evenodd" clip-rule="evenodd" fill="#9A027E" width="0.368" height="54.244"/>
		</g>
		<g clip-path="url(#SVGID_2_)">
			
				<rect x="24.175" y="-8.707" transform="matrix(-0.6649 -0.7469 0.7469 -0.6649 26.8029 48.8538)" fill-rule="evenodd" clip-rule="evenodd" fill="#98027E" width="0.368" height="54.244"/>
		</g>
		<g clip-path="url(#SVGID_2_)">
			
				<rect x="24.338" y="-8.524" transform="matrix(-0.6651 -0.7468 0.7468 -0.6651 26.9427 49.2798)" fill-rule="evenodd" clip-rule="evenodd" fill="#98027E" width="0.368" height="54.244"/>
		</g>
		<g clip-path="url(#SVGID_2_)">
			
				<rect x="24.501" y="-8.341" transform="matrix(-0.6652 -0.7467 0.7467 -0.6652 27.0821 49.7062)" fill-rule="evenodd" clip-rule="evenodd" fill="#98027E" width="0.368" height="54.244"/>
		</g>
		<g clip-path="url(#SVGID_2_)">
			
				<rect x="24.664" y="-8.158" transform="matrix(-0.6649 -0.7469 0.7469 -0.6649 27.2048 50.1336)" fill-rule="evenodd" clip-rule="evenodd" fill="#98027E" width="0.368" height="54.244"/>
		</g>
		<g clip-path="url(#SVGID_2_)">
			
				<rect x="24.828" y="-7.975" transform="matrix(-0.665 -0.7468 0.7468 -0.665 27.3441 50.5599)" fill-rule="evenodd" clip-rule="evenodd" fill="#95027E" width="0.368" height="54.244"/>
		</g>
		<g clip-path="url(#SVGID_2_)">
			
				<rect x="24.991" y="-7.792" transform="matrix(-0.6652 -0.7467 0.7467 -0.6652 27.4864 50.9859)" fill-rule="evenodd" clip-rule="evenodd" fill="#95027E" width="0.368" height="54.244"/>
		</g>
		<g clip-path="url(#SVGID_2_)">
			
				<rect x="25.154" y="-7.609" transform="matrix(-0.6651 -0.7468 0.7468 -0.6651 27.6164 51.4129)" fill-rule="evenodd" clip-rule="evenodd" fill="#93027E" width="0.368" height="54.244"/>
		</g>
		<g clip-path="url(#SVGID_2_)">
			
				<rect x="25.317" y="-7.426" transform="matrix(-0.665 -0.7468 0.7468 -0.665 27.7483 51.8396)" fill-rule="evenodd" clip-rule="evenodd" fill="#93027E" width="0.368" height="54.244"/>
		</g>
		<g clip-path="url(#SVGID_2_)">
			
				<rect x="25.48" y="-7.242" transform="matrix(-0.665 -0.7469 0.7469 -0.665 27.8807 52.2665)" fill-rule="evenodd" clip-rule="evenodd" fill="#93027E" width="0.368" height="54.244"/>
		</g>
		<g clip-path="url(#SVGID_2_)">
			
				<rect x="25.643" y="-7.059" transform="matrix(-0.6651 -0.7467 0.7467 -0.6651 28.0229 52.6924)" fill-rule="evenodd" clip-rule="evenodd" fill="#93027E" width="0.368" height="54.244"/>
		</g>
		<g clip-path="url(#SVGID_2_)">
			
				<rect x="25.806" y="-6.876" transform="matrix(-0.665 -0.7468 0.7468 -0.665 28.1533 53.1193)" fill-rule="evenodd" clip-rule="evenodd" fill="#91027E" width="0.368" height="54.244"/>
		</g>
		<g clip-path="url(#SVGID_2_)">
			
				<rect x="25.969" y="-6.693" transform="matrix(-0.665 -0.7469 0.7469 -0.665 28.2848 53.5461)" fill-rule="evenodd" clip-rule="evenodd" fill="#91027E" width="0.368" height="54.244"/>
		</g>
		<g clip-path="url(#SVGID_2_)">
			
				<rect x="26.132" y="-6.51" transform="matrix(-0.6648 -0.747 0.747 -0.6648 28.4122 53.9732)" fill-rule="evenodd" clip-rule="evenodd" fill="#8F027E" width="0.368" height="54.244"/>
		</g>
		<g clip-path="url(#SVGID_2_)">
			
				<rect x="26.295" y="-6.327" transform="matrix(-0.6651 -0.7467 0.7467 -0.6651 28.5622 54.3988)" fill-rule="evenodd" clip-rule="evenodd" fill="#8F027E" width="0.368" height="54.244"/>
		</g>
		<g clip-path="url(#SVGID_2_)">
			
				<rect x="26.458" y="-6.144" transform="matrix(-0.665 -0.7469 0.7469 -0.665 28.6896 54.8257)" fill-rule="evenodd" clip-rule="evenodd" fill="#8F027E" width="0.368" height="54.244"/>
		</g>
		<g clip-path="url(#SVGID_2_)">
			
				<rect x="26.621" y="-5.961" transform="matrix(-0.6649 -0.7469 0.7469 -0.6649 28.8233 55.2525)" fill-rule="evenodd" clip-rule="evenodd" fill="#8D027E" width="0.368" height="54.244"/>
		</g>
		<g clip-path="url(#SVGID_2_)">
			
				<rect x="26.784" y="-5.778" transform="matrix(-0.6648 -0.747 0.747 -0.6648 28.9536 55.6792)" fill-rule="evenodd" clip-rule="evenodd" fill="#8D027E" width="0.368" height="54.244"/>
		</g>
		<g clip-path="url(#SVGID_2_)">
			
				<rect x="26.947" y="-5.595" transform="matrix(-0.6651 -0.7467 0.7467 -0.6651 29.1009 56.1051)" fill-rule="evenodd" clip-rule="evenodd" fill="#8D027E" width="0.368" height="54.244"/>
		</g>
		<g clip-path="url(#SVGID_2_)">
			
				<rect x="27.11" y="-5.412" transform="matrix(-0.6651 -0.7468 0.7468 -0.6651 29.2333 56.5318)" fill-rule="evenodd" clip-rule="evenodd" fill="#8D027E" width="0.368" height="54.244"/>
		</g>
		<g clip-path="url(#SVGID_2_)">
			
				<rect x="27.273" y="-5.229" transform="matrix(-0.665 -0.7468 0.7468 -0.665 29.3649 56.9586)" fill-rule="evenodd" clip-rule="evenodd" fill="#8A027E" width="0.368" height="54.244"/>
		</g>
		<g clip-path="url(#SVGID_2_)">
			
				<rect x="27.436" y="-5.046" transform="matrix(-0.6649 -0.7469 0.7469 -0.6649 29.4969 57.3853)" fill-rule="evenodd" clip-rule="evenodd" fill="#8A027E" width="0.368" height="54.244"/>
		</g>
		<g clip-path="url(#SVGID_2_)">
			
				<rect x="27.599" y="-4.862" transform="matrix(-0.6651 -0.7468 0.7468 -0.6651 29.6374 57.8116)" fill-rule="evenodd" clip-rule="evenodd" fill="#88027E" width="0.368" height="54.244"/>
		</g>
		<g clip-path="url(#SVGID_2_)">
			
				<rect x="27.762" y="-4.679" transform="matrix(-0.6652 -0.7467 0.7467 -0.6652 29.7776 58.2379)" fill-rule="evenodd" clip-rule="evenodd" fill="#88027E" width="0.368" height="54.244"/>
		</g>
		<g clip-path="url(#SVGID_2_)">
			
				<rect x="27.925" y="-4.496" transform="matrix(-0.6649 -0.7469 0.7469 -0.6649 29.8983 58.6652)" fill-rule="evenodd" clip-rule="evenodd" fill="#88027E" width="0.368" height="54.244"/>
		</g>
		<g clip-path="url(#SVGID_2_)">
			
				<rect x="28.088" y="-4.313" transform="matrix(-0.665 -0.7468 0.7468 -0.665 30.0385 59.0915)" fill-rule="evenodd" clip-rule="evenodd" fill="#88027E" width="0.368" height="54.244"/>
		</g>
		<g clip-path="url(#SVGID_2_)">
			
				<rect x="28.251" y="-4.13" transform="matrix(-0.6651 -0.7467 0.7467 -0.6651 30.1792 59.5178)" fill-rule="evenodd" clip-rule="evenodd" fill="#86027E" width="0.368" height="54.244"/>
		</g>
		<g clip-path="url(#SVGID_2_)">
			
				<rect x="28.414" y="-3.947" transform="matrix(-0.6651 -0.7468 0.7468 -0.6651 30.3112 59.9445)" fill-rule="evenodd" clip-rule="evenodd" fill="#86027E" width="0.368" height="54.244"/>
		</g>
		<g clip-path="url(#SVGID_2_)">
			
				<rect x="28.577" y="-3.764" transform="matrix(-0.6648 -0.747 0.747 -0.6648 30.4348 60.3716)" fill-rule="evenodd" clip-rule="evenodd" fill="#84027E" width="0.368" height="54.244"/>
		</g>
		<g clip-path="url(#SVGID_2_)">
			
				<rect x="28.74" y="-3.581" transform="matrix(-0.665 -0.7469 0.7469 -0.665 30.5748 60.798)" fill-rule="evenodd" clip-rule="evenodd" fill="#84027E" width="0.368" height="54.244"/>
		</g>
		<g clip-path="url(#SVGID_2_)">
			
				<rect x="28.903" y="-3.398" transform="matrix(-0.665 -0.7469 0.7469 -0.665 30.7101 61.2244)" fill-rule="evenodd" clip-rule="evenodd" fill="#84027E" width="0.368" height="54.244"/>
		</g>
		<g clip-path="url(#SVGID_2_)">
			
				<rect x="29.066" y="-3.215" transform="matrix(-0.6652 -0.7467 0.7467 -0.6652 30.8557 61.6506)" fill-rule="evenodd" clip-rule="evenodd" fill="#84027E" width="0.368" height="54.244"/>
		</g>
		<g clip-path="url(#SVGID_2_)">
			
				<rect x="29.229" y="-3.032" transform="matrix(-0.6648 -0.747 0.747 -0.6648 30.9735 62.0778)" fill-rule="evenodd" clip-rule="evenodd" fill="#82027E" width="0.368" height="54.244"/>
		</g>
		<g clip-path="url(#SVGID_2_)">
			
				<rect x="29.392" y="-2.849" transform="matrix(-0.6649 -0.7469 0.7469 -0.6649 31.1132 62.5043)" fill-rule="evenodd" clip-rule="evenodd" fill="#82027E" width="0.368" height="54.244"/>
		</g>
		<g clip-path="url(#SVGID_2_)">
			
				<rect x="29.555" y="-2.666" transform="matrix(-0.6651 -0.7467 0.7467 -0.6651 31.2573 62.9304)" fill-rule="evenodd" clip-rule="evenodd" fill="#7F017E" width="0.368" height="54.244"/>
		</g>
		<g clip-path="url(#SVGID_2_)">
			
				<rect x="29.718" y="-2.482" transform="matrix(-0.6651 -0.7467 0.7467 -0.6651 31.3918 63.3571)" fill-rule="evenodd" clip-rule="evenodd" fill="#7F017E" width="0.368" height="54.244"/>
		</g>
		<g clip-path="url(#SVGID_2_)">
			
				<rect x="29.881" y="-2.299" transform="matrix(-0.6649 -0.7469 0.7469 -0.6649 31.5173 63.784)" fill-rule="evenodd" clip-rule="evenodd" fill="#7D017D" width="0.368" height="54.244"/>
		</g>
		<g clip-path="url(#SVGID_2_)">
			
				<rect x="30.044" y="-2.116" transform="matrix(-0.665 -0.7469 0.7469 -0.665 31.6523 64.2106)" fill-rule="evenodd" clip-rule="evenodd" fill="#7D017D" width="0.368" height="54.244"/>
		</g>
		<g clip-path="url(#SVGID_2_)">
			
				<rect x="30.207" y="-1.933" transform="matrix(-0.6651 -0.7467 0.7467 -0.6651 31.796 64.6368)" fill-rule="evenodd" clip-rule="evenodd" fill="#7B017D" width="0.368" height="54.244"/>
		</g>
		<g clip-path="url(#SVGID_2_)">
			
				<rect x="30.371" y="-1.75" transform="matrix(-0.6651 -0.7468 0.7468 -0.6651 31.928 65.0636)" fill-rule="evenodd" clip-rule="evenodd" fill="#7B017D" width="0.368" height="54.244"/>
		</g>
		<g clip-path="url(#SVGID_2_)">
			
				<rect x="30.534" y="-1.567" transform="matrix(-0.665 -0.7468 0.7468 -0.665 32.0592 65.4902)" fill-rule="evenodd" clip-rule="evenodd" fill="#79017D" width="0.368" height="54.244"/>
		</g>
		<g clip-path="url(#SVGID_2_)">
			
				<rect x="30.697" y="-1.384" transform="matrix(-0.6649 -0.7469 0.7469 -0.6649 32.1879 65.917)" fill-rule="evenodd" clip-rule="evenodd" fill="#79017D" width="0.368" height="54.244"/>
		</g>
		<g clip-path="url(#SVGID_2_)">
			
				<rect x="30.86" y="-1.201" transform="matrix(-0.6651 -0.7468 0.7468 -0.6651 32.3322 66.3432)" fill-rule="evenodd" clip-rule="evenodd" fill="#76017D" width="0.368" height="54.244"/>
		</g>
		<g clip-path="url(#SVGID_2_)">
			
				<rect x="31.023" y="-1.018" transform="matrix(-0.665 -0.7468 0.7468 -0.665 32.4644 66.7699)" fill-rule="evenodd" clip-rule="evenodd" fill="#76017D" width="0.368" height="54.244"/>
		</g>
		<g clip-path="url(#SVGID_2_)">
			
				<rect x="31.186" y="-0.835" transform="matrix(-0.6649 -0.7469 0.7469 -0.6649 32.592 67.1967)" fill-rule="evenodd" clip-rule="evenodd" fill="#74017D" width="0.368" height="54.244"/>
		</g>
		<g clip-path="url(#SVGID_2_)">
			
				<rect x="31.349" y="-0.652" transform="matrix(-0.6648 -0.747 0.747 -0.6648 32.7242 67.6233)" fill-rule="evenodd" clip-rule="evenodd" fill="#74017D" width="0.368" height="54.244"/>
		</g>
		<g clip-path="url(#SVGID_2_)">
			
				<rect x="31.512" y="-0.469" transform="matrix(-0.6652 -0.7467 0.7467 -0.6652 32.8773 68.0494)" fill-rule="evenodd" clip-rule="evenodd" fill="#74017D" width="0.368" height="54.244"/>
		</g>
		<g clip-path="url(#SVGID_2_)">
			
				<rect x="31.675" y="-0.286" transform="matrix(-0.665 -0.7469 0.7469 -0.665 33.0001 68.4762)" fill-rule="evenodd" clip-rule="evenodd" fill="#72017D" width="0.368" height="54.244"/>
		</g>
		<g clip-path="url(#SVGID_2_)">
			
				<rect x="31.838" y="-0.103" transform="matrix(-0.6652 -0.7467 0.7467 -0.6652 33.1468 68.9026)" fill-rule="evenodd" clip-rule="evenodd" fill="#72017D" width="0.368" height="54.244"/>
		</g>
		<g clip-path="url(#SVGID_2_)">
			
				<rect x="32.001" y="0.081" transform="matrix(-0.665 -0.7469 0.7469 -0.665 33.2687 69.3294)" fill-rule="evenodd" clip-rule="evenodd" fill="#70017D" width="0.368" height="54.244"/>
		</g>
		<g clip-path="url(#SVGID_2_)">
			
				<rect x="32.164" y="0.264" transform="matrix(-0.6651 -0.7467 0.7467 -0.6651 33.4131 69.7559)" fill-rule="evenodd" clip-rule="evenodd" fill="#70017D" width="0.368" height="54.244"/>
		</g>
		<g clip-path="url(#SVGID_2_)">
			
				<rect x="32.327" y="0.447" transform="matrix(-0.6652 -0.7467 0.7467 -0.6652 33.5512 70.1823)" fill-rule="evenodd" clip-rule="evenodd" fill="#6E017D" width="0.368" height="54.244"/>
		</g>
		<g clip-path="url(#SVGID_2_)">
			
				<rect x="32.49" y="0.63" transform="matrix(-0.6651 -0.7468 0.7468 -0.6651 33.6795 70.6091)" fill-rule="evenodd" clip-rule="evenodd" fill="#6E017D" width="0.368" height="54.244"/>
		</g>
		<g clip-path="url(#SVGID_2_)">
			
				<rect x="32.653" y="0.813" transform="matrix(-0.6649 -0.7469 0.7469 -0.6649 33.8072 71.0358)" fill-rule="evenodd" clip-rule="evenodd" fill="#6B017D" width="0.368" height="54.244"/>
		</g>
		<g clip-path="url(#SVGID_2_)">
			
				<rect x="32.816" y="0.996" transform="matrix(-0.6651 -0.7467 0.7467 -0.6651 33.9524 71.4622)" fill-rule="evenodd" clip-rule="evenodd" fill="#6B017D" width="0.368" height="54.244"/>
		</g>
		<g clip-path="url(#SVGID_2_)">
			
				<rect x="32.979" y="1.179" transform="matrix(-0.6651 -0.7467 0.7467 -0.6651 34.0869 71.8887)" fill-rule="evenodd" clip-rule="evenodd" fill="#69017D" width="0.368" height="54.244"/>
		</g>
		<g clip-path="url(#SVGID_2_)">
			
				<rect x="33.142" y="1.362" transform="matrix(-0.6651 -0.7468 0.7468 -0.6651 34.2185 72.3155)" fill-rule="evenodd" clip-rule="evenodd" fill="#69017D" width="0.368" height="54.244"/>
		</g>
		<g clip-path="url(#SVGID_2_)">
			
				<rect x="33.305" y="1.545" transform="matrix(-0.665 -0.7469 0.7469 -0.665 34.3463 72.7421)" fill-rule="evenodd" clip-rule="evenodd" fill="#67017D" width="0.368" height="54.244"/>
		</g>
		<g clip-path="url(#SVGID_2_)">
			
				<rect x="33.468" y="1.728" transform="matrix(-0.6651 -0.7467 0.7467 -0.6651 34.4911 73.1686)" fill-rule="evenodd" clip-rule="evenodd" fill="#67017D" width="0.368" height="54.244"/>
		</g>
		<g clip-path="url(#SVGID_2_)">
			
				<rect x="33.631" y="1.911" transform="matrix(-0.6651 -0.7467 0.7467 -0.6651 34.6263 73.5951)" fill-rule="evenodd" clip-rule="evenodd" fill="#65017D" width="0.368" height="54.244"/>
		</g>
		<g clip-path="url(#SVGID_2_)">
			
				<rect x="33.794" y="2.094" transform="matrix(-0.665 -0.7468 0.7468 -0.665 34.7547 74.0218)" fill-rule="evenodd" clip-rule="evenodd" fill="#65017D" width="0.368" height="54.244"/>
		</g>
		<g clip-path="url(#SVGID_2_)">
			
				<rect x="33.957" y="2.278" transform="matrix(-0.6649 -0.7469 0.7469 -0.6649 34.8847 74.4485)" fill-rule="evenodd" clip-rule="evenodd" fill="#63017D" width="0.368" height="54.244"/>
		</g>
		<g clip-path="url(#SVGID_2_)">
			
				<rect x="34.12" y="2.461" transform="matrix(-0.665 -0.7468 0.7468 -0.665 35.0242 74.8748)" fill-rule="evenodd" clip-rule="evenodd" fill="#63017D" width="0.368" height="54.244"/>
		</g>
		<g clip-path="url(#SVGID_2_)">
			
				<rect x="34.283" y="2.644" transform="matrix(-0.6651 -0.7467 0.7467 -0.6651 35.1649 75.3015)" fill-rule="evenodd" clip-rule="evenodd" fill="#60017D" width="0.368" height="54.244"/>
		</g>
		<g clip-path="url(#SVGID_2_)">
			
				<rect x="34.446" y="2.827" transform="matrix(-0.6649 -0.7469 0.7469 -0.6649 35.2868 75.7281)" fill-rule="evenodd" clip-rule="evenodd" fill="#60017D" width="0.368" height="54.244"/>
		</g>
		<g clip-path="url(#SVGID_2_)">
			
				<rect x="34.609" y="3.01" transform="matrix(-0.665 -0.7468 0.7468 -0.665 35.4271 76.1547)" fill-rule="evenodd" clip-rule="evenodd" fill="#60017D" width="0.368" height="54.244"/>
		</g>
		<g clip-path="url(#SVGID_2_)">
			
				<rect x="34.772" y="3.193" transform="matrix(-0.6651 -0.7467 0.7467 -0.6651 35.5691 76.5811)" fill-rule="evenodd" clip-rule="evenodd" fill="#5E017D" width="0.368" height="54.244"/>
		</g>
		<g clip-path="url(#SVGID_2_)">
			
				<rect x="34.935" y="3.376" transform="matrix(-0.6651 -0.7468 0.7468 -0.6651 35.7007 77.0079)" fill-rule="evenodd" clip-rule="evenodd" fill="#5C017D" width="0.368" height="54.244"/>
		</g>
		<g clip-path="url(#SVGID_2_)">
			
				<rect x="35.098" y="3.559" transform="matrix(-0.6652 -0.7467 0.7467 -0.6652 35.8424 77.4343)" fill-rule="evenodd" clip-rule="evenodd" fill="#5C017D" width="0.368" height="54.244"/>
		</g>
		<g clip-path="url(#SVGID_2_)">
			
				<rect x="35.261" y="3.742" transform="matrix(-0.6649 -0.7469 0.7469 -0.6649 35.959 77.8612)" fill-rule="evenodd" clip-rule="evenodd" fill="#5C017D" width="0.368" height="54.244"/>
		</g>
		<g clip-path="url(#SVGID_2_)">
			
				<rect x="35.424" y="3.925" transform="matrix(-0.6651 -0.7467 0.7467 -0.6651 36.1082 78.2875)" fill-rule="evenodd" clip-rule="evenodd" fill="#5A017D" width="0.368" height="54.244"/>
		</g>
		<g clip-path="url(#SVGID_2_)">
			
				<rect x="35.587" y="4.108" transform="matrix(-0.6651 -0.7467 0.7467 -0.6651 36.2433 78.7142)" fill-rule="evenodd" clip-rule="evenodd" fill="#58017D" width="0.368" height="54.244"/>
		</g>
		<g clip-path="url(#SVGID_2_)">
			
				<rect x="35.75" y="4.291" transform="matrix(-0.6651 -0.7468 0.7468 -0.6651 36.3743 79.1407)" fill-rule="evenodd" clip-rule="evenodd" fill="#58017D" width="0.368" height="54.244"/>
		</g>
		<g clip-path="url(#SVGID_2_)">
			
				<rect x="35.914" y="4.474" transform="matrix(-0.665 -0.7468 0.7468 -0.665 36.5048 79.5674)" fill-rule="evenodd" clip-rule="evenodd" fill="#58017D" width="0.368" height="54.244"/>
		</g>
		<g clip-path="url(#SVGID_2_)">
			
				<rect x="36.076" y="4.657" transform="matrix(-0.6651 -0.7467 0.7467 -0.6651 36.6476 79.9938)" fill-rule="evenodd" clip-rule="evenodd" fill="#55017D" width="0.368" height="54.244"/>
		</g>
		<g clip-path="url(#SVGID_2_)">
			
				<rect x="36.24" y="4.841" transform="matrix(-0.665 -0.7469 0.7469 -0.665 36.7717 80.4205)" fill-rule="evenodd" clip-rule="evenodd" fill="#55017D" width="0.368" height="54.244"/>
		</g>
		<g clip-path="url(#SVGID_2_)">
			
				<rect x="36.403" y="5.024" transform="matrix(-0.6652 -0.7467 0.7467 -0.6652 36.9205 80.847)" fill-rule="evenodd" clip-rule="evenodd" fill="#53017D" width="0.368" height="54.244"/>
		</g>
		<g clip-path="url(#SVGID_2_)">
			
				<rect x="36.566" y="5.207" transform="matrix(-0.6648 -0.747 0.747 -0.6648 37.0335 81.2736)" fill-rule="evenodd" clip-rule="evenodd" fill="#53017D" width="0.368" height="54.244"/>
		</g>
		<g clip-path="url(#SVGID_2_)">
			
				<rect x="36.729" y="5.39" transform="matrix(-0.6651 -0.7467 0.7467 -0.6651 37.1862 81.7002)" fill-rule="evenodd" clip-rule="evenodd" fill="#51017D" width="0.368" height="54.244"/>
		</g>
		<g clip-path="url(#SVGID_2_)">
			
				<rect x="36.892" y="5.573" transform="matrix(-0.665 -0.7469 0.7469 -0.665 37.311 82.1268)" fill-rule="evenodd" clip-rule="evenodd" fill="#51017D" width="0.368" height="54.244"/>
		</g>
		<g clip-path="url(#SVGID_2_)">
			
				<rect x="37.055" y="5.756" transform="matrix(-0.6651 -0.7467 0.7467 -0.6651 37.4557 82.5534)" fill-rule="evenodd" clip-rule="evenodd" fill="#4F017D" width="0.368" height="54.244"/>
		</g>
		<g clip-path="url(#SVGID_2_)">
			
				<rect x="37.218" y="5.939" transform="matrix(-0.6649 -0.7469 0.7469 -0.6649 37.5787 82.98)" fill-rule="evenodd" clip-rule="evenodd" fill="#4F017D" width="0.368" height="54.244"/>
		</g>
		<g clip-path="url(#SVGID_2_)">
			
				<rect x="37.381" y="6.122" transform="matrix(-0.6651 -0.7467 0.7467 -0.6651 37.7256 83.4065)" fill-rule="evenodd" clip-rule="evenodd" fill="#4D007D" width="0.368" height="54.244"/>
		</g>
		<g clip-path="url(#SVGID_2_)">
			
				<rect x="37.544" y="6.305" transform="matrix(-0.6651 -0.7467 0.7467 -0.6651 37.86 83.8331)" fill-rule="evenodd" clip-rule="evenodd" fill="#4D007D" width="0.368" height="54.244"/>
		</g>
		<g clip-path="url(#SVGID_2_)">
			
				<rect x="37.707" y="6.488" transform="matrix(-0.6651 -0.7468 0.7468 -0.6651 37.9911 84.2598)" fill-rule="evenodd" clip-rule="evenodd" fill="#4A007D" width="0.368" height="54.244"/>
		</g>
		<g clip-path="url(#SVGID_2_)">
			
				<rect x="37.87" y="6.671" transform="matrix(-0.665 -0.7468 0.7468 -0.665 38.1215 84.6863)" fill-rule="evenodd" clip-rule="evenodd" fill="#4A007D" width="0.368" height="54.244"/>
		</g>
		<g clip-path="url(#SVGID_2_)">
			
				<rect x="38.033" y="6.854" transform="matrix(-0.6651 -0.7468 0.7468 -0.6651 38.2606 85.1129)" fill-rule="evenodd" clip-rule="evenodd" fill="#48007D" width="0.368" height="54.244"/>
		</g>
		<g clip-path="url(#SVGID_2_)">
			
				<rect x="38.196" y="7.037" transform="matrix(-0.6651 -0.7468 0.7468 -0.6651 38.3955 85.5394)" fill-rule="evenodd" clip-rule="evenodd" fill="#48007D" width="0.368" height="54.244"/>
		</g>
		<g clip-path="url(#SVGID_2_)">
			
				<rect x="38.359" y="7.221" transform="matrix(-0.6652 -0.7467 0.7467 -0.6652 38.5378 85.9661)" fill-rule="evenodd" clip-rule="evenodd" fill="#48007D" width="0.368" height="54.244"/>
		</g>
		<g clip-path="url(#SVGID_2_)">
			
				<rect x="38.522" y="7.404" transform="matrix(-0.6649 -0.7469 0.7469 -0.6649 38.6526 86.3926)" fill-rule="evenodd" clip-rule="evenodd" fill="#46007D" width="0.368" height="54.244"/>
		</g>
		<g clip-path="url(#SVGID_2_)">
			
				<rect x="38.685" y="7.587" transform="matrix(-0.665 -0.7469 0.7469 -0.665 38.7923 86.8192)" fill-rule="evenodd" clip-rule="evenodd" fill="#44017D" width="0.368" height="54.244"/>
		</g>
		<g clip-path="url(#SVGID_2_)">
			
				<rect x="38.848" y="7.77" transform="matrix(-0.6652 -0.7467 0.7467 -0.6652 38.9422 87.2458)" fill-rule="evenodd" clip-rule="evenodd" fill="#44017D" width="0.368" height="54.244"/>
		</g>
		<g clip-path="url(#SVGID_2_)">
			
				<rect x="39.011" y="7.953" transform="matrix(-0.665 -0.7469 0.7469 -0.665 39.0618 87.6724)" fill-rule="evenodd" clip-rule="evenodd" fill="#44017D" width="0.368" height="54.244"/>
		</g>
		<g clip-path="url(#SVGID_2_)">
			
				<rect x="39.174" y="8.136" transform="matrix(-0.665 -0.7468 0.7468 -0.665 39.1992 88.099)" fill-rule="evenodd" clip-rule="evenodd" fill="#42017D" width="0.368" height="54.244"/>
		</g>
		<g clip-path="url(#SVGID_2_)">
			
				<rect x="39.337" y="8.319" transform="matrix(-0.665 -0.7469 0.7469 -0.665 39.3316 88.5254)" fill-rule="evenodd" clip-rule="evenodd" fill="#3F017D" width="0.368" height="54.244"/>
		</g>
		<g clip-path="url(#SVGID_2_)">
			
				<rect x="39.5" y="8.502" transform="matrix(-0.6651 -0.7467 0.7467 -0.6651 39.4771 88.9522)" fill-rule="evenodd" clip-rule="evenodd" fill="#3F017D" width="0.368" height="54.244"/>
		</g>
		<g clip-path="url(#SVGID_2_)">
			
				<rect x="39.663" y="8.685" transform="matrix(-0.665 -0.7468 0.7468 -0.665 39.6048 89.3787)" fill-rule="evenodd" clip-rule="evenodd" fill="#3F017D" width="0.368" height="54.244"/>
		</g>
		<g clip-path="url(#SVGID_2_)">
			
				<rect x="39.826" y="8.868" transform="matrix(-0.665 -0.7469 0.7469 -0.665 39.7343 89.8053)" fill-rule="evenodd" clip-rule="evenodd" fill="#3D017D" width="0.368" height="54.244"/>
		</g>
		<g clip-path="url(#SVGID_2_)">
			
				<rect x="39.989" y="9.051" transform="matrix(-0.6649 -0.7469 0.7469 -0.6649 39.8686 90.2318)" fill-rule="evenodd" clip-rule="evenodd" fill="#3D017D" width="0.368" height="54.244"/>
		</g>
		<g clip-path="url(#SVGID_2_)">
			
				<rect x="40.152" y="9.234" transform="matrix(-0.6651 -0.7467 0.7467 -0.6651 40.0165 90.6585)" fill-rule="evenodd" clip-rule="evenodd" fill="#3B007D" width="0.368" height="54.244"/>
		</g>
		<g clip-path="url(#SVGID_2_)">
			
				<rect x="40.315" y="9.417" transform="matrix(-0.6651 -0.7467 0.7467 -0.6651 40.1509 91.085)" fill-rule="evenodd" clip-rule="evenodd" fill="#3B007D" width="0.368" height="54.244"/>
		</g>
		<g clip-path="url(#SVGID_2_)">
			
				<rect x="40.478" y="9.601" transform="matrix(-0.6649 -0.7469 0.7469 -0.6649 40.2687 91.5116)" fill-rule="evenodd" clip-rule="evenodd" fill="#39007D" width="0.368" height="54.244"/>
		</g>
		<g clip-path="url(#SVGID_2_)">
			
				<rect x="40.641" y="9.784" transform="matrix(-0.665 -0.7469 0.7469 -0.665 40.4078 91.9381)" fill-rule="evenodd" clip-rule="evenodd" fill="#39007D" width="0.368" height="54.244"/>
		</g>
		<g clip-path="url(#SVGID_2_)">
			
				<rect x="40.804" y="9.967" transform="matrix(-0.6651 -0.7467 0.7467 -0.6651 40.5551 92.3649)" fill-rule="evenodd" clip-rule="evenodd" fill="#37007D" width="0.368" height="54.244"/>
		</g>
		<g clip-path="url(#SVGID_2_)">
			
				<rect x="40.967" y="10.15" transform="matrix(-0.6651 -0.7468 0.7468 -0.6651 40.686 92.7914)" fill-rule="evenodd" clip-rule="evenodd" fill="#37007D" width="0.368" height="54.244"/>
		</g>
		<g clip-path="url(#SVGID_2_)">
			
				<rect x="41.13" y="10.333" transform="matrix(-0.665 -0.7468 0.7468 -0.665 40.8158 93.218)" fill-rule="evenodd" clip-rule="evenodd" fill="#35007C" width="0.368" height="54.244"/>
		</g>
		<g clip-path="url(#SVGID_2_)">
			
				<rect x="41.294" y="10.516" transform="matrix(-0.6649 -0.7469 0.7469 -0.6649 40.9461 93.6445)" fill-rule="evenodd" clip-rule="evenodd" fill="#35007C" width="0.368" height="54.244"/>
		</g>
		<g clip-path="url(#SVGID_2_)">
			
				<rect x="41.456" y="10.699" transform="matrix(-0.665 -0.7469 0.7469 -0.665 41.0823 94.071)" fill-rule="evenodd" clip-rule="evenodd" fill="#35007C" width="0.368" height="54.244"/>
		</g>
		<g clip-path="url(#SVGID_2_)">
			
				<rect x="41.62" y="10.882" transform="matrix(-0.6652 -0.7467 0.7467 -0.6652 41.2334 94.4978)" fill-rule="evenodd" clip-rule="evenodd" fill="#32007C" width="0.368" height="54.244"/>
		</g>
		<g clip-path="url(#SVGID_2_)">
			
				<rect x="41.821" y="10.978" transform="matrix(-0.6646 -0.7472 0.7472 -0.6646 41.261 94.7216)" fill-rule="evenodd" clip-rule="evenodd" fill="#30007C" width="0.135" height="54.244"/>
		</g>
	</g>
</g>
<g>
	<path fill-rule="evenodd" clip-rule="evenodd" fill="#FFFFFF" d="M17.467,16.416c-0.409,5.642,2.817,7.154,6.455,4.984
		c0.153-0.831-1.445-3.477-4.365-2.766c1.248,0.549,2.241,1.496,2.497,2.362c-2.002,0.571-3.116-0.503-3.269-3.59
		c1.935-0.28,3.974,0.095,5.557,1.349c-0.76-2.415-3.314-3.587-6.868-2.352c0.004,0.001,0.009,0.002,0.014,0.003
		C17.478,16.41,17.471,16.413,17.467,16.416z"/>
	<path fill-rule="evenodd" clip-rule="evenodd" fill="#FFFFFF" d="M17.026,8.112c0,0-2.707,8.663,0.433,13.103
		c3.14,4.44,15.864,0.433,15.864,0.433l-0.866,2.978c0,0-11.804,3.898-16.243-1.516c-2.762-3.368-2.152-8.08-1.01-11.364
		C15.897,9.752,17.026,8.112,17.026,8.112z"/>
	<path fill-rule="evenodd" clip-rule="evenodd" fill="#FFFFFF" d="M20.284,6.358c0.768,0,1.48,0.24,2.066,0.648
		c-0.115,0.45-0.329,1.002-0.716,1.616c-0.967-0.988-1.436-1.853-1.62-2.253C20.103,6.362,20.193,6.358,20.284,6.358L20.284,6.358z
		 M22.643,7.234c-0.135,0.471-0.366,1.027-0.757,1.635c0.665,0.62,1.412,1.079,2.005,1.387c0.007-0.093,0.011-0.186,0.011-0.28
		C23.902,8.879,23.414,7.897,22.643,7.234L22.643,7.234z M23.844,10.621c-0.182,1.012-0.785,1.877-1.62,2.409
		c0.15-1.068,0.032-1.972-0.265-2.707c-0.131-0.324-0.296-0.615-0.488-0.872c0.028-0.035,0.056-0.071,0.083-0.107
		c0.047-0.062,0.092-0.124,0.135-0.185C22.414,9.825,23.224,10.308,23.844,10.621L23.844,10.621z M21.84,13.243
		c-0.471,0.225-0.998,0.351-1.555,0.351c-1.204,0-2.27-0.588-2.927-1.492c0.948-0.35,2.734-1.132,3.883-2.381
		c0.155,0.218,0.29,0.462,0.398,0.731C21.937,11.192,22.04,12.124,21.84,13.243L21.84,13.243z M17.163,11.804
		c0.905-0.328,2.732-1.103,3.86-2.359c-0.173-0.197-0.365-0.368-0.57-0.513c-0.499-0.352-1.077-0.551-1.655-0.59
		c-0.702-0.048-1.405,0.137-1.969,0.563c-0.105,0.338-0.161,0.698-0.161,1.071C16.667,10.643,16.848,11.268,17.163,11.804
		L17.163,11.804z M17.049,8.357c0.542-0.284,1.157-0.402,1.771-0.36c0.64,0.044,1.279,0.263,1.831,0.653
		c0.213,0.15,0.413,0.326,0.596,0.527c0.011-0.014,0.022-0.028,0.032-0.041c0.056-0.074,0.109-0.147,0.159-0.219
		c-1.114-1.123-1.615-2.12-1.781-2.503C18.512,6.613,17.553,7.351,17.049,8.357z"/>
	<g>
		<path fill-rule="evenodd" clip-rule="evenodd" fill="#FFFFFF" d="M29.022,8.217c0,0,0.931-1.82,4.087-2.357
			c3.157-0.538,5.493,1.581,5.692,1.931c-1.682,2.921-8.48,2.912-9.579,1.028c0,0,2.132,0.577,4.739,0.201
			c2.608-0.376,3.159-1.103,3.159-1.103s-1.63-1.229-3.987-1.179C30.778,6.788,29.047,8.142,29.022,8.217z"/>
		<path fill-rule="evenodd" clip-rule="evenodd" fill="#FFFFFF" d="M29.223,8.869c0,0,0.727,1.028,1.58,3.736
			c0.853,2.708,0.853,4.413,0.853,4.413s0.602-2.006,0-4.589c-0.602-2.583-1.003-2.934-1.003-2.934S29.248,8.894,29.223,8.869z"/>
		<path fill-rule="evenodd" clip-rule="evenodd" fill="#FFFFFF" d="M38.77,7.717c0,0-0.727,1.028-1.58,3.736
			c-0.853,2.708-0.853,4.413-0.853,4.413s-0.602-2.006,0-4.589c0.602-2.583,1.003-2.934,1.003-2.934S38.745,7.742,38.77,7.717z"/>
	</g>
	<path fill-rule="evenodd" clip-rule="evenodd" fill="#FFFFFF" d="M16.18,21.635c2.592,5.183,6.047,17.431,4.356,23.801
		c-3.688,1.504-6.147,5.391-8.249,7.909c3.679-1.703,6.362-4.291,10.028-4.991c1.69-3.479,2.458-7.713,2.7-10.784l6.048-3.345
		c0.309,2.491,0.193,7.869-1.386,11.225c4.35-4.723,4.712-9.803,4.57-15.909l-8.912,3.645c0,0-0.768-5.593-2.155-7.502
		C22.202,23.729,16.18,21.508,16.18,21.635z"/>
</g>
</svg>
