<?xml version="1.0" encoding="utf-8"?>
<!-- Generator: Adobe Illustrator 17.0.0, SVG Export Plug-In . SVG Version: 6.00 Build 0)  -->
<!DOCTYPE svg PUBLIC "-//W3C//DTD SVG 1.1//EN" "http://www.w3.org/Graphics/SVG/1.1/DTD/svg11.dtd">
<svg version="1.1" id="Layer_1" xmlns="http://www.w3.org/2000/svg" xmlns:xlink="http://www.w3.org/1999/xlink" x="0px" y="0px"
	 width="56px" height="56px" viewBox="0 0 56 56" enable-background="new 0 0 56 56" xml:space="preserve">
<g>
	<g>
		<defs>
			<path id="SVGID_1_" d="M1.103,20.004c13.451,17.231,27.278,27.22,44.355,35.852c3.998-16.238,4.593-36.066,3.44-55.712
				C33.045,9.247,19.112,14.931,1.103,20.004z"/>
		</defs>
		<clipPath id="SVGID_2_">
			<use xlink:href="#SVGID_1_"  overflow="visible"/>
		</clipPath>
		<g clip-path="url(#SVGID_2_)">
			
				<rect x="21.814" y="-19.726" transform="matrix(-0.5724 -0.82 0.82 -0.5724 29.7908 26.6386)" fill-rule="evenodd" clip-rule="evenodd" fill="#110E0E" width="0.055" height="50.555"/>
		</g>
		<g clip-path="url(#SVGID_2_)">
			
				<rect x="21.62" y="-19.623" transform="matrix(-0.5726 -0.8198 0.8198 -0.5726 29.8259 26.8565)" fill-rule="evenodd" clip-rule="evenodd" fill="#110E0E" width="0.586" height="50.555"/>
		</g>
		<g clip-path="url(#SVGID_2_)">
			
				<rect x="21.844" y="-19.303" transform="matrix(-0.5728 -0.8197 0.8197 -0.5728 29.9191 27.5415)" fill-rule="evenodd" clip-rule="evenodd" fill="#110E0F" width="0.586" height="50.555"/>
		</g>
		<g clip-path="url(#SVGID_2_)">
			
				<rect x="22.067" y="-18.983" transform="matrix(-0.5727 -0.8197 0.8197 -0.5727 30.0074 28.2286)" fill-rule="evenodd" clip-rule="evenodd" fill="#120F0F" width="0.586" height="50.555"/>
		</g>
		<g clip-path="url(#SVGID_2_)">
			
				<rect x="22.291" y="-18.663" transform="matrix(-0.5727 -0.8198 0.8198 -0.5727 30.0943 28.916)" fill-rule="evenodd" clip-rule="evenodd" fill="#120F0F" width="0.586" height="50.555"/>
		</g>
		<g clip-path="url(#SVGID_2_)">
			
				<rect x="22.515" y="-18.343" transform="matrix(-0.5727 -0.8198 0.8198 -0.5727 30.1835 29.6027)" fill-rule="evenodd" clip-rule="evenodd" fill="#120F0F" width="0.586" height="50.555"/>
		</g>
		<g clip-path="url(#SVGID_2_)">
			
				<rect x="22.738" y="-18.023" transform="matrix(-0.5727 -0.8198 0.8198 -0.5727 30.2728 30.2892)" fill-rule="evenodd" clip-rule="evenodd" fill="#120F0F" width="0.586" height="50.555"/>
		</g>
		<g clip-path="url(#SVGID_2_)">
			
				<rect x="22.962" y="-17.703" transform="matrix(-0.5727 -0.8198 0.8198 -0.5727 30.362 30.9759)" fill-rule="evenodd" clip-rule="evenodd" fill="#120F10" width="0.586" height="50.555"/>
		</g>
		<g clip-path="url(#SVGID_2_)">
			
				<rect x="23.185" y="-17.383" transform="matrix(-0.5726 -0.8198 0.8198 -0.5726 30.45 31.6628)" fill-rule="evenodd" clip-rule="evenodd" fill="#131010" width="0.586" height="50.555"/>
		</g>
		<g clip-path="url(#SVGID_2_)">
			
				<rect x="23.409" y="-17.063" transform="matrix(-0.5728 -0.8197 0.8197 -0.5728 30.5433 32.3482)" fill-rule="evenodd" clip-rule="evenodd" fill="#131010" width="0.586" height="50.555"/>
		</g>
		<g clip-path="url(#SVGID_2_)">
			
				<rect x="23.632" y="-16.743" transform="matrix(-0.5726 -0.8198 0.8198 -0.5726 30.6275 33.0362)" fill-rule="evenodd" clip-rule="evenodd" fill="#131111" width="0.586" height="50.555"/>
		</g>
		<g clip-path="url(#SVGID_2_)">
			
				<rect x="23.856" y="-16.423" transform="matrix(-0.5726 -0.8198 0.8198 -0.5726 30.718 33.7225)" fill-rule="evenodd" clip-rule="evenodd" fill="#131111" width="0.586" height="50.555"/>
		</g>
		<g clip-path="url(#SVGID_2_)">
			
				<rect x="24.08" y="-16.103" transform="matrix(-0.5727 -0.8198 0.8198 -0.5727 30.8099 34.4084)" fill-rule="evenodd" clip-rule="evenodd" fill="#151111" width="0.586" height="50.555"/>
		</g>
		<g clip-path="url(#SVGID_2_)">
			
				<rect x="24.303" y="-15.783" transform="matrix(-0.5727 -0.8198 0.8198 -0.5727 30.8974 35.0954)" fill-rule="evenodd" clip-rule="evenodd" fill="#151111" width="0.586" height="50.555"/>
		</g>
		<g clip-path="url(#SVGID_2_)">
			
				<rect x="24.527" y="-15.463" transform="matrix(-0.5727 -0.8198 0.8198 -0.5727 30.9866 35.7821)" fill-rule="evenodd" clip-rule="evenodd" fill="#151212" width="0.586" height="50.555"/>
		</g>
		<g clip-path="url(#SVGID_2_)">
			
				<rect x="24.75" y="-15.143" transform="matrix(-0.5727 -0.8198 0.8198 -0.5727 31.0759 36.4686)" fill-rule="evenodd" clip-rule="evenodd" fill="#151212" width="0.586" height="50.555"/>
		</g>
		<g clip-path="url(#SVGID_2_)">
			
				<rect x="24.974" y="-14.823" transform="matrix(-0.5728 -0.8197 0.8197 -0.5728 31.1692 37.1544)" fill-rule="evenodd" clip-rule="evenodd" fill="#151212" width="0.586" height="50.555"/>
		</g>
		<g clip-path="url(#SVGID_2_)">
			
				<rect x="25.197" y="-14.503" transform="matrix(-0.5727 -0.8198 0.8198 -0.5727 31.2543 37.8419)" fill-rule="evenodd" clip-rule="evenodd" fill="#151212" width="0.586" height="50.555"/>
		</g>
		<g clip-path="url(#SVGID_2_)">
			
				<rect x="25.421" y="-14.183" transform="matrix(-0.5726 -0.8198 0.8198 -0.5726 31.3425 38.5287)" fill-rule="evenodd" clip-rule="evenodd" fill="#161313" width="0.586" height="50.555"/>
		</g>
		<g clip-path="url(#SVGID_2_)">
			
				<rect x="25.645" y="-13.863" transform="matrix(-0.5726 -0.8198 0.8198 -0.5726 31.4303 39.2156)" fill-rule="evenodd" clip-rule="evenodd" fill="#171313" width="0.586" height="50.555"/>
		</g>
		<g clip-path="url(#SVGID_2_)">
			
				<rect x="25.868" y="-13.542" transform="matrix(-0.5726 -0.8198 0.8198 -0.5726 31.521 39.9019)" fill-rule="evenodd" clip-rule="evenodd" fill="#171313" width="0.586" height="50.555"/>
		</g>
		<g clip-path="url(#SVGID_2_)">
			
				<rect x="26.092" y="-13.222" transform="matrix(-0.5727 -0.8198 0.8198 -0.5727 31.6118 40.5883)" fill-rule="evenodd" clip-rule="evenodd" fill="#171313" width="0.586" height="50.555"/>
		</g>
		<g clip-path="url(#SVGID_2_)">
			
				<rect x="26.315" y="-12.902" transform="matrix(-0.5727 -0.8198 0.8198 -0.5727 31.7005 41.2749)" fill-rule="evenodd" clip-rule="evenodd" fill="#181414" width="0.586" height="50.555"/>
		</g>
		<g clip-path="url(#SVGID_2_)">
			
				<rect x="26.539" y="-12.582" transform="matrix(-0.5728 -0.8197 0.8197 -0.5728 31.7942 41.9608)" fill-rule="evenodd" clip-rule="evenodd" fill="#181514" width="0.586" height="50.555"/>
		</g>
		<g clip-path="url(#SVGID_2_)">
			
				<rect x="26.762" y="-12.262" transform="matrix(-0.5727 -0.8198 0.8198 -0.5727 31.8789 42.6481)" fill-rule="evenodd" clip-rule="evenodd" fill="#181514" width="0.586" height="50.555"/>
		</g>
		<g clip-path="url(#SVGID_2_)">
			
				<rect x="26.986" y="-11.942" transform="matrix(-0.5727 -0.8198 0.8198 -0.5727 31.9681 43.3348)" fill-rule="evenodd" clip-rule="evenodd" fill="#181515" width="0.586" height="50.555"/>
		</g>
		<g clip-path="url(#SVGID_2_)">
			
				<rect x="27.21" y="-11.622" transform="matrix(-0.5727 -0.8198 0.8198 -0.5727 32.0574 44.0213)" fill-rule="evenodd" clip-rule="evenodd" fill="#191515" width="0.586" height="50.555"/>
		</g>
		<g clip-path="url(#SVGID_2_)">
			
				<rect x="27.433" y="-11.302" transform="matrix(-0.5727 -0.8198 0.8198 -0.5727 32.1466 44.7079)" fill-rule="evenodd" clip-rule="evenodd" fill="#191515" width="0.586" height="50.555"/>
		</g>
		<g clip-path="url(#SVGID_2_)">
			
				<rect x="27.657" y="-10.982" transform="matrix(-0.5726 -0.8198 0.8198 -0.5726 32.2343 45.3948)" fill-rule="evenodd" clip-rule="evenodd" fill="#1A1616" width="0.586" height="50.555"/>
		</g>
		<g clip-path="url(#SVGID_2_)">
			
				<rect x="27.88" y="-10.662" transform="matrix(-0.5726 -0.8198 0.8198 -0.5726 32.3239 46.0812)" fill-rule="evenodd" clip-rule="evenodd" fill="#1A1616" width="0.586" height="50.555"/>
		</g>
		<g clip-path="url(#SVGID_2_)">
			
				<rect x="28.104" y="-10.342" transform="matrix(-0.5727 -0.8198 0.8198 -0.5727 32.4166 46.7675)" fill-rule="evenodd" clip-rule="evenodd" fill="#1A1716" width="0.586" height="50.555"/>
		</g>
		<g clip-path="url(#SVGID_2_)">
			
				<rect x="28.327" y="-10.022" transform="matrix(-0.5726 -0.8198 0.8198 -0.5726 32.5024 47.4544)" fill-rule="evenodd" clip-rule="evenodd" fill="#1A1716" width="0.586" height="50.555"/>
		</g>
		<g clip-path="url(#SVGID_2_)">
			
				<rect x="28.551" y="-9.702" transform="matrix(-0.5727 -0.8198 0.8198 -0.5727 32.5951 48.1407)" fill-rule="evenodd" clip-rule="evenodd" fill="#1C1818" width="0.586" height="50.555"/>
		</g>
		<g clip-path="url(#SVGID_2_)">
			
				<rect x="28.775" y="-9.382" transform="matrix(-0.5727 -0.8198 0.8198 -0.5727 32.682 48.8275)" fill-rule="evenodd" clip-rule="evenodd" fill="#1C1818" width="0.586" height="50.555"/>
		</g>
		<g clip-path="url(#SVGID_2_)">
			
				<rect x="28.998" y="-9.062" transform="matrix(-0.5727 -0.8198 0.8198 -0.5727 32.7712 49.5142)" fill-rule="evenodd" clip-rule="evenodd" fill="#1C1818" width="0.586" height="50.555"/>
		</g>
		<g clip-path="url(#SVGID_2_)">
			
				<rect x="29.222" y="-8.742" transform="matrix(-0.5727 -0.8197 0.8197 -0.5727 32.8639 50.2004)" fill-rule="evenodd" clip-rule="evenodd" fill="#1C1818" width="0.586" height="50.555"/>
		</g>
		<g clip-path="url(#SVGID_2_)">
			
				<rect x="29.445" y="-8.422" transform="matrix(-0.5727 -0.8198 0.8198 -0.5727 32.9496 50.8874)" fill-rule="evenodd" clip-rule="evenodd" fill="#1D1918" width="0.586" height="50.555"/>
		</g>
		<g clip-path="url(#SVGID_2_)">
			
				<rect x="29.669" y="-8.102" transform="matrix(-0.5726 -0.8198 0.8198 -0.5726 33.0371 51.5741)" fill-rule="evenodd" clip-rule="evenodd" fill="#1D1918" width="0.586" height="50.555"/>
		</g>
		<g clip-path="url(#SVGID_2_)">
			
				<rect x="29.892" y="-7.782" transform="matrix(-0.5727 -0.8198 0.8198 -0.5727 33.1282 52.2606)" fill-rule="evenodd" clip-rule="evenodd" fill="#1E1A19" width="0.586" height="50.555"/>
		</g>
		<g clip-path="url(#SVGID_2_)">
			
				<rect x="30.116" y="-7.462" transform="matrix(-0.5727 -0.8198 0.8198 -0.5727 33.2199 52.947)" fill-rule="evenodd" clip-rule="evenodd" fill="#1E1A1A" width="0.586" height="50.555"/>
		</g>
		<g clip-path="url(#SVGID_2_)">
			
				<rect x="30.34" y="-7.142" transform="matrix(-0.5726 -0.8198 0.8198 -0.5726 33.3054 53.6339)" fill-rule="evenodd" clip-rule="evenodd" fill="#1F1A1A" width="0.586" height="50.555"/>
		</g>
		<g clip-path="url(#SVGID_2_)">
			
				<rect x="30.563" y="-6.821" transform="matrix(-0.5727 -0.8198 0.8198 -0.5727 33.3985 54.3203)" fill-rule="evenodd" clip-rule="evenodd" fill="#1F1A1A" width="0.586" height="50.555"/>
		</g>
		<g clip-path="url(#SVGID_2_)">
			
				<rect x="30.787" y="-6.501" transform="matrix(-0.5728 -0.8197 0.8197 -0.5728 33.4907 55.0066)" fill-rule="evenodd" clip-rule="evenodd" fill="#1F1A1A" width="0.586" height="50.555"/>
		</g>
		<g clip-path="url(#SVGID_2_)">
			
				<rect x="31.01" y="-6.181" transform="matrix(-0.5727 -0.8198 0.8198 -0.5727 33.5743 55.6936)" fill-rule="evenodd" clip-rule="evenodd" fill="#1F1B1A" width="0.586" height="50.555"/>
		</g>
		<g clip-path="url(#SVGID_2_)">
			
				<rect x="31.234" y="-5.861" transform="matrix(-0.5727 -0.8198 0.8198 -0.5727 33.6635 56.3802)" fill-rule="evenodd" clip-rule="evenodd" fill="#211C1B" width="0.586" height="50.555"/>
		</g>
		<g clip-path="url(#SVGID_2_)">
			
				<rect x="31.457" y="-5.541" transform="matrix(-0.5727 -0.8198 0.8198 -0.5727 33.7528 57.0668)" fill-rule="evenodd" clip-rule="evenodd" fill="#211C1C" width="0.586" height="50.555"/>
		</g>
		<g clip-path="url(#SVGID_2_)">
			
				<rect x="31.681" y="-5.221" transform="matrix(-0.5726 -0.8198 0.8198 -0.5726 33.8401 57.7535)" fill-rule="evenodd" clip-rule="evenodd" fill="#211C1C" width="0.586" height="50.555"/>
		</g>
		<g clip-path="url(#SVGID_2_)">
			
				<rect x="31.905" y="-4.901" transform="matrix(-0.5727 -0.8198 0.8198 -0.5727 33.9313 58.44)" fill-rule="evenodd" clip-rule="evenodd" fill="#211D1C" width="0.586" height="50.555"/>
		</g>
		<g clip-path="url(#SVGID_2_)">
			
				<rect x="32.128" y="-4.581" transform="matrix(-0.5727 -0.8198 0.8198 -0.5727 34.0213 59.1267)" fill-rule="evenodd" clip-rule="evenodd" fill="#221E1D" width="0.586" height="50.555"/>
		</g>
		<g clip-path="url(#SVGID_2_)">
			
				<rect x="32.352" y="-4.261" transform="matrix(-0.5728 -0.8197 0.8197 -0.5728 34.1144 59.813)" fill-rule="evenodd" clip-rule="evenodd" fill="#221E1D" width="0.586" height="50.555"/>
		</g>
		<g clip-path="url(#SVGID_2_)">
			
				<rect x="32.575" y="-3.941" transform="matrix(-0.5727 -0.8198 0.8198 -0.5727 34.2018 60.4998)" fill-rule="evenodd" clip-rule="evenodd" fill="#231E1D" width="0.586" height="50.555"/>
		</g>
		<g clip-path="url(#SVGID_2_)">
			
				<rect x="32.799" y="-3.621" transform="matrix(-0.5726 -0.8198 0.8198 -0.5726 34.2868 61.1864)" fill-rule="evenodd" clip-rule="evenodd" fill="#231F1E" width="0.586" height="50.555"/>
		</g>
		<g clip-path="url(#SVGID_2_)">
			
				<rect x="33.022" y="-3.301" transform="matrix(-0.5727 -0.8198 0.8198 -0.5727 34.3774 61.8731)" fill-rule="evenodd" clip-rule="evenodd" fill="#231F1E" width="0.586" height="50.555"/>
		</g>
		<g clip-path="url(#SVGID_2_)">
			
				<rect x="33.246" y="-2.981" transform="matrix(-0.5727 -0.8198 0.8198 -0.5727 34.4666 62.5597)" fill-rule="evenodd" clip-rule="evenodd" fill="#231F1E" width="0.586" height="50.555"/>
		</g>
		<g clip-path="url(#SVGID_2_)">
			
				<rect x="33.47" y="-2.661" transform="matrix(-0.5727 -0.8198 0.8198 -0.5727 34.5559 63.2463)" fill-rule="evenodd" clip-rule="evenodd" fill="#25201F" width="0.586" height="50.555"/>
		</g>
		<g clip-path="url(#SVGID_2_)">
			
				<rect x="33.693" y="-2.341" transform="matrix(-0.5727 -0.8198 0.8198 -0.5727 34.6451 63.9329)" fill-rule="evenodd" clip-rule="evenodd" fill="#25201F" width="0.586" height="50.555"/>
		</g>
		<g clip-path="url(#SVGID_2_)">
			
				<rect x="33.917" y="-2.021" transform="matrix(-0.5728 -0.8197 0.8197 -0.5728 34.7407 64.6194)" fill-rule="evenodd" clip-rule="evenodd" fill="#262120" width="0.586" height="50.555"/>
		</g>
		<g clip-path="url(#SVGID_2_)">
			
				<rect x="34.14" y="-1.701" transform="matrix(-0.5727 -0.8198 0.8198 -0.5727 34.8259 65.3061)" fill-rule="evenodd" clip-rule="evenodd" fill="#262120" width="0.585" height="50.555"/>
		</g>
		<g clip-path="url(#SVGID_2_)">
			
				<rect x="34.364" y="-1.381" transform="matrix(-0.5727 -0.8198 0.8198 -0.5727 34.9128 65.9927)" fill-rule="evenodd" clip-rule="evenodd" fill="#272221" width="0.586" height="50.555"/>
		</g>
		<g clip-path="url(#SVGID_2_)">
			
				<rect x="34.588" y="-1.061" transform="matrix(-0.5727 -0.8198 0.8198 -0.5727 35.0029 66.6793)" fill-rule="evenodd" clip-rule="evenodd" fill="#272321" width="0.586" height="50.555"/>
		</g>
		<g clip-path="url(#SVGID_2_)">
			
				<rect x="34.811" y="-0.741" transform="matrix(-0.5726 -0.8198 0.8198 -0.5726 35.0898 67.3659)" fill-rule="evenodd" clip-rule="evenodd" fill="#282322" width="0.586" height="50.555"/>
		</g>
		<g clip-path="url(#SVGID_2_)">
			
				<rect x="35.035" y="-0.421" transform="matrix(-0.5726 -0.8198 0.8198 -0.5726 35.179 68.0525)" fill-rule="evenodd" clip-rule="evenodd" fill="#282322" width="0.586" height="50.555"/>
		</g>
		<g clip-path="url(#SVGID_2_)">
			
				<rect x="35.258" y="-0.101" transform="matrix(-0.5726 -0.8198 0.8198 -0.5726 35.2681 68.7391)" fill-rule="evenodd" clip-rule="evenodd" fill="#282322" width="0.586" height="50.555"/>
		</g>
		<g clip-path="url(#SVGID_2_)">
			
				<rect x="35.482" y="0.22" transform="matrix(-0.5727 -0.8198 0.8198 -0.5727 35.3589 69.4257)" fill-rule="evenodd" clip-rule="evenodd" fill="#292422" width="0.586" height="50.555"/>
		</g>
		<g clip-path="url(#SVGID_2_)">
			
				<rect x="35.705" y="0.54" transform="matrix(-0.5727 -0.8198 0.8198 -0.5727 35.4482 70.1123)" fill-rule="evenodd" clip-rule="evenodd" fill="#2A2523" width="0.586" height="50.555"/>
		</g>
		<g clip-path="url(#SVGID_2_)">
			
				<rect x="35.929" y="0.86" transform="matrix(-0.5727 -0.8198 0.8198 -0.5727 35.5374 70.7989)" fill-rule="evenodd" clip-rule="evenodd" fill="#2A2524" width="0.586" height="50.555"/>
		</g>
		<g clip-path="url(#SVGID_2_)">
			
				<rect x="36.153" y="1.18" transform="matrix(-0.5727 -0.8197 0.8197 -0.5727 35.6315 71.4857)" fill-rule="evenodd" clip-rule="evenodd" fill="#2A2624" width="0.586" height="50.555"/>
		</g>
		<g clip-path="url(#SVGID_2_)">
			
				<rect x="36.376" y="1.5" transform="matrix(-0.5727 -0.8198 0.8198 -0.5727 35.7159 72.1721)" fill-rule="evenodd" clip-rule="evenodd" fill="#2B2624" width="0.586" height="50.555"/>
		</g>
		<g clip-path="url(#SVGID_2_)">
			
				<rect x="36.6" y="1.82" transform="matrix(-0.5728 -0.8197 0.8197 -0.5728 35.8132 72.8589)" fill-rule="evenodd" clip-rule="evenodd" fill="#2C2726" width="0.586" height="50.555"/>
		</g>
		<g clip-path="url(#SVGID_2_)">
			
				<rect x="36.823" y="2.14" transform="matrix(-0.5726 -0.8198 0.8198 -0.5726 35.8927 73.5452)" fill-rule="evenodd" clip-rule="evenodd" fill="#2C2726" width="0.586" height="50.555"/>
		</g>
		<g clip-path="url(#SVGID_2_)">
			
				<rect x="37.047" y="2.46" transform="matrix(-0.5726 -0.8198 0.8198 -0.5726 35.9819 74.2319)" fill-rule="evenodd" clip-rule="evenodd" fill="#2C2826" width="0.586" height="50.555"/>
		</g>
		<g clip-path="url(#SVGID_2_)">
			
				<rect x="37.27" y="2.78" transform="matrix(-0.5726 -0.8198 0.8198 -0.5726 36.0711 74.9185)" fill-rule="evenodd" clip-rule="evenodd" fill="#2D2826" width="0.586" height="50.555"/>
		</g>
		<g clip-path="url(#SVGID_2_)">
			
				<rect x="37.494" y="3.1" transform="matrix(-0.5727 -0.8198 0.8198 -0.5727 36.1621 75.6052)" fill-rule="evenodd" clip-rule="evenodd" fill="#2D2826" width="0.586" height="50.555"/>
		</g>
		<g clip-path="url(#SVGID_2_)">
			
				<rect x="37.718" y="3.42" transform="matrix(-0.5727 -0.8198 0.8198 -0.5727 36.2513 76.2918)" fill-rule="evenodd" clip-rule="evenodd" fill="#2D2927" width="0.586" height="50.555"/>
		</g>
		<g clip-path="url(#SVGID_2_)">
			
				<rect x="37.941" y="3.74" transform="matrix(-0.5727 -0.8198 0.8198 -0.5727 36.3405 76.9784)" fill-rule="evenodd" clip-rule="evenodd" fill="#2F2A28" width="0.586" height="50.555"/>
		</g>
		<g clip-path="url(#SVGID_2_)">
			
				<rect x="38.165" y="4.06" transform="matrix(-0.5728 -0.8197 0.8197 -0.5728 36.44 77.6655)" fill-rule="evenodd" clip-rule="evenodd" fill="#2F2A28" width="0.586" height="50.555"/>
		</g>
		<g clip-path="url(#SVGID_2_)">
			
				<rect x="38.388" y="4.38" transform="matrix(-0.5727 -0.8198 0.8198 -0.5727 36.519 78.3516)" fill-rule="evenodd" clip-rule="evenodd" fill="#2F2A29" width="0.586" height="50.555"/>
		</g>
		<g clip-path="url(#SVGID_2_)">
			
				<rect x="38.612" y="4.7" transform="matrix(-0.5727 -0.8197 0.8197 -0.5727 36.6135 79.0385)" fill-rule="evenodd" clip-rule="evenodd" fill="#2F2A29" width="0.586" height="50.555"/>
		</g>
		<g clip-path="url(#SVGID_2_)">
			
				<rect x="38.835" y="5.02" transform="matrix(-0.5727 -0.8198 0.8198 -0.5727 36.6975 79.7248)" fill-rule="evenodd" clip-rule="evenodd" fill="#322C2A" width="0.586" height="50.555"/>
		</g>
		<g clip-path="url(#SVGID_2_)">
			
				<rect x="39.059" y="5.34" transform="matrix(-0.5726 -0.8198 0.8198 -0.5726 36.7849 80.4113)" fill-rule="evenodd" clip-rule="evenodd" fill="#322C2A" width="0.586" height="50.555"/>
		</g>
		<g clip-path="url(#SVGID_2_)">
			
				<rect x="39.283" y="5.66" transform="matrix(-0.5726 -0.8198 0.8198 -0.5726 36.8742 81.0978)" fill-rule="evenodd" clip-rule="evenodd" fill="#322C2B" width="0.586" height="50.555"/>
		</g>
		<g clip-path="url(#SVGID_2_)">
			
				<rect x="39.506" y="5.98" transform="matrix(-0.5726 -0.8198 0.8198 -0.5726 36.9633 81.7845)" fill-rule="evenodd" clip-rule="evenodd" fill="#322D2B" width="0.586" height="50.555"/>
		</g>
		<g clip-path="url(#SVGID_2_)">
			
				<rect x="39.73" y="6.3" transform="matrix(-0.5728 -0.8197 0.8197 -0.5728 37.0604 82.4715)" fill-rule="evenodd" clip-rule="evenodd" fill="#322D2B" width="0.586" height="50.555"/>
		</g>
		<g clip-path="url(#SVGID_2_)">
			
				<rect x="39.953" y="6.62" transform="matrix(-0.5727 -0.8198 0.8198 -0.5727 37.1436 83.1578)" fill-rule="evenodd" clip-rule="evenodd" fill="#322D2B" width="0.586" height="50.555"/>
		</g>
		<g clip-path="url(#SVGID_2_)">
			
				<rect x="40.177" y="6.94" transform="matrix(-0.5726 -0.8198 0.8198 -0.5726 37.2302 83.8442)" fill-rule="evenodd" clip-rule="evenodd" fill="#352F2C" width="0.586" height="50.555"/>
		</g>
		<g clip-path="url(#SVGID_2_)">
			
				<rect x="40.4" y="7.26" transform="matrix(-0.5727 -0.8198 0.8198 -0.5727 37.3221 84.531)" fill-rule="evenodd" clip-rule="evenodd" fill="#35302D" width="0.586" height="50.555"/>
		</g>
		<g clip-path="url(#SVGID_2_)">
			
				<rect x="40.624" y="7.581" transform="matrix(-0.5727 -0.8198 0.8198 -0.5727 37.4143 85.2179)" fill-rule="evenodd" clip-rule="evenodd" fill="#35302D" width="0.585" height="50.555"/>
		</g>
		<g clip-path="url(#SVGID_2_)">
			
				<rect x="40.848" y="7.901" transform="matrix(-0.5727 -0.8198 0.8198 -0.5727 37.5006 85.9042)" fill-rule="evenodd" clip-rule="evenodd" fill="#36302D" width="0.586" height="50.555"/>
		</g>
		<g clip-path="url(#SVGID_2_)">
			
				<rect x="41.071" y="8.221" transform="matrix(-0.5726 -0.8198 0.8198 -0.5726 37.5878 86.5907)" fill-rule="evenodd" clip-rule="evenodd" fill="#37312F" width="0.586" height="50.555"/>
		</g>
		<g clip-path="url(#SVGID_2_)">
			
				<rect x="41.295" y="8.541" transform="matrix(-0.5728 -0.8197 0.8197 -0.5728 37.6854 87.2778)" fill-rule="evenodd" clip-rule="evenodd" fill="#37312F" width="0.586" height="50.555"/>
		</g>
		<g clip-path="url(#SVGID_2_)">
			
				<rect x="41.518" y="8.861" transform="matrix(-0.5726 -0.8198 0.8198 -0.5726 37.7663 87.9639)" fill-rule="evenodd" clip-rule="evenodd" fill="#373230" width="0.586" height="50.555"/>
		</g>
		<g clip-path="url(#SVGID_2_)">
			
				<rect x="41.742" y="9.181" transform="matrix(-0.5726 -0.8198 0.8198 -0.5726 37.8555 88.6505)" fill-rule="evenodd" clip-rule="evenodd" fill="#383230" width="0.586" height="50.555"/>
		</g>
		<g clip-path="url(#SVGID_2_)">
			
				<rect x="41.965" y="9.501" transform="matrix(-0.5727 -0.8198 0.8198 -0.5727 37.9467 89.3373)" fill-rule="evenodd" clip-rule="evenodd" fill="#383330" width="0.586" height="50.555"/>
		</g>
		<g clip-path="url(#SVGID_2_)">
			
				<rect x="42.189" y="9.821" transform="matrix(-0.5727 -0.8198 0.8198 -0.5727 38.0359 90.0239)" fill-rule="evenodd" clip-rule="evenodd" fill="#383331" width="0.586" height="50.555"/>
		</g>
		<g clip-path="url(#SVGID_2_)">
			
				<rect x="42.412" y="10.141" transform="matrix(-0.5728 -0.8197 0.8197 -0.5728 38.1337 90.7111)" fill-rule="evenodd" clip-rule="evenodd" fill="#3A3532" width="0.586" height="50.555"/>
		</g>
		<g clip-path="url(#SVGID_2_)">
			
				<rect x="42.636" y="10.461" transform="matrix(-0.5727 -0.8198 0.8198 -0.5727 38.2175 91.3974)" fill-rule="evenodd" clip-rule="evenodd" fill="#3A3532" width="0.585" height="50.555"/>
		</g>
		<g clip-path="url(#SVGID_2_)">
			
				<rect x="42.86" y="10.781" transform="matrix(-0.5727 -0.8198 0.8198 -0.5727 38.3036 92.0836)" fill-rule="evenodd" clip-rule="evenodd" fill="#3A3533" width="0.586" height="50.555"/>
		</g>
		<g clip-path="url(#SVGID_2_)">
			
				<rect x="43.083" y="11.101" transform="matrix(-0.5726 -0.8198 0.8198 -0.5726 38.3899 92.7701)" fill-rule="evenodd" clip-rule="evenodd" fill="#3A3533" width="0.586" height="50.555"/>
		</g>
		<g clip-path="url(#SVGID_2_)">
			
				<rect x="43.307" y="11.421" transform="matrix(-0.5727 -0.8198 0.8198 -0.5727 38.4821 93.4568)" fill-rule="evenodd" clip-rule="evenodd" fill="#3B3633" width="0.586" height="50.555"/>
		</g>
		<g clip-path="url(#SVGID_2_)">
			
				<rect x="43.53" y="11.741" transform="matrix(-0.5726 -0.8198 0.8198 -0.5726 38.5693 94.1433)" fill-rule="evenodd" clip-rule="evenodd" fill="#3B3633" width="0.586" height="50.555"/>
		</g>
		<g clip-path="url(#SVGID_2_)">
			
				<rect x="43.754" y="12.061" transform="matrix(-0.5726 -0.8198 0.8198 -0.5726 38.6585 94.8299)" fill-rule="evenodd" clip-rule="evenodd" fill="#3D3835" width="0.586" height="50.555"/>
		</g>
		<g clip-path="url(#SVGID_2_)">
			
				<rect x="43.977" y="12.381" transform="matrix(-0.5728 -0.8197 0.8197 -0.5728 38.7567 95.5173)" fill-rule="evenodd" clip-rule="evenodd" fill="#3D3835" width="0.586" height="50.555"/>
		</g>
		<g clip-path="url(#SVGID_2_)">
			
				<rect x="44.201" y="12.701" transform="matrix(-0.5726 -0.8198 0.8198 -0.5726 38.8369 96.2031)" fill-rule="evenodd" clip-rule="evenodd" fill="#3E3836" width="0.586" height="50.555"/>
		</g>
		<g clip-path="url(#SVGID_2_)">
			
				<rect x="44.425" y="13.021" transform="matrix(-0.5727 -0.8198 0.8198 -0.5727 38.9282 96.8899)" fill-rule="evenodd" clip-rule="evenodd" fill="#3E3836" width="0.586" height="50.555"/>
		</g>
		<g clip-path="url(#SVGID_2_)">
			
				<rect x="44.648" y="13.341" transform="matrix(-0.5727 -0.8197 0.8197 -0.5727 39.0239 97.5772)" fill-rule="evenodd" clip-rule="evenodd" fill="#413B38" width="0.586" height="50.555"/>
		</g>
		<g clip-path="url(#SVGID_2_)">
			
				<rect x="44.872" y="13.661" transform="matrix(-0.5727 -0.8198 0.8198 -0.5727 39.1067 98.2631)" fill-rule="evenodd" clip-rule="evenodd" fill="#413B38" width="0.586" height="50.555"/>
		</g>
		<g clip-path="url(#SVGID_2_)">
			
				<rect x="45.095" y="13.981" transform="matrix(-0.5726 -0.8198 0.8198 -0.5726 39.1928 98.9495)" fill-rule="evenodd" clip-rule="evenodd" fill="#413B38" width="0.586" height="50.555"/>
		</g>
		<g clip-path="url(#SVGID_2_)">
			
				<rect x="45.319" y="14.301" transform="matrix(-0.5727 -0.8198 0.8198 -0.5727 39.2852 99.6363)" fill-rule="evenodd" clip-rule="evenodd" fill="#413C38" width="0.586" height="50.555"/>
		</g>
		<g clip-path="url(#SVGID_2_)">
			
				<rect x="45.542" y="14.622" transform="matrix(-0.5727 -0.8197 0.8197 -0.5727 39.3806 100.3236)" fill-rule="evenodd" clip-rule="evenodd" fill="#423C39" width="0.586" height="50.555"/>
		</g>
		<g clip-path="url(#SVGID_2_)">
			
				<rect x="45.766" y="14.942" transform="matrix(-0.5727 -0.8198 0.8198 -0.5727 39.4636 101.0096)" fill-rule="evenodd" clip-rule="evenodd" fill="#423C39" width="0.586" height="50.555"/>
		</g>
		<g clip-path="url(#SVGID_2_)">
			
				<rect x="45.99" y="15.262" transform="matrix(-0.5726 -0.8198 0.8198 -0.5726 39.5507 101.6959)" fill-rule="evenodd" clip-rule="evenodd" fill="#433E3B" width="0.586" height="50.555"/>
		</g>
		<g clip-path="url(#SVGID_2_)">
			
				<rect x="46.213" y="15.582" transform="matrix(-0.5726 -0.8198 0.8198 -0.5726 39.6399 102.3825)" fill-rule="evenodd" clip-rule="evenodd" fill="#443E3C" width="0.586" height="50.555"/>
		</g>
		<g clip-path="url(#SVGID_2_)">
			
				<rect x="46.437" y="15.902" transform="matrix(-0.5727 -0.8198 0.8198 -0.5727 39.7314 103.0693)" fill-rule="evenodd" clip-rule="evenodd" fill="#443F3C" width="0.586" height="50.555"/>
		</g>
		<g clip-path="url(#SVGID_2_)">
			
				<rect x="46.66" y="16.222" transform="matrix(-0.5727 -0.8197 0.8197 -0.5727 39.8273 103.7568)" fill-rule="evenodd" clip-rule="evenodd" fill="#443F3C" width="0.586" height="50.555"/>
		</g>
		<g clip-path="url(#SVGID_2_)">
			
				<rect x="46.884" y="16.542" transform="matrix(-0.5727 -0.8198 0.8198 -0.5727 39.9098 104.4426)" fill-rule="evenodd" clip-rule="evenodd" fill="#46413E" width="0.586" height="50.555"/>
		</g>
		<g clip-path="url(#SVGID_2_)">
			
				<rect x="47.108" y="16.862" transform="matrix(-0.5727 -0.8197 0.8197 -0.5727 40.0055 105.13)" fill-rule="evenodd" clip-rule="evenodd" fill="#47423F" width="0.586" height="50.555"/>
		</g>
		<g clip-path="url(#SVGID_2_)">
			
				<rect x="47.331" y="17.182" transform="matrix(-0.5727 -0.8198 0.8198 -0.5727 40.0883 105.8157)" fill-rule="evenodd" clip-rule="evenodd" fill="#47423F" width="0.586" height="50.555"/>
		</g>
		<g clip-path="url(#SVGID_2_)">
			
				<rect x="47.555" y="17.502" transform="matrix(-0.5727 -0.8198 0.8198 -0.5727 40.1775 106.5024)" fill-rule="evenodd" clip-rule="evenodd" fill="#47423F" width="0.586" height="50.555"/>
		</g>
		<g clip-path="url(#SVGID_2_)">
			
				<rect x="47.778" y="17.822" transform="matrix(-0.5727 -0.8198 0.8198 -0.5727 40.2667 107.189)" fill-rule="evenodd" clip-rule="evenodd" fill="#484240" width="0.586" height="50.555"/>
		</g>
		<g clip-path="url(#SVGID_2_)">
			
				<rect x="48.002" y="18.142" transform="matrix(-0.5726 -0.8198 0.8198 -0.5726 40.3537 107.8753)" fill-rule="evenodd" clip-rule="evenodd" fill="#484340" width="0.586" height="50.555"/>
		</g>
		<g clip-path="url(#SVGID_2_)">
			
				<rect x="48.225" y="18.462" transform="matrix(-0.5726 -0.8198 0.8198 -0.5726 40.4429 108.5619)" fill-rule="evenodd" clip-rule="evenodd" fill="#4A4541" width="0.586" height="50.555"/>
		</g>
		<g clip-path="url(#SVGID_2_)">
			
				<rect x="48.449" y="18.782" transform="matrix(-0.5726 -0.8198 0.8198 -0.5726 40.532 109.2485)" fill-rule="evenodd" clip-rule="evenodd" fill="#4A4541" width="0.586" height="50.555"/>
		</g>
		<g clip-path="url(#SVGID_2_)">
			
				<rect x="48.673" y="19.102" transform="matrix(-0.5728 -0.8197 0.8197 -0.5728 40.6352 109.9369)" fill-rule="evenodd" clip-rule="evenodd" fill="#4B4642" width="0.586" height="50.555"/>
		</g>
		<g clip-path="url(#SVGID_2_)">
			
				<rect x="48.896" y="19.422" transform="matrix(-0.5727 -0.8198 0.8198 -0.5727 40.7129 110.622)" fill-rule="evenodd" clip-rule="evenodd" fill="#4B4643" width="0.586" height="50.555"/>
		</g>
		<g clip-path="url(#SVGID_2_)">
			
				<rect x="49.12" y="19.742" transform="matrix(-0.5726 -0.8198 0.8198 -0.5726 40.7987 111.3082)" fill-rule="evenodd" clip-rule="evenodd" fill="#4E4844" width="0.586" height="50.555"/>
		</g>
		<g clip-path="url(#SVGID_2_)">
			
				<rect x="49.343" y="20.062" transform="matrix(-0.5727 -0.8198 0.8198 -0.5727 40.8914 111.9952)" fill-rule="evenodd" clip-rule="evenodd" fill="#4E4844" width="0.586" height="50.555"/>
		</g>
		<g clip-path="url(#SVGID_2_)">
			
				<rect x="49.567" y="20.382" transform="matrix(-0.5727 -0.8198 0.8198 -0.5727 40.9806 112.6819)" fill-rule="evenodd" clip-rule="evenodd" fill="#4E4945" width="0.586" height="50.555"/>
		</g>
		<g clip-path="url(#SVGID_2_)">
			
				<rect x="49.79" y="20.702" transform="matrix(-0.5728 -0.8197 0.8197 -0.5728 41.0803 113.3698)" fill-rule="evenodd" clip-rule="evenodd" fill="#4E4945" width="0.586" height="50.555"/>
		</g>
		<g clip-path="url(#SVGID_2_)">
			
				<rect x="50.014" y="21.022" transform="matrix(-0.5727 -0.8198 0.8198 -0.5727 41.159 114.055)" fill-rule="evenodd" clip-rule="evenodd" fill="#4F4946" width="0.586" height="50.555"/>
		</g>
		<g clip-path="url(#SVGID_2_)">
			
				<rect x="50.238" y="21.342" transform="matrix(-0.5727 -0.8198 0.8198 -0.5727 41.2483 114.7416)" fill-rule="evenodd" clip-rule="evenodd" fill="#4F4946" width="0.586" height="50.555"/>
		</g>
		<g clip-path="url(#SVGID_2_)">
			
				<rect x="50.461" y="21.662" transform="matrix(-0.5726 -0.8198 0.8198 -0.5726 41.335 115.4279)" fill-rule="evenodd" clip-rule="evenodd" fill="#514B47" width="0.586" height="50.555"/>
		</g>
		<g clip-path="url(#SVGID_2_)">
			
				<rect x="50.685" y="21.983" transform="matrix(-0.5727 -0.8198 0.8198 -0.5727 41.4317 116.1156)" fill-rule="evenodd" clip-rule="evenodd" fill="#524C49" width="0.586" height="50.555"/>
		</g>
		<g clip-path="url(#SVGID_2_)">
			
				<rect x="50.908" y="22.303" transform="matrix(-0.5726 -0.8198 0.8198 -0.5726 41.5135 116.8011)" fill-rule="evenodd" clip-rule="evenodd" fill="#524C49" width="0.586" height="50.555"/>
		</g>
		<g clip-path="url(#SVGID_2_)">
			
				<rect x="51.132" y="22.623" transform="matrix(-0.5727 -0.8198 0.8198 -0.5727 41.6092 117.4887)" fill-rule="evenodd" clip-rule="evenodd" fill="#524C49" width="0.585" height="50.555"/>
		</g>
		<g clip-path="url(#SVGID_2_)">
			
				<rect x="51.355" y="22.943" transform="matrix(-0.5728 -0.8197 0.8197 -0.5728 41.7053 118.1761)" fill-rule="evenodd" clip-rule="evenodd" fill="#544F4B" width="0.586" height="50.555"/>
		</g>
		<g clip-path="url(#SVGID_2_)">
			
				<rect x="51.579" y="23.263" transform="matrix(-0.5726 -0.8198 0.8198 -0.5726 41.78 118.8608)" fill-rule="evenodd" clip-rule="evenodd" fill="#554F4C" width="0.586" height="50.555"/>
		</g>
		<g clip-path="url(#SVGID_2_)">
			
				<rect x="51.803" y="23.583" transform="matrix(-0.5727 -0.8198 0.8198 -0.5727 41.8729 119.5479)" fill-rule="evenodd" clip-rule="evenodd" fill="#554F4C" width="0.586" height="50.555"/>
		</g>
		<g clip-path="url(#SVGID_2_)">
			
				<rect x="52.026" y="23.903" transform="matrix(-0.5727 -0.8198 0.8198 -0.5727 41.9621 120.2345)" fill-rule="evenodd" clip-rule="evenodd" fill="#554F4C" width="0.586" height="50.555"/>
		</g>
		<g clip-path="url(#SVGID_2_)">
			
				<rect x="52.25" y="24.223" transform="matrix(-0.5727 -0.8198 0.8198 -0.5727 42.0514 120.9211)" fill-rule="evenodd" clip-rule="evenodd" fill="#55504D" width="0.586" height="50.555"/>
		</g>
		<g clip-path="url(#SVGID_2_)">
			
				<rect x="52.473" y="24.543" transform="matrix(-0.5726 -0.8198 0.8198 -0.5726 42.138 121.6073)" fill-rule="evenodd" clip-rule="evenodd" fill="#56514D" width="0.586" height="50.555"/>
		</g>
		<g clip-path="url(#SVGID_2_)">
			
				<rect x="52.697" y="24.863" transform="matrix(-0.5727 -0.8198 0.8198 -0.5727 42.2351 122.2952)" fill-rule="evenodd" clip-rule="evenodd" fill="#58534F" width="0.586" height="50.555"/>
		</g>
		<g clip-path="url(#SVGID_2_)">
			
				<rect x="52.987" y="25.056" transform="matrix(-0.5726 -0.8198 0.8198 -0.5726 42.2786 122.7069)" fill-rule="evenodd" clip-rule="evenodd" fill="#585450" width="0.275" height="50.555"/>
		</g>
	</g>
</g>
<g>
	<g>
		<path fill-rule="evenodd" clip-rule="evenodd" fill="#FFFFFF" d="M34.632,15.302c1.663,5.131-0.981,7.265-4.843,6.083
			c-0.33-0.735,0.548-3.548,3.412-3.554c-1.03,0.792-1.735,1.895-1.775,2.755c1.984,0.074,2.771-1.175,2.21-4.068
			c-1.855,0.18-3.658,0.992-4.839,2.513c0.154-2.409,2.253-4.075,5.825-3.74c-0.004,0.002-0.008,0.004-0.013,0.006
			C34.62,15.298,34.628,15.3,34.632,15.302z"/>
		<path fill-rule="evenodd" clip-rule="evenodd" fill="#FFFFFF" d="M16.307,24.522l1.479,2.56
			c11.011,0.103,25.467-3.883,25.459-18.157C39.826,16.635,37.513,24.579,16.307,24.522z"/>
		<path fill-rule="evenodd" clip-rule="evenodd" fill="#FFFFFF" d="M37.012,19.842c0.532,5.388,4.393,18.504,9.202,24.017
			c4.816,1.872,6.878,4.912,8.683,7.644c-3.815-2.168-5.822-3.295-9.754-4.977c-6.287-6.075-13.205-13.546-14.59-21.673
			C30.352,22.821,36.944,19.724,37.012,19.842z"/>
	</g>
	<path fill-rule="evenodd" clip-rule="evenodd" fill="#FFFFFF" d="M34.581,32.154c-2.741,2.545-6.752,8.091-7.105,13.153
		c0,0,6.51-1.156,9.65-1.388c3.139-0.231,4.164-0.33,4.164-0.33c-2.424-1.11-6.649-2.172-10.046-1.685
		c1.441-2.401,5.072-5.373,7.138-5.915C38.382,35.987,34.68,32.121,34.581,32.154z"/>
	<path fill-rule="evenodd" clip-rule="evenodd" fill="#FFFFFF" d="M39.682,5.67c0.474,0.143,0.887,0.389,1.224,0.708
		c-0.189,0.031-0.391,0.092-0.589,0.201c-0.61,0.336-0.961,0.973-1.066,1.189c-0.178,0.027-0.669,0.086-1.288,0.014
		c-0.591-0.068-1.074-0.25-1.273-0.334c0.027-0.132,0.095-0.387,0.266-0.733c0.251-0.509,0.923-0.968,0.925-0.97
		c0.031-0.021,0.051-0.051,0.059-0.085C38.489,5.501,39.091,5.493,39.682,5.67L39.682,5.67z M41.157,6.645
		c-0.213,0.01-0.458,0.059-0.698,0.191c-0.608,0.335-0.927,1.018-0.968,1.11c0.063,0.209,0.211,0.786,0.172,1.49
		c-0.033,0.581-0.123,1.058-0.18,1.312c0.004,0.005,0.007,0.011,0.01,0.017c0.018,0.036,0.019,0.076,0.007,0.112
		c0.137,0.082,0.394,0.194,0.742,0.165c0.178-0.014,0.372-0.053,0.555-0.099c0.432-0.369,0.766-0.863,0.942-1.447
		C42.047,8.472,41.794,7.411,41.157,6.645L41.157,6.645z M40.21,11.339c-0.684,0.355-1.502,0.454-2.299,0.214
		c-0.403-0.121-0.762-0.318-1.067-0.569c0.252,0.121,0.554,0.217,0.899,0.238c0.697,0.042,1.213-0.088,1.479-0.179
		C39.317,11.117,39.677,11.364,40.21,11.339L40.21,11.339z M35.725,8.69c0.073-0.483,0.285-0.947,0.675-1.295
		c0.032-0.155,0.109-0.439,0.29-0.808c0.088-0.178,0.218-0.349,0.357-0.5c-0.552,0.382-0.984,0.947-1.193,1.64
		C35.759,8.048,35.717,8.372,35.725,8.69L35.725,8.69z M39.37,9.42c0.035-0.623-0.087-1.136-0.149-1.351
		c-0.236,0.031-0.714,0.072-1.292,0.006c-0.692-0.08-1.248-0.307-1.416-0.381c-0.289,0.295-0.447,0.674-0.502,1.068
		c-0.069,0.499,0.027,1.02,0.233,1.429c0.088,0.097,0.652,0.687,1.517,0.739c0.713,0.043,1.21-0.103,1.421-0.183
		C39.235,10.526,39.336,10.035,39.37,9.42z"/>
</g>
</svg>
