<?xml version="1.0" encoding="utf-8"?>
<!-- Generator: Adobe Illustrator 17.0.0, SVG Export Plug-In . SVG Version: 6.00 Build 0)  -->
<!DOCTYPE svg PUBLIC "-//W3C//DTD SVG 1.1//EN" "http://www.w3.org/Graphics/SVG/1.1/DTD/svg11.dtd">
<svg version="1.1" id="Layer_1" xmlns="http://www.w3.org/2000/svg" xmlns:xlink="http://www.w3.org/1999/xlink" x="0px" y="0px"
	 width="56px" height="56px" viewBox="0 0 56 56" enable-background="new 0 0 56 56" xml:space="preserve">
<g>
	<defs>
		<path id="SVGID_1_" d="M28.45,51.98C20.401,36.445,11.507,22.67,0.323,6.366c16.586-3.179,38.017-1.99,55.354,3.289
			C49.167,23.52,41.62,38.427,28.45,51.98"/>
	</defs>
	<clipPath id="SVGID_2_">
		<use xlink:href="#SVGID_1_"  overflow="visible"/>
	</clipPath>
	<polyline clip-path="url(#SVGID_2_)" fill-rule="evenodd" clip-rule="evenodd" fill="#0F0D0D" points="-38.943,95.804 0.323,6.366 
		0.217,6.4 -39.049,95.838 	"/>
	<polyline clip-path="url(#SVGID_2_)" fill-rule="evenodd" clip-rule="evenodd" fill="#100E0E" points="-39.224,95.894 0.042,6.456 
		0.567,6.287 -38.699,95.725 	"/>
	<polyline clip-path="url(#SVGID_2_)" fill-rule="evenodd" clip-rule="evenodd" fill="#110E0E" points="-38.874,95.782 0.392,6.343 
		0.917,6.174 -38.349,95.613 	"/>
	<polyline clip-path="url(#SVGID_2_)" fill-rule="evenodd" clip-rule="evenodd" fill="#110E0E" points="-38.524,95.669 0.742,6.231 
		1.267,6.062 -37.999,95.5 	"/>
	<polyline clip-path="url(#SVGID_2_)" fill-rule="evenodd" clip-rule="evenodd" fill="#110E0E" points="-38.174,95.556 1.092,6.118 
		1.617,5.949 -37.649,95.387 	"/>
	<polyline clip-path="url(#SVGID_2_)" fill-rule="evenodd" clip-rule="evenodd" fill="#110E0F" points="-37.824,95.444 1.442,6.005 
		1.968,5.836 -37.298,95.274 	"/>
	<polyline clip-path="url(#SVGID_2_)" fill-rule="evenodd" clip-rule="evenodd" fill="#120F0F" points="-37.473,95.331 1.792,5.893 
		2.318,5.723 -36.948,95.162 	"/>
	<polyline clip-path="url(#SVGID_2_)" fill-rule="evenodd" clip-rule="evenodd" fill="#120F0F" points="-37.123,95.218 2.143,5.78 
		2.668,5.611 -36.598,95.049 	"/>
	<polyline clip-path="url(#SVGID_2_)" fill-rule="evenodd" clip-rule="evenodd" fill="#120F0F" points="-36.773,95.105 2.493,5.667 
		3.018,5.498 -36.248,94.936 	"/>
	<polyline clip-path="url(#SVGID_2_)" fill-rule="evenodd" clip-rule="evenodd" fill="#120F0F" points="-36.423,94.993 2.843,5.554 
		3.368,5.385 -35.898,94.823 	"/>
	<polyline clip-path="url(#SVGID_2_)" fill-rule="evenodd" clip-rule="evenodd" fill="#120F10" points="-36.073,94.88 3.193,5.442 
		3.718,5.272 -35.548,94.711 	"/>
	<polyline clip-path="url(#SVGID_2_)" fill-rule="evenodd" clip-rule="evenodd" fill="#131010" points="-35.723,94.767 3.543,5.329 
		4.068,5.16 -35.197,94.598 	"/>
	<polyline clip-path="url(#SVGID_2_)" fill-rule="evenodd" clip-rule="evenodd" fill="#131010" points="-35.372,94.654 3.893,5.216 
		4.419,5.047 -34.847,94.485 	"/>
	<polyline clip-path="url(#SVGID_2_)" fill-rule="evenodd" clip-rule="evenodd" fill="#131111" points="-35.022,94.542 4.244,5.103 
		4.769,4.934 -34.497,94.372 	"/>
	<polyline clip-path="url(#SVGID_2_)" fill-rule="evenodd" clip-rule="evenodd" fill="#131111" points="-34.672,94.429 4.594,4.991 
		5.119,4.821 21.068,54.357 	"/>
	<polyline clip-path="url(#SVGID_2_)" fill-rule="evenodd" clip-rule="evenodd" fill="#151111" points="20.893,54.413 4.944,4.878 
		5.469,4.709 21.418,54.244 	"/>
	<polyline clip-path="url(#SVGID_2_)" fill-rule="evenodd" clip-rule="evenodd" fill="#151111" points="21.243,54.301 5.294,4.765 
		5.819,4.596 21.768,54.131 	"/>
	<polyline clip-path="url(#SVGID_2_)" fill-rule="evenodd" clip-rule="evenodd" fill="#151212" points="21.593,54.188 5.644,4.652 
		6.169,4.483 22.118,54.019 	"/>
	<polyline clip-path="url(#SVGID_2_)" fill-rule="evenodd" clip-rule="evenodd" fill="#151212" points="21.943,54.075 5.994,4.54 
		6.52,4.371 22.469,53.906 	"/>
	<polyline clip-path="url(#SVGID_2_)" fill-rule="evenodd" clip-rule="evenodd" fill="#151212" points="22.294,53.962 6.345,4.427 
		6.87,4.258 22.819,53.793 	"/>
	<polyline clip-path="url(#SVGID_2_)" fill-rule="evenodd" clip-rule="evenodd" fill="#151212" points="22.644,53.85 6.695,4.314 
		7.22,4.145 23.169,53.68 	"/>
	<polyline clip-path="url(#SVGID_2_)" fill-rule="evenodd" clip-rule="evenodd" fill="#161313" points="22.994,53.737 7.045,4.201 
		7.57,4.032 23.519,53.568 	"/>
	<polyline clip-path="url(#SVGID_2_)" fill-rule="evenodd" clip-rule="evenodd" fill="#171313" points="23.344,53.624 7.395,4.089 
		7.92,3.92 23.869,53.455 	"/>
	<polyline clip-path="url(#SVGID_2_)" fill-rule="evenodd" clip-rule="evenodd" fill="#171313" points="23.694,53.511 7.745,3.976 
		8.27,3.807 24.219,53.342 	"/>
	<polyline clip-path="url(#SVGID_2_)" fill-rule="evenodd" clip-rule="evenodd" fill="#171313" points="24.044,53.399 8.095,3.863 
		8.621,3.694 24.57,53.229 	"/>
	<polyline clip-path="url(#SVGID_2_)" fill-rule="evenodd" clip-rule="evenodd" fill="#181414" points="24.394,53.286 8.445,3.75 
		8.971,3.581 24.92,53.117 	"/>
	<polyline clip-path="url(#SVGID_2_)" fill-rule="evenodd" clip-rule="evenodd" fill="#181514" points="24.745,53.173 8.796,3.638 
		9.321,3.469 25.27,53.004 	"/>
	<polyline clip-path="url(#SVGID_2_)" fill-rule="evenodd" clip-rule="evenodd" fill="#181514" points="25.095,53.06 9.146,3.525 
		9.671,3.356 25.62,52.891 	"/>
	<polyline clip-path="url(#SVGID_2_)" fill-rule="evenodd" clip-rule="evenodd" fill="#181515" points="25.445,52.948 9.496,3.412 
		10.021,3.243 25.97,52.779 	"/>
	<polyline clip-path="url(#SVGID_2_)" fill-rule="evenodd" clip-rule="evenodd" fill="#191515" points="25.795,52.835 9.846,3.299 
		10.371,3.13 26.32,52.666 	"/>
	<polyline clip-path="url(#SVGID_2_)" fill-rule="evenodd" clip-rule="evenodd" fill="#191515" points="26.145,52.722 10.196,3.187 
		10.722,3.018 26.67,52.553 	"/>
	<polyline clip-path="url(#SVGID_2_)" fill-rule="evenodd" clip-rule="evenodd" fill="#1A1616" points="26.495,52.609 10.546,3.074 
		11.072,2.905 27.021,52.44 	"/>
	<polyline clip-path="url(#SVGID_2_)" fill-rule="evenodd" clip-rule="evenodd" fill="#1A1616" points="26.845,52.497 10.897,2.961 
		11.422,2.792 27.371,52.328 	"/>
	<polyline clip-path="url(#SVGID_2_)" fill-rule="evenodd" clip-rule="evenodd" fill="#1A1716" points="27.196,52.384 11.247,2.849 
		11.772,2.679 27.721,52.215 	"/>
	<polyline clip-path="url(#SVGID_2_)" fill-rule="evenodd" clip-rule="evenodd" fill="#1A1716" points="27.546,52.271 11.597,2.736 
		12.122,2.567 28.071,52.102 	"/>
	<polyline clip-path="url(#SVGID_2_)" fill-rule="evenodd" clip-rule="evenodd" fill="#1C1818" points="27.896,52.158 11.947,2.623 
		12.472,2.454 28.421,51.989 	"/>
	<polyline clip-path="url(#SVGID_2_)" fill-rule="evenodd" clip-rule="evenodd" fill="#1C1818" points="28.246,52.046 12.297,2.51 
		12.822,2.341 28.771,51.877 	"/>
	<polyline clip-path="url(#SVGID_2_)" fill-rule="evenodd" clip-rule="evenodd" fill="#1C1818" points="28.596,51.933 12.647,2.397 
		13.173,2.228 29.122,51.764 	"/>
	<polyline clip-path="url(#SVGID_2_)" fill-rule="evenodd" clip-rule="evenodd" fill="#1C1818" points="28.946,51.82 12.998,2.285 
		13.523,2.116 29.472,51.651 	"/>
	<polyline clip-path="url(#SVGID_2_)" fill-rule="evenodd" clip-rule="evenodd" fill="#1D1918" points="29.297,51.707 13.348,2.172 
		13.873,2.003 29.822,51.538 	"/>
	<polyline clip-path="url(#SVGID_2_)" fill-rule="evenodd" clip-rule="evenodd" fill="#1D1918" points="29.647,51.595 13.698,2.059 
		14.223,1.89 30.172,51.426 	"/>
	<polyline clip-path="url(#SVGID_2_)" fill-rule="evenodd" clip-rule="evenodd" fill="#1E1A19" points="29.997,51.482 14.048,1.947 
		14.573,1.778 30.522,51.313 	"/>
	<polyline clip-path="url(#SVGID_2_)" fill-rule="evenodd" clip-rule="evenodd" fill="#1E1A1A" points="30.347,51.369 14.398,1.834 
		14.923,1.665 30.872,51.2 	"/>
	<polyline clip-path="url(#SVGID_2_)" fill-rule="evenodd" clip-rule="evenodd" fill="#1F1A1A" points="30.697,51.257 14.748,1.721 
		15.274,1.552 31.222,51.087 	"/>
	<polyline clip-path="url(#SVGID_2_)" fill-rule="evenodd" clip-rule="evenodd" fill="#1F1A1A" points="31.047,51.144 15.099,1.608 
		15.624,1.439 31.573,50.975 	"/>
	<polyline clip-path="url(#SVGID_2_)" fill-rule="evenodd" clip-rule="evenodd" fill="#1F1A1A" points="31.398,51.031 15.449,1.496 
		15.974,1.327 31.923,50.862 31.398,51.031 	"/>
	<polyline clip-path="url(#SVGID_2_)" fill-rule="evenodd" clip-rule="evenodd" fill="#1F1B1A" points="31.748,50.918 15.799,1.383 
		16.324,1.214 32.273,50.749 31.748,50.918 	"/>
	<g clip-path="url(#SVGID_2_)">
		
			<rect x="24.11" y="-0.067" transform="matrix(-0.9519 0.3064 -0.3064 -0.9519 55.5518 43.1856)" fill-rule="evenodd" clip-rule="evenodd" fill="#211C1B" width="0.552" height="52.04"/>
	</g>
	<g clip-path="url(#SVGID_2_)">
		
			<rect x="24.46" y="-0.179" transform="matrix(-0.9519 0.3065 -0.3065 -0.9519 56.2029 42.8541)" fill-rule="evenodd" clip-rule="evenodd" fill="#211C1C" width="0.552" height="52.04"/>
	</g>
	<g clip-path="url(#SVGID_2_)">
		
			<rect x="24.81" y="-0.292" transform="matrix(-0.9519 0.3064 -0.3064 -0.9519 56.8496 42.5309)" fill-rule="evenodd" clip-rule="evenodd" fill="#211C1C" width="0.552" height="52.04"/>
	</g>
	<g clip-path="url(#SVGID_2_)">
		
			<rect x="25.161" y="-0.405" transform="matrix(-0.9519 0.3064 -0.3064 -0.9519 57.4985 42.2035)" fill-rule="evenodd" clip-rule="evenodd" fill="#211D1C" width="0.552" height="52.04"/>
	</g>
	<g clip-path="url(#SVGID_2_)">
		
			<rect x="25.511" y="-0.517" transform="matrix(-0.9519 0.3065 -0.3065 -0.9519 58.1496 41.8719)" fill-rule="evenodd" clip-rule="evenodd" fill="#221E1D" width="0.552" height="52.04"/>
	</g>
	<g clip-path="url(#SVGID_2_)">
		
			<rect x="25.861" y="-0.63" transform="matrix(-0.9519 0.3064 -0.3064 -0.9519 58.7964 41.5488)" fill-rule="evenodd" clip-rule="evenodd" fill="#221E1D" width="0.552" height="52.04"/>
	</g>
	<g clip-path="url(#SVGID_2_)">
		
			<rect x="26.211" y="-0.743" transform="matrix(-0.9519 0.3065 -0.3065 -0.9519 59.4474 41.2172)" fill-rule="evenodd" clip-rule="evenodd" fill="#231E1D" width="0.552" height="52.04"/>
	</g>
	<g clip-path="url(#SVGID_2_)">
		
			<rect x="26.561" y="-0.856" transform="matrix(-0.9518 0.3066 -0.3066 -0.9518 60.0973 40.8876)" fill-rule="evenodd" clip-rule="evenodd" fill="#231F1E" width="0.552" height="52.04"/>
	</g>
	<g clip-path="url(#SVGID_2_)">
		
			<rect x="26.911" y="-0.968" transform="matrix(-0.9519 0.3064 -0.3064 -0.9519 60.7421 40.5689)" fill-rule="evenodd" clip-rule="evenodd" fill="#231F1E" width="0.552" height="52.04"/>
	</g>
	<g clip-path="url(#SVGID_2_)">
		
			<rect x="27.262" y="-1.081" transform="matrix(-0.9518 0.3066 -0.3066 -0.9518 61.3951 40.2328)" fill-rule="evenodd" clip-rule="evenodd" fill="#231F1E" width="0.552" height="52.04"/>
	</g>
	<g clip-path="url(#SVGID_2_)">
		
			<rect x="27.612" y="-1.194" transform="matrix(-0.9519 0.3064 -0.3064 -0.9519 62.04 39.9143)" fill-rule="evenodd" clip-rule="evenodd" fill="#25201F" width="0.552" height="52.04"/>
	</g>
	<g clip-path="url(#SVGID_2_)">
		
			<rect x="27.962" y="-1.307" transform="matrix(-0.9519 0.3064 -0.3064 -0.9519 62.6896 39.5854)" fill-rule="evenodd" clip-rule="evenodd" fill="#25201F" width="0.552" height="52.04"/>
	</g>
	<g clip-path="url(#SVGID_2_)">
		
			<rect x="28.312" y="-1.419" transform="matrix(-0.9518 0.3066 -0.3066 -0.9518 63.3414 39.2512)" fill-rule="evenodd" clip-rule="evenodd" fill="#262120" width="0.552" height="52.04"/>
	</g>
	<g clip-path="url(#SVGID_2_)">
		
			<rect x="28.662" y="-1.532" transform="matrix(-0.9519 0.3064 -0.3064 -0.9519 63.9875 38.9307)" fill-rule="evenodd" clip-rule="evenodd" fill="#262120" width="0.552" height="52.04"/>
	</g>
	<g clip-path="url(#SVGID_2_)">
		
			<rect x="29.012" y="-1.645" transform="matrix(-0.9518 0.3066 -0.3066 -0.9518 64.6392 38.5965)" fill-rule="evenodd" clip-rule="evenodd" fill="#272221" width="0.552" height="52.04"/>
	</g>
	<g clip-path="url(#SVGID_2_)">
		
			<rect x="29.363" y="-1.758" transform="matrix(-0.9519 0.3065 -0.3065 -0.9519 65.2872 38.2714)" fill-rule="evenodd" clip-rule="evenodd" fill="#272321" width="0.552" height="52.04"/>
	</g>
	<g clip-path="url(#SVGID_2_)">
		
			<rect x="29.713" y="-1.87" transform="matrix(-0.9519 0.3064 -0.3064 -0.9519 65.9343 37.9487)" fill-rule="evenodd" clip-rule="evenodd" fill="#282322" width="0.552" height="52.04"/>
	</g>
	<g clip-path="url(#SVGID_2_)">
		
			<rect x="30.063" y="-1.983" transform="matrix(-0.9518 0.3066 -0.3066 -0.9518 66.5859 37.6143)" fill-rule="evenodd" clip-rule="evenodd" fill="#282322" width="0.552" height="52.04"/>
	</g>
	<g clip-path="url(#SVGID_2_)">
		
			<rect x="30.413" y="-2.096" transform="matrix(-0.9519 0.3065 -0.3065 -0.9519 67.233 37.2917)" fill-rule="evenodd" clip-rule="evenodd" fill="#282322" width="0.552" height="52.04"/>
	</g>
	<g clip-path="url(#SVGID_2_)">
		
			<rect x="30.763" y="-2.209" transform="matrix(-0.9519 0.3064 -0.3064 -0.9519 67.881 36.9666)" fill-rule="evenodd" clip-rule="evenodd" fill="#292422" width="0.552" height="52.04"/>
	</g>
	<g clip-path="url(#SVGID_2_)">
		<polygon fill-rule="evenodd" clip-rule="evenodd" fill="#2A2523" points="23.152,-0.985 19.731,2.094 39.626,48.382 
			39.101,48.551 		"/>
	</g>
	<g clip-path="url(#SVGID_2_)">
		<polygon fill-rule="evenodd" clip-rule="evenodd" fill="#2A2524" points="19.555,2.15 20.081,1.981 39.976,48.269 39.451,48.438 
					"/>
	</g>
	<g clip-path="url(#SVGID_2_)">
		<polygon fill-rule="evenodd" clip-rule="evenodd" fill="#2A2624" points="19.906,2.037 20.431,1.868 40.327,48.156 39.801,48.325 
					"/>
	</g>
	<g clip-path="url(#SVGID_2_)">
		<polygon fill-rule="evenodd" clip-rule="evenodd" fill="#2B2624" points="20.256,1.924 20.781,1.755 40.677,48.043 40.152,48.212 
					"/>
	</g>
	<g clip-path="url(#SVGID_2_)">
		<polygon fill-rule="evenodd" clip-rule="evenodd" fill="#2C2726" points="20.606,1.812 21.131,1.643 41.027,47.931 40.502,48.1 		
			"/>
	</g>
	<g clip-path="url(#SVGID_2_)">
		<polygon fill-rule="evenodd" clip-rule="evenodd" fill="#2C2726" points="20.956,1.699 21.481,1.53 41.377,47.818 40.852,47.987 
					"/>
	</g>
	<g clip-path="url(#SVGID_2_)">
		<polygon fill-rule="evenodd" clip-rule="evenodd" fill="#2C2826" points="21.306,1.586 21.831,1.417 41.727,47.705 41.202,47.874 
					"/>
	</g>
	<g clip-path="url(#SVGID_2_)">
		<polygon fill-rule="evenodd" clip-rule="evenodd" fill="#2D2826" points="21.656,1.473 22.182,1.304 42.077,47.592 41.552,47.762 
					"/>
	</g>
	<g clip-path="url(#SVGID_2_)">
		<polygon fill-rule="evenodd" clip-rule="evenodd" fill="#2D2826" points="22.007,1.361 22.532,1.192 42.428,47.48 41.902,47.649 
					"/>
	</g>
	<g clip-path="url(#SVGID_2_)">
		<polygon fill-rule="evenodd" clip-rule="evenodd" fill="#2D2927" points="22.357,1.248 22.882,1.079 42.778,47.367 42.253,47.536 
					"/>
	</g>
	<g clip-path="url(#SVGID_2_)">
		<polygon fill-rule="evenodd" clip-rule="evenodd" fill="#2F2A28" points="22.707,1.135 23.232,0.966 43.128,47.254 42.603,47.423 
					"/>
	</g>
	<g clip-path="url(#SVGID_2_)">
		<polygon fill-rule="evenodd" clip-rule="evenodd" fill="#2F2A28" points="23.057,1.023 23.582,0.853 43.478,47.142 42.953,47.311 
					"/>
	</g>
	<g clip-path="url(#SVGID_2_)">
		<polygon fill-rule="evenodd" clip-rule="evenodd" fill="#2F2A29" points="23.407,0.91 23.932,0.741 43.828,47.029 43.303,47.198 
					"/>
	</g>
	<g clip-path="url(#SVGID_2_)">
		<polygon fill-rule="evenodd" clip-rule="evenodd" fill="#2F2A29" points="23.757,0.797 24.283,0.628 44.178,46.916 43.653,47.085 
					"/>
	</g>
	<g clip-path="url(#SVGID_2_)">
		<polygon fill-rule="evenodd" clip-rule="evenodd" fill="#322C2A" points="24.107,0.684 24.633,0.515 44.529,46.803 44.003,46.972 
					"/>
	</g>
	<g clip-path="url(#SVGID_2_)">
		<polygon fill-rule="evenodd" clip-rule="evenodd" fill="#322C2A" points="24.458,0.572 24.983,0.402 44.879,46.69 44.353,46.86 		
			"/>
	</g>
	<g clip-path="url(#SVGID_2_)">
		<polygon fill-rule="evenodd" clip-rule="evenodd" fill="#322C2B" points="24.808,0.459 25.333,0.29 45.229,46.578 44.704,46.747 
					"/>
	</g>
	<g clip-path="url(#SVGID_2_)">
		<polygon fill-rule="evenodd" clip-rule="evenodd" fill="#322D2B" points="25.158,0.346 25.683,0.177 45.579,46.465 45.054,46.634 
					"/>
	</g>
	<g clip-path="url(#SVGID_2_)">
		<polygon fill-rule="evenodd" clip-rule="evenodd" fill="#322D2B" points="25.508,0.233 26.033,0.064 45.929,46.352 45.404,46.521 
					"/>
	</g>
	<g clip-path="url(#SVGID_2_)">
		<polygon fill-rule="evenodd" clip-rule="evenodd" fill="#322D2B" points="25.858,0.121 26.384,-0.049 46.279,46.24 45.754,46.409 
					"/>
	</g>
	<g clip-path="url(#SVGID_2_)">
		<polygon fill-rule="evenodd" clip-rule="evenodd" fill="#352F2C" points="26.208,0.008 26.734,-0.161 46.629,46.127 
			46.104,46.296 		"/>
	</g>
	<g clip-path="url(#SVGID_2_)">
		<polygon fill-rule="evenodd" clip-rule="evenodd" fill="#35302D" points="26.559,-0.105 27.084,-0.274 46.98,46.014 
			46.454,46.183 		"/>
	</g>
	<g clip-path="url(#SVGID_2_)">
		<polygon fill-rule="evenodd" clip-rule="evenodd" fill="#35302D" points="26.909,-0.218 27.434,-0.387 47.33,45.901 46.805,46.07 
					"/>
	</g>
	<g clip-path="url(#SVGID_2_)">
		<polygon fill-rule="evenodd" clip-rule="evenodd" fill="#36302D" points="27.259,-0.33 27.784,-0.499 47.68,45.789 47.155,45.958 
					"/>
	</g>
	<g clip-path="url(#SVGID_2_)">
		<polygon fill-rule="evenodd" clip-rule="evenodd" fill="#37312F" points="27.609,-0.443 28.134,-0.612 48.03,45.676 
			47.505,45.845 		"/>
	</g>
	<g clip-path="url(#SVGID_2_)">
		<polygon fill-rule="evenodd" clip-rule="evenodd" fill="#37312F" points="27.959,-0.556 28.484,-0.725 48.38,45.563 
			47.855,45.732 		"/>
	</g>
	<g clip-path="url(#SVGID_2_)">
		<polygon fill-rule="evenodd" clip-rule="evenodd" fill="#373230" points="28.309,-0.669 28.835,-0.838 48.73,45.45 48.205,45.619 
					"/>
	</g>
	<g clip-path="url(#SVGID_2_)">
		<polygon fill-rule="evenodd" clip-rule="evenodd" fill="#383230" points="28.66,-0.781 29.185,-0.95 49.081,45.338 48.555,45.507 
					"/>
	</g>
	<g clip-path="url(#SVGID_2_)">
		<polygon fill-rule="evenodd" clip-rule="evenodd" fill="#383330" points="29.01,-0.894 29.535,-1.063 49.431,45.225 
			48.906,45.394 		"/>
	</g>
	<g clip-path="url(#SVGID_2_)">
		<polygon fill-rule="evenodd" clip-rule="evenodd" fill="#383331" points="29.36,-1.007 29.885,-1.176 49.781,45.112 
			49.256,45.281 		"/>
	</g>
	<g clip-path="url(#SVGID_2_)">
		<polygon fill-rule="evenodd" clip-rule="evenodd" fill="#3A3532" points="29.71,-1.12 30.235,-1.289 50.131,44.999 49.606,45.168 
					"/>
	</g>
	<g clip-path="url(#SVGID_2_)">
		<polygon fill-rule="evenodd" clip-rule="evenodd" fill="#3A3532" points="30.06,-1.232 30.585,-1.401 50.481,44.887 
			49.956,45.056 		"/>
	</g>
	<g clip-path="url(#SVGID_2_)">
		<polygon fill-rule="evenodd" clip-rule="evenodd" fill="#3A3533" points="30.41,-1.345 30.936,-1.514 50.831,44.774 
			50.306,44.943 		"/>
	</g>
	<g clip-path="url(#SVGID_2_)">
		<polygon fill-rule="evenodd" clip-rule="evenodd" fill="#3A3533" points="30.761,-1.458 31.286,-1.627 51.182,44.661 
			50.656,44.83 		"/>
	</g>
	<g clip-path="url(#SVGID_2_)">
		<polygon fill-rule="evenodd" clip-rule="evenodd" fill="#3B3633" points="31.111,-1.57 31.636,-1.74 51.532,44.548 51.006,44.718 
					"/>
	</g>
	<g clip-path="url(#SVGID_2_)">
		<polygon fill-rule="evenodd" clip-rule="evenodd" fill="#3B3633" points="31.461,-1.683 31.986,-1.852 51.882,44.436 
			51.357,44.605 		"/>
	</g>
	<g clip-path="url(#SVGID_2_)">
		<polygon fill-rule="evenodd" clip-rule="evenodd" fill="#3D3835" points="31.811,-1.796 32.336,-1.965 52.232,44.323 
			51.707,44.492 		"/>
	</g>
	<g clip-path="url(#SVGID_2_)">
		<polygon fill-rule="evenodd" clip-rule="evenodd" fill="#3D3835" points="32.161,-1.909 32.686,-2.078 52.582,44.21 
			52.057,44.379 		"/>
	</g>
	<g clip-path="url(#SVGID_2_)">
		<polygon fill-rule="evenodd" clip-rule="evenodd" fill="#3E3836" points="32.511,-2.021 33.037,-2.191 52.932,44.097 
			52.407,44.267 		"/>
	</g>
	<g clip-path="url(#SVGID_2_)">
		<polygon fill-rule="evenodd" clip-rule="evenodd" fill="#3E3836" points="32.861,-2.134 33.387,-2.303 53.283,43.985 
			52.757,44.154 		"/>
	</g>
	<g clip-path="url(#SVGID_2_)">
		<polygon fill-rule="evenodd" clip-rule="evenodd" fill="#413B38" points="33.212,-2.247 33.737,-2.416 53.633,43.872 
			53.107,44.041 		"/>
	</g>
	<g clip-path="url(#SVGID_2_)">
		<polygon fill-rule="evenodd" clip-rule="evenodd" fill="#413B38" points="33.562,-2.36 34.087,-2.529 53.983,43.759 
			53.458,43.928 		"/>
	</g>
	<g clip-path="url(#SVGID_2_)">
		<polygon fill-rule="evenodd" clip-rule="evenodd" fill="#413B38" points="33.912,-2.472 34.437,-2.642 54.333,43.646 
			53.808,43.816 		"/>
	</g>
	<g clip-path="url(#SVGID_2_)">
		<polygon fill-rule="evenodd" clip-rule="evenodd" fill="#413C38" points="34.262,-2.585 34.787,-2.754 54.683,43.534 
			54.158,43.703 		"/>
	</g>
	<g clip-path="url(#SVGID_2_)">
		<polygon fill-rule="evenodd" clip-rule="evenodd" fill="#423C39" points="34.612,-2.698 35.138,-2.867 55.033,43.421 
			54.508,43.59 		"/>
	</g>
	<g clip-path="url(#SVGID_2_)">
		<polygon fill-rule="evenodd" clip-rule="evenodd" fill="#423C39" points="34.962,-2.811 35.488,-2.98 55.383,43.308 
			54.858,43.477 		"/>
	</g>
	<g clip-path="url(#SVGID_2_)">
		<polygon fill-rule="evenodd" clip-rule="evenodd" fill="#433E3B" points="35.313,-2.923 35.838,-3.092 55.734,43.196 
			55.208,43.365 		"/>
	</g>
	<polyline clip-path="url(#SVGID_2_)" fill-rule="evenodd" clip-rule="evenodd" fill="#443E3C" points="56.084,43.083 
		55.559,43.252 35.663,-3.036 36.188,-3.205 56.084,43.083 	"/>
	<polyline clip-path="url(#SVGID_2_)" fill-rule="evenodd" clip-rule="evenodd" fill="#443F3C" points="55.909,43.139 
		36.013,-3.149 36.538,-3.318 56.434,42.97 	"/>
	<polyline clip-path="url(#SVGID_2_)" fill-rule="evenodd" clip-rule="evenodd" fill="#443F3C" points="56.259,43.026 
		36.363,-3.262 36.888,-3.431 56.784,42.857 	"/>
	<polyline clip-path="url(#SVGID_2_)" fill-rule="evenodd" clip-rule="evenodd" fill="#46413E" points="56.609,42.914 
		36.713,-3.374 37.238,-3.543 57.134,42.745 	"/>
	<polyline clip-path="url(#SVGID_2_)" fill-rule="evenodd" clip-rule="evenodd" fill="#47423F" points="56.959,42.801 
		37.063,-3.487 37.589,-3.656 57.484,42.632 	"/>
	<polyline clip-path="url(#SVGID_2_)" fill-rule="evenodd" clip-rule="evenodd" fill="#47423F" points="57.309,42.688 37.414,-3.6 
		37.939,-3.769 57.835,42.519 	"/>
	<polyline clip-path="url(#SVGID_2_)" fill-rule="evenodd" clip-rule="evenodd" fill="#47423F" points="57.659,42.575 
		37.764,-3.713 38.289,-3.882 58.185,42.406 	"/>
	<polyline clip-path="url(#SVGID_2_)" fill-rule="evenodd" clip-rule="evenodd" fill="#484240" points="58.01,42.463 38.114,-3.825 
		38.639,-3.994 58.535,42.294 	"/>
	<polyline clip-path="url(#SVGID_2_)" fill-rule="evenodd" clip-rule="evenodd" fill="#484340" points="58.36,42.35 38.464,-3.938 
		38.989,-4.107 58.885,42.181 	"/>
	<polyline clip-path="url(#SVGID_2_)" fill-rule="evenodd" clip-rule="evenodd" fill="#4A4541" points="58.71,42.237 38.814,-4.051 
		39.339,-4.22 59.235,42.068 	"/>
	<polyline clip-path="url(#SVGID_2_)" fill-rule="evenodd" clip-rule="evenodd" fill="#4A4541" points="59.06,42.124 39.164,-4.164 
		39.69,-4.333 59.585,41.955 	"/>
	<polyline clip-path="url(#SVGID_2_)" fill-rule="evenodd" clip-rule="evenodd" fill="#4B4642" points="59.41,42.012 39.515,-4.276 
		40.04,-4.445 59.936,41.843 	"/>
	<polyline clip-path="url(#SVGID_2_)" fill-rule="evenodd" clip-rule="evenodd" fill="#4B4643" points="59.76,41.899 39.865,-4.389 
		40.39,-4.558 60.286,41.73 	"/>
	<polyline clip-path="url(#SVGID_2_)" fill-rule="evenodd" clip-rule="evenodd" fill="#4E4844" points="60.111,41.786 
		40.215,-4.502 40.74,-4.671 60.636,41.617 	"/>
	<polyline clip-path="url(#SVGID_2_)" fill-rule="evenodd" clip-rule="evenodd" fill="#4E4844" points="60.461,41.674 
		40.565,-4.614 41.09,-4.784 60.986,41.504 	"/>
	<polyline clip-path="url(#SVGID_2_)" fill-rule="evenodd" clip-rule="evenodd" fill="#4E4945" points="60.811,41.561 
		40.915,-4.727 79.143,-6.991 61.336,41.392 	"/>
	<polyline clip-path="url(#SVGID_2_)" fill-rule="evenodd" clip-rule="evenodd" fill="#4E4945" points="61.161,41.448 41.265,-4.84 
		79.493,-7.104 61.686,41.279 	"/>
	<polyline clip-path="url(#SVGID_2_)" fill-rule="evenodd" clip-rule="evenodd" fill="#4F4946" points="61.511,41.335 
		79.318,-7.047 79.843,-7.216 62.036,41.166 	"/>
	<polyline clip-path="url(#SVGID_2_)" fill-rule="evenodd" clip-rule="evenodd" fill="#4F4946" points="61.861,41.223 79.668,-7.16 
		80.194,-7.329 62.387,41.053 	"/>
	<polyline clip-path="url(#SVGID_2_)" fill-rule="evenodd" clip-rule="evenodd" fill="#514B47" points="62.212,41.11 80.019,-7.273 
		80.544,-7.442 62.737,40.941 	"/>
	<polyline clip-path="url(#SVGID_2_)" fill-rule="evenodd" clip-rule="evenodd" fill="#524C49" points="62.562,40.997 
		80.369,-7.386 80.894,-7.555 63.087,40.828 	"/>
	<polyline clip-path="url(#SVGID_2_)" fill-rule="evenodd" clip-rule="evenodd" fill="#524C49" points="62.912,40.884 
		80.719,-7.498 81.244,-7.667 63.437,40.715 	"/>
	<polyline clip-path="url(#SVGID_2_)" fill-rule="evenodd" clip-rule="evenodd" fill="#524C49" points="63.262,40.772 
		81.069,-7.611 81.594,-7.78 63.787,40.602 	"/>
	<polyline clip-path="url(#SVGID_2_)" fill-rule="evenodd" clip-rule="evenodd" fill="#544F4B" points="63.612,40.659 
		81.419,-7.724 81.944,-7.893 64.137,40.49 	"/>
	<polyline clip-path="url(#SVGID_2_)" fill-rule="evenodd" clip-rule="evenodd" fill="#554F4C" points="63.962,40.546 
		81.769,-7.837 82.295,-8.006 64.488,40.377 	"/>
	<polyline clip-path="url(#SVGID_2_)" fill-rule="evenodd" clip-rule="evenodd" fill="#554F4C" points="64.313,40.433 82.12,-7.949 
		82.645,-8.118 64.838,40.264 	"/>
	<polyline clip-path="url(#SVGID_2_)" fill-rule="evenodd" clip-rule="evenodd" fill="#554F4C" points="64.663,40.321 82.47,-8.062 
		82.995,-8.231 65.188,40.152 	"/>
	<polyline clip-path="url(#SVGID_2_)" fill-rule="evenodd" clip-rule="evenodd" fill="#55504D" points="65.013,40.208 82.82,-8.175 
		83.345,-8.344 65.538,40.039 	"/>
	<polyline clip-path="url(#SVGID_2_)" fill-rule="evenodd" clip-rule="evenodd" fill="#56514D" points="65.363,40.095 83.17,-8.287 
		83.274,-8.321 65.467,40.062 	"/>
</g>
<path fill-rule="evenodd" clip-rule="evenodd" fill="#FFFFFF" d="M23.093,11.509c5.216,6.547,10.243,4.955,12.022-1.056
	c-0.668-1.057-5.061-2.331-7.523,1.371c1.907-0.655,3.939-0.621,5.086,0.063c-1.605,2.631-3.894,2.58-7.159-0.625
	c1.823-2.246,4.417-3.884,7.397-4.11c-3.25-1.864-7.204-0.575-9.83,4.334c0.005-0.004,0.012-0.007,0.019-0.011
	C23.098,11.491,23.094,11.502,23.093,11.509z"/>
<path fill-rule="evenodd" clip-rule="evenodd" fill="#FFFFFF" d="M39.535,31.681c0.384-0.803,2.931-7.466-0.768-12.072
	c-3.698-4.605-13.188-5.146-17.375-1.518c-4.015,3.479-4.118,9.23-0.07,14.636l3.28-1.326c0,0-3-3.838-2.582-7.815
	c0.419-3.977,5.73-5.53,11.339-4.012C38.968,21.092,39.201,27.749,39.535,31.681z"/>
<g>
	<path fill-rule="evenodd" clip-rule="evenodd" fill="#FFFFFF" d="M23.109,30.004c0.017,0.072,0.045,0.094,0.087,0.149
		c0.046,0.06,0.06,0.094,0.104,0.153c0.077,0.104,0.136,0.194,0.214,0.298c0.066,0.087,0.422,0.552,0.422,0.622
		c0,0.041-0.074,0.112-0.124,0.171l-0.265,0.326c-0.052,0.058-0.115,0.097-0.123,0.193c0.405,0,0.376-0.067,0.269,0.367
		l-0.132,0.637c-0.015,0.074-0.026,0.125-0.043,0.213l-0.322,1.472c-0.025,0.115-0.087,0.349-0.087,0.446h2.977
		c0.091,0,0.054-0.096,0.039-0.156l-0.205-0.979c-0.024-0.137-0.057-0.273-0.085-0.388l-0.283-1.373
		c-0.012-0.068-0.037-0.123-0.037-0.2c0-0.086,0.285-0.005,0.336-0.055c0.032-0.032-0.291-0.411-0.313-0.44
		c-0.237-0.315-0.194-0.22,0.054-0.552c0.091-0.121,0.653-0.838,0.653-0.885c0-0.057-0.111-0.166-0.147-0.208l-0.371-0.437
		c-0.048-0.05-0.055-0.035-0.074-0.104h-0.079c-0.033,0.143-0.399,0.522-0.434,0.67c-0.073-0.017-0.085-0.038-0.125-0.092
		l-0.191-0.263c-0.121-0.156-0.187-0.07,0.143-0.527c0.227-0.314,0.302-0.363,0.202-0.489L24.8,28.155
		c-0.058-0.066-0.069-0.134-0.173-0.143c-0.017,0.065-0.67,0.887-0.755,1L23.109,30.004z"/>
	<path fill-rule="evenodd" clip-rule="evenodd" fill="#FFFFFF" d="M22.202,36.588v1.38c0,0.045,0.014,0.059,0.059,0.059h4.87v-1.281
		c0-0.076,0.051-0.217-0.059-0.217h-4.81C22.216,36.529,22.202,36.543,22.202,36.588z"/>
	<path fill-rule="evenodd" clip-rule="evenodd" fill="#FFFFFF" d="M22.459,35.268v1.025c0,0.045,0.014,0.059,0.059,0.059h4.278
		c0.099,0,0.059-0.35,0.059-0.532c0-0.197,0-0.394,0-0.591c-0.044-0.01-0.045-0.02-0.099-0.02h-4.239
		C22.472,35.208,22.459,35.222,22.459,35.268z"/>
</g>
<g>
	<path fill-rule="evenodd" clip-rule="evenodd" fill="#FFFFFF" d="M35.766,29.458c0,0.067-0.058,0.17-0.088,0.227
		c-0.16,0.296-0.272,0.386-0.425,0.601c-0.163,0.229-0.518,0.573-0.717,0.761c-0.138,0.13-0.223,0.198-0.294,0.377
		c-0.025,0.062-0.033,0.024-0.033,0.085c0,0.092,0.101,0.091,0.158,0.118c-0.033,0.068-0.033,0.109-0.158,0.138
		c0.011,0.137,0.374,0.445,0.515,0.569c0.104,0.091,0.085,0.103,0.417-0.169c0.1-0.082,0.222-0.148,0.333-0.219l0.169-0.107
		c0.266-0.146,0.532-0.282,0.833-0.212c-0.002,0.095,0.002,0.059-0.043,0.115c-0.028,0.035-0.05,0.062-0.081,0.097
		c-0.058,0.065-0.106,0.124-0.161,0.194c-0.034,0.044-0.051,0.053-0.084,0.093c-0.034,0.04-0.043,0.056-0.08,0.098
		c-0.284,0.319-1.148,1.389-1.18,1.658c-0.007,0.055,0.013,0.074,0.029,0.133c0.021,0.075,0.017,0.065,0.047,0.131l0.42,0.645
		c0.09,0.124,0.084,0.09,0.218,0.1l1.314-0.004c0.179-0.025,0.51-0.006,0.705-0.006c0.161,0,0.21,0.029,0.292-0.063
		c0.052-0.058,0.105-0.135,0.153-0.202l0.138-0.217c0.185-0.3,0.447-0.95,0.482-1.292c0.089-0.864,0.16-1.632-0.487-2.392
		c-0.032-0.038-0.055-0.076-0.085-0.112c-0.472-0.571-1.31-1.014-1.946-1.386l-0.361-0.231c-0.05,0.103-0.03,0.118-0.046,0.252
		C35.699,29.409,35.766,29.39,35.766,29.458z"/>
	<path fill-rule="evenodd" clip-rule="evenodd" fill="#FFFFFF" d="M34.11,36.477v1.341c0,0.045,0.014,0.059,0.059,0.059H39
		c0.045,0,0.059-0.014,0.059-0.059v-1.38c0-0.09-0.14-0.06-0.236-0.059l-4.692,0C34.12,36.422,34.11,36.424,34.11,36.477z"/>
	<path fill-rule="evenodd" clip-rule="evenodd" fill="#FFFFFF" d="M34.367,35.195l0.02,0.217c0,0.243-0.019,0.56,0,0.789h4.377
		v-1.084c0-0.045-0.014-0.059-0.059-0.059c-0.408,0-4.233-0.015-4.29,0.008C34.375,35.081,34.367,35.116,34.367,35.195z"/>
</g>
<g>
	<path fill-rule="evenodd" clip-rule="evenodd" fill="#FFFFFF" d="M29.511,22.469c0.091,0.008,0.073,0.031,0.189,0.011
		c0.198-0.033,0.166-0.04,0.166,0.324c0,0.098-0.339,0.236-0.426,0.284l-0.777,0.406c0.002,0.085,0.005,0.062,0.032,0.126
		c0.018,0.042,0.028,0.075,0.044,0.114c0.034,0.081,0.06,0.156,0.096,0.239l0.557,1.414c0,0.031-0.108,0.173-0.133,0.202
		c-0.068,0.077-0.417,0.515-0.438,0.607c0.422,0,0.404-0.06,0.336,0.257l-0.438,2.184c-0.011,0.075-0.04,0.158-0.051,0.225
		l-0.13,0.658c-0.028,0.101-0.035,0.131-0.013,0.223l1.241-0.001c0.287-0.024,1.615-0.034,1.795-0.016
		c0.136,0.013,0.18,0.075,0.098-0.258l-0.166-0.859c-0.015-0.084-0.027-0.137-0.042-0.214l-0.422-2.18
		c0.147-0.034,0.219-0.02,0.394-0.02c-0.002-0.103-0.02-0.08-0.114-0.221l-0.202-0.29c-0.251-0.392-0.317-0.123,0.164-1.238
		l0.369-0.912c0-0.081-0.421-0.279-0.506-0.322l-0.54-0.288c-0.086-0.043-0.094-0.055-0.098-0.178
		c-0.008-0.299-0.109-0.277,0.316-0.277c0.033-0.142,0.02-0.165,0.02-0.335c0-0.115-0.142-0.025-0.375-0.079
		c-0.029-0.126-0.02-0.279-0.02-0.434c-0.159-0.037-0.347-0.02-0.513-0.02c0,0.131-0.019,0.171-0.019,0.297
		c0.001,0.148-0.007,0.16-0.157,0.158C29.46,22.053,29.511,21.987,29.511,22.469z"/>
	<path fill-rule="evenodd" clip-rule="evenodd" fill="#FFFFFF" d="M27.579,31.34c0,0.272-0.026,1.202,0.02,1.4h4.929v-1.439
		c0-0.09-0.14-0.06-0.236-0.059h-4.692C27.588,31.286,27.579,31.287,27.579,31.34z"/>
	<path fill-rule="evenodd" clip-rule="evenodd" fill="#FFFFFF" d="M27.855,30.158v0.749c0,0.056-0.046,0.158,0.059,0.158h4.179
		c0.068,0,0.076-0.015,0.138-0.02c0.045-0.21-0.044-0.829,0.02-1.104c-0.044-0.01-0.045-0.02-0.099-0.02h-4.298
		c0,0.051-0.011,0.096-0.012,0.121C27.842,30.094,27.855,30.082,27.855,30.158z"/>
</g>
<rect x="10.122" y="25.904" fill-rule="evenodd" clip-rule="evenodd" fill="#FFFFFF" width="11.172" height="1.346"/>
<rect x="40.138" y="25.904" fill-rule="evenodd" clip-rule="evenodd" fill="#FFFFFF" width="11.172" height="1.346"/>
</svg>
