<?xml version="1.0" encoding="utf-8"?>
<!-- Generator: Adobe Illustrator 17.0.0, SVG Export Plug-In . SVG Version: 6.00 Build 0)  -->
<!DOCTYPE svg PUBLIC "-//W3C//DTD SVG 1.1//EN" "http://www.w3.org/Graphics/SVG/1.1/DTD/svg11.dtd">
<svg version="1.1" id="Layer_1" xmlns="http://www.w3.org/2000/svg" xmlns:xlink="http://www.w3.org/1999/xlink" x="0px" y="0px"
	 width="56px" height="56px" viewBox="0 0 56 56" enable-background="new 0 0 56 56" xml:space="preserve">
<g>
	<g>
		<defs>
			<path id="SVGID_1_" d="M0.847,0.284c18.112,3.521,39.096,11.18,54.53,23.583c-12.239,11.413-25.954,23.461-44.82,31.85
				C8.711,36.69,5.559,21.365,0.847,0.284z"/>
		</defs>
		<clipPath id="SVGID_2_">
			<use xlink:href="#SVGID_1_"  overflow="visible"/>
		</clipPath>
		<g clip-path="url(#SVGID_2_)">
			
				<rect x="3.104" y="-28.84" transform="matrix(-0.5889 -0.8082 0.8082 -0.5889 6.0369 0.3732)" fill-rule="evenodd" clip-rule="evenodd" fill="#ABD812" width="0.019" height="54.982"/>
		</g>
		<g clip-path="url(#SVGID_2_)">
			
				<rect x="3.025" y="-28.8" transform="matrix(-0.5874 -0.8093 0.8093 -0.5874 6.0472 0.4643)" fill-rule="evenodd" clip-rule="evenodd" fill="#ABD812" width="0.234" height="54.982"/>
		</g>
		<g clip-path="url(#SVGID_2_)">
			
				<rect x="3.117" y="-28.674" transform="matrix(-0.5874 -0.8093 0.8093 -0.5874 6.0906 0.7393)" fill-rule="evenodd" clip-rule="evenodd" fill="#ABD812" width="0.234" height="54.982"/>
		</g>
		<g clip-path="url(#SVGID_2_)">
			
				<rect x="3.208" y="-28.547" transform="matrix(-0.5872 -0.8095 0.8095 -0.5872 6.1334 1.015)" fill-rule="evenodd" clip-rule="evenodd" fill="#ABD812" width="0.234" height="54.982"/>
		</g>
		<g clip-path="url(#SVGID_2_)">
			
				<rect x="3.3" y="-28.421" transform="matrix(-0.5874 -0.8093 0.8093 -0.5874 6.1773 1.2893)" fill-rule="evenodd" clip-rule="evenodd" fill="#ABD812" width="0.234" height="54.982"/>
		</g>
		<g clip-path="url(#SVGID_2_)">
			
				<rect x="3.392" y="-28.294" transform="matrix(-0.5874 -0.8093 0.8093 -0.5874 6.2205 1.5643)" fill-rule="evenodd" clip-rule="evenodd" fill="#ABD812" width="0.234" height="54.982"/>
		</g>
		<g clip-path="url(#SVGID_2_)">
			
				<rect x="3.484" y="-28.168" transform="matrix(-0.5873 -0.8094 0.8094 -0.5873 6.2635 1.8397)" fill-rule="evenodd" clip-rule="evenodd" fill="#ABD812" width="0.234" height="54.982"/>
		</g>
		<g clip-path="url(#SVGID_2_)">
			
				<rect x="3.575" y="-28.042" transform="matrix(-0.5874 -0.8093 0.8093 -0.5874 6.3073 2.1142)" fill-rule="evenodd" clip-rule="evenodd" fill="#ABD812" width="0.234" height="54.982"/>
		</g>
		<g clip-path="url(#SVGID_2_)">
			
				<rect x="3.667" y="-27.915" transform="matrix(-0.5873 -0.8094 0.8094 -0.5873 6.3501 2.3897)" fill-rule="evenodd" clip-rule="evenodd" fill="#ABD812" width="0.234" height="54.982"/>
		</g>
		<g clip-path="url(#SVGID_2_)">
			
				<rect x="3.759" y="-27.789" transform="matrix(-0.5871 -0.8095 0.8095 -0.5871 6.3929 2.6649)" fill-rule="evenodd" clip-rule="evenodd" fill="#ABD812" width="0.234" height="54.982"/>
		</g>
		<g clip-path="url(#SVGID_2_)">
			
				<rect x="3.851" y="-27.662" transform="matrix(-0.5874 -0.8093 0.8093 -0.5874 6.4371 2.9393)" fill-rule="evenodd" clip-rule="evenodd" fill="#ABD812" width="0.234" height="54.982"/>
		</g>
		<g clip-path="url(#SVGID_2_)">
			
				<rect x="3.942" y="-27.536" transform="matrix(-0.5873 -0.8094 0.8094 -0.5873 6.48 3.2146)" fill-rule="evenodd" clip-rule="evenodd" fill="#A8D713" width="0.234" height="54.982"/>
		</g>
		<g clip-path="url(#SVGID_2_)">
			
				<rect x="4.034" y="-27.409" transform="matrix(-0.5873 -0.8094 0.8094 -0.5873 6.5233 3.4896)" fill-rule="evenodd" clip-rule="evenodd" fill="#A8D713" width="0.234" height="54.982"/>
		</g>
		<g clip-path="url(#SVGID_2_)">
			
				<rect x="4.126" y="-27.283" transform="matrix(-0.5874 -0.8093 0.8093 -0.5874 6.567 3.7642)" fill-rule="evenodd" clip-rule="evenodd" fill="#A8D713" width="0.234" height="54.982"/>
		</g>
		<g clip-path="url(#SVGID_2_)">
			
				<rect x="4.218" y="-27.156" transform="matrix(-0.5871 -0.8095 0.8095 -0.5871 6.6093 4.0399)" fill-rule="evenodd" clip-rule="evenodd" fill="#A8D713" width="0.234" height="54.982"/>
		</g>
		<g clip-path="url(#SVGID_2_)">
			
				<rect x="4.309" y="-27.03" transform="matrix(-0.5871 -0.8095 0.8095 -0.5871 6.6527 4.3148)" fill-rule="evenodd" clip-rule="evenodd" fill="#A8D713" width="0.234" height="54.982"/>
		</g>
		<g clip-path="url(#SVGID_2_)">
			
				<rect x="4.401" y="-26.903" transform="matrix(-0.5875 -0.8092 0.8092 -0.5875 6.6976 4.589)" fill-rule="evenodd" clip-rule="evenodd" fill="#A8D713" width="0.234" height="54.982"/>
		</g>
		<g clip-path="url(#SVGID_2_)">
			
				<rect x="4.493" y="-26.777" transform="matrix(-0.5871 -0.8095 0.8095 -0.5871 6.7391 4.8648)" fill-rule="evenodd" clip-rule="evenodd" fill="#A8D713" width="0.234" height="54.982"/>
		</g>
		<g clip-path="url(#SVGID_2_)">
			
				<rect x="4.585" y="-26.651" transform="matrix(-0.5871 -0.8095 0.8095 -0.5871 6.7825 5.1397)" fill-rule="evenodd" clip-rule="evenodd" fill="#A6D514" width="0.234" height="54.982"/>
		</g>
		<g clip-path="url(#SVGID_2_)">
			
				<rect x="4.677" y="-26.524" transform="matrix(-0.5873 -0.8094 0.8094 -0.5873 6.8266 5.4144)" fill-rule="evenodd" clip-rule="evenodd" fill="#A6D514" width="0.234" height="54.982"/>
		</g>
		<g clip-path="url(#SVGID_2_)">
			
				<rect x="4.768" y="-26.398" transform="matrix(-0.5875 -0.8093 0.8093 -0.5875 6.8708 5.689)" fill-rule="evenodd" clip-rule="evenodd" fill="#A6D514" width="0.234" height="54.982"/>
		</g>
		<g clip-path="url(#SVGID_2_)">
			
				<rect x="4.86" y="-26.271" transform="matrix(-0.5871 -0.8095 0.8095 -0.5871 6.9118 5.9648)" fill-rule="evenodd" clip-rule="evenodd" fill="#A6D514" width="0.234" height="54.982"/>
		</g>
		<g clip-path="url(#SVGID_2_)">
			
				<rect x="4.952" y="-26.145" transform="matrix(-0.5873 -0.8094 0.8094 -0.5873 6.9565 6.2393)" fill-rule="evenodd" clip-rule="evenodd" fill="#A6D514" width="0.234" height="54.982"/>
		</g>
		<g clip-path="url(#SVGID_2_)">
			
				<rect x="5.044" y="-26.018" transform="matrix(-0.5871 -0.8095 0.8095 -0.5871 6.9984 6.5148)" fill-rule="evenodd" clip-rule="evenodd" fill="#A6D514" width="0.234" height="54.982"/>
		</g>
		<g clip-path="url(#SVGID_2_)">
			
				<rect x="5.135" y="-25.892" transform="matrix(-0.5874 -0.8093 0.8093 -0.5874 7.0437 6.789)" fill-rule="evenodd" clip-rule="evenodd" fill="#A6D514" width="0.234" height="54.982"/>
		</g>
		<g clip-path="url(#SVGID_2_)">
			
				<rect x="5.227" y="-25.765" transform="matrix(-0.5873 -0.8094 0.8094 -0.5873 7.0864 7.0642)" fill-rule="evenodd" clip-rule="evenodd" fill="#A6D514" width="0.234" height="54.982"/>
		</g>
		<g clip-path="url(#SVGID_2_)">
			
				<rect x="5.319" y="-25.639" transform="matrix(-0.5871 -0.8095 0.8095 -0.5871 7.1282 7.3397)" fill-rule="evenodd" clip-rule="evenodd" fill="#A6D514" width="0.234" height="54.982"/>
		</g>
		<g clip-path="url(#SVGID_2_)">
			
				<rect x="5.411" y="-25.513" transform="matrix(-0.5871 -0.8095 0.8095 -0.5871 7.172 7.6145)" fill-rule="evenodd" clip-rule="evenodd" fill="#A6D514" width="0.234" height="54.982"/>
		</g>
		<g clip-path="url(#SVGID_2_)">
			
				<rect x="5.502" y="-25.386" transform="matrix(-0.5876 -0.8091 0.8091 -0.5876 7.2186 7.8886)" fill-rule="evenodd" clip-rule="evenodd" fill="#A3D414" width="0.234" height="54.982"/>
		</g>
		<g clip-path="url(#SVGID_2_)">
			
				<rect x="5.594" y="-25.26" transform="matrix(-0.5871 -0.8095 0.8095 -0.5871 7.2585 8.1644)" fill-rule="evenodd" clip-rule="evenodd" fill="#A3D414" width="0.234" height="54.982"/>
		</g>
		<g clip-path="url(#SVGID_2_)">
			
				<rect x="5.686" y="-25.133" transform="matrix(-0.5871 -0.8095 0.8095 -0.5871 7.3018 8.4394)" fill-rule="evenodd" clip-rule="evenodd" fill="#A3D414" width="0.234" height="54.982"/>
		</g>
		<g clip-path="url(#SVGID_2_)">
			
				<rect x="5.778" y="-25.007" transform="matrix(-0.5874 -0.8093 0.8093 -0.5874 7.3469 8.714)" fill-rule="evenodd" clip-rule="evenodd" fill="#A3D414" width="0.234" height="54.982"/>
		</g>
		<g clip-path="url(#SVGID_2_)">
			
				<rect x="5.869" y="-24.88" transform="matrix(-0.5875 -0.8093 0.8093 -0.5875 7.3907 8.9888)" fill-rule="evenodd" clip-rule="evenodd" fill="#A3D414" width="0.234" height="54.982"/>
		</g>
		<g clip-path="url(#SVGID_2_)">
			
				<rect x="5.961" y="-24.754" transform="matrix(-0.5871 -0.8095 0.8095 -0.5871 7.4316 9.2643)" fill-rule="evenodd" clip-rule="evenodd" fill="#A3D414" width="0.234" height="54.982"/>
		</g>
		<g clip-path="url(#SVGID_2_)">
			
				<rect x="6.053" y="-24.627" transform="matrix(-0.5874 -0.8093 0.8093 -0.5874 7.4768 9.539)" fill-rule="evenodd" clip-rule="evenodd" fill="#A3D414" width="0.234" height="54.982"/>
		</g>
		<g clip-path="url(#SVGID_2_)">
			
				<rect x="6.145" y="-24.501" transform="matrix(-0.5871 -0.8095 0.8095 -0.5871 7.5182 9.8143)" fill-rule="evenodd" clip-rule="evenodd" fill="#A3D414" width="0.234" height="54.982"/>
		</g>
		<g clip-path="url(#SVGID_2_)">
			
				<rect x="6.236" y="-24.375" transform="matrix(-0.5875 -0.8093 0.8093 -0.5875 7.5641 10.0887)" fill-rule="evenodd" clip-rule="evenodd" fill="#A3D414" width="0.234" height="54.982"/>
		</g>
		<g clip-path="url(#SVGID_2_)">
			
				<rect x="6.328" y="-24.248" transform="matrix(-0.5874 -0.8093 0.8093 -0.5874 7.6067 10.3639)" fill-rule="evenodd" clip-rule="evenodd" fill="#A3D414" width="0.234" height="54.982"/>
		</g>
		<g clip-path="url(#SVGID_2_)">
			
				<rect x="6.42" y="-24.122" transform="matrix(-0.5871 -0.8095 0.8095 -0.5871 7.648 10.6392)" fill-rule="evenodd" clip-rule="evenodd" fill="#A1D315" width="0.234" height="54.982"/>
		</g>
		<g clip-path="url(#SVGID_2_)">
			
				<rect x="6.512" y="-23.995" transform="matrix(-0.5871 -0.8095 0.8095 -0.5871 7.6913 10.9142)" fill-rule="evenodd" clip-rule="evenodd" fill="#A1D315" width="0.234" height="54.982"/>
		</g>
		<g clip-path="url(#SVGID_2_)">
			
				<rect x="6.603" y="-23.869" transform="matrix(-0.5876 -0.8091 0.8091 -0.5876 7.7388 11.1886)" fill-rule="evenodd" clip-rule="evenodd" fill="#A1D315" width="0.234" height="54.982"/>
		</g>
		<g clip-path="url(#SVGID_2_)">
			
				<rect x="6.695" y="-23.742" transform="matrix(-0.5871 -0.8095 0.8095 -0.5871 7.7778 11.4641)" fill-rule="evenodd" clip-rule="evenodd" fill="#A1D315" width="0.234" height="54.982"/>
		</g>
		<g clip-path="url(#SVGID_2_)">
			
				<rect x="6.787" y="-23.616" transform="matrix(-0.5871 -0.8095 0.8095 -0.5871 7.8204 11.7392)" fill-rule="evenodd" clip-rule="evenodd" fill="#A1D315" width="0.234" height="54.982"/>
		</g>
		<g clip-path="url(#SVGID_2_)">
			
				<rect x="6.879" y="-23.489" transform="matrix(-0.5873 -0.8094 0.8094 -0.5873 7.8659 12.014)" fill-rule="evenodd" clip-rule="evenodd" fill="#A1D315" width="0.234" height="54.982"/>
		</g>
		<g clip-path="url(#SVGID_2_)">
			
				<rect x="6.97" y="-23.363" transform="matrix(-0.5871 -0.8095 0.8095 -0.5871 7.9069 12.289)" fill-rule="evenodd" clip-rule="evenodd" fill="#A1D315" width="0.234" height="54.982"/>
		</g>
		<g clip-path="url(#SVGID_2_)">
			
				<rect x="7.062" y="-23.236" transform="matrix(-0.5871 -0.8095 0.8095 -0.5871 7.9501 12.5641)" fill-rule="evenodd" clip-rule="evenodd" fill="#9ED215" width="0.234" height="54.982"/>
		</g>
		<g clip-path="url(#SVGID_2_)">
			
				<rect x="7.154" y="-23.11" transform="matrix(-0.5873 -0.8094 0.8094 -0.5873 7.9958 12.8389)" fill-rule="evenodd" clip-rule="evenodd" fill="#9ED215" width="0.234" height="54.982"/>
		</g>
		<g clip-path="url(#SVGID_2_)">
			
				<rect x="7.246" y="-22.984" transform="matrix(-0.5871 -0.8095 0.8095 -0.5871 8.0368 13.114)" fill-rule="evenodd" clip-rule="evenodd" fill="#9ED215" width="0.234" height="54.982"/>
		</g>
		<g clip-path="url(#SVGID_2_)">
			
				<rect x="7.338" y="-22.857" transform="matrix(-0.5873 -0.8094 0.8094 -0.5873 8.0824 13.3887)" fill-rule="evenodd" clip-rule="evenodd" fill="#9ED215" width="0.234" height="54.982"/>
		</g>
		<g clip-path="url(#SVGID_2_)">
			
				<rect x="7.429" y="-22.731" transform="matrix(-0.5873 -0.8094 0.8094 -0.5873 8.1257 13.6638)" fill-rule="evenodd" clip-rule="evenodd" fill="#9ED215" width="0.234" height="54.982"/>
		</g>
		<g clip-path="url(#SVGID_2_)">
			
				<rect x="7.521" y="-22.604" transform="matrix(-0.5871 -0.8095 0.8095 -0.5871 8.1674 13.9388)" fill-rule="evenodd" clip-rule="evenodd" fill="#9ED215" width="0.234" height="54.982"/>
		</g>
		<g clip-path="url(#SVGID_2_)">
			
				<rect x="7.613" y="-22.478" transform="matrix(-0.5873 -0.8094 0.8094 -0.5873 8.2124 14.2138)" fill-rule="evenodd" clip-rule="evenodd" fill="#9ED215" width="0.234" height="54.982"/>
		</g>
		<g clip-path="url(#SVGID_2_)">
			
				<rect x="7.705" y="-22.351" transform="matrix(-0.5875 -0.8092 0.8092 -0.5875 8.2576 14.4887)" fill-rule="evenodd" clip-rule="evenodd" fill="#9ED215" width="0.234" height="54.982"/>
		</g>
		<g clip-path="url(#SVGID_2_)">
			
				<rect x="7.796" y="-22.225" transform="matrix(-0.5873 -0.8094 0.8094 -0.5873 8.2984 14.7637)" fill-rule="evenodd" clip-rule="evenodd" fill="#9ED215" width="0.234" height="54.982"/>
		</g>
		<g clip-path="url(#SVGID_2_)">
			
				<rect x="7.888" y="-22.098" transform="matrix(-0.5874 -0.8093 0.8093 -0.5874 8.3432 15.0387)" fill-rule="evenodd" clip-rule="evenodd" fill="#9ED215" width="0.234" height="54.982"/>
		</g>
		<g clip-path="url(#SVGID_2_)">
			
				<rect x="7.98" y="-21.972" transform="matrix(-0.5874 -0.8093 0.8093 -0.5874 8.3865 15.3137)" fill-rule="evenodd" clip-rule="evenodd" fill="#9CD116" width="0.234" height="54.982"/>
		</g>
		<g clip-path="url(#SVGID_2_)">
			
				<rect x="8.072" y="-21.846" transform="matrix(-0.5873 -0.8094 0.8094 -0.5873 8.4282 15.5886)" fill-rule="evenodd" clip-rule="evenodd" fill="#9CD116" width="0.234" height="54.982"/>
		</g>
		<g clip-path="url(#SVGID_2_)">
			
				<rect x="8.163" y="-21.719" transform="matrix(-0.5875 -0.8092 0.8092 -0.5875 8.4744 15.8636)" fill-rule="evenodd" clip-rule="evenodd" fill="#9CD116" width="0.234" height="54.982"/>
		</g>
		<g clip-path="url(#SVGID_2_)">
			
				<rect x="8.255" y="-21.593" transform="matrix(-0.5875 -0.8092 0.8092 -0.5875 8.5177 16.1387)" fill-rule="evenodd" clip-rule="evenodd" fill="#9CD116" width="0.234" height="54.982"/>
		</g>
		<g clip-path="url(#SVGID_2_)">
			
				<rect x="8.347" y="-21.466" transform="matrix(-0.5871 -0.8095 0.8095 -0.5871 8.5569 16.4136)" fill-rule="evenodd" clip-rule="evenodd" fill="#9CD116" width="0.234" height="54.982"/>
		</g>
		<g clip-path="url(#SVGID_2_)">
			
				<rect x="8.439" y="-21.34" transform="matrix(-0.5875 -0.8092 0.8092 -0.5875 8.6044 16.6886)" fill-rule="evenodd" clip-rule="evenodd" fill="#9CD116" width="0.234" height="54.982"/>
		</g>
		<g clip-path="url(#SVGID_2_)">
			
				<rect x="8.53" y="-21.213" transform="matrix(-0.5874 -0.8093 0.8093 -0.5874 8.6467 16.9636)" fill-rule="evenodd" clip-rule="evenodd" fill="#9CD116" width="0.234" height="54.982"/>
		</g>
		<g clip-path="url(#SVGID_2_)">
			
				<rect x="8.622" y="-21.087" transform="matrix(-0.5873 -0.8094 0.8094 -0.5873 8.6881 17.2385)" fill-rule="evenodd" clip-rule="evenodd" fill="#99CF16" width="0.234" height="54.982"/>
		</g>
		<g clip-path="url(#SVGID_2_)">
			
				<rect x="8.714" y="-20.96" transform="matrix(-0.5874 -0.8093 0.8093 -0.5874 8.7335 17.5136)" fill-rule="evenodd" clip-rule="evenodd" fill="#99CF16" width="0.234" height="54.982"/>
		</g>
		<g clip-path="url(#SVGID_2_)">
			
				<rect x="8.806" y="-20.834" transform="matrix(-0.5874 -0.8093 0.8093 -0.5874 8.7767 17.7886)" fill-rule="evenodd" clip-rule="evenodd" fill="#99CF16" width="0.234" height="54.982"/>
		</g>
		<g clip-path="url(#SVGID_2_)">
			
				<rect x="8.897" y="-20.707" transform="matrix(-0.5872 -0.8095 0.8095 -0.5872 8.8169 18.0634)" fill-rule="evenodd" clip-rule="evenodd" fill="#99CF16" width="0.234" height="54.982"/>
		</g>
		<g clip-path="url(#SVGID_2_)">
			
				<rect x="8.989" y="-20.581" transform="matrix(-0.5874 -0.8093 0.8093 -0.5874 8.8634 18.3385)" fill-rule="evenodd" clip-rule="evenodd" fill="#99CF16" width="0.234" height="54.982"/>
		</g>
		<g clip-path="url(#SVGID_2_)">
			
				<rect x="9.081" y="-20.455" transform="matrix(-0.5874 -0.8093 0.8093 -0.5874 8.9068 18.6136)" fill-rule="evenodd" clip-rule="evenodd" fill="#99CF16" width="0.234" height="54.982"/>
		</g>
		<g clip-path="url(#SVGID_2_)">
			
				<rect x="9.173" y="-20.328" transform="matrix(-0.5872 -0.8095 0.8095 -0.5872 8.9468 18.8883)" fill-rule="evenodd" clip-rule="evenodd" fill="#99CF16" width="0.234" height="54.982"/>
		</g>
		<g clip-path="url(#SVGID_2_)">
			
				<rect x="9.265" y="-20.202" transform="matrix(-0.5874 -0.8093 0.8093 -0.5874 8.9934 19.1635)" fill-rule="evenodd" clip-rule="evenodd" fill="#99CF16" width="0.234" height="54.982"/>
		</g>
		<g clip-path="url(#SVGID_2_)">
			
				<rect x="9.356" y="-20.075" transform="matrix(-0.5874 -0.8093 0.8093 -0.5874 9.0367 19.4385)" fill-rule="evenodd" clip-rule="evenodd" fill="#99CF16" width="0.234" height="54.982"/>
		</g>
		<g clip-path="url(#SVGID_2_)">
			
				<rect x="9.448" y="-19.949" transform="matrix(-0.5876 -0.8092 0.8092 -0.5876 9.0825 19.7135)" fill-rule="evenodd" clip-rule="evenodd" fill="#99CF16" width="0.234" height="54.982"/>
		</g>
		<g clip-path="url(#SVGID_2_)">
			
				<rect x="9.54" y="-19.822" transform="matrix(-0.5874 -0.8093 0.8093 -0.5874 9.1233 19.9884)" fill-rule="evenodd" clip-rule="evenodd" fill="#96CE17" width="0.234" height="54.982"/>
		</g>
		<g clip-path="url(#SVGID_2_)">
			
				<rect x="9.632" y="-19.696" transform="matrix(-0.5875 -0.8092 0.8092 -0.5875 9.1678 20.2636)" fill-rule="evenodd" clip-rule="evenodd" fill="#96CE17" width="0.234" height="54.982"/>
		</g>
		<g clip-path="url(#SVGID_2_)">
			
				<rect x="9.723" y="-19.569" transform="matrix(-0.5873 -0.8094 0.8094 -0.5873 9.2077 20.5383)" fill-rule="evenodd" clip-rule="evenodd" fill="#96CE17" width="0.234" height="54.982"/>
		</g>
		<g clip-path="url(#SVGID_2_)">
			
				<rect x="9.815" y="-19.443" transform="matrix(-0.5878 -0.809 0.809 -0.5878 9.2594 20.8137)" fill-rule="evenodd" clip-rule="evenodd" fill="#96CE17" width="0.234" height="54.982"/>
		</g>
		<g clip-path="url(#SVGID_2_)">
			
				<rect x="9.907" y="-19.316" transform="matrix(-0.5875 -0.8092 0.8092 -0.5875 9.2978 21.0885)" fill-rule="evenodd" clip-rule="evenodd" fill="#96CE17" width="0.234" height="54.982"/>
		</g>
		<g clip-path="url(#SVGID_2_)">
			
				<rect x="9.999" y="-19.19" transform="matrix(-0.5873 -0.8094 0.8094 -0.5873 9.3376 21.3632)" fill-rule="evenodd" clip-rule="evenodd" fill="#96CE17" width="0.234" height="54.982"/>
		</g>
		<g clip-path="url(#SVGID_2_)">
			
				<rect x="10.09" y="-19.064" transform="matrix(-0.5875 -0.8092 0.8092 -0.5875 9.3846 21.6385)" fill-rule="evenodd" clip-rule="evenodd" fill="#96CE17" width="0.234" height="54.982"/>
		</g>
		<g clip-path="url(#SVGID_2_)">
			
				<rect x="10.182" y="-18.937" transform="matrix(-0.5878 -0.809 0.809 -0.5878 9.433 21.9139)" fill-rule="evenodd" clip-rule="evenodd" fill="#94CD17" width="0.234" height="54.982"/>
		</g>
		<g clip-path="url(#SVGID_2_)">
			
				<rect x="10.274" y="-18.811" transform="matrix(-0.5873 -0.8094 0.8094 -0.5873 9.4674 22.1881)" fill-rule="evenodd" clip-rule="evenodd" fill="#94CD17" width="0.234" height="54.982"/>
		</g>
		<g clip-path="url(#SVGID_2_)">
			
				<rect x="10.366" y="-18.684" transform="matrix(-0.5875 -0.8092 0.8092 -0.5875 9.5145 22.4635)" fill-rule="evenodd" clip-rule="evenodd" fill="#94CD17" width="0.234" height="54.982"/>
		</g>
		<g clip-path="url(#SVGID_2_)">
			
				<rect x="10.457" y="-18.558" transform="matrix(-0.5874 -0.8093 0.8093 -0.5874 9.5566 22.7384)" fill-rule="evenodd" clip-rule="evenodd" fill="#94CD17" width="0.234" height="54.982"/>
		</g>
		<g clip-path="url(#SVGID_2_)">
			
				<rect x="10.549" y="-18.431" transform="matrix(-0.5876 -0.8092 0.8092 -0.5876 9.6027 23.0135)" fill-rule="evenodd" clip-rule="evenodd" fill="#94CD17" width="0.234" height="54.982"/>
		</g>
		<g clip-path="url(#SVGID_2_)">
			
				<rect x="10.641" y="-18.305" transform="matrix(-0.5874 -0.8093 0.8093 -0.5874 9.6432 23.2883)" fill-rule="evenodd" clip-rule="evenodd" fill="#94CD17" width="0.234" height="54.982"/>
		</g>
		<g clip-path="url(#SVGID_2_)">
			
				<rect x="10.733" y="-18.178" transform="matrix(-0.5874 -0.8093 0.8093 -0.5874 9.6865 23.5634)" fill-rule="evenodd" clip-rule="evenodd" fill="#94CD17" width="0.234" height="54.982"/>
		</g>
		<g clip-path="url(#SVGID_2_)">
			
				<rect x="10.824" y="-18.052" transform="matrix(-0.5872 -0.8095 0.8095 -0.5872 9.7259 23.8379)" fill-rule="evenodd" clip-rule="evenodd" fill="#94CD17" width="0.234" height="54.982"/>
		</g>
		<g clip-path="url(#SVGID_2_)">
			
				<rect x="10.916" y="-17.926" transform="matrix(-0.5877 -0.8091 0.8091 -0.5877 9.7788 24.1137)" fill-rule="evenodd" clip-rule="evenodd" fill="#94CD17" width="0.234" height="54.982"/>
		</g>
		<g clip-path="url(#SVGID_2_)">
			
				<rect x="11.008" y="-17.799" transform="matrix(-0.5872 -0.8095 0.8095 -0.5872 9.8124 24.3878)" fill-rule="evenodd" clip-rule="evenodd" fill="#94CD17" width="0.234" height="54.982"/>
		</g>
		<g clip-path="url(#SVGID_2_)">
			
				<rect x="11.1" y="-17.673" transform="matrix(-0.5872 -0.8095 0.8095 -0.5872 9.8557 24.6628)" fill-rule="evenodd" clip-rule="evenodd" fill="#91CC18" width="0.234" height="54.982"/>
		</g>
		<g clip-path="url(#SVGID_2_)">
			
				<rect x="11.192" y="-17.546" transform="matrix(-0.5874 -0.8093 0.8093 -0.5874 9.9033 24.9383)" fill-rule="evenodd" clip-rule="evenodd" fill="#91CC18" width="0.234" height="54.982"/>
		</g>
		<g clip-path="url(#SVGID_2_)">
			
				<rect x="11.283" y="-17.42" transform="matrix(-0.5875 -0.8092 0.8092 -0.5875 9.9481 25.2133)" fill-rule="evenodd" clip-rule="evenodd" fill="#91CC18" width="0.234" height="54.982"/>
		</g>
		<g clip-path="url(#SVGID_2_)">
			
				<rect x="11.375" y="-17.293" transform="matrix(-0.5873 -0.8094 0.8094 -0.5873 9.987 25.4879)" fill-rule="evenodd" clip-rule="evenodd" fill="#91CC18" width="0.234" height="54.982"/>
		</g>
		<g clip-path="url(#SVGID_2_)">
			
				<rect x="11.467" y="-17.167" transform="matrix(-0.5874 -0.8093 0.8093 -0.5874 10.0332 25.7632)" fill-rule="evenodd" clip-rule="evenodd" fill="#91CC18" width="0.234" height="54.982"/>
		</g>
		<g clip-path="url(#SVGID_2_)">
			
				<rect x="11.559" y="-17.04" transform="matrix(-0.5873 -0.8094 0.8094 -0.5873 10.0736 26.0379)" fill-rule="evenodd" clip-rule="evenodd" fill="#91CC18" width="0.234" height="54.982"/>
		</g>
		<g clip-path="url(#SVGID_2_)">
			
				<rect x="11.65" y="-16.914" transform="matrix(-0.5873 -0.8094 0.8094 -0.5873 10.1168 26.3128)" fill-rule="evenodd" clip-rule="evenodd" fill="#91CC18" width="0.234" height="54.982"/>
		</g>
		<g clip-path="url(#SVGID_2_)">
			
				<rect x="11.742" y="-16.788" transform="matrix(-0.5875 -0.8092 0.8092 -0.5875 10.1646 26.5883)" fill-rule="evenodd" clip-rule="evenodd" fill="#8FCB18" width="0.234" height="54.982"/>
		</g>
		<g clip-path="url(#SVGID_2_)">
			
				<rect x="11.834" y="-16.661" transform="matrix(-0.5873 -0.8094 0.8094 -0.5873 10.2035 26.8628)" fill-rule="evenodd" clip-rule="evenodd" fill="#8FCB18" width="0.234" height="54.982"/>
		</g>
		<g clip-path="url(#SVGID_2_)">
			
				<rect x="11.926" y="-16.535" transform="matrix(-0.5873 -0.8094 0.8094 -0.5873 10.2468 27.1378)" fill-rule="evenodd" clip-rule="evenodd" fill="#8FCB18" width="0.234" height="54.982"/>
		</g>
		<g clip-path="url(#SVGID_2_)">
			
				<rect x="12.017" y="-16.408" transform="matrix(-0.5874 -0.8093 0.8093 -0.5874 10.2925 27.4131)" fill-rule="evenodd" clip-rule="evenodd" fill="#8FCB18" width="0.234" height="54.982"/>
		</g>
		<g clip-path="url(#SVGID_2_)">
			
				<rect x="12.109" y="-16.282" transform="matrix(-0.5873 -0.8094 0.8094 -0.5873 10.3333 27.6877)" fill-rule="evenodd" clip-rule="evenodd" fill="#8FCB18" width="0.234" height="54.982"/>
		</g>
		<g clip-path="url(#SVGID_2_)">
			
				<rect x="12.201" y="-16.155" transform="matrix(-0.5873 -0.8094 0.8094 -0.5873 10.3767 27.9627)" fill-rule="evenodd" clip-rule="evenodd" fill="#8FCB18" width="0.234" height="54.982"/>
		</g>
		<g clip-path="url(#SVGID_2_)">
			
				<rect x="12.293" y="-16.029" transform="matrix(-0.5875 -0.8092 0.8092 -0.5875 10.4247 28.2383)" fill-rule="evenodd" clip-rule="evenodd" fill="#8FCB18" width="0.234" height="54.982"/>
		</g>
		<g clip-path="url(#SVGID_2_)">
			
				<rect x="12.384" y="-15.902" transform="matrix(-0.5871 -0.8095 0.8095 -0.5871 10.461 28.5124)" fill-rule="evenodd" clip-rule="evenodd" fill="#8FCB18" width="0.234" height="54.982"/>
		</g>
		<g clip-path="url(#SVGID_2_)">
			
				<rect x="12.476" y="-15.776" transform="matrix(-0.5871 -0.8095 0.8095 -0.5871 10.5043 28.7874)" fill-rule="evenodd" clip-rule="evenodd" fill="#8FCB18" width="0.234" height="54.982"/>
		</g>
		<g clip-path="url(#SVGID_2_)">
			
				<rect x="12.568" y="-15.649" transform="matrix(-0.5874 -0.8093 0.8093 -0.5874 10.5531 29.0631)" fill-rule="evenodd" clip-rule="evenodd" fill="#8FCB18" width="0.234" height="54.982"/>
		</g>
		<g clip-path="url(#SVGID_2_)">
			
				<rect x="12.66" y="-15.523" transform="matrix(-0.5873 -0.8094 0.8094 -0.5873 10.5932 29.3377)" fill-rule="evenodd" clip-rule="evenodd" fill="#8CC919" width="0.234" height="54.982"/>
		</g>
		<g clip-path="url(#SVGID_2_)">
			
				<rect x="12.751" y="-15.397" transform="matrix(-0.5871 -0.8095 0.8095 -0.5871 10.6325 29.6121)" fill-rule="evenodd" clip-rule="evenodd" fill="#8CC919" width="0.234" height="54.982"/>
		</g>
		<g clip-path="url(#SVGID_2_)">
			
				<rect x="12.843" y="-15.27" transform="matrix(-0.5873 -0.8094 0.8094 -0.5873 10.6807 29.8878)" fill-rule="evenodd" clip-rule="evenodd" fill="#8CC919" width="0.234" height="54.982"/>
		</g>
		<g clip-path="url(#SVGID_2_)">
			
				<rect x="12.935" y="-15.144" transform="matrix(-0.5871 -0.8095 0.8095 -0.5871 10.7191 30.162)" fill-rule="evenodd" clip-rule="evenodd" fill="#8CC919" width="0.234" height="54.982"/>
		</g>
		<g clip-path="url(#SVGID_2_)">
			
				<rect x="13.027" y="-15.017" transform="matrix(-0.5872 -0.8095 0.8095 -0.5872 10.7647 30.4373)" fill-rule="evenodd" clip-rule="evenodd" fill="#8CC919" width="0.234" height="54.982"/>
		</g>
		<g clip-path="url(#SVGID_2_)">
			
				<rect x="13.118" y="-14.891" transform="matrix(-0.5873 -0.8094 0.8094 -0.5873 10.8106 30.7127)" fill-rule="evenodd" clip-rule="evenodd" fill="#8CC919" width="0.234" height="54.982"/>
		</g>
		<g clip-path="url(#SVGID_2_)">
			
				<rect x="13.21" y="-14.764" transform="matrix(-0.5871 -0.8095 0.8095 -0.5871 10.8488 30.9869)" fill-rule="evenodd" clip-rule="evenodd" fill="#8CC919" width="0.234" height="54.982"/>
		</g>
		<g clip-path="url(#SVGID_2_)">
			
				<rect x="13.302" y="-14.638" transform="matrix(-0.5871 -0.8095 0.8095 -0.5871 10.8939 31.2621)" fill-rule="evenodd" clip-rule="evenodd" fill="#8CC919" width="0.234" height="54.982"/>
		</g>
		<g clip-path="url(#SVGID_2_)">
			
				<rect x="13.394" y="-14.511" transform="matrix(-0.5873 -0.8094 0.8094 -0.5873 10.9407 31.5377)" fill-rule="evenodd" clip-rule="evenodd" fill="#8CC919" width="0.234" height="54.982"/>
		</g>
		<g clip-path="url(#SVGID_2_)">
			
				<rect x="13.485" y="-14.385" transform="matrix(-0.5871 -0.8095 0.8095 -0.5871 10.9803 31.8121)" fill-rule="evenodd" clip-rule="evenodd" fill="#8CC919" width="0.234" height="54.982"/>
		</g>
		<g clip-path="url(#SVGID_2_)">
			
				<rect x="13.577" y="-14.259" transform="matrix(-0.5871 -0.8095 0.8095 -0.5871 11.0237 32.087)" fill-rule="evenodd" clip-rule="evenodd" fill="#8CC919" width="0.234" height="54.982"/>
		</g>
		<g clip-path="url(#SVGID_2_)">
			
				<rect x="13.669" y="-14.132" transform="matrix(-0.5874 -0.8093 0.8093 -0.5874 11.0723 32.3629)" fill-rule="evenodd" clip-rule="evenodd" fill="#8AC81A" width="0.234" height="54.982"/>
		</g>
		<g clip-path="url(#SVGID_2_)">
			
				<rect x="13.761" y="-14.006" transform="matrix(-0.5871 -0.8095 0.8095 -0.5871 11.1103 32.6371)" fill-rule="evenodd" clip-rule="evenodd" fill="#8AC81A" width="0.234" height="54.982"/>
		</g>
		<g clip-path="url(#SVGID_2_)">
			
				<rect x="13.852" y="-13.879" transform="matrix(-0.5871 -0.8095 0.8095 -0.5871 11.1535 32.912)" fill-rule="evenodd" clip-rule="evenodd" fill="#8AC81A" width="0.234" height="54.982"/>
		</g>
		<g clip-path="url(#SVGID_2_)">
			
				<rect x="13.944" y="-13.753" transform="matrix(-0.5874 -0.8093 0.8093 -0.5874 11.2022 33.1878)" fill-rule="evenodd" clip-rule="evenodd" fill="#8AC81A" width="0.234" height="54.982"/>
		</g>
		<g clip-path="url(#SVGID_2_)">
			
				<rect x="14.036" y="-13.626" transform="matrix(-0.5871 -0.8095 0.8095 -0.5871 11.2401 33.4619)" fill-rule="evenodd" clip-rule="evenodd" fill="#8AC81A" width="0.234" height="54.982"/>
		</g>
		<g clip-path="url(#SVGID_2_)">
			
				<rect x="14.128" y="-13.5" transform="matrix(-0.5875 -0.8093 0.8093 -0.5875 11.291 33.7381)" fill-rule="evenodd" clip-rule="evenodd" fill="#8AC81A" width="0.234" height="54.982"/>
		</g>
		<g clip-path="url(#SVGID_2_)">
			
				<rect x="14.22" y="-13.373" transform="matrix(-0.5874 -0.8093 0.8093 -0.5874 11.3321 34.0128)" fill-rule="evenodd" clip-rule="evenodd" fill="#8AC81A" width="0.234" height="54.982"/>
		</g>
		<g clip-path="url(#SVGID_2_)">
			
				<rect x="14.311" y="-13.247" transform="matrix(-0.5871 -0.8095 0.8095 -0.5871 11.3699 34.2868)" fill-rule="evenodd" clip-rule="evenodd" fill="#87C71A" width="0.234" height="54.982"/>
		</g>
		<g clip-path="url(#SVGID_2_)">
			
				<rect x="14.403" y="-13.12" transform="matrix(-0.5874 -0.8093 0.8093 -0.5874 11.4189 34.5627)" fill-rule="evenodd" clip-rule="evenodd" fill="#87C71A" width="0.234" height="54.982"/>
		</g>
		<g clip-path="url(#SVGID_2_)">
			
				<rect x="14.495" y="-12.994" transform="matrix(-0.5876 -0.8091 0.8091 -0.5876 11.4681 34.8387)" fill-rule="evenodd" clip-rule="evenodd" fill="#87C71A" width="0.234" height="54.982"/>
		</g>
		<g clip-path="url(#SVGID_2_)">
			
				<rect x="14.587" y="-12.868" transform="matrix(-0.5871 -0.8095 0.8095 -0.5871 11.4997 35.1117)" fill-rule="evenodd" clip-rule="evenodd" fill="#87C71A" width="0.234" height="54.982"/>
		</g>
		<g clip-path="url(#SVGID_2_)">
			
				<rect x="14.678" y="-12.741" transform="matrix(-0.5873 -0.8094 0.8094 -0.5873 11.5469 35.3873)" fill-rule="evenodd" clip-rule="evenodd" fill="#87C71A" width="0.234" height="54.982"/>
		</g>
		<g clip-path="url(#SVGID_2_)">
			
				<rect x="14.77" y="-12.615" transform="matrix(-0.5873 -0.8094 0.8094 -0.5873 11.5902 35.6624)" fill-rule="evenodd" clip-rule="evenodd" fill="#87C71A" width="0.234" height="54.982"/>
		</g>
		<g clip-path="url(#SVGID_2_)">
			
				<rect x="14.862" y="-12.488" transform="matrix(-0.5874 -0.8093 0.8093 -0.5874 11.6357 35.9376)" fill-rule="evenodd" clip-rule="evenodd" fill="#87C71A" width="0.234" height="54.982"/>
		</g>
		<g clip-path="url(#SVGID_2_)">
			
				<rect x="14.954" y="-12.362" transform="matrix(-0.5873 -0.8094 0.8094 -0.5873 11.6767 36.2123)" fill-rule="evenodd" clip-rule="evenodd" fill="#87C71A" width="0.234" height="54.982"/>
		</g>
		<g clip-path="url(#SVGID_2_)">
			
				<rect x="15.045" y="-12.235" transform="matrix(-0.5873 -0.8094 0.8094 -0.5873 11.7201 36.4873)" fill-rule="evenodd" clip-rule="evenodd" fill="#87C71A" width="0.234" height="54.982"/>
		</g>
		<g clip-path="url(#SVGID_2_)">
			
				<rect x="15.137" y="-12.109" transform="matrix(-0.5871 -0.8095 0.8095 -0.5871 11.7575 36.7612)" fill-rule="evenodd" clip-rule="evenodd" fill="#87C71A" width="0.234" height="54.982"/>
		</g>
		<g clip-path="url(#SVGID_2_)">
			
				<rect x="15.229" y="-11.982" transform="matrix(-0.5876 -0.8091 0.8091 -0.5876 11.8151 37.0386)" fill-rule="evenodd" clip-rule="evenodd" fill="#85C61B" width="0.234" height="54.982"/>
		</g>
		<g clip-path="url(#SVGID_2_)">
			
				<rect x="15.321" y="-11.856" transform="matrix(-0.5873 -0.8094 0.8094 -0.5873 11.8499 37.3123)" fill-rule="evenodd" clip-rule="evenodd" fill="#85C61B" width="0.234" height="54.982"/>
		</g>
		<g clip-path="url(#SVGID_2_)">
			
				<rect x="15.412" y="-11.73" transform="matrix(-0.5871 -0.8095 0.8095 -0.5871 11.8893 37.5865)" fill-rule="evenodd" clip-rule="evenodd" fill="#85C61B" width="0.234" height="54.982"/>
		</g>
		<g clip-path="url(#SVGID_2_)">
			
				<rect x="15.504" y="-11.603" transform="matrix(-0.5873 -0.8094 0.8094 -0.5873 11.9367 37.8622)" fill-rule="evenodd" clip-rule="evenodd" fill="#85C61B" width="0.234" height="54.982"/>
		</g>
		<g clip-path="url(#SVGID_2_)">
			
				<rect x="15.596" y="-11.477" transform="matrix(-0.5877 -0.8091 0.8091 -0.5877 11.9905 38.139)" fill-rule="evenodd" clip-rule="evenodd" fill="#85C61B" width="0.234" height="54.982"/>
		</g>
		<g clip-path="url(#SVGID_2_)">
			
				<rect x="15.688" y="-11.35" transform="matrix(-0.5871 -0.8095 0.8095 -0.5871 12.019 38.4114)" fill-rule="evenodd" clip-rule="evenodd" fill="#85C61B" width="0.234" height="54.982"/>
		</g>
		<g clip-path="url(#SVGID_2_)">
			
				<rect x="15.78" y="-11.224" transform="matrix(-0.5874 -0.8093 0.8093 -0.5874 12.0686 38.6875)" fill-rule="evenodd" clip-rule="evenodd" fill="#82C51B" width="0.234" height="54.982"/>
		</g>
		<g clip-path="url(#SVGID_2_)">
			
				<rect x="15.871" y="-11.097" transform="matrix(-0.5874 -0.8093 0.8093 -0.5874 12.112 38.9626)" fill-rule="evenodd" clip-rule="evenodd" fill="#82C51B" width="0.234" height="54.982"/>
		</g>
		<g clip-path="url(#SVGID_2_)">
			
				<rect x="15.963" y="-10.971" transform="matrix(-0.5875 -0.8093 0.8093 -0.5875 12.1576 39.2378)" fill-rule="evenodd" clip-rule="evenodd" fill="#82C51B" width="0.234" height="54.982"/>
		</g>
		<g clip-path="url(#SVGID_2_)">
			
				<rect x="16.055" y="-10.844" transform="matrix(-0.5874 -0.8093 0.8093 -0.5874 12.1986 39.5124)" fill-rule="evenodd" clip-rule="evenodd" fill="#82C51B" width="0.234" height="54.982"/>
		</g>
		<g clip-path="url(#SVGID_2_)">
			
				<rect x="16.147" y="-10.718" transform="matrix(-0.5874 -0.8093 0.8093 -0.5874 12.2419 39.7875)" fill-rule="evenodd" clip-rule="evenodd" fill="#82C51B" width="0.234" height="54.982"/>
		</g>
		<g clip-path="url(#SVGID_2_)">
			
				<rect x="16.238" y="-10.591" transform="matrix(-0.5871 -0.8095 0.8095 -0.5871 12.2788 40.0613)" fill-rule="evenodd" clip-rule="evenodd" fill="#82C51B" width="0.234" height="54.982"/>
		</g>
		<g clip-path="url(#SVGID_2_)">
			
				<rect x="16.33" y="-10.465" transform="matrix(-0.5875 -0.8092 0.8092 -0.5875 12.3315 40.3379)" fill-rule="evenodd" clip-rule="evenodd" fill="#82C51B" width="0.234" height="54.982"/>
		</g>
		<g clip-path="url(#SVGID_2_)">
			
				<rect x="16.422" y="-10.339" transform="matrix(-0.5874 -0.8093 0.8093 -0.5874 12.3726 40.6126)" fill-rule="evenodd" clip-rule="evenodd" fill="#80C41C" width="0.234" height="54.982"/>
		</g>
		<g clip-path="url(#SVGID_2_)">
			
				<rect x="16.514" y="-10.212" transform="matrix(-0.5871 -0.8095 0.8095 -0.5871 12.4086 40.8862)" fill-rule="evenodd" clip-rule="evenodd" fill="#80C41C" width="0.234" height="54.982"/>
		</g>
		<g clip-path="url(#SVGID_2_)">
			
				<rect x="16.605" y="-10.086" transform="matrix(-0.5873 -0.8094 0.8094 -0.5873 12.4563 41.162)" fill-rule="evenodd" clip-rule="evenodd" fill="#80C41C" width="0.234" height="54.982"/>
		</g>
		<g clip-path="url(#SVGID_2_)">
			
				<rect x="16.697" y="-9.959" transform="matrix(-0.5874 -0.8093 0.8093 -0.5874 12.5026 41.4375)" fill-rule="evenodd" clip-rule="evenodd" fill="#80C41C" width="0.234" height="54.982"/>
		</g>
		<g clip-path="url(#SVGID_2_)">
			
				<rect x="16.789" y="-9.833" transform="matrix(-0.5872 -0.8095 0.8095 -0.5872 12.5392 41.7112)" fill-rule="evenodd" clip-rule="evenodd" fill="#80C41C" width="0.234" height="54.982"/>
		</g>
		<g clip-path="url(#SVGID_2_)">
			
				<rect x="16.881" y="-9.706" transform="matrix(-0.5874 -0.8093 0.8093 -0.5874 12.5893 41.9875)" fill-rule="evenodd" clip-rule="evenodd" fill="#7DC21C" width="0.234" height="54.982"/>
		</g>
		<g clip-path="url(#SVGID_2_)">
			
				<rect x="16.972" y="-9.58" transform="matrix(-0.5873 -0.8094 0.8094 -0.5873 12.6295 42.262)" fill-rule="evenodd" clip-rule="evenodd" fill="#7DC21C" width="0.234" height="54.982"/>
		</g>
		<g clip-path="url(#SVGID_2_)">
			
				<rect x="17.064" y="-9.453" transform="matrix(-0.5872 -0.8095 0.8095 -0.5872 12.669 42.5361)" fill-rule="evenodd" clip-rule="evenodd" fill="#7DC21C" width="0.234" height="54.982"/>
		</g>
		<g clip-path="url(#SVGID_2_)">
			
				<rect x="17.156" y="-9.327" transform="matrix(-0.5874 -0.8093 0.8093 -0.5874 12.7193 42.8124)" fill-rule="evenodd" clip-rule="evenodd" fill="#7DC21C" width="0.234" height="54.982"/>
		</g>
		<g clip-path="url(#SVGID_2_)">
			
				<rect x="17.248" y="-9.2" transform="matrix(-0.5874 -0.8093 0.8093 -0.5874 12.7626 43.0875)" fill-rule="evenodd" clip-rule="evenodd" fill="#7DC21C" width="0.234" height="54.982"/>
		</g>
		<g clip-path="url(#SVGID_2_)">
			
				<rect x="17.339" y="-9.074" transform="matrix(-0.5873 -0.8094 0.8094 -0.5873 12.8014 43.3615)" fill-rule="evenodd" clip-rule="evenodd" fill="#7DC21C" width="0.234" height="54.982"/>
		</g>
		<g clip-path="url(#SVGID_2_)">
			
				<rect x="17.431" y="-8.948" transform="matrix(-0.5874 -0.8093 0.8093 -0.5874 12.8492 43.6374)" fill-rule="evenodd" clip-rule="evenodd" fill="#7DC21C" width="0.234" height="54.982"/>
		</g>
		<g clip-path="url(#SVGID_2_)">
			
				<rect x="17.523" y="-8.821" transform="matrix(-0.5875 -0.8092 0.8092 -0.5875 12.8949 43.9129)" fill-rule="evenodd" clip-rule="evenodd" fill="#7AC11D" width="0.234" height="54.982"/>
		</g>
		<g clip-path="url(#SVGID_2_)">
			
				<rect x="17.615" y="-8.695" transform="matrix(-0.5873 -0.8094 0.8094 -0.5873 12.9312 44.1865)" fill-rule="evenodd" clip-rule="evenodd" fill="#7AC11D" width="0.234" height="54.982"/>
		</g>
		<g clip-path="url(#SVGID_2_)">
			
				<rect x="17.707" y="-8.568" transform="matrix(-0.5875 -0.8092 0.8092 -0.5875 12.9817 44.4629)" fill-rule="evenodd" clip-rule="evenodd" fill="#7AC11D" width="0.234" height="54.982"/>
		</g>
		<g clip-path="url(#SVGID_2_)">
			
				<rect x="17.798" y="-8.442" transform="matrix(-0.5875 -0.8092 0.8092 -0.5875 13.0249 44.7379)" fill-rule="evenodd" clip-rule="evenodd" fill="#7AC11D" width="0.234" height="54.982"/>
		</g>
		<g clip-path="url(#SVGID_2_)">
			
				<rect x="17.89" y="-8.315" transform="matrix(-0.5873 -0.8094 0.8094 -0.5873 13.061 45.0114)" fill-rule="evenodd" clip-rule="evenodd" fill="#7AC11D" width="0.234" height="54.982"/>
		</g>
		<g clip-path="url(#SVGID_2_)">
			
				<rect x="17.982" y="-8.189" transform="matrix(-0.5875 -0.8092 0.8092 -0.5875 13.1117 45.2878)" fill-rule="evenodd" clip-rule="evenodd" fill="#78C01D" width="0.234" height="54.982"/>
		</g>
		<g clip-path="url(#SVGID_2_)">
			
				<rect x="18.074" y="-8.062" transform="matrix(-0.5875 -0.8092 0.8092 -0.5875 13.155 45.5629)" fill-rule="evenodd" clip-rule="evenodd" fill="#78C01D" width="0.234" height="54.982"/>
		</g>
		<g clip-path="url(#SVGID_2_)">
			
				<rect x="18.165" y="-7.936" transform="matrix(-0.5873 -0.8094 0.8094 -0.5873 13.1909 45.8363)" fill-rule="evenodd" clip-rule="evenodd" fill="#78C01D" width="0.234" height="54.982"/>
		</g>
		<g clip-path="url(#SVGID_2_)">
			
				<rect x="18.257" y="-7.81" transform="matrix(-0.5875 -0.8092 0.8092 -0.5875 13.2417 46.1128)" fill-rule="evenodd" clip-rule="evenodd" fill="#78C01D" width="0.234" height="54.982"/>
		</g>
		<g clip-path="url(#SVGID_2_)">
			
				<rect x="18.349" y="-7.683" transform="matrix(-0.5873 -0.8094 0.8094 -0.5873 13.2775 46.3863)" fill-rule="evenodd" clip-rule="evenodd" fill="#78C01D" width="0.234" height="54.982"/>
		</g>
		<g clip-path="url(#SVGID_2_)">
			
				<rect x="18.441" y="-7.557" transform="matrix(-0.5873 -0.8094 0.8094 -0.5873 13.3209 46.6613)" fill-rule="evenodd" clip-rule="evenodd" fill="#78C01D" width="0.234" height="54.982"/>
		</g>
		<g clip-path="url(#SVGID_2_)">
			
				<rect x="18.532" y="-7.43" transform="matrix(-0.5874 -0.8093 0.8093 -0.5874 13.3691 46.9373)" fill-rule="evenodd" clip-rule="evenodd" fill="#78C01D" width="0.234" height="54.982"/>
		</g>
		<g clip-path="url(#SVGID_2_)">
			
				<rect x="18.624" y="-7.304" transform="matrix(-0.5873 -0.8094 0.8094 -0.5873 13.4074 47.2113)" fill-rule="evenodd" clip-rule="evenodd" fill="#75BF1E" width="0.234" height="54.982"/>
		</g>
		<g clip-path="url(#SVGID_2_)">
			
				<rect x="18.716" y="-7.177" transform="matrix(-0.5872 -0.8095 0.8095 -0.5872 13.4482 47.4857)" fill-rule="evenodd" clip-rule="evenodd" fill="#75BF1E" width="0.234" height="54.982"/>
		</g>
		<g clip-path="url(#SVGID_2_)">
			
				<rect x="18.808" y="-7.051" transform="matrix(-0.5874 -0.8093 0.8093 -0.5874 13.4992 47.7623)" fill-rule="evenodd" clip-rule="evenodd" fill="#75BF1E" width="0.234" height="54.982"/>
		</g>
		<g clip-path="url(#SVGID_2_)">
			
				<rect x="18.899" y="-6.924" transform="matrix(-0.5872 -0.8095 0.8095 -0.5872 13.5347 48.0356)" fill-rule="evenodd" clip-rule="evenodd" fill="#75BF1E" width="0.234" height="54.982"/>
		</g>
		<g clip-path="url(#SVGID_2_)">
			
				<rect x="18.991" y="-6.798" transform="matrix(-0.5872 -0.8095 0.8095 -0.5872 13.5781 48.3106)" fill-rule="evenodd" clip-rule="evenodd" fill="#75BF1E" width="0.234" height="54.982"/>
		</g>
		<g clip-path="url(#SVGID_2_)">
			
				<rect x="19.083" y="-6.671" transform="matrix(-0.5874 -0.8093 0.8093 -0.5874 13.6292 48.5872)" fill-rule="evenodd" clip-rule="evenodd" fill="#73BE1E" width="0.234" height="54.982"/>
		</g>
		<g clip-path="url(#SVGID_2_)">
			
				<rect x="19.175" y="-6.545" transform="matrix(-0.5875 -0.8092 0.8092 -0.5875 13.6754 48.8628)" fill-rule="evenodd" clip-rule="evenodd" fill="#73BE1E" width="0.234" height="54.982"/>
		</g>
		<g clip-path="url(#SVGID_2_)">
			
				<rect x="19.266" y="-6.419" transform="matrix(-0.5873 -0.8094 0.8094 -0.5873 13.7105 49.136)" fill-rule="evenodd" clip-rule="evenodd" fill="#73BE1E" width="0.234" height="54.982"/>
		</g>
		<g clip-path="url(#SVGID_2_)">
			
				<rect x="19.358" y="-6.292" transform="matrix(-0.5874 -0.8093 0.8093 -0.5874 13.7591 49.4122)" fill-rule="evenodd" clip-rule="evenodd" fill="#73BE1E" width="0.234" height="54.982"/>
		</g>
		<g clip-path="url(#SVGID_2_)">
			
				<rect x="19.45" y="-6.166" transform="matrix(-0.5873 -0.8094 0.8094 -0.5873 13.7972 49.6861)" fill-rule="evenodd" clip-rule="evenodd" fill="#73BE1E" width="0.234" height="54.982"/>
		</g>
		<g clip-path="url(#SVGID_2_)">
			
				<rect x="19.542" y="-6.039" transform="matrix(-0.5876 -0.8092 0.8092 -0.5876 13.8515 49.9633)" fill-rule="evenodd" clip-rule="evenodd" fill="#73BE1E" width="0.234" height="54.982"/>
		</g>
		<g clip-path="url(#SVGID_2_)">
			
				<rect x="19.633" y="-5.913" transform="matrix(-0.5875 -0.8092 0.8092 -0.5875 13.8917 50.2377)" fill-rule="evenodd" clip-rule="evenodd" fill="#73BE1E" width="0.234" height="54.982"/>
		</g>
		<g clip-path="url(#SVGID_2_)">
			
				<rect x="19.725" y="-5.786" transform="matrix(-0.5873 -0.8094 0.8094 -0.5873 13.927 50.511)" fill-rule="evenodd" clip-rule="evenodd" fill="#70BC1F" width="0.234" height="54.982"/>
		</g>
		<g clip-path="url(#SVGID_2_)">
			
				<rect x="19.817" y="-5.66" transform="matrix(-0.5873 -0.8094 0.8094 -0.5873 13.9703 50.786)" fill-rule="evenodd" clip-rule="evenodd" fill="#70BC1F" width="0.234" height="54.982"/>
		</g>
		<g clip-path="url(#SVGID_2_)">
			
				<rect x="19.909" y="-5.533" transform="matrix(-0.5878 -0.809 0.809 -0.5878 14.033 51.065)" fill-rule="evenodd" clip-rule="evenodd" fill="#70BC1F" width="0.234" height="54.982"/>
		</g>
		<g clip-path="url(#SVGID_2_)">
			
				<rect x="20" y="-5.407" transform="matrix(-0.5873 -0.8094 0.8094 -0.5873 14.0568 51.3359)" fill-rule="evenodd" clip-rule="evenodd" fill="#70BC1F" width="0.234" height="54.982"/>
		</g>
		<g clip-path="url(#SVGID_2_)">
			
				<rect x="20.092" y="-5.281" transform="matrix(-0.5873 -0.8094 0.8094 -0.5873 14.1002 51.6109)" fill-rule="evenodd" clip-rule="evenodd" fill="#70BC1F" width="0.234" height="54.982"/>
		</g>
		<g clip-path="url(#SVGID_2_)">
			
				<rect x="20.184" y="-5.154" transform="matrix(-0.5875 -0.8092 0.8092 -0.5875 14.1518 51.8877)" fill-rule="evenodd" clip-rule="evenodd" fill="#70BC1F" width="0.234" height="54.982"/>
		</g>
		<g clip-path="url(#SVGID_2_)">
			
				<rect x="20.276" y="-5.028" transform="matrix(-0.5876 -0.8092 0.8092 -0.5876 14.1982 52.1633)" fill-rule="evenodd" clip-rule="evenodd" fill="#70BC1F" width="0.234" height="54.982"/>
		</g>
		<g clip-path="url(#SVGID_2_)">
			
				<rect x="20.367" y="-4.901" transform="matrix(-0.5873 -0.8094 0.8094 -0.5873 14.23 52.4358)" fill-rule="evenodd" clip-rule="evenodd" fill="#6EBB20" width="0.234" height="54.982"/>
		</g>
		<g clip-path="url(#SVGID_2_)">
			
				<rect x="20.459" y="-4.775" transform="matrix(-0.5874 -0.8093 0.8093 -0.5874 14.279 52.7121)" fill-rule="evenodd" clip-rule="evenodd" fill="#6EBB20" width="0.234" height="54.982"/>
		</g>
		<g clip-path="url(#SVGID_2_)">
			
				<rect x="20.551" y="-4.648" transform="matrix(-0.5873 -0.8094 0.8094 -0.5873 14.3167 52.9859)" fill-rule="evenodd" clip-rule="evenodd" fill="#6EBB20" width="0.234" height="54.982"/>
		</g>
		<g clip-path="url(#SVGID_2_)">
			
				<rect x="20.643" y="-4.522" transform="matrix(-0.5874 -0.8093 0.8093 -0.5874 14.3649 53.2618)" fill-rule="evenodd" clip-rule="evenodd" fill="#6EBB20" width="0.234" height="54.982"/>
		</g>
		<g clip-path="url(#SVGID_2_)">
			
				<rect x="20.735" y="-4.395" transform="matrix(-0.5874 -0.8093 0.8093 -0.5874 14.4089 53.537)" fill-rule="evenodd" clip-rule="evenodd" fill="#6EBB20" width="0.234" height="54.982"/>
		</g>
		<g clip-path="url(#SVGID_2_)">
			
				<rect x="20.826" y="-4.269" transform="matrix(-0.5872 -0.8095 0.8095 -0.5872 14.4437 53.8101)" fill-rule="evenodd" clip-rule="evenodd" fill="#6BBA20" width="0.234" height="54.982"/>
		</g>
		<g clip-path="url(#SVGID_2_)">
			
				<rect x="20.918" y="-4.142" transform="matrix(-0.5872 -0.8095 0.8095 -0.5872 14.487 54.0851)" fill-rule="evenodd" clip-rule="evenodd" fill="#6BBA20" width="0.234" height="54.982"/>
		</g>
		<g clip-path="url(#SVGID_2_)">
			
				<rect x="21.01" y="-4.016" transform="matrix(-0.5876 -0.8091 0.8091 -0.5876 14.5469 54.3636)" fill-rule="evenodd" clip-rule="evenodd" fill="#6BBA20" width="0.234" height="54.982"/>
		</g>
		<g clip-path="url(#SVGID_2_)">
			
				<rect x="21.102" y="-3.89" transform="matrix(-0.5871 -0.8095 0.8095 -0.5871 14.5696 54.6341)" fill-rule="evenodd" clip-rule="evenodd" fill="#6BBA20" width="0.234" height="54.982"/>
		</g>
		<g clip-path="url(#SVGID_2_)">
			
				<rect x="21.193" y="-3.763" transform="matrix(-0.5873 -0.8094 0.8094 -0.5873 14.6198 54.9106)" fill-rule="evenodd" clip-rule="evenodd" fill="#6BBA20" width="0.234" height="54.982"/>
		</g>
		<g clip-path="url(#SVGID_2_)">
			
				<rect x="21.285" y="-3.637" transform="matrix(-0.5874 -0.8093 0.8093 -0.5874 14.669 55.187)" fill-rule="evenodd" clip-rule="evenodd" fill="#6BBA20" width="0.234" height="54.982"/>
		</g>
		<g clip-path="url(#SVGID_2_)">
			
				<rect x="21.377" y="-3.51" transform="matrix(-0.5871 -0.8095 0.8095 -0.5871 14.7023 55.4596)" fill-rule="evenodd" clip-rule="evenodd" fill="#6BBA20" width="0.234" height="54.982"/>
		</g>
		<g clip-path="url(#SVGID_2_)">
			
				<rect x="21.469" y="-3.384" transform="matrix(-0.5871 -0.8095 0.8095 -0.5871 14.7455 55.7347)" fill-rule="evenodd" clip-rule="evenodd" fill="#69B921" width="0.234" height="54.982"/>
		</g>
		<g clip-path="url(#SVGID_2_)">
			
				<rect x="21.56" y="-3.257" transform="matrix(-0.5874 -0.8093 0.8093 -0.5874 14.7978 56.0117)" fill-rule="evenodd" clip-rule="evenodd" fill="#69B921" width="0.234" height="54.982"/>
		</g>
		<g clip-path="url(#SVGID_2_)">
			
				<rect x="21.652" y="-3.131" transform="matrix(-0.5873 -0.8094 0.8094 -0.5873 14.8363 56.2855)" fill-rule="evenodd" clip-rule="evenodd" fill="#69B921" width="0.234" height="54.982"/>
		</g>
		<g clip-path="url(#SVGID_2_)">
			
				<rect x="21.744" y="-3.004" transform="matrix(-0.5874 -0.8093 0.8093 -0.5874 14.8844 56.5616)" fill-rule="evenodd" clip-rule="evenodd" fill="#69B921" width="0.234" height="54.982"/>
		</g>
		<g clip-path="url(#SVGID_2_)">
			
				<rect x="21.836" y="-2.878" transform="matrix(-0.5874 -0.8093 0.8093 -0.5874 14.9277 56.8366)" fill-rule="evenodd" clip-rule="evenodd" fill="#69B921" width="0.234" height="54.982"/>
		</g>
		<g clip-path="url(#SVGID_2_)">
			
				<rect x="21.927" y="-2.752" transform="matrix(-0.5871 -0.8095 0.8095 -0.5871 14.962 57.1095)" fill-rule="evenodd" clip-rule="evenodd" fill="#66B821" width="0.234" height="54.982"/>
		</g>
		<g clip-path="url(#SVGID_2_)">
			
				<rect x="22.019" y="-2.625" transform="matrix(-0.5874 -0.8093 0.8093 -0.5874 15.0144 57.3866)" fill-rule="evenodd" clip-rule="evenodd" fill="#66B821" width="0.234" height="54.982"/>
		</g>
		<g clip-path="url(#SVGID_2_)">
			
				<rect x="22.111" y="-2.499" transform="matrix(-0.5874 -0.8093 0.8093 -0.5874 15.0576 57.6616)" fill-rule="evenodd" clip-rule="evenodd" fill="#66B821" width="0.234" height="54.982"/>
		</g>
		<g clip-path="url(#SVGID_2_)">
			
				<rect x="22.203" y="-2.372" transform="matrix(-0.5871 -0.8095 0.8095 -0.5871 15.0918 57.9345)" fill-rule="evenodd" clip-rule="evenodd" fill="#66B821" width="0.234" height="54.982"/>
		</g>
		<g clip-path="url(#SVGID_2_)">
			
				<rect x="22.295" y="-2.246" transform="matrix(-0.5874 -0.8093 0.8093 -0.5874 15.1444 58.2116)" fill-rule="evenodd" clip-rule="evenodd" fill="#66B821" width="0.234" height="54.982"/>
		</g>
		<g clip-path="url(#SVGID_2_)">
			
				<rect x="22.386" y="-2.119" transform="matrix(-0.5873 -0.8094 0.8094 -0.5873 15.1846 58.4859)" fill-rule="evenodd" clip-rule="evenodd" fill="#66B821" width="0.234" height="54.982"/>
		</g>
		<g clip-path="url(#SVGID_2_)">
			
				<rect x="22.478" y="-1.993" transform="matrix(-0.5871 -0.8095 0.8095 -0.5871 15.2216 58.7594)" fill-rule="evenodd" clip-rule="evenodd" fill="#66B821" width="0.234" height="54.982"/>
		</g>
		<g clip-path="url(#SVGID_2_)">
			
				<rect x="22.57" y="-1.866" transform="matrix(-0.5873 -0.8094 0.8094 -0.5873 15.2711 59.0358)" fill-rule="evenodd" clip-rule="evenodd" fill="#64B622" width="0.234" height="54.982"/>
		</g>
		<g clip-path="url(#SVGID_2_)">
			
				<rect x="22.662" y="-1.74" transform="matrix(-0.5873 -0.8094 0.8094 -0.5873 15.3145 59.3108)" fill-rule="evenodd" clip-rule="evenodd" fill="#64B622" width="0.234" height="54.982"/>
		</g>
		<g clip-path="url(#SVGID_2_)">
			
				<rect x="22.753" y="-1.614" transform="matrix(-0.5871 -0.8095 0.8095 -0.5871 15.3484 59.5836)" fill-rule="evenodd" clip-rule="evenodd" fill="#64B622" width="0.234" height="54.982"/>
		</g>
		<g clip-path="url(#SVGID_2_)">
			
				<rect x="22.845" y="-1.487" transform="matrix(-0.5873 -0.8094 0.8094 -0.5873 15.401 59.8607)" fill-rule="evenodd" clip-rule="evenodd" fill="#64B622" width="0.234" height="54.982"/>
		</g>
		<g clip-path="url(#SVGID_2_)">
			
				<rect x="22.937" y="-1.361" transform="matrix(-0.5873 -0.8094 0.8094 -0.5873 15.4443 60.1358)" fill-rule="evenodd" clip-rule="evenodd" fill="#64B622" width="0.234" height="54.982"/>
		</g>
		<g clip-path="url(#SVGID_2_)">
			
				<rect x="23.029" y="-1.234" transform="matrix(-0.5871 -0.8095 0.8095 -0.5871 15.4781 60.4085)" fill-rule="evenodd" clip-rule="evenodd" fill="#61B522" width="0.234" height="54.982"/>
		</g>
		<g clip-path="url(#SVGID_2_)">
			
				<rect x="23.12" y="-1.108" transform="matrix(-0.5873 -0.8094 0.8094 -0.5873 15.5311 60.6857)" fill-rule="evenodd" clip-rule="evenodd" fill="#61B522" width="0.234" height="54.982"/>
		</g>
		<g clip-path="url(#SVGID_2_)">
			
				<rect x="23.212" y="-0.981" transform="matrix(-0.5873 -0.8094 0.8094 -0.5873 15.5742 60.9607)" fill-rule="evenodd" clip-rule="evenodd" fill="#61B522" width="0.234" height="54.982"/>
		</g>
		<g clip-path="url(#SVGID_2_)">
			
				<rect x="23.304" y="-0.855" transform="matrix(-0.5871 -0.8095 0.8095 -0.5871 15.6111 61.2341)" fill-rule="evenodd" clip-rule="evenodd" fill="#61B522" width="0.234" height="54.982"/>
		</g>
		<g clip-path="url(#SVGID_2_)">
			
				<rect x="23.396" y="-0.728" transform="matrix(-0.5873 -0.8094 0.8094 -0.5873 15.6609 61.5106)" fill-rule="evenodd" clip-rule="evenodd" fill="#61B522" width="0.234" height="54.982"/>
		</g>
		<g clip-path="url(#SVGID_2_)">
			
				<rect x="23.487" y="-0.602" transform="matrix(-0.5874 -0.8093 0.8093 -0.5874 15.7075 61.7864)" fill-rule="evenodd" clip-rule="evenodd" fill="#61B522" width="0.234" height="54.982"/>
		</g>
		<g clip-path="url(#SVGID_2_)">
			
				<rect x="23.579" y="-0.475" transform="matrix(-0.5871 -0.8095 0.8095 -0.5871 15.7409 62.059)" fill-rule="evenodd" clip-rule="evenodd" fill="#61B522" width="0.234" height="54.982"/>
		</g>
		<g clip-path="url(#SVGID_2_)">
			
				<rect x="23.671" y="-0.349" transform="matrix(-0.5874 -0.8093 0.8093 -0.5874 15.7941 62.3363)" fill-rule="evenodd" clip-rule="evenodd" fill="#5EB423" width="0.234" height="54.982"/>
		</g>
		<g clip-path="url(#SVGID_2_)">
			
				<rect x="23.763" y="-0.223" transform="matrix(-0.5874 -0.8093 0.8093 -0.5874 15.8374 62.6114)" fill-rule="evenodd" clip-rule="evenodd" fill="#5EB423" width="0.234" height="54.982"/>
		</g>
		<g clip-path="url(#SVGID_2_)">
			
				<rect x="23.854" y="-0.096" transform="matrix(-0.5875 -0.8093 0.8093 -0.5875 15.8845 62.8871)" fill-rule="evenodd" clip-rule="evenodd" fill="#5EB423" width="0.234" height="54.982"/>
		</g>
		<g clip-path="url(#SVGID_2_)">
			
				<rect x="23.946" y="0.03" transform="matrix(-0.5874 -0.8093 0.8093 -0.5874 15.924 63.1613)" fill-rule="evenodd" clip-rule="evenodd" fill="#5EB423" width="0.234" height="54.982"/>
		</g>
		<g clip-path="url(#SVGID_2_)">
			
				<rect x="24.038" y="0.157" transform="matrix(-0.5874 -0.8093 0.8093 -0.5874 15.9673 63.4363)" fill-rule="evenodd" clip-rule="evenodd" fill="#5CB323" width="0.234" height="54.982"/>
		</g>
		<g clip-path="url(#SVGID_2_)">
			
				<rect x="24.13" y="0.283" transform="matrix(-0.5871 -0.8095 0.8095 -0.5871 16.0007 63.7089)" fill-rule="evenodd" clip-rule="evenodd" fill="#5CB323" width="0.234" height="54.982"/>
		</g>
		<g clip-path="url(#SVGID_2_)">
			
				<rect x="24.221" y="0.41" transform="matrix(-0.5877 -0.8091 0.8091 -0.5877 16.068 63.9895)" fill-rule="evenodd" clip-rule="evenodd" fill="#5CB323" width="0.234" height="54.982"/>
		</g>
		<g clip-path="url(#SVGID_2_)">
			
				<rect x="24.313" y="0.536" transform="matrix(-0.5873 -0.8094 0.8094 -0.5873 16.0939 64.2605)" fill-rule="evenodd" clip-rule="evenodd" fill="#5CB323" width="0.234" height="54.982"/>
		</g>
		<g clip-path="url(#SVGID_2_)">
			
				<rect x="24.405" y="0.663" transform="matrix(-0.5871 -0.8095 0.8095 -0.5871 16.1304 64.5338)" fill-rule="evenodd" clip-rule="evenodd" fill="#5CB323" width="0.234" height="54.982"/>
		</g>
		<g clip-path="url(#SVGID_2_)">
			
				<rect x="24.497" y="0.789" transform="matrix(-0.5873 -0.8094 0.8094 -0.5873 16.1806 64.8104)" fill-rule="evenodd" clip-rule="evenodd" fill="#5CB323" width="0.234" height="54.982"/>
		</g>
		<g clip-path="url(#SVGID_2_)">
			
				<rect x="24.588" y="0.916" transform="matrix(-0.5876 -0.8091 0.8091 -0.5876 16.2381 65.0887)" fill-rule="evenodd" clip-rule="evenodd" fill="#5CB323" width="0.234" height="54.982"/>
		</g>
		<g clip-path="url(#SVGID_2_)">
			
				<rect x="24.68" y="1.042" transform="matrix(-0.5871 -0.8095 0.8095 -0.5871 16.2568 65.3579)" fill-rule="evenodd" clip-rule="evenodd" fill="#5CB323" width="0.234" height="54.982"/>
		</g>
		<g clip-path="url(#SVGID_2_)">
			
				<rect x="24.772" y="1.168" transform="matrix(-0.5873 -0.8094 0.8094 -0.5873 16.3105 65.6354)" fill-rule="evenodd" clip-rule="evenodd" fill="#59B224" width="0.234" height="54.982"/>
		</g>
		<g clip-path="url(#SVGID_2_)">
			
				<rect x="24.864" y="1.295" transform="matrix(-0.5873 -0.8094 0.8094 -0.5873 16.3538 65.9104)" fill-rule="evenodd" clip-rule="evenodd" fill="#59B224" width="0.234" height="54.982"/>
		</g>
		<g clip-path="url(#SVGID_2_)">
			
				<rect x="24.955" y="1.421" transform="matrix(-0.5874 -0.8093 0.8093 -0.5874 16.401 66.1861)" fill-rule="evenodd" clip-rule="evenodd" fill="#59B224" width="0.234" height="54.982"/>
		</g>
		<g clip-path="url(#SVGID_2_)">
			
				<rect x="25.047" y="1.548" transform="matrix(-0.5874 -0.8093 0.8093 -0.5874 16.4452 66.4614)" fill-rule="evenodd" clip-rule="evenodd" fill="#59B224" width="0.234" height="54.982"/>
		</g>
		<g clip-path="url(#SVGID_2_)">
			
				<rect x="25.139" y="1.674" transform="matrix(-0.5873 -0.8094 0.8094 -0.5873 16.4837 66.7353)" fill-rule="evenodd" clip-rule="evenodd" fill="#59B224" width="0.234" height="54.982"/>
		</g>
		<g clip-path="url(#SVGID_2_)">
			
				<rect x="21.749" y="8.629" transform="matrix(-0.5873 -0.8094 0.8094 -0.5873 18.8667 81.86)" fill-rule="evenodd" clip-rule="evenodd" fill="#59B224" width="17.108" height="54.982"/>
		</g>
	</g>
</g>
<g>
	<g>
		<path fill-rule="evenodd" clip-rule="evenodd" fill="#FFFFFF" d="M29,12.177c-3.535,4.879-6.946,3.696-8.157-0.778
			c0.453-0.788,3.432-1.739,5.105,1.016c-1.294-0.487-2.673-0.46-3.451,0.051c1.09,1.958,2.643,1.918,4.856-0.47
			c-1.238-1.671-2.999-2.889-5.021-3.055c2.204-1.39,4.887-0.433,6.672,3.22c-0.004-0.003-0.008-0.005-0.013-0.008
			C28.996,12.164,28.999,12.172,29,12.177z"/>
		<path fill-rule="evenodd" clip-rule="evenodd" fill="#FFFFFF" d="M24.769,17.461c-0.893-2.536-2.1-4.418-4.5-4.1
			c-3.39,1.81-6.644,5.006-8.101,8.964c-0.046,0.455,2.033,5.748,3.619,5.265C16.96,25.081,17.302,20.324,24.769,17.461z"/>
		<path fill-rule="evenodd" clip-rule="evenodd" fill="#FFFFFF" d="M16.841,23.782c1.182,1.019,3.655,3.76,5.89,8.385
			c-1.111,2.827-3.652,7.019-7.766,10.045c2.03-3.907,4.133-9.09,4.239-10.334c-1.73-1.602-4.362-3.028-6.704-5.547
			C12.5,26.332,16.806,23.676,16.841,23.782z"/>
		<path fill-rule="evenodd" clip-rule="evenodd" fill="#FFFFFF" d="M15.978,26.729c-0.306,2.21-0.726,7.327-1.374,7.938
			c-0.593,0.559-4.678,4.553-11.309,6.661c3.849-3.809,7.957-7.228,8.166-8.457c0.563-3.312-0.842-6.63,0.624-10.075
			C12.086,22.795,16.076,26.566,15.978,26.729z"/>
		<path fill-rule="evenodd" clip-rule="evenodd" fill="#FFFFFF" d="M20.11,14.346c0,0-0.405,0.577,0.385,1.875
			c0.938,1.541,2.139,4.539,5.66,6.024c4.561,1.923,7.316,1.944,7.316,1.944s-4.08-1.475-6.652-4.306
			c-2.572-2.832-3.223-5.523-3.223-5.523S20.391,14.401,20.11,14.346z"/>
		<path fill-rule="evenodd" clip-rule="evenodd" fill="#80C41C" d="M17.76,24.636c0,0-1.247-1.159-3.267-1.48
			c-2.02-0.322-2.98,0.169-2.98,0.169l0.092-1.391c0,0,1.854-0.205,3.645,0.167c1.79,0.372,2.638,1.362,2.638,1.362
			S17.74,24.636,17.76,24.636z"/>
		<path fill-rule="evenodd" clip-rule="evenodd" fill="#FFFFFF" d="M26.162,18.793c4.797-6.971,11.248-0.791,12.601,4.865
			c0.046,0.455-2.033,5.748-3.619,5.265C33.972,26.413,33.63,21.656,26.162,18.793z"/>
		<path fill-rule="evenodd" clip-rule="evenodd" fill="#FFFFFF" d="M35.067,25.005c-1.476,0.505-4.793,2.126-8.592,5.583
			c-0.024,3.038,0.771,7.875,3.458,12.217c-0.427-4.382-0.444-9.975-0.079-11.169c2.202-0.841,5.177-1.183,8.289-2.646
			C38.144,28.989,35.139,24.919,35.067,25.005z"/>
		<path fill-rule="evenodd" clip-rule="evenodd" fill="#FFFFFF" d="M33.876,26.285c0.834,4.494,0.685,6.882,2.494,10.269
			c1.943,1.73,6.693,5.402,11.852,5.463c-3.542-1.592-7.645-5.762-9.01-7.711c-0.638-5.967-0.063-6.847-0.462-10.641
			C38.751,23.665,33.831,26.1,33.876,26.285z"/>
		<path fill-rule="evenodd" clip-rule="evenodd" fill="#FFFFFF" d="M31.174,17.023c0,0,0.23,0.667-0.887,1.696
			c-1.327,1.223-3.115,3.842-6.866,4.577c-4.489,0.879-5.888,0.137-5.525-0.069c0.546-0.31,4.67-0.994,5.783-1.929
			c2.718-2.281,3.765-5.223,3.765-5.223S30.888,16.998,31.174,17.023z"/>
		<path fill-rule="evenodd" clip-rule="evenodd" fill="#59B224" d="M32.912,26c0,0,1.445-0.9,3.489-0.83
			c2.044,0.07,2.893,0.734,2.893,0.734l0.175-1.382c0,0-1.781-0.555-3.609-0.531c-1.828,0.024-2.85,0.834-2.85,0.834
			S32.93,26.004,32.912,26z"/>
		<path fill-rule="evenodd" clip-rule="evenodd" fill="#FFFFFF" d="M24.506,15.688c3.065,3.07,5.842,1.685,6.91-2.26
			c-0.212-0.369-0.981-0.775-1.909-0.817c-0.298,0.396-0.772,0.95-1.425,1.484c0.663-0.011,1.26,0.123,1.68,0.399
			c-0.859,1.543-2.007,1.845-3.538,0.734C25.645,15.472,25.061,15.614,24.506,15.688z"/>
	</g>
</g>
</svg>
