<?xml version="1.0" encoding="utf-8"?>
<!-- Generator: Adobe Illustrator 17.0.0, SVG Export Plug-In . SVG Version: 6.00 Build 0)  -->
<!DOCTYPE svg PUBLIC "-//W3C//DTD SVG 1.1//EN" "http://www.w3.org/Graphics/SVG/1.1/DTD/svg11.dtd">
<svg version="1.1" id="Layer_1" xmlns="http://www.w3.org/2000/svg" xmlns:xlink="http://www.w3.org/1999/xlink" x="0px" y="0px"
	 width="56px" height="56px" viewBox="0 0 56 56" enable-background="new 0 0 56 56" xml:space="preserve">
<g>
	<g>
		<defs>
			<path id="SVGID_1_" d="M36.266,0.224C46.501,18.209,51.48,36.781,51.596,55.776C35.76,49.603,19.303,45.78,2.147,44.477
				C15.001,30.239,26.412,15.506,36.266,0.224z"/>
		</defs>
		<clipPath id="SVGID_2_">
			<use xlink:href="#SVGID_1_"  overflow="visible"/>
		</clipPath>
		<g clip-path="url(#SVGID_2_)">
			
				<rect x="58.581" y="10.348" transform="matrix(-0.9372 -0.3487 0.3487 -0.9372 100.6611 92.1966)" fill-rule="evenodd" clip-rule="evenodd" fill="#101F8A" width="0.096" height="53.38"/>
		</g>
		<g clip-path="url(#SVGID_2_)">
			
				<rect x="58.347" y="10.336" transform="matrix(0.937 0.3493 -0.3493 0.937 16.6216 -18.1335)" fill-rule="evenodd" clip-rule="evenodd" fill="#0F218B" width="0.498" height="53.38"/>
		</g>
		<g clip-path="url(#SVGID_2_)">
			
				<rect x="58.036" y="10.22" transform="matrix(0.9371 0.349 -0.349 0.9371 16.5487 -18.0224)" fill-rule="evenodd" clip-rule="evenodd" fill="#0F218B" width="0.498" height="53.38"/>
		</g>
		<g clip-path="url(#SVGID_2_)">
			
				<rect x="57.725" y="10.104" transform="matrix(0.9371 0.3491 -0.3491 0.9371 16.4933 -17.9246)" fill-rule="evenodd" clip-rule="evenodd" fill="#0F218B" width="0.498" height="53.38"/>
		</g>
		<g clip-path="url(#SVGID_2_)">
			
				<rect x="57.414" y="9.988" transform="matrix(0.9371 0.3492 -0.3492 0.9371 16.4368 -17.8261)" fill-rule="evenodd" clip-rule="evenodd" fill="#0F228C" width="0.498" height="53.38"/>
		</g>
		<g clip-path="url(#SVGID_2_)">
			
				<rect x="57.103" y="9.872" transform="matrix(0.937 0.3493 -0.3493 0.937 16.3813 -17.7282)" fill-rule="evenodd" clip-rule="evenodd" fill="#0F228C" width="0.498" height="53.38"/>
		</g>
		<g clip-path="url(#SVGID_2_)">
			
				<rect x="56.792" y="9.757" transform="matrix(0.9371 0.349 -0.349 0.9371 16.3061 -17.6154)" fill-rule="evenodd" clip-rule="evenodd" fill="#0F248C" width="0.498" height="53.38"/>
		</g>
		<g clip-path="url(#SVGID_2_)">
			
				<rect x="56.481" y="9.641" transform="matrix(0.937 0.3492 -0.3492 0.937 16.2582 -17.5232)" fill-rule="evenodd" clip-rule="evenodd" fill="#0F248C" width="0.498" height="53.38"/>
		</g>
		<g clip-path="url(#SVGID_2_)">
			
				<rect x="56.17" y="9.525" transform="matrix(0.9371 0.3492 -0.3492 0.9371 16.1966 -17.4208)" fill-rule="evenodd" clip-rule="evenodd" fill="#0F248C" width="0.498" height="53.38"/>
		</g>
		<g clip-path="url(#SVGID_2_)">
			
				<rect x="55.859" y="9.409" transform="matrix(0.9371 0.349 -0.349 0.9371 16.1246 -17.3105)" fill-rule="evenodd" clip-rule="evenodd" fill="#0F268D" width="0.498" height="53.38"/>
		</g>
		<g clip-path="url(#SVGID_2_)">
			
				<rect x="55.548" y="9.293" transform="matrix(0.9371 0.349 -0.349 0.9371 16.0646 -17.2092)" fill-rule="evenodd" clip-rule="evenodd" fill="#0F268D" width="0.498" height="53.38"/>
		</g>
		<g clip-path="url(#SVGID_2_)">
			
				<rect x="55.237" y="9.177" transform="matrix(0.9371 0.3492 -0.3492 0.9371 16.0165 -17.1168)" fill-rule="evenodd" clip-rule="evenodd" fill="#0F278E" width="0.498" height="53.38"/>
		</g>
		<g clip-path="url(#SVGID_2_)">
			
				<rect x="54.926" y="9.061" transform="matrix(0.937 0.3493 -0.3493 0.937 15.9609 -17.0187)" fill-rule="evenodd" clip-rule="evenodd" fill="#0F278E" width="0.498" height="53.38"/>
		</g>
		<g clip-path="url(#SVGID_2_)">
			
				<rect x="54.615" y="8.945" transform="matrix(0.9371 0.349 -0.349 0.9371 15.8846 -16.9054)" fill-rule="evenodd" clip-rule="evenodd" fill="#0F278E" width="0.498" height="53.38"/>
		</g>
		<g clip-path="url(#SVGID_2_)">
			
				<rect x="54.303" y="8.829" transform="matrix(0.9371 0.3491 -0.3491 0.9371 15.8304 -16.8084)" fill-rule="evenodd" clip-rule="evenodd" fill="#0F298F" width="0.498" height="53.38"/>
		</g>
		<g clip-path="url(#SVGID_2_)">
			
				<rect x="53.992" y="8.714" transform="matrix(0.9371 0.3492 -0.3492 0.9371 15.7763 -16.7115)" fill-rule="evenodd" clip-rule="evenodd" fill="#0F298F" width="0.498" height="53.38"/>
		</g>
		<g clip-path="url(#SVGID_2_)">
			
				<rect x="53.681" y="8.598" transform="matrix(0.937 0.3493 -0.3493 0.937 15.7206 -16.6134)" fill-rule="evenodd" clip-rule="evenodd" fill="#0F298F" width="0.498" height="53.38"/>
		</g>
		<g clip-path="url(#SVGID_2_)">
			
				<rect x="53.37" y="8.482" transform="matrix(0.9371 0.349 -0.349 0.9371 15.6485 -16.5032)" fill-rule="evenodd" clip-rule="evenodd" fill="#0F2A8F" width="0.498" height="53.38"/>
		</g>
		<g clip-path="url(#SVGID_2_)">
			
				<rect x="53.059" y="8.366" transform="matrix(0.9371 0.3492 -0.3492 0.9371 15.5962 -16.4075)" fill-rule="evenodd" clip-rule="evenodd" fill="#0F2A8F" width="0.498" height="53.38"/>
		</g>
		<g clip-path="url(#SVGID_2_)">
			
				<rect x="52.748" y="8.25" transform="matrix(0.9371 0.3492 -0.3492 0.9371 15.5361 -16.3062)" fill-rule="evenodd" clip-rule="evenodd" fill="#0F2C90" width="0.498" height="53.38"/>
		</g>
		<g clip-path="url(#SVGID_2_)">
			
				<rect x="52.437" y="8.134" transform="matrix(0.9371 0.349 -0.349 0.9371 15.4646 -16.1965)" fill-rule="evenodd" clip-rule="evenodd" fill="#0F2C90" width="0.498" height="53.38"/>
		</g>
		<g clip-path="url(#SVGID_2_)">
			
				<rect x="52.126" y="8.018" transform="matrix(0.9371 0.349 -0.349 0.9371 15.406 -16.0963)" fill-rule="evenodd" clip-rule="evenodd" fill="#0F2C90" width="0.498" height="53.38"/>
		</g>
		<g clip-path="url(#SVGID_2_)">
			
				<rect x="51.815" y="7.902" transform="matrix(0.937 0.3492 -0.3492 0.937 15.3574 -16.0033)" fill-rule="evenodd" clip-rule="evenodd" fill="#0E2E91" width="0.498" height="53.38"/>
		</g>
		<g clip-path="url(#SVGID_2_)">
			
				<rect x="51.504" y="7.786" transform="matrix(0.937 0.3493 -0.3493 0.937 15.3001 -15.904)" fill-rule="evenodd" clip-rule="evenodd" fill="#0E2E91" width="0.498" height="53.38"/>
		</g>
		<g clip-path="url(#SVGID_2_)">
			
				<rect x="51.193" y="7.67" transform="matrix(0.9371 0.349 -0.349 0.9371 15.2246 -15.7915)" fill-rule="evenodd" clip-rule="evenodd" fill="#0E2F91" width="0.498" height="53.38"/>
		</g>
		<g clip-path="url(#SVGID_2_)">
			
				<rect x="50.882" y="7.555" transform="matrix(0.9371 0.349 -0.349 0.9371 15.1688 -15.6932)" fill-rule="evenodd" clip-rule="evenodd" fill="#0E2F91" width="0.498" height="53.38"/>
		</g>
		<g clip-path="url(#SVGID_2_)">
			
				<rect x="50.571" y="7.439" transform="matrix(0.9371 0.3492 -0.3492 0.9371 15.1158 -15.5969)" fill-rule="evenodd" clip-rule="evenodd" fill="#0E2F91" width="0.498" height="53.38"/>
		</g>
		<g clip-path="url(#SVGID_2_)">
			
				<rect x="50.26" y="7.323" transform="matrix(0.937 0.3493 -0.3493 0.937 15.0599 -15.4986)" fill-rule="evenodd" clip-rule="evenodd" fill="#0E3192" width="0.498" height="53.38"/>
		</g>
		<g clip-path="url(#SVGID_2_)">
			
				<rect x="49.948" y="7.207" transform="matrix(0.9371 0.349 -0.349 0.9371 14.9846 -15.3864)" fill-rule="evenodd" clip-rule="evenodd" fill="#0E3192" width="0.498" height="53.38"/>
		</g>
		<g clip-path="url(#SVGID_2_)">
			
				<rect x="49.637" y="7.091" transform="matrix(0.9371 0.3492 -0.3492 0.9371 14.9356 -15.293)" fill-rule="evenodd" clip-rule="evenodd" fill="#0E3293" width="0.498" height="53.38"/>
		</g>
		<g clip-path="url(#SVGID_2_)">
			
				<rect x="49.326" y="6.975" transform="matrix(0.937 0.3492 -0.3492 0.937 14.877 -15.1926)" fill-rule="evenodd" clip-rule="evenodd" fill="#0E3293" width="0.498" height="53.38"/>
		</g>
		<g clip-path="url(#SVGID_2_)">
			
				<rect x="49.015" y="6.859" transform="matrix(0.9371 0.349 -0.349 0.9371 14.806 -15.0835)" fill-rule="evenodd" clip-rule="evenodd" fill="#0E3293" width="0.498" height="53.38"/>
		</g>
		<g clip-path="url(#SVGID_2_)">
			
				<rect x="48.704" y="6.743" transform="matrix(0.9371 0.349 -0.349 0.9371 14.7487 -14.9842)" fill-rule="evenodd" clip-rule="evenodd" fill="#0E3494" width="0.498" height="53.38"/>
		</g>
		<g clip-path="url(#SVGID_2_)">
			
				<rect x="48.393" y="6.627" transform="matrix(0.9371 0.3492 -0.3492 0.9371 14.6955 -14.8877)" fill-rule="evenodd" clip-rule="evenodd" fill="#0E3494" width="0.498" height="53.38"/>
		</g>
		<g clip-path="url(#SVGID_2_)">
			
				<rect x="48.082" y="6.512" transform="matrix(0.937 0.3493 -0.3493 0.937 14.6394 -14.7892)" fill-rule="evenodd" clip-rule="evenodd" fill="#0D3594" width="0.498" height="53.38"/>
		</g>
		<g clip-path="url(#SVGID_2_)">
			
				<rect x="47.771" y="6.396" transform="matrix(0.9371 0.349 -0.349 0.9371 14.5682 -14.68)" fill-rule="evenodd" clip-rule="evenodd" fill="#0D3594" width="0.498" height="53.38"/>
		</g>
		<g clip-path="url(#SVGID_2_)">
			
				<rect x="47.46" y="6.28" transform="matrix(0.9371 0.3491 -0.3491 0.9371 14.5121 -14.5815)" fill-rule="evenodd" clip-rule="evenodd" fill="#0D3594" width="0.498" height="53.38"/>
		</g>
		<g clip-path="url(#SVGID_2_)">
			
				<rect x="47.149" y="6.164" transform="matrix(0.9371 0.3492 -0.3492 0.9371 14.4552 -14.4824)" fill-rule="evenodd" clip-rule="evenodd" fill="#0D3795" width="0.498" height="53.38"/>
		</g>
		<g clip-path="url(#SVGID_2_)">
			
				<rect x="46.838" y="6.048" transform="matrix(0.937 0.3493 -0.3493 0.937 14.3991 -14.3838)" fill-rule="evenodd" clip-rule="evenodd" fill="#0D3795" width="0.498" height="53.38"/>
		</g>
		<g clip-path="url(#SVGID_2_)">
			
				<rect x="46.527" y="5.932" transform="matrix(0.9371 0.349 -0.349 0.9371 14.3259 -14.2734)" fill-rule="evenodd" clip-rule="evenodd" fill="#0D3996" width="0.498" height="53.38"/>
		</g>
		<g clip-path="url(#SVGID_2_)">
			
				<rect x="46.216" y="5.816" transform="matrix(0.9371 0.3492 -0.3492 0.9371 14.2751 -14.1784)" fill-rule="evenodd" clip-rule="evenodd" fill="#0D3996" width="0.498" height="53.38"/>
		</g>
		<g clip-path="url(#SVGID_2_)">
			
				<rect x="45.905" y="5.7" transform="matrix(0.9371 0.3492 -0.3492 0.9371 14.2151 -14.0771)" fill-rule="evenodd" clip-rule="evenodd" fill="#0D3996" width="0.498" height="53.38"/>
		</g>
		<g clip-path="url(#SVGID_2_)">
			
				<rect x="45.593" y="5.584" transform="matrix(0.9371 0.349 -0.349 0.9371 14.1446 -13.9686)" fill-rule="evenodd" clip-rule="evenodd" fill="#0D3A97" width="0.498" height="53.38"/>
		</g>
		<g clip-path="url(#SVGID_2_)">
			
				<rect x="45.282" y="5.468" transform="matrix(0.9371 0.349 -0.349 0.9371 14.0885 -13.87)" fill-rule="evenodd" clip-rule="evenodd" fill="#0D3A97" width="0.498" height="53.38"/>
		</g>
		<g clip-path="url(#SVGID_2_)">
			
				<rect x="44.971" y="5.353" transform="matrix(0.9371 0.3492 -0.3492 0.9371 14.0349 -13.7731)" fill-rule="evenodd" clip-rule="evenodd" fill="#0D3A97" width="0.498" height="53.38"/>
		</g>
		<g clip-path="url(#SVGID_2_)">
			
				<rect x="44.66" y="5.237" transform="matrix(0.937 0.3493 -0.3493 0.937 13.9787 -13.6744)" fill-rule="evenodd" clip-rule="evenodd" fill="#0D3C97" width="0.498" height="53.38"/>
		</g>
		<g clip-path="url(#SVGID_2_)">
			
				<rect x="44.349" y="5.121" transform="matrix(0.9371 0.349 -0.349 0.9371 13.9059 -13.5644)" fill-rule="evenodd" clip-rule="evenodd" fill="#0D3C97" width="0.498" height="53.38"/>
		</g>
		<g clip-path="url(#SVGID_2_)">
			
				<rect x="44.038" y="5.005" transform="matrix(0.9371 0.349 -0.349 0.9371 13.8484 -13.4649)" fill-rule="evenodd" clip-rule="evenodd" fill="#0C3D98" width="0.498" height="53.38"/>
		</g>
		<g clip-path="url(#SVGID_2_)">
			
				<rect x="43.727" y="4.889" transform="matrix(0.9371 0.3492 -0.3492 0.9371 13.7947 -13.3678)" fill-rule="evenodd" clip-rule="evenodd" fill="#0C3D98" width="0.498" height="53.38"/>
		</g>
		<g clip-path="url(#SVGID_2_)">
			
				<rect x="43.416" y="4.773" transform="matrix(0.937 0.3493 -0.3493 0.937 13.7384 -13.269)" fill-rule="evenodd" clip-rule="evenodd" fill="#0C3D98" width="0.498" height="53.38"/>
		</g>
		<g clip-path="url(#SVGID_2_)">
			
				<rect x="43.105" y="4.657" transform="matrix(0.9371 0.349 -0.349 0.9371 13.6679 -13.1607)" fill-rule="evenodd" clip-rule="evenodd" fill="#0C3F99" width="0.498" height="53.38"/>
		</g>
		<g clip-path="url(#SVGID_2_)">
			
				<rect x="42.794" y="4.541" transform="matrix(0.9371 0.3492 -0.3492 0.9371 13.6146 -13.0639)" fill-rule="evenodd" clip-rule="evenodd" fill="#0C3F99" width="0.498" height="53.38"/>
		</g>
		<g clip-path="url(#SVGID_2_)">
			
				<rect x="42.483" y="4.425" transform="matrix(0.9371 0.3492 -0.3492 0.9371 13.5545 -12.9625)" fill-rule="evenodd" clip-rule="evenodd" fill="#0C419A" width="0.498" height="53.38"/>
		</g>
		<g clip-path="url(#SVGID_2_)">
			
				<rect x="42.172" y="4.309" transform="matrix(0.9371 0.3492 -0.3492 0.9371 13.4945 -12.8612)" fill-rule="evenodd" clip-rule="evenodd" fill="#0C419A" width="0.498" height="53.38"/>
		</g>
		<g clip-path="url(#SVGID_2_)">
			
				<rect x="41.861" y="4.194" transform="matrix(0.9371 0.349 -0.349 0.9371 13.4283 -12.7558)" fill-rule="evenodd" clip-rule="evenodd" fill="#0C419A" width="0.498" height="53.38"/>
		</g>
		<g clip-path="url(#SVGID_2_)">
			
				<rect x="41.55" y="4.078" transform="matrix(0.937 0.3492 -0.3492 0.937 13.3756 -12.6593)" fill-rule="evenodd" clip-rule="evenodd" fill="#0C429A" width="0.498" height="53.38"/>
		</g>
		<g clip-path="url(#SVGID_2_)">
			
				<rect x="41.239" y="3.962" transform="matrix(0.937 0.3493 -0.3493 0.937 13.3179 -12.5596)" fill-rule="evenodd" clip-rule="evenodd" fill="#0C429A" width="0.498" height="53.38"/>
		</g>
		<g clip-path="url(#SVGID_2_)">
			
				<rect x="40.928" y="3.846" transform="matrix(0.9371 0.349 -0.349 0.9371 13.2446 -12.4497)" fill-rule="evenodd" clip-rule="evenodd" fill="#0C449B" width="0.498" height="53.38"/>
		</g>
		<g clip-path="url(#SVGID_2_)">
			
				<rect x="40.616" y="3.73" transform="matrix(0.9371 0.349 -0.349 0.9371 13.1882 -12.3507)" fill-rule="evenodd" clip-rule="evenodd" fill="#0C449B" width="0.498" height="53.38"/>
		</g>
		<g clip-path="url(#SVGID_2_)">
			
				<rect x="40.305" y="3.614" transform="matrix(0.9371 0.3492 -0.3492 0.9371 13.1342 -12.2533)" fill-rule="evenodd" clip-rule="evenodd" fill="#0C449B" width="0.498" height="53.38"/>
		</g>
		<g clip-path="url(#SVGID_2_)">
			
				<rect x="39.994" y="3.498" transform="matrix(0.9371 0.3492 -0.3492 0.9371 13.0741 -12.1519)" fill-rule="evenodd" clip-rule="evenodd" fill="#0C459C" width="0.498" height="53.38"/>
		</g>
		<g clip-path="url(#SVGID_2_)">
			
				<rect x="39.683" y="3.382" transform="matrix(0.9371 0.349 -0.349 0.9371 13.0046 -12.0446)" fill-rule="evenodd" clip-rule="evenodd" fill="#0C459C" width="0.498" height="53.38"/>
		</g>
		<g clip-path="url(#SVGID_2_)">
			
				<rect x="39.372" y="3.266" transform="matrix(0.9371 0.3492 -0.3492 0.9371 12.9541 -11.9493)" fill-rule="evenodd" clip-rule="evenodd" fill="#0C479D" width="0.498" height="53.38"/>
		</g>
		<g clip-path="url(#SVGID_2_)">
			
				<rect x="39.061" y="3.151" transform="matrix(0.937 0.3492 -0.3492 0.937 12.8952 -11.8487)" fill-rule="evenodd" clip-rule="evenodd" fill="#0C479D" width="0.498" height="53.38"/>
		</g>
		<g clip-path="url(#SVGID_2_)">
			
				<rect x="38.75" y="3.035" transform="matrix(0.937 0.3492 -0.3492 0.937 12.8351 -11.7474)" fill-rule="evenodd" clip-rule="evenodd" fill="#0C479D" width="0.498" height="53.38"/>
		</g>
		<g clip-path="url(#SVGID_2_)">
			
				<rect x="38.439" y="2.919" transform="matrix(0.9371 0.349 -0.349 0.9371 12.7681 -11.6417)" fill-rule="evenodd" clip-rule="evenodd" fill="#0B489D" width="0.498" height="53.38"/>
		</g>
		<g clip-path="url(#SVGID_2_)">
			
				<rect x="38.128" y="2.803" transform="matrix(0.9371 0.3492 -0.3492 0.9371 12.7139 -11.544)" fill-rule="evenodd" clip-rule="evenodd" fill="#0B489D" width="0.498" height="53.38"/>
		</g>
		<g clip-path="url(#SVGID_2_)">
			
				<rect x="37.817" y="2.687" transform="matrix(0.937 0.3493 -0.3493 0.937 12.6572 -11.4448)" fill-rule="evenodd" clip-rule="evenodd" fill="#0B489D" width="0.498" height="53.38"/>
		</g>
		<g clip-path="url(#SVGID_2_)">
			
				<rect x="37.506" y="2.571" transform="matrix(0.9371 0.349 -0.349 0.9371 12.5877 -11.3376)" fill-rule="evenodd" clip-rule="evenodd" fill="#0B4A9E" width="0.498" height="53.38"/>
		</g>
		<g clip-path="url(#SVGID_2_)">
			
				<rect x="37.195" y="2.455" transform="matrix(0.9371 0.3491 -0.3491 0.9371 12.531 -11.2384)" fill-rule="evenodd" clip-rule="evenodd" fill="#0B4A9E" width="0.498" height="53.38"/>
		</g>
		<g clip-path="url(#SVGID_2_)">
			
				<rect x="36.884" y="2.339" transform="matrix(0.9371 0.3492 -0.3492 0.9371 12.4737 -11.1387)" fill-rule="evenodd" clip-rule="evenodd" fill="#0B4C9F" width="0.498" height="53.38"/>
		</g>
		<g clip-path="url(#SVGID_2_)">
			
				<rect x="36.573" y="2.223" transform="matrix(0.937 0.3492 -0.3492 0.937 12.4147 -11.0381)" fill-rule="evenodd" clip-rule="evenodd" fill="#0B4C9F" width="0.498" height="53.38"/>
		</g>
		<g clip-path="url(#SVGID_2_)">
			
				<rect x="36.261" y="2.107" transform="matrix(0.9371 0.349 -0.349 0.9371 12.3446 -10.9306)" fill-rule="evenodd" clip-rule="evenodd" fill="#0B4C9F" width="0.498" height="53.38"/>
		</g>
		<g clip-path="url(#SVGID_2_)">
			
				<rect x="35.95" y="1.992" transform="matrix(0.9371 0.3492 -0.3492 0.9371 12.2935 -10.8347)" fill-rule="evenodd" clip-rule="evenodd" fill="#0B4DA0" width="0.498" height="53.38"/>
		</g>
		<g clip-path="url(#SVGID_2_)">
			
				<rect x="35.639" y="1.876" transform="matrix(0.9371 0.3492 -0.3492 0.9371 12.2335 -10.7334)" fill-rule="evenodd" clip-rule="evenodd" fill="#0B4DA0" width="0.498" height="53.38"/>
		</g>
		<g clip-path="url(#SVGID_2_)">
			
				<rect x="35.328" y="1.76" transform="matrix(0.9371 0.3492 -0.3492 0.9371 12.1734 -10.6321)" fill-rule="evenodd" clip-rule="evenodd" fill="#0A4FA0" width="0.498" height="53.38"/>
		</g>
		<g clip-path="url(#SVGID_2_)">
			
				<rect x="35.017" y="1.644" transform="matrix(0.9371 0.349 -0.349 0.9371 12.1079 -10.5275)" fill-rule="evenodd" clip-rule="evenodd" fill="#0A4FA0" width="0.498" height="53.38"/>
		</g>
		<g clip-path="url(#SVGID_2_)">
			
				<rect x="34.706" y="1.528" transform="matrix(0.9371 0.3492 -0.3492 0.9371 12.0533 -10.4295)" fill-rule="evenodd" clip-rule="evenodd" fill="#0A4FA0" width="0.498" height="53.38"/>
		</g>
		<g clip-path="url(#SVGID_2_)">
			
				<rect x="34.395" y="1.412" transform="matrix(0.937 0.3493 -0.3493 0.937 11.9965 -10.33)" fill-rule="evenodd" clip-rule="evenodd" fill="#0A51A1" width="0.498" height="53.38"/>
		</g>
		<g clip-path="url(#SVGID_2_)">
			
				<rect x="34.084" y="1.296" transform="matrix(0.9371 0.349 -0.349 0.9371 11.9257 -10.2224)" fill-rule="evenodd" clip-rule="evenodd" fill="#0A51A1" width="0.498" height="53.38"/>
		</g>
		<g clip-path="url(#SVGID_2_)">
			
				<rect x="33.773" y="1.18" transform="matrix(0.9371 0.349 -0.349 0.9371 11.8678 -10.1223)" fill-rule="evenodd" clip-rule="evenodd" fill="#0A52A2" width="0.498" height="53.38"/>
		</g>
		<g clip-path="url(#SVGID_2_)">
			
				<rect x="33.462" y="1.064" transform="matrix(0.9371 0.3492 -0.3492 0.9371 11.8131 -10.0242)" fill-rule="evenodd" clip-rule="evenodd" fill="#0A52A2" width="0.498" height="53.38"/>
		</g>
		<g clip-path="url(#SVGID_2_)">
			
				<rect x="33.151" y="0.949" transform="matrix(0.9371 0.3492 -0.3492 0.9371 11.7531 -9.9228)" fill-rule="evenodd" clip-rule="evenodd" fill="#0A52A2" width="0.498" height="53.38"/>
		</g>
		<g clip-path="url(#SVGID_2_)">
			
				<rect x="32.84" y="0.833" transform="matrix(0.9371 0.349 -0.349 0.9371 11.6874 -9.8183)" fill-rule="evenodd" clip-rule="evenodd" fill="#0A54A3" width="0.498" height="53.38"/>
		</g>
		<g clip-path="url(#SVGID_2_)">
			
				<rect x="32.529" y="0.717" transform="matrix(0.9371 0.3492 -0.3492 0.9371 11.633 -9.7202)" fill-rule="evenodd" clip-rule="evenodd" fill="#0A54A3" width="0.498" height="53.38"/>
		</g>
		<g clip-path="url(#SVGID_2_)">
			
				<rect x="32.218" y="0.601" transform="matrix(0.937 0.3493 -0.3493 0.937 11.576 -9.6206)" fill-rule="evenodd" clip-rule="evenodd" fill="#0A55A3" width="0.498" height="53.38"/>
		</g>
		<g clip-path="url(#SVGID_2_)">
			
				<rect x="31.906" y="0.485" transform="matrix(0.9371 0.3492 -0.3492 0.9371 11.5129 -9.5175)" fill-rule="evenodd" clip-rule="evenodd" fill="#0A55A3" width="0.498" height="53.38"/>
		</g>
		<g clip-path="url(#SVGID_2_)">
			
				<rect x="31.595" y="0.369" transform="matrix(0.9371 0.349 -0.349 0.9371 11.4474 -9.4132)" fill-rule="evenodd" clip-rule="evenodd" fill="#0A55A3" width="0.498" height="53.38"/>
		</g>
		<g clip-path="url(#SVGID_2_)">
			
				<rect x="31.284" y="0.253" transform="matrix(0.937 0.3492 -0.3492 0.937 11.3938 -9.3155)" fill-rule="evenodd" clip-rule="evenodd" fill="#0A57A4" width="0.498" height="53.38"/>
		</g>
		<g clip-path="url(#SVGID_2_)">
			
				<rect x="30.973" y="0.137" transform="matrix(0.937 0.3493 -0.3493 0.937 11.3357 -9.2152)" fill-rule="evenodd" clip-rule="evenodd" fill="#0A57A4" width="0.498" height="53.38"/>
		</g>
		<g clip-path="url(#SVGID_2_)">
			
				<rect x="30.662" y="0.021" transform="matrix(0.9371 0.349 -0.349 0.9371 11.2646 -9.1078)" fill-rule="evenodd" clip-rule="evenodd" fill="#0A58A5" width="0.498" height="53.38"/>
		</g>
		<g clip-path="url(#SVGID_2_)">
			
				<rect x="30.351" y="-0.095" transform="matrix(0.9371 0.349 -0.349 0.9371 11.2076 -9.0082)" fill-rule="evenodd" clip-rule="evenodd" fill="#0A58A5" width="0.498" height="53.38"/>
		</g>
		<g clip-path="url(#SVGID_2_)">
			
				<rect x="30.04" y="-0.21" transform="matrix(0.9371 0.3492 -0.3492 0.9371 11.1526 -8.9096)" fill-rule="evenodd" clip-rule="evenodd" fill="#0A58A5" width="0.498" height="53.38"/>
		</g>
		<g clip-path="url(#SVGID_2_)">
			
				<rect x="29.729" y="-0.326" transform="matrix(0.9371 0.3492 -0.3492 0.9371 11.0925 -8.8083)" fill-rule="evenodd" clip-rule="evenodd" fill="#095AA5" width="0.498" height="53.38"/>
		</g>
		<g clip-path="url(#SVGID_2_)">
			
				<rect x="29.418" y="-0.442" transform="matrix(0.9371 0.349 -0.349 0.9371 11.0246 -8.7028)" fill-rule="evenodd" clip-rule="evenodd" fill="#095AA5" width="0.498" height="53.38"/>
		</g>
		<g clip-path="url(#SVGID_2_)">
			
				<rect x="29.107" y="-0.558" transform="matrix(0.9371 0.349 -0.349 0.9371 10.9646 -8.6015)" fill-rule="evenodd" clip-rule="evenodd" fill="#095AA5" width="0.498" height="53.38"/>
		</g>
		<g clip-path="url(#SVGID_2_)">
			
				<rect x="28.796" y="-0.674" transform="matrix(0.937 0.3493 -0.3493 0.937 10.9163 -8.5063)" fill-rule="evenodd" clip-rule="evenodd" fill="#095CA6" width="0.498" height="53.38"/>
		</g>
		<g clip-path="url(#SVGID_2_)">
			
				<rect x="28.485" y="-0.79" transform="matrix(0.9371 0.3492 -0.3492 0.9371 10.8523 -8.403)" fill-rule="evenodd" clip-rule="evenodd" fill="#095CA6" width="0.498" height="53.38"/>
		</g>
		<g clip-path="url(#SVGID_2_)">
			
				<rect x="28.174" y="-0.906" transform="matrix(0.9371 0.349 -0.349 0.9371 10.7875 -8.2992)" fill-rule="evenodd" clip-rule="evenodd" fill="#095DA7" width="0.498" height="53.38"/>
		</g>
		<g clip-path="url(#SVGID_2_)">
			
				<rect x="27.863" y="-1.022" transform="matrix(0.9371 0.3492 -0.3492 0.9371 10.7323 -8.2003)" fill-rule="evenodd" clip-rule="evenodd" fill="#095DA7" width="0.498" height="53.38"/>
		</g>
		<g clip-path="url(#SVGID_2_)">
			
				<rect x="27.552" y="-1.138" transform="matrix(0.937 0.3493 -0.3493 0.937 10.675 -8.1004)" fill-rule="evenodd" clip-rule="evenodd" fill="#095DA7" width="0.498" height="53.38"/>
		</g>
		<g clip-path="url(#SVGID_2_)">
			
				<rect x="27.24" y="-1.254" transform="matrix(0.9371 0.349 -0.349 0.9371 10.6071 -7.9952)" fill-rule="evenodd" clip-rule="evenodd" fill="#095FA8" width="0.498" height="53.38"/>
		</g>
		<g clip-path="url(#SVGID_2_)">
			
				<rect x="26.929" y="-1.369" transform="matrix(0.9371 0.3491 -0.3491 0.9371 10.5499 -7.8952)" fill-rule="evenodd" clip-rule="evenodd" fill="#095FA8" width="0.498" height="53.38"/>
		</g>
		<g clip-path="url(#SVGID_2_)">
			
				<rect x="26.618" y="-1.485" transform="matrix(0.937 0.3492 -0.3492 0.937 10.493 -7.7955)" fill-rule="evenodd" clip-rule="evenodd" fill="#0860A8" width="0.498" height="53.38"/>
		</g>
		<g clip-path="url(#SVGID_2_)">
			
				<rect x="26.307" y="-1.601" transform="matrix(0.937 0.3492 -0.3492 0.937 10.4329 -7.6942)" fill-rule="evenodd" clip-rule="evenodd" fill="#0860A8" width="0.498" height="53.38"/>
		</g>
		<g clip-path="url(#SVGID_2_)">
			
				<rect x="25.996" y="-1.717" transform="matrix(0.9371 0.349 -0.349 0.9371 10.3646 -7.5888)" fill-rule="evenodd" clip-rule="evenodd" fill="#0860A8" width="0.498" height="53.38"/>
		</g>
		<g clip-path="url(#SVGID_2_)">
			
				<rect x="25.685" y="-1.833" transform="matrix(0.9371 0.349 -0.349 0.9371 10.3046 -7.4876)" fill-rule="evenodd" clip-rule="evenodd" fill="#0862A9" width="0.498" height="53.38"/>
		</g>
		<g clip-path="url(#SVGID_2_)">
			
				<rect x="25.374" y="-1.949" transform="matrix(0.937 0.3493 -0.3493 0.937 10.2546 -7.391)" fill-rule="evenodd" clip-rule="evenodd" fill="#0862A9" width="0.498" height="53.38"/>
		</g>
		<g clip-path="url(#SVGID_2_)">
			
				<rect x="25.063" y="-2.065" transform="matrix(0.9371 0.3492 -0.3492 0.9371 10.1918 -7.2884)" fill-rule="evenodd" clip-rule="evenodd" fill="#0864AA" width="0.498" height="53.38"/>
		</g>
		<g clip-path="url(#SVGID_2_)">
			
				<rect x="24.752" y="-2.181" transform="matrix(0.9371 0.349 -0.349 0.9371 10.1273 -7.185)" fill-rule="evenodd" clip-rule="evenodd" fill="#0864AA" width="0.498" height="53.38"/>
		</g>
		<g clip-path="url(#SVGID_2_)">
			
				<rect x="24.441" y="-2.297" transform="matrix(0.9371 0.3492 -0.3492 0.9371 10.0717 -7.0858)" fill-rule="evenodd" clip-rule="evenodd" fill="#0864AA" width="0.498" height="53.38"/>
		</g>
		<g clip-path="url(#SVGID_2_)">
			
				<rect x="24.13" y="-2.412" transform="matrix(0.937 0.3493 -0.3493 0.937 10.0143 -6.9856)" fill-rule="evenodd" clip-rule="evenodd" fill="#0865AB" width="0.498" height="53.38"/>
		</g>
		<g clip-path="url(#SVGID_2_)">
			
				<rect x="23.819" y="-2.528" transform="matrix(0.9371 0.349 -0.349 0.9371 9.9455 -6.8803)" fill-rule="evenodd" clip-rule="evenodd" fill="#0865AB" width="0.498" height="53.38"/>
		</g>
		<g clip-path="url(#SVGID_2_)">
			
				<rect x="23.508" y="-2.644" transform="matrix(0.9371 0.349 -0.349 0.9371 9.8855 -6.7791)" fill-rule="evenodd" clip-rule="evenodd" fill="#0867AB" width="0.498" height="53.38"/>
		</g>
		<g clip-path="url(#SVGID_2_)">
			
				<rect x="23.197" y="-2.76" transform="matrix(0.9371 0.3492 -0.3492 0.9371 9.8315 -6.6805)" fill-rule="evenodd" clip-rule="evenodd" fill="#0867AB" width="0.498" height="53.38"/>
		</g>
		<g clip-path="url(#SVGID_2_)">
			
				<rect x="22.886" y="-2.876" transform="matrix(0.9371 0.3492 -0.3492 0.9371 9.7715 -6.5792)" fill-rule="evenodd" clip-rule="evenodd" fill="#0867AB" width="0.498" height="53.38"/>
		</g>
		<g clip-path="url(#SVGID_2_)">
			
				<rect x="22.574" y="-2.992" transform="matrix(0.9371 0.349 -0.349 0.9371 9.7069 -6.4759)" fill-rule="evenodd" clip-rule="evenodd" fill="#0868AC" width="0.498" height="53.38"/>
		</g>
		<g clip-path="url(#SVGID_2_)">
			
				<rect x="22.263" y="-3.108" transform="matrix(0.9371 0.349 -0.349 0.9371 9.6469 -6.3746)" fill-rule="evenodd" clip-rule="evenodd" fill="#0868AC" width="0.498" height="53.38"/>
		</g>
		<g clip-path="url(#SVGID_2_)">
			
				<rect x="21.952" y="-3.224" transform="matrix(0.937 0.3493 -0.3493 0.937 9.5938 -6.2762)" fill-rule="evenodd" clip-rule="evenodd" fill="#0868AC" width="0.498" height="53.38"/>
		</g>
		<g clip-path="url(#SVGID_2_)">
			
				<rect x="21.641" y="-3.34" transform="matrix(0.9371 0.3492 -0.3492 0.9371 9.5313 -6.1739)" fill-rule="evenodd" clip-rule="evenodd" fill="#086AAD" width="0.498" height="53.38"/>
		</g>
		<g clip-path="url(#SVGID_2_)">
			
				<rect x="21.33" y="-3.456" transform="matrix(0.9371 0.349 -0.349 0.9371 9.4671 -6.0708)" fill-rule="evenodd" clip-rule="evenodd" fill="#086AAD" width="0.498" height="53.38"/>
		</g>
		<g clip-path="url(#SVGID_2_)">
			
				<rect x="21.019" y="-3.571" transform="matrix(0.937 0.3492 -0.3492 0.937 9.412 -5.9715)" fill-rule="evenodd" clip-rule="evenodd" fill="#076BAE" width="0.498" height="53.38"/>
		</g>
		<g clip-path="url(#SVGID_2_)">
			
				<rect x="20.708" y="-3.687" transform="matrix(0.937 0.3493 -0.3493 0.937 9.3536 -5.8708)" fill-rule="evenodd" clip-rule="evenodd" fill="#076BAE" width="0.498" height="53.38"/>
		</g>
		<g clip-path="url(#SVGID_2_)">
			
				<rect x="20.397" y="-3.803" transform="matrix(0.9371 0.349 -0.349 0.9371 9.2846 -5.766)" fill-rule="evenodd" clip-rule="evenodd" fill="#076BAE" width="0.498" height="53.38"/>
		</g>
		<g clip-path="url(#SVGID_2_)">
			
				<rect x="20.086" y="-3.919" transform="matrix(0.9371 0.349 -0.349 0.9371 9.2247 -5.6647)" fill-rule="evenodd" clip-rule="evenodd" fill="#076DAE" width="0.498" height="53.38"/>
		</g>
		<g clip-path="url(#SVGID_2_)">
			
				<rect x="19.775" y="-4.035" transform="matrix(0.9371 0.3492 -0.3492 0.9371 9.171 -5.5659)" fill-rule="evenodd" clip-rule="evenodd" fill="#076DAE" width="0.498" height="53.38"/>
		</g>
		<g clip-path="url(#SVGID_2_)">
			
				<rect x="19.464" y="-4.151" transform="matrix(0.9371 0.3492 -0.3492 0.9371 9.1109 -5.4646)" fill-rule="evenodd" clip-rule="evenodd" fill="#076FAF" width="0.498" height="53.38"/>
		</g>
		<g clip-path="url(#SVGID_2_)">
			
				<rect x="19.153" y="-4.267" transform="matrix(0.9371 0.349 -0.349 0.9371 9.0446 -5.3609)" fill-rule="evenodd" clip-rule="evenodd" fill="#076FAF" width="0.498" height="53.38"/>
		</g>
		<g clip-path="url(#SVGID_2_)">
			
				<rect x="18.842" y="-4.383" transform="matrix(0.9371 0.349 -0.349 0.9371 8.9854 -5.26)" fill-rule="evenodd" clip-rule="evenodd" fill="#076FAF" width="0.498" height="53.38"/>
		</g>
		<g clip-path="url(#SVGID_2_)">
			
				<rect x="18.531" y="-4.499" transform="matrix(0.937 0.3493 -0.3493 0.937 8.9339 -5.1617)" fill-rule="evenodd" clip-rule="evenodd" fill="#0670B0" width="0.498" height="53.38"/>
		</g>
		<g clip-path="url(#SVGID_2_)">
			
				<rect x="18.22" y="-4.614" transform="matrix(0.9371 0.3492 -0.3492 0.9371 8.8708 -5.0593)" fill-rule="evenodd" clip-rule="evenodd" fill="#0670B0" width="0.498" height="53.38"/>
		</g>
		<g clip-path="url(#SVGID_2_)">
			
				<rect x="17.908" y="-4.73" transform="matrix(0.9371 0.349 -0.349 0.9371 8.8069 -4.9566)" fill-rule="evenodd" clip-rule="evenodd" fill="#0672B1" width="0.498" height="53.38"/>
		</g>
		<g clip-path="url(#SVGID_2_)">
			
				<rect x="17.597" y="-4.846" transform="matrix(0.9371 0.3492 -0.3492 0.9371 8.7507 -4.8567)" fill-rule="evenodd" clip-rule="evenodd" fill="#0672B1" width="0.498" height="53.38"/>
		</g>
		<g clip-path="url(#SVGID_2_)">
			
				<rect x="17.286" y="-4.962" transform="matrix(0.937 0.3493 -0.3493 0.937 8.6928 -4.756)" fill-rule="evenodd" clip-rule="evenodd" fill="#0672B1" width="0.498" height="53.38"/>
		</g>
		<g clip-path="url(#SVGID_2_)">
			
				<rect x="16.975" y="-5.078" transform="matrix(0.9371 0.349 -0.349 0.9371 8.6266 -4.6527)" fill-rule="evenodd" clip-rule="evenodd" fill="#0673B1" width="0.498" height="53.38"/>
		</g>
		<g clip-path="url(#SVGID_2_)">
			
				<rect x="16.664" y="-5.194" transform="matrix(0.9371 0.349 -0.349 0.9371 8.5666 -4.5514)" fill-rule="evenodd" clip-rule="evenodd" fill="#0673B1" width="0.498" height="53.38"/>
		</g>
		<g clip-path="url(#SVGID_2_)">
			
				<rect x="16.353" y="-5.31" transform="matrix(0.937 0.3492 -0.3492 0.937 8.5112 -4.4516)" fill-rule="evenodd" clip-rule="evenodd" fill="#0675B2" width="0.498" height="53.38"/>
		</g>
		<g clip-path="url(#SVGID_2_)">
			
				<rect x="16.042" y="-5.426" transform="matrix(0.937 0.3492 -0.3492 0.937 8.4511 -4.3502)" fill-rule="evenodd" clip-rule="evenodd" fill="#0675B2" width="0.498" height="53.38"/>
		</g>
		<g clip-path="url(#SVGID_2_)">
			
				<rect x="15.731" y="-5.542" transform="matrix(0.9371 0.349 -0.349 0.9371 8.3868 -4.2476)" fill-rule="evenodd" clip-rule="evenodd" fill="#0675B2" width="0.498" height="53.38"/>
		</g>
		<g clip-path="url(#SVGID_2_)">
			
				<rect x="15.42" y="-5.658" transform="matrix(0.9371 0.349 -0.349 0.9371 8.3247 -4.1457)" fill-rule="evenodd" clip-rule="evenodd" fill="#0677B3" width="0.498" height="53.38"/>
		</g>
		<g clip-path="url(#SVGID_2_)">
			
				<rect x="15.109" y="-5.773" transform="matrix(0.937 0.3493 -0.3493 0.937 8.2724 -4.0466)" fill-rule="evenodd" clip-rule="evenodd" fill="#0677B3" width="0.498" height="53.38"/>
		</g>
		<g clip-path="url(#SVGID_2_)">
			
				<rect x="14.798" y="-5.889" transform="matrix(0.9371 0.3492 -0.3492 0.9371 8.2102 -3.9448)" fill-rule="evenodd" clip-rule="evenodd" fill="#0678B4" width="0.498" height="53.38"/>
		</g>
		<g clip-path="url(#SVGID_2_)">
			
				<rect x="14.487" y="-6.005" transform="matrix(0.9371 0.349 -0.349 0.9371 8.1467 -3.8425)" fill-rule="evenodd" clip-rule="evenodd" fill="#0678B4" width="0.498" height="53.38"/>
		</g>
		<g clip-path="url(#SVGID_2_)">
			
				<rect x="14.176" y="-6.121" transform="matrix(0.9371 0.3492 -0.3492 0.9371 8.0901 -3.7421)" fill-rule="evenodd" clip-rule="evenodd" fill="#0678B4" width="0.498" height="53.38"/>
		</g>
		<g clip-path="url(#SVGID_2_)">
			
				<rect x="13.865" y="-6.237" transform="matrix(0.937 0.3493 -0.3493 0.937 8.0321 -3.6413)" fill-rule="evenodd" clip-rule="evenodd" fill="#067AB4" width="0.498" height="53.38"/>
		</g>
		<g clip-path="url(#SVGID_2_)">
			
				<rect x="13.554" y="-6.353" transform="matrix(0.937 0.3492 -0.3492 0.937 7.9707 -3.5396)" fill-rule="evenodd" clip-rule="evenodd" fill="#067AB4" width="0.498" height="53.38"/>
		</g>
		<g clip-path="url(#SVGID_2_)">
			
				<rect x="13.242" y="-6.469" transform="matrix(0.9371 0.349 -0.349 0.9371 7.9053 -3.437)" fill-rule="evenodd" clip-rule="evenodd" fill="#067AB4" width="0.498" height="53.38"/>
		</g>
		<g clip-path="url(#SVGID_2_)">
			
				<rect x="12.931" y="-6.585" transform="matrix(0.9371 0.3492 -0.3492 0.9371 7.8499 -3.3368)" fill-rule="evenodd" clip-rule="evenodd" fill="#067BB5" width="0.498" height="53.38"/>
		</g>
		<g clip-path="url(#SVGID_2_)">
			
				<rect x="12.62" y="-6.701" transform="matrix(0.9371 0.3492 -0.3492 0.9371 7.7899 -3.2355)" fill-rule="evenodd" clip-rule="evenodd" fill="#067BB5" width="0.498" height="53.38"/>
		</g>
		<g clip-path="url(#SVGID_2_)">
			
				<rect x="12.309" y="-6.817" transform="matrix(0.9371 0.3491 -0.3491 0.9371 7.7283 -3.1338)" fill-rule="evenodd" clip-rule="evenodd" fill="#057DB6" width="0.498" height="53.38"/>
		</g>
		<g clip-path="url(#SVGID_2_)">
			
				<rect x="11.998" y="-6.932" transform="matrix(0.9371 0.349 -0.349 0.9371 7.6664 -3.0321)" fill-rule="evenodd" clip-rule="evenodd" fill="#057DB6" width="0.498" height="53.38"/>
		</g>
		<g clip-path="url(#SVGID_2_)">
			
				<rect x="11.687" y="-7.048" transform="matrix(0.937 0.3493 -0.3493 0.937 7.6116 -2.9319)" fill-rule="evenodd" clip-rule="evenodd" fill="#057DB6" width="0.498" height="53.38"/>
		</g>
		<g clip-path="url(#SVGID_2_)">
			
				<rect x="11.376" y="-7.164" transform="matrix(0.9371 0.3492 -0.3492 0.9371 7.5497 -2.8302)" fill-rule="evenodd" clip-rule="evenodd" fill="#057FB6" width="0.498" height="53.38"/>
		</g>
		<g clip-path="url(#SVGID_2_)">
			
				<rect x="11.463" y="-7.208" transform="matrix(0.9372 0.3489 -0.3489 0.9372 7.5195 -2.7902)" fill-rule="evenodd" clip-rule="evenodd" fill="#057FB6" width="0.087" height="53.38"/>
		</g>
	</g>
</g>
<g>
	<path fill-rule="evenodd" clip-rule="evenodd" fill="#FFFFFF" d="M46.569,24.06c-5.166,0.087-10.024,0.437-14.178-0.642
		c-0.75-0.195-1.478-0.437-2.18-0.735L28.88,24.89C33.786,26.829,39.856,26.402,46.569,24.06z"/>
	<path fill-rule="evenodd" clip-rule="evenodd" fill="#FFFFFF" d="M34.075,31.151c-0.838-6.56-4.884-7.545-8.55-4.216
		c0.018,0.988,2.461,3.649,5.642,2.159c-1.557-0.34-2.914-1.196-3.408-2.128c2.162-1.118,3.687-0.145,4.577,3.357
		c-2.152,0.769-4.575,0.811-6.68-0.258c1.43,2.591,4.628,3.343,8.414,1.104c-0.005,0-0.011,0-0.017-0.001
		C34.064,31.161,34.071,31.155,34.075,31.151z"/>
	<path fill-rule="evenodd" clip-rule="evenodd" fill="#FFFFFF" d="M35.947,39.508c0-0.039,0.047-10.11,1.454-16.961
		c1.155-5.623,1.504-8.235,2.078-10.242c1.16-4.05-6.3-6.595-9.009-1.649c-2.709,4.946-1.708,14.956-1.708,14.956l3.886-0.589
		c0.027-0.47,0.189-6.421,2.591-10.834c0,0-0.236,4.711-0.471,9.774C34.534,29.027,35.83,39.744,35.947,39.508z"/>
	<path fill-rule="evenodd" clip-rule="evenodd" fill="#FFFFFF" d="M1.942,38.734c7.76-3.582,15.126-1.695,22.403,0.17
		c9.673,2.478,19.187,4.916,29.116-6.058l0.609,0.551c-0.064,0.07-0.127,0.138-0.191,0.207l0.201,0.17
		c-10.248,12.133-19.996,10.401-29.907,8.641c-5.601-0.995-11.255-1.998-17.055-0.426c0.921-0.089,1.838-0.115,2.75-0.09
		c2.59,0.071,5.139,0.56,7.663,1.246c2.277,0.619,4.566,1.41,6.846,2.198c3.585,1.239,7.149,2.472,10.703,3.023
		c0.593,0.092,1.198,0.166,1.816,0.218c0.616,0.052,1.221,0.081,1.814,0.083c2.424,0.008,4.857-0.406,7.309-1.457
		c2.458-1.054,4.94-2.75,7.455-5.304l0.586,0.576c-2.595,2.636-5.165,4.39-7.719,5.485c-2.56,1.097-5.1,1.53-7.631,1.521
		c-0.64-0.002-1.267-0.031-1.881-0.083c-0.612-0.052-1.238-0.129-1.874-0.228c-3.626-0.563-7.225-1.807-10.845-3.059
		c-2.244-0.776-4.498-1.555-6.794-2.179c-2.475-0.672-4.963-1.151-7.47-1.22c-2.498-0.069-5.025,0.267-7.588,1.22l-0.143-0.385
		L1.92,43.192c7.755-4.189,15.119-2.881,22.395-1.589c7.355,1.306,14.618,2.594,22.045-2.029
		c-7.501,3.894-14.814,2.022-22.217,0.125c-7.136-1.828-14.358-3.679-21.856-0.218L1.942,38.734z"/>
</g>
</svg>
