<?xml version="1.0" encoding="utf-8"?>
<!-- Generator: Adobe Illustrator 17.0.0, SVG Export Plug-In . SVG Version: 6.00 Build 0)  -->
<!DOCTYPE svg PUBLIC "-//W3C//DTD SVG 1.1//EN" "http://www.w3.org/Graphics/SVG/1.1/DTD/svg11.dtd">
<svg version="1.1" id="Layer_1" xmlns="http://www.w3.org/2000/svg" xmlns:xlink="http://www.w3.org/1999/xlink" x="0px" y="0px"
	 width="56px" height="56px" viewBox="0 0 56 56" enable-background="new 0 0 56 56" xml:space="preserve">
<g>
	<g>
		<defs>
			<path id="SVGID_1_" d="M55.636,5.084C39.074,1.91,17.675,3.097,0.364,8.368C6.864,22.213,14.4,37.098,27.55,50.63
				C35.588,35.118,44.469,21.364,55.636,5.084z"/>
		</defs>
		<clipPath id="SVGID_2_">
			<use xlink:href="#SVGID_1_"  overflow="visible"/>
		</clipPath>
		<g clip-path="url(#SVGID_2_)">
			
				<rect x="54.817" y="-21.326" transform="matrix(0.8495 -0.5276 0.5276 0.8495 6.2458 29.4932)" fill-rule="evenodd" clip-rule="evenodd" fill="#ABD812" width="0.01" height="50.249"/>
		</g>
		<g clip-path="url(#SVGID_2_)">
			
				<rect x="54.675" y="-21.304" transform="matrix(0.8465 -0.5324 0.5324 0.8465 6.3755 29.7538)" fill-rule="evenodd" clip-rule="evenodd" fill="#ABD812" width="0.222" height="50.249"/>
		</g>
		<g clip-path="url(#SVGID_2_)">
			
				<rect x="54.55" y="-21.225" transform="matrix(0.8465 -0.5324 0.5324 0.8465 6.3143 29.6992)" fill-rule="evenodd" clip-rule="evenodd" fill="#ABD812" width="0.222" height="50.249"/>
		</g>
		<g clip-path="url(#SVGID_2_)">
			
				<rect x="54.424" y="-21.146" transform="matrix(0.8464 -0.5325 0.5325 0.8464 6.2563 29.6507)" fill-rule="evenodd" clip-rule="evenodd" fill="#ABD812" width="0.222" height="50.249"/>
		</g>
		<g clip-path="url(#SVGID_2_)">
			
				<rect x="54.299" y="-21.067" transform="matrix(0.8465 -0.5324 0.5324 0.8465 6.1918 29.5899)" fill-rule="evenodd" clip-rule="evenodd" fill="#ABD812" width="0.222" height="50.249"/>
		</g>
		<g clip-path="url(#SVGID_2_)">
			
				<rect x="54.174" y="-20.988" transform="matrix(0.8466 -0.5323 0.5323 0.8466 6.1269 29.5283)" fill-rule="evenodd" clip-rule="evenodd" fill="#ABD812" width="0.222" height="50.249"/>
		</g>
		<g clip-path="url(#SVGID_2_)">
			
				<rect x="54.048" y="-20.91" transform="matrix(0.8465 -0.5324 0.5324 0.8465 6.0693 29.4806)" fill-rule="evenodd" clip-rule="evenodd" fill="#ABD812" width="0.222" height="50.249"/>
		</g>
		<g clip-path="url(#SVGID_2_)">
			
				<rect x="53.923" y="-20.831" transform="matrix(0.8465 -0.5324 0.5324 0.8465 6.0081 29.4259)" fill-rule="evenodd" clip-rule="evenodd" fill="#ABD812" width="0.222" height="50.249"/>
		</g>
		<g clip-path="url(#SVGID_2_)">
			
				<rect x="53.797" y="-20.752" transform="matrix(0.8464 -0.5326 0.5326 0.8464 5.9537 29.3843)" fill-rule="evenodd" clip-rule="evenodd" fill="#ABD812" width="0.222" height="50.249"/>
		</g>
		<g clip-path="url(#SVGID_2_)">
			
				<rect x="53.672" y="-20.673" transform="matrix(0.8465 -0.5324 0.5324 0.8465 5.8856 29.3166)" fill-rule="evenodd" clip-rule="evenodd" fill="#ABD812" width="0.222" height="50.249"/>
		</g>
		<g clip-path="url(#SVGID_2_)">
			
				<rect x="53.547" y="-20.594" transform="matrix(0.8466 -0.5323 0.5323 0.8466 5.8208 29.255)" fill-rule="evenodd" clip-rule="evenodd" fill="#ABD812" width="0.222" height="50.249"/>
		</g>
		<g clip-path="url(#SVGID_2_)">
			
				<rect x="53.421" y="-20.515" transform="matrix(0.8465 -0.5324 0.5324 0.8465 5.7632 29.2073)" fill-rule="evenodd" clip-rule="evenodd" fill="#A8D713" width="0.222" height="50.249"/>
		</g>
		<g clip-path="url(#SVGID_2_)">
			
				<rect x="53.296" y="-20.436" transform="matrix(0.8465 -0.5324 0.5324 0.8465 5.7019 29.1527)" fill-rule="evenodd" clip-rule="evenodd" fill="#A8D713" width="0.222" height="50.249"/>
		</g>
		<g clip-path="url(#SVGID_2_)">
			
				<rect x="53.17" y="-20.358" transform="matrix(0.8465 -0.5324 0.5324 0.8465 5.6407 29.098)" fill-rule="evenodd" clip-rule="evenodd" fill="#A8D713" width="0.222" height="50.249"/>
		</g>
		<g clip-path="url(#SVGID_2_)">
			
				<rect x="53.045" y="-20.279" transform="matrix(0.8465 -0.5324 0.5324 0.8465 5.5795 29.0433)" fill-rule="evenodd" clip-rule="evenodd" fill="#A8D713" width="0.222" height="50.249"/>
		</g>
		<g clip-path="url(#SVGID_2_)">
			
				<rect x="52.92" y="-20.2" transform="matrix(0.8466 -0.5323 0.5323 0.8466 5.5147 28.9818)" fill-rule="evenodd" clip-rule="evenodd" fill="#A8D713" width="0.222" height="50.249"/>
		</g>
		<g clip-path="url(#SVGID_2_)">
			
				<rect x="52.794" y="-20.121" transform="matrix(0.8465 -0.5324 0.5324 0.8465 5.457 28.934)" fill-rule="evenodd" clip-rule="evenodd" fill="#A8D713" width="0.222" height="50.249"/>
		</g>
		<g clip-path="url(#SVGID_2_)">
			
				<rect x="52.669" y="-20.042" transform="matrix(0.8464 -0.5325 0.5325 0.8464 5.3988 28.8854)" fill-rule="evenodd" clip-rule="evenodd" fill="#A8D713" width="0.222" height="50.249"/>
		</g>
		<g clip-path="url(#SVGID_2_)">
			
				<rect x="52.543" y="-19.963" transform="matrix(0.8465 -0.5324 0.5324 0.8465 5.3345 28.8247)" fill-rule="evenodd" clip-rule="evenodd" fill="#A6D514" width="0.222" height="50.249"/>
		</g>
		<g clip-path="url(#SVGID_2_)">
			
				<rect x="52.418" y="-19.884" transform="matrix(0.8465 -0.5324 0.5324 0.8465 5.2733 28.77)" fill-rule="evenodd" clip-rule="evenodd" fill="#A6D514" width="0.222" height="50.249"/>
		</g>
		<g clip-path="url(#SVGID_2_)">
			
				<rect x="52.293" y="-19.805" transform="matrix(0.8463 -0.5326 0.5326 0.8463 5.2188 28.729)" fill-rule="evenodd" clip-rule="evenodd" fill="#A6D514" width="0.222" height="50.249"/>
		</g>
		<g clip-path="url(#SVGID_2_)">
			
				<rect x="52.167" y="-19.727" transform="matrix(0.8465 -0.5324 0.5324 0.8465 5.1508 28.6608)" fill-rule="evenodd" clip-rule="evenodd" fill="#A6D514" width="0.222" height="50.249"/>
		</g>
		<g clip-path="url(#SVGID_2_)">
			
				<rect x="52.042" y="-19.648" transform="matrix(0.8464 -0.5325 0.5325 0.8464 5.0925 28.6121)" fill-rule="evenodd" clip-rule="evenodd" fill="#A6D514" width="0.222" height="50.249"/>
		</g>
		<g clip-path="url(#SVGID_2_)">
			
				<rect x="51.916" y="-19.569" transform="matrix(0.8465 -0.5324 0.5324 0.8465 5.0283 28.5515)" fill-rule="evenodd" clip-rule="evenodd" fill="#A6D514" width="0.222" height="50.249"/>
		</g>
		<g clip-path="url(#SVGID_2_)">
			
				<rect x="51.791" y="-19.49" transform="matrix(0.8465 -0.5324 0.5324 0.8465 4.9671 28.4968)" fill-rule="evenodd" clip-rule="evenodd" fill="#A6D514" width="0.222" height="50.249"/>
		</g>
		<g clip-path="url(#SVGID_2_)">
			
				<rect x="51.666" y="-19.411" transform="matrix(0.8466 -0.5323 0.5323 0.8466 4.9026 28.4354)" fill-rule="evenodd" clip-rule="evenodd" fill="#A6D514" width="0.222" height="50.249"/>
		</g>
		<g clip-path="url(#SVGID_2_)">
			
				<rect x="51.54" y="-19.332" transform="matrix(0.8465 -0.5324 0.5324 0.8465 4.8446 28.3875)" fill-rule="evenodd" clip-rule="evenodd" fill="#A6D514" width="0.222" height="50.249"/>
		</g>
		<g clip-path="url(#SVGID_2_)">
			
				<rect x="51.415" y="-19.253" transform="matrix(0.8466 -0.5323 0.5323 0.8466 4.7801 28.3261)" fill-rule="evenodd" clip-rule="evenodd" fill="#A6D514" width="0.222" height="50.249"/>
		</g>
		<g clip-path="url(#SVGID_2_)">
			
				<rect x="51.289" y="-19.174" transform="matrix(0.8465 -0.5324 0.5324 0.8465 4.7221 28.2782)" fill-rule="evenodd" clip-rule="evenodd" fill="#A3D414" width="0.222" height="50.249"/>
		</g>
		<g clip-path="url(#SVGID_2_)">
			
				<rect x="51.164" y="-19.096" transform="matrix(0.8465 -0.5324 0.5324 0.8465 4.6609 28.2235)" fill-rule="evenodd" clip-rule="evenodd" fill="#A3D414" width="0.222" height="50.249"/>
		</g>
		<g clip-path="url(#SVGID_2_)">
			
				<rect x="51.039" y="-19.017" transform="matrix(0.8466 -0.5323 0.5323 0.8466 4.5965 28.1621)" fill-rule="evenodd" clip-rule="evenodd" fill="#A3D414" width="0.222" height="50.249"/>
		</g>
		<g clip-path="url(#SVGID_2_)">
			
				<rect x="50.913" y="-18.938" transform="matrix(0.8464 -0.5326 0.5326 0.8464 4.5444 28.1268)" fill-rule="evenodd" clip-rule="evenodd" fill="#A3D414" width="0.222" height="50.249"/>
		</g>
		<g clip-path="url(#SVGID_2_)">
			
				<rect x="50.788" y="-18.859" transform="matrix(0.8466 -0.5323 0.5323 0.8466 4.474 28.0529)" fill-rule="evenodd" clip-rule="evenodd" fill="#A3D414" width="0.222" height="50.249"/>
		</g>
		<g clip-path="url(#SVGID_2_)">
			
				<rect x="50.662" y="-18.78" transform="matrix(0.8465 -0.5324 0.5324 0.8465 4.416 28.0049)" fill-rule="evenodd" clip-rule="evenodd" fill="#A3D414" width="0.222" height="50.249"/>
		</g>
		<g clip-path="url(#SVGID_2_)">
			
				<rect x="50.537" y="-18.701" transform="matrix(0.8466 -0.5323 0.5323 0.8466 4.3516 27.9436)" fill-rule="evenodd" clip-rule="evenodd" fill="#A3D414" width="0.222" height="50.249"/>
		</g>
		<g clip-path="url(#SVGID_2_)">
			
				<rect x="50.412" y="-18.622" transform="matrix(0.8466 -0.5323 0.5323 0.8466 4.2904 27.8889)" fill-rule="evenodd" clip-rule="evenodd" fill="#A3D414" width="0.222" height="50.249"/>
		</g>
		<g clip-path="url(#SVGID_2_)">
			
				<rect x="50.286" y="-18.544" transform="matrix(0.8464 -0.5326 0.5326 0.8464 4.238 27.8535)" fill-rule="evenodd" clip-rule="evenodd" fill="#A3D414" width="0.222" height="50.249"/>
		</g>
		<g clip-path="url(#SVGID_2_)">
			
				<rect x="50.161" y="-18.465" transform="matrix(0.8466 -0.5323 0.5323 0.8466 4.168 27.7796)" fill-rule="evenodd" clip-rule="evenodd" fill="#A3D414" width="0.222" height="50.249"/>
		</g>
		<g clip-path="url(#SVGID_2_)">
			
				<rect x="50.035" y="-18.386" transform="matrix(0.8465 -0.5324 0.5324 0.8465 4.1098 27.7316)" fill-rule="evenodd" clip-rule="evenodd" fill="#A1D315" width="0.222" height="50.249"/>
		</g>
		<g clip-path="url(#SVGID_2_)">
			
				<rect x="49.91" y="-18.307" transform="matrix(0.8466 -0.5323 0.5323 0.8466 4.0455 27.6703)" fill-rule="evenodd" clip-rule="evenodd" fill="#A1D315" width="0.222" height="50.249"/>
		</g>
		<g clip-path="url(#SVGID_2_)">
			
				<rect x="49.785" y="-18.228" transform="matrix(0.8463 -0.5326 0.5326 0.8463 3.9933 27.6355)" fill-rule="evenodd" clip-rule="evenodd" fill="#A1D315" width="0.222" height="50.249"/>
		</g>
		<g clip-path="url(#SVGID_2_)">
			
				<rect x="49.659" y="-18.149" transform="matrix(0.8464 -0.5326 0.5326 0.8464 3.9317 27.5801)" fill-rule="evenodd" clip-rule="evenodd" fill="#A1D315" width="0.222" height="50.249"/>
		</g>
		<g clip-path="url(#SVGID_2_)">
			
				<rect x="49.534" y="-18.07" transform="matrix(0.8466 -0.5323 0.5323 0.8466 3.8619 27.5064)" fill-rule="evenodd" clip-rule="evenodd" fill="#A1D315" width="0.222" height="50.249"/>
		</g>
		<g clip-path="url(#SVGID_2_)">
			
				<rect x="49.408" y="-17.991" transform="matrix(0.8465 -0.5324 0.5324 0.8465 3.8036 27.4583)" fill-rule="evenodd" clip-rule="evenodd" fill="#A1D315" width="0.222" height="50.249"/>
		</g>
		<g clip-path="url(#SVGID_2_)">
			
				<rect x="49.283" y="-17.913" transform="matrix(0.8466 -0.5323 0.5323 0.8466 3.7395 27.3971)" fill-rule="evenodd" clip-rule="evenodd" fill="#A1D315" width="0.222" height="50.249"/>
		</g>
		<g clip-path="url(#SVGID_2_)">
			
				<rect x="49.158" y="-17.834" transform="matrix(0.8464 -0.5326 0.5326 0.8464 3.6866 27.3614)" fill-rule="evenodd" clip-rule="evenodd" fill="#9ED215" width="0.222" height="50.249"/>
		</g>
		<g clip-path="url(#SVGID_2_)">
			
				<rect x="49.032" y="-17.755" transform="matrix(0.8465 -0.5324 0.5324 0.8465 3.6199 27.2944)" fill-rule="evenodd" clip-rule="evenodd" fill="#9ED215" width="0.222" height="50.249"/>
		</g>
		<g clip-path="url(#SVGID_2_)">
			
				<rect x="48.907" y="-17.676" transform="matrix(0.8466 -0.5323 0.5323 0.8466 3.5558 27.2331)" fill-rule="evenodd" clip-rule="evenodd" fill="#9ED215" width="0.222" height="50.249"/>
		</g>
		<g clip-path="url(#SVGID_2_)">
			
				<rect x="48.781" y="-17.597" transform="matrix(0.8465 -0.5324 0.5324 0.8465 3.4974 27.1851)" fill-rule="evenodd" clip-rule="evenodd" fill="#9ED215" width="0.222" height="50.249"/>
		</g>
		<g clip-path="url(#SVGID_2_)">
			
				<rect x="48.656" y="-17.518" transform="matrix(0.8466 -0.5323 0.5323 0.8466 3.4334 27.1239)" fill-rule="evenodd" clip-rule="evenodd" fill="#9ED215" width="0.222" height="50.249"/>
		</g>
		<g clip-path="url(#SVGID_2_)">
			
				<rect x="48.531" y="-17.439" transform="matrix(0.8464 -0.5326 0.5326 0.8464 3.3802 27.0881)" fill-rule="evenodd" clip-rule="evenodd" fill="#9ED215" width="0.222" height="50.249"/>
		</g>
		<g clip-path="url(#SVGID_2_)">
			
				<rect x="48.405" y="-17.36" transform="matrix(0.8465 -0.5324 0.5324 0.8465 3.3137 27.0211)" fill-rule="evenodd" clip-rule="evenodd" fill="#9ED215" width="0.222" height="50.249"/>
		</g>
		<g clip-path="url(#SVGID_2_)">
			
				<rect x="48.28" y="-17.282" transform="matrix(0.8466 -0.5323 0.5323 0.8466 3.2497 26.9599)" fill-rule="evenodd" clip-rule="evenodd" fill="#9ED215" width="0.222" height="50.249"/>
		</g>
		<g clip-path="url(#SVGID_2_)">
			
				<rect x="48.154" y="-17.203" transform="matrix(0.8465 -0.5324 0.5324 0.8465 3.1912 26.9118)" fill-rule="evenodd" clip-rule="evenodd" fill="#9ED215" width="0.222" height="50.249"/>
		</g>
		<g clip-path="url(#SVGID_2_)">
			
				<rect x="48.029" y="-17.124" transform="matrix(0.8466 -0.5323 0.5323 0.8466 3.1273 26.8506)" fill-rule="evenodd" clip-rule="evenodd" fill="#9ED215" width="0.222" height="50.249"/>
		</g>
		<g clip-path="url(#SVGID_2_)">
			
				<rect x="47.904" y="-17.045" transform="matrix(0.8464 -0.5326 0.5326 0.8464 3.0739 26.8147)" fill-rule="evenodd" clip-rule="evenodd" fill="#9CD116" width="0.222" height="50.249"/>
		</g>
		<g clip-path="url(#SVGID_2_)">
			
				<rect x="47.778" y="-16.966" transform="matrix(0.8465 -0.5324 0.5324 0.8465 3.0075 26.7478)" fill-rule="evenodd" clip-rule="evenodd" fill="#9CD116" width="0.222" height="50.249"/>
		</g>
		<g clip-path="url(#SVGID_2_)">
			
				<rect x="47.653" y="-16.887" transform="matrix(0.8465 -0.5324 0.5324 0.8465 2.9463 26.6932)" fill-rule="evenodd" clip-rule="evenodd" fill="#9CD116" width="0.222" height="50.249"/>
		</g>
		<g clip-path="url(#SVGID_2_)">
			
				<rect x="47.527" y="-16.809" transform="matrix(0.8465 -0.5324 0.5324 0.8465 2.8851 26.6385)" fill-rule="evenodd" clip-rule="evenodd" fill="#9CD116" width="0.222" height="50.249"/>
		</g>
		<g clip-path="url(#SVGID_2_)">
			
				<rect x="47.402" y="-16.73" transform="matrix(0.8464 -0.5325 0.5325 0.8464 2.8261 26.5896)" fill-rule="evenodd" clip-rule="evenodd" fill="#9CD116" width="0.222" height="50.249"/>
		</g>
		<g clip-path="url(#SVGID_2_)">
			
				<rect x="47.277" y="-16.651" transform="matrix(0.8465 -0.5324 0.5324 0.8465 2.7626 26.5292)" fill-rule="evenodd" clip-rule="evenodd" fill="#9CD116" width="0.222" height="50.249"/>
		</g>
		<g clip-path="url(#SVGID_2_)">
			
				<rect x="47.151" y="-16.572" transform="matrix(0.8465 -0.5324 0.5324 0.8465 2.7014 26.4745)" fill-rule="evenodd" clip-rule="evenodd" fill="#9CD116" width="0.222" height="50.249"/>
		</g>
		<g clip-path="url(#SVGID_2_)">
			
				<rect x="47.026" y="-16.493" transform="matrix(0.8465 -0.5324 0.5324 0.8465 2.6401 26.4199)" fill-rule="evenodd" clip-rule="evenodd" fill="#99CF16" width="0.222" height="50.249"/>
		</g>
		<g clip-path="url(#SVGID_2_)">
			
				<rect x="46.9" y="-16.414" transform="matrix(0.8465 -0.5324 0.5324 0.8465 2.5789 26.3652)" fill-rule="evenodd" clip-rule="evenodd" fill="#99CF16" width="0.222" height="50.249"/>
		</g>
		<g clip-path="url(#SVGID_2_)">
			
				<rect x="46.775" y="-16.335" transform="matrix(0.8464 -0.5325 0.5325 0.8464 2.5199 26.3162)" fill-rule="evenodd" clip-rule="evenodd" fill="#99CF16" width="0.222" height="50.249"/>
		</g>
		<g clip-path="url(#SVGID_2_)">
			
				<rect x="46.65" y="-16.256" transform="matrix(0.8465 -0.5324 0.5324 0.8465 2.4564 26.2559)" fill-rule="evenodd" clip-rule="evenodd" fill="#99CF16" width="0.222" height="50.249"/>
		</g>
		<g clip-path="url(#SVGID_2_)">
			
				<rect x="46.524" y="-16.178" transform="matrix(0.8465 -0.5324 0.5324 0.8465 2.3952 26.2013)" fill-rule="evenodd" clip-rule="evenodd" fill="#99CF16" width="0.222" height="50.249"/>
		</g>
		<g clip-path="url(#SVGID_2_)">
			
				<rect x="46.399" y="-16.099" transform="matrix(0.8466 -0.5323 0.5323 0.8466 2.3315 26.1402)" fill-rule="evenodd" clip-rule="evenodd" fill="#99CF16" width="0.222" height="50.249"/>
		</g>
		<g clip-path="url(#SVGID_2_)">
			
				<rect x="46.273" y="-16.02" transform="matrix(0.8465 -0.5324 0.5324 0.8465 2.2727 26.092)" fill-rule="evenodd" clip-rule="evenodd" fill="#99CF16" width="0.222" height="50.249"/>
		</g>
		<g clip-path="url(#SVGID_2_)">
			
				<rect x="46.148" y="-15.941" transform="matrix(0.8464 -0.5325 0.5325 0.8464 2.2136 26.0429)" fill-rule="evenodd" clip-rule="evenodd" fill="#99CF16" width="0.222" height="50.249"/>
		</g>
		<g clip-path="url(#SVGID_2_)">
			
				<rect x="46.023" y="-15.862" transform="matrix(0.8465 -0.5324 0.5324 0.8465 2.1502 25.9827)" fill-rule="evenodd" clip-rule="evenodd" fill="#99CF16" width="0.222" height="50.249"/>
		</g>
		<g clip-path="url(#SVGID_2_)">
			
				<rect x="45.897" y="-15.783" transform="matrix(0.8466 -0.5323 0.5323 0.8466 2.0866 25.9217)" fill-rule="evenodd" clip-rule="evenodd" fill="#99CF16" width="0.222" height="50.249"/>
		</g>
		<g clip-path="url(#SVGID_2_)">
			
				<rect x="45.772" y="-15.704" transform="matrix(0.8466 -0.5323 0.5323 0.8466 2.0254 25.867)" fill-rule="evenodd" clip-rule="evenodd" fill="#96CE17" width="0.222" height="50.249"/>
		</g>
		<g clip-path="url(#SVGID_2_)">
			
				<rect x="45.646" y="-15.625" transform="matrix(0.8464 -0.5326 0.5326 0.8464 1.9709 25.8306)" fill-rule="evenodd" clip-rule="evenodd" fill="#96CE17" width="0.222" height="50.249"/>
		</g>
		<g clip-path="url(#SVGID_2_)">
			
				<rect x="45.521" y="-15.547" transform="matrix(0.8466 -0.5323 0.5323 0.8466 1.9029 25.7577)" fill-rule="evenodd" clip-rule="evenodd" fill="#96CE17" width="0.222" height="50.249"/>
		</g>
		<g clip-path="url(#SVGID_2_)">
			
				<rect x="45.396" y="-15.468" transform="matrix(0.8465 -0.5324 0.5324 0.8465 1.844 25.7094)" fill-rule="evenodd" clip-rule="evenodd" fill="#96CE17" width="0.222" height="50.249"/>
		</g>
		<g clip-path="url(#SVGID_2_)">
			
				<rect x="45.27" y="-15.389" transform="matrix(0.8466 -0.5323 0.5323 0.8466 1.7805 25.6484)" fill-rule="evenodd" clip-rule="evenodd" fill="#96CE17" width="0.222" height="50.249"/>
		</g>
		<g clip-path="url(#SVGID_2_)">
			
				<rect x="45.145" y="-15.31" transform="matrix(0.8465 -0.5324 0.5324 0.8465 1.7216 25.6001)" fill-rule="evenodd" clip-rule="evenodd" fill="#96CE17" width="0.222" height="50.249"/>
		</g>
		<g clip-path="url(#SVGID_2_)">
			
				<rect x="45.019" y="-15.231" transform="matrix(0.8464 -0.5326 0.5326 0.8464 1.6646 25.5572)" fill-rule="evenodd" clip-rule="evenodd" fill="#96CE17" width="0.222" height="50.249"/>
		</g>
		<g clip-path="url(#SVGID_2_)">
			
				<rect x="44.894" y="-15.152" transform="matrix(0.8466 -0.5323 0.5323 0.8466 1.5968 25.4845)" fill-rule="evenodd" clip-rule="evenodd" fill="#94CD17" width="0.222" height="50.249"/>
		</g>
		<g clip-path="url(#SVGID_2_)">
			
				<rect x="44.769" y="-15.073" transform="matrix(0.8465 -0.5324 0.5324 0.8465 1.5378 25.4361)" fill-rule="evenodd" clip-rule="evenodd" fill="#94CD17" width="0.222" height="50.249"/>
		</g>
		<g clip-path="url(#SVGID_2_)">
			
				<rect x="44.643" y="-14.995" transform="matrix(0.8466 -0.5323 0.5323 0.8466 1.4744 25.3752)" fill-rule="evenodd" clip-rule="evenodd" fill="#94CD17" width="0.222" height="50.249"/>
		</g>
		<g clip-path="url(#SVGID_2_)">
			
				<rect x="44.518" y="-14.916" transform="matrix(0.8465 -0.5324 0.5324 0.8465 1.4154 25.3268)" fill-rule="evenodd" clip-rule="evenodd" fill="#94CD17" width="0.222" height="50.249"/>
		</g>
		<g clip-path="url(#SVGID_2_)">
			
				<rect x="44.392" y="-14.837" transform="matrix(0.8464 -0.5326 0.5326 0.8464 1.3582 25.2839)" fill-rule="evenodd" clip-rule="evenodd" fill="#94CD17" width="0.222" height="50.249"/>
		</g>
		<g clip-path="url(#SVGID_2_)">
			
				<rect x="44.267" y="-14.758" transform="matrix(0.8466 -0.5323 0.5323 0.8466 1.2908 25.2113)" fill-rule="evenodd" clip-rule="evenodd" fill="#94CD17" width="0.222" height="50.249"/>
		</g>
		<g clip-path="url(#SVGID_2_)">
			
				<rect x="44.142" y="-14.679" transform="matrix(0.8465 -0.5324 0.5324 0.8465 1.2317 25.1628)" fill-rule="evenodd" clip-rule="evenodd" fill="#94CD17" width="0.222" height="50.249"/>
		</g>
		<g clip-path="url(#SVGID_2_)">
			
				<rect x="44.016" y="-14.6" transform="matrix(0.8466 -0.5323 0.5323 0.8466 1.1683 25.102)" fill-rule="evenodd" clip-rule="evenodd" fill="#94CD17" width="0.222" height="50.249"/>
		</g>
		<g clip-path="url(#SVGID_2_)">
			
				<rect x="43.891" y="-14.521" transform="matrix(0.8464 -0.5326 0.5326 0.8464 1.1131 25.0652)" fill-rule="evenodd" clip-rule="evenodd" fill="#94CD17" width="0.222" height="50.249"/>
		</g>
		<g clip-path="url(#SVGID_2_)">
			
				<rect x="43.765" y="-14.442" transform="matrix(0.8465 -0.5324 0.5324 0.8465 1.048 24.9989)" fill-rule="evenodd" clip-rule="evenodd" fill="#94CD17" width="0.222" height="50.249"/>
		</g>
		<g clip-path="url(#SVGID_2_)">
			
				<rect x="43.64" y="-14.364" transform="matrix(0.8466 -0.5323 0.5323 0.8466 0.9847 24.938)" fill-rule="evenodd" clip-rule="evenodd" fill="#91CC18" width="0.222" height="50.249"/>
		</g>
		<g clip-path="url(#SVGID_2_)">
			
				<rect x="43.515" y="-14.285" transform="matrix(0.8465 -0.5324 0.5324 0.8465 0.9255 24.8895)" fill-rule="evenodd" clip-rule="evenodd" fill="#91CC18" width="0.222" height="50.249"/>
		</g>
		<g clip-path="url(#SVGID_2_)">
			
				<rect x="43.389" y="-14.206" transform="matrix(0.8466 -0.5323 0.5323 0.8466 0.8622 24.8288)" fill-rule="evenodd" clip-rule="evenodd" fill="#91CC18" width="0.222" height="50.249"/>
		</g>
		<g clip-path="url(#SVGID_2_)">
			
				<rect x="43.264" y="-14.127" transform="matrix(0.8464 -0.5326 0.5326 0.8464 0.8068 24.7918)" fill-rule="evenodd" clip-rule="evenodd" fill="#91CC18" width="0.222" height="50.249"/>
		</g>
		<g clip-path="url(#SVGID_2_)">
			
				<rect x="43.138" y="-14.048" transform="matrix(0.8465 -0.5324 0.5324 0.8465 0.7418 24.7256)" fill-rule="evenodd" clip-rule="evenodd" fill="#91CC18" width="0.222" height="50.249"/>
		</g>
		<g clip-path="url(#SVGID_2_)">
			
				<rect x="43.013" y="-13.969" transform="matrix(0.8465 -0.5324 0.5324 0.8465 0.6805 24.6709)" fill-rule="evenodd" clip-rule="evenodd" fill="#91CC18" width="0.222" height="50.249"/>
		</g>
		<g clip-path="url(#SVGID_2_)">
			
				<rect x="42.888" y="-13.89" transform="matrix(0.8465 -0.5324 0.5324 0.8465 0.6193 24.6163)" fill-rule="evenodd" clip-rule="evenodd" fill="#91CC18" width="0.222" height="50.249"/>
		</g>
		<g clip-path="url(#SVGID_2_)">
			
				<rect x="42.762" y="-13.811" transform="matrix(0.8466 -0.5323 0.5323 0.8466 0.5561 24.5555)" fill-rule="evenodd" clip-rule="evenodd" fill="#8FCB18" width="0.222" height="50.249"/>
		</g>
		<g clip-path="url(#SVGID_2_)">
			
				<rect x="42.637" y="-13.733" transform="matrix(0.8461 -0.533 0.533 0.8461 0.5061 24.5367)" fill-rule="evenodd" clip-rule="evenodd" fill="#8FCB18" width="0.222" height="50.249"/>
		</g>
		<g clip-path="url(#SVGID_2_)">
			
				<rect x="42.511" y="-13.654" transform="matrix(0.8465 -0.5324 0.5324 0.8465 0.4356 24.4523)" fill-rule="evenodd" clip-rule="evenodd" fill="#8FCB18" width="0.222" height="50.249"/>
		</g>
		<g clip-path="url(#SVGID_2_)">
			
				<rect x="42.386" y="-13.575" transform="matrix(0.8465 -0.5324 0.5324 0.8465 0.3743 24.3976)" fill-rule="evenodd" clip-rule="evenodd" fill="#8FCB18" width="0.222" height="50.249"/>
		</g>
		<g clip-path="url(#SVGID_2_)">
			
				<rect x="42.261" y="-13.496" transform="matrix(0.8465 -0.5324 0.5324 0.8465 0.3131 24.343)" fill-rule="evenodd" clip-rule="evenodd" fill="#8FCB18" width="0.222" height="50.249"/>
		</g>
		<g clip-path="url(#SVGID_2_)">
			
				<rect x="42.135" y="-13.417" transform="matrix(0.8466 -0.5323 0.5323 0.8466 0.2501 24.2823)" fill-rule="evenodd" clip-rule="evenodd" fill="#8FCB18" width="0.222" height="50.249"/>
		</g>
		<g clip-path="url(#SVGID_2_)">
			
				<rect x="42.01" y="-13.338" transform="matrix(0.8465 -0.5325 0.5325 0.8465 0.1918 24.2375)" fill-rule="evenodd" clip-rule="evenodd" fill="#8FCB18" width="0.222" height="50.249"/>
		</g>
		<g clip-path="url(#SVGID_2_)">
			
				<rect x="41.884" y="-13.259" transform="matrix(0.8465 -0.5324 0.5324 0.8465 0.1294 24.179)" fill-rule="evenodd" clip-rule="evenodd" fill="#8FCB18" width="0.222" height="50.249"/>
		</g>
		<g clip-path="url(#SVGID_2_)">
			
				<rect x="41.759" y="-13.181" transform="matrix(0.8465 -0.5324 0.5324 0.8465 0.0682 24.1244)" fill-rule="evenodd" clip-rule="evenodd" fill="#8FCB18" width="0.222" height="50.249"/>
		</g>
		<g clip-path="url(#SVGID_2_)">
			
				<rect x="41.634" y="-13.102" transform="matrix(0.8465 -0.5324 0.5324 0.8465 0.007 24.0697)" fill-rule="evenodd" clip-rule="evenodd" fill="#8FCB18" width="0.222" height="50.249"/>
		</g>
		<g clip-path="url(#SVGID_2_)">
			
				<rect x="41.508" y="-13.023" transform="matrix(0.8464 -0.5325 0.5325 0.8464 -0.0528 24.0204)" fill-rule="evenodd" clip-rule="evenodd" fill="#8CC919" width="0.222" height="50.249"/>
		</g>
		<g clip-path="url(#SVGID_2_)">
			
				<rect x="41.383" y="-12.944" transform="matrix(0.8465 -0.5324 0.5324 0.8465 -0.1155 23.9604)" fill-rule="evenodd" clip-rule="evenodd" fill="#8CC919" width="0.222" height="50.249"/>
		</g>
		<g clip-path="url(#SVGID_2_)">
			
				<rect x="41.257" y="-12.865" transform="matrix(0.8466 -0.5323 0.5323 0.8466 -0.1784 23.8997)" fill-rule="evenodd" clip-rule="evenodd" fill="#8CC919" width="0.222" height="50.249"/>
		</g>
		<g clip-path="url(#SVGID_2_)">
			
				<rect x="41.132" y="-12.786" transform="matrix(0.8465 -0.5324 0.5324 0.8465 -0.238 23.8511)" fill-rule="evenodd" clip-rule="evenodd" fill="#8CC919" width="0.222" height="50.249"/>
		</g>
		<g clip-path="url(#SVGID_2_)">
			
				<rect x="41.007" y="-12.707" transform="matrix(0.8465 -0.5324 0.5324 0.8465 -0.2992 23.7965)" fill-rule="evenodd" clip-rule="evenodd" fill="#8CC919" width="0.222" height="50.249"/>
		</g>
		<g clip-path="url(#SVGID_2_)">
			
				<rect x="40.881" y="-12.628" transform="matrix(0.8465 -0.5324 0.5324 0.8465 -0.3601 23.7433)" fill-rule="evenodd" clip-rule="evenodd" fill="#8CC919" width="0.222" height="50.249"/>
		</g>
		<g clip-path="url(#SVGID_2_)">
			
				<rect x="40.756" y="-12.55" transform="matrix(0.8465 -0.5324 0.5324 0.8465 -0.4217 23.6871)" fill-rule="evenodd" clip-rule="evenodd" fill="#8CC919" width="0.222" height="50.249"/>
		</g>
		<g clip-path="url(#SVGID_2_)">
			
				<rect x="40.63" y="-12.471" transform="matrix(0.8466 -0.5323 0.5323 0.8466 -0.4845 23.6265)" fill-rule="evenodd" clip-rule="evenodd" fill="#8CC919" width="0.222" height="50.249"/>
		</g>
		<g clip-path="url(#SVGID_2_)">
			
				<rect x="40.505" y="-12.392" transform="matrix(0.8465 -0.5324 0.5324 0.8465 -0.5442 23.5778)" fill-rule="evenodd" clip-rule="evenodd" fill="#8CC919" width="0.222" height="50.249"/>
		</g>
		<g clip-path="url(#SVGID_2_)">
			
				<rect x="40.38" y="-12.313" transform="matrix(0.8465 -0.5324 0.5324 0.8465 -0.6054 23.5232)" fill-rule="evenodd" clip-rule="evenodd" fill="#8CC919" width="0.222" height="50.249"/>
		</g>
		<g clip-path="url(#SVGID_2_)">
			
				<rect x="40.254" y="-12.234" transform="matrix(0.8466 -0.5323 0.5323 0.8466 -0.6682 23.4626)" fill-rule="evenodd" clip-rule="evenodd" fill="#8CC919" width="0.222" height="50.249"/>
		</g>
		<g clip-path="url(#SVGID_2_)">
			
				<rect x="40.129" y="-12.155" transform="matrix(0.8463 -0.5328 0.5328 0.8463 -0.7234 23.4316)" fill-rule="evenodd" clip-rule="evenodd" fill="#8AC81A" width="0.222" height="50.249"/>
		</g>
		<g clip-path="url(#SVGID_2_)">
			
				<rect x="40.003" y="-12.076" transform="matrix(0.8466 -0.5323 0.5323 0.8466 -0.7906 23.3533)" fill-rule="evenodd" clip-rule="evenodd" fill="#8AC81A" width="0.222" height="50.249"/>
		</g>
		<g clip-path="url(#SVGID_2_)">
			
				<rect x="39.878" y="-11.998" transform="matrix(0.8465 -0.5324 0.5324 0.8465 -0.8504 23.3046)" fill-rule="evenodd" clip-rule="evenodd" fill="#8AC81A" width="0.222" height="50.249"/>
		</g>
		<g clip-path="url(#SVGID_2_)">
			
				<rect x="39.753" y="-11.919" transform="matrix(0.8464 -0.5325 0.5325 0.8464 -0.9098 23.2573)" fill-rule="evenodd" clip-rule="evenodd" fill="#8AC81A" width="0.222" height="50.249"/>
		</g>
		<g clip-path="url(#SVGID_2_)">
			
				<rect x="39.627" y="-11.84" transform="matrix(0.8466 -0.5323 0.5323 0.8466 -0.9743 23.1894)" fill-rule="evenodd" clip-rule="evenodd" fill="#8AC81A" width="0.222" height="50.249"/>
		</g>
		<g clip-path="url(#SVGID_2_)">
			
				<rect x="39.502" y="-11.761" transform="matrix(0.8465 -0.5324 0.5324 0.8465 -1.0341 23.1406)" fill-rule="evenodd" clip-rule="evenodd" fill="#8AC81A" width="0.222" height="50.249"/>
		</g>
		<g clip-path="url(#SVGID_2_)">
			
				<rect x="39.376" y="-11.682" transform="matrix(0.8466 -0.5323 0.5323 0.8466 -1.0967 23.0801)" fill-rule="evenodd" clip-rule="evenodd" fill="#8AC81A" width="0.222" height="50.249"/>
		</g>
		<g clip-path="url(#SVGID_2_)">
			
				<rect x="39.251" y="-11.603" transform="matrix(0.8465 -0.5324 0.5324 0.8465 -1.1565 23.0313)" fill-rule="evenodd" clip-rule="evenodd" fill="#87C71A" width="0.222" height="50.249"/>
		</g>
		<g clip-path="url(#SVGID_2_)">
			
				<rect x="39.126" y="-11.524" transform="matrix(0.8464 -0.5325 0.5325 0.8464 -1.2166 22.9818)" fill-rule="evenodd" clip-rule="evenodd" fill="#87C71A" width="0.222" height="50.249"/>
		</g>
		<g clip-path="url(#SVGID_2_)">
			
				<rect x="39" y="-11.445" transform="matrix(0.8465 -0.5323 0.5323 0.8465 -1.2795 22.9198)" fill-rule="evenodd" clip-rule="evenodd" fill="#87C71A" width="0.222" height="50.249"/>
		</g>
		<g clip-path="url(#SVGID_2_)">
			
				<rect x="38.875" y="-11.367" transform="matrix(0.8465 -0.5324 0.5324 0.8465 -1.3402 22.8673)" fill-rule="evenodd" clip-rule="evenodd" fill="#87C71A" width="0.222" height="50.249"/>
		</g>
		<g clip-path="url(#SVGID_2_)">
			
				<rect x="38.749" y="-11.288" transform="matrix(0.8466 -0.5323 0.5323 0.8466 -1.4028 22.8069)" fill-rule="evenodd" clip-rule="evenodd" fill="#87C71A" width="0.222" height="50.249"/>
		</g>
		<g clip-path="url(#SVGID_2_)">
			
				<rect x="38.624" y="-11.209" transform="matrix(0.8465 -0.5324 0.5324 0.8465 -1.4627 22.758)" fill-rule="evenodd" clip-rule="evenodd" fill="#87C71A" width="0.222" height="50.249"/>
		</g>
		<g clip-path="url(#SVGID_2_)">
			
				<rect x="38.499" y="-11.13" transform="matrix(0.8466 -0.5323 0.5323 0.8466 -1.5252 22.6976)" fill-rule="evenodd" clip-rule="evenodd" fill="#87C71A" width="0.222" height="50.249"/>
		</g>
		<g clip-path="url(#SVGID_2_)">
			
				<rect x="38.373" y="-11.051" transform="matrix(0.8465 -0.5324 0.5324 0.8465 -1.5852 22.6487)" fill-rule="evenodd" clip-rule="evenodd" fill="#87C71A" width="0.222" height="50.249"/>
		</g>
		<g clip-path="url(#SVGID_2_)">
			
				<rect x="38.248" y="-10.972" transform="matrix(0.8465 -0.5324 0.5324 0.8465 -1.6464 22.594)" fill-rule="evenodd" clip-rule="evenodd" fill="#87C71A" width="0.222" height="50.249"/>
		</g>
		<g clip-path="url(#SVGID_2_)">
			
				<rect x="38.122" y="-10.893" transform="matrix(0.8466 -0.5323 0.5323 0.8466 -1.7089 22.5336)" fill-rule="evenodd" clip-rule="evenodd" fill="#87C71A" width="0.222" height="50.249"/>
		</g>
		<g clip-path="url(#SVGID_2_)">
			
				<rect x="37.997" y="-10.815" transform="matrix(0.8464 -0.5326 0.5326 0.8464 -1.7667 22.4956)" fill-rule="evenodd" clip-rule="evenodd" fill="#85C61B" width="0.222" height="50.249"/>
		</g>
		<g clip-path="url(#SVGID_2_)">
			
				<rect x="37.872" y="-10.736" transform="matrix(0.8466 -0.5323 0.5323 0.8466 -1.8313 22.4243)" fill-rule="evenodd" clip-rule="evenodd" fill="#85C61B" width="0.222" height="50.249"/>
		</g>
		<g clip-path="url(#SVGID_2_)">
			
				<rect x="37.746" y="-10.657" transform="matrix(0.8465 -0.5324 0.5324 0.8465 -1.8914 22.3754)" fill-rule="evenodd" clip-rule="evenodd" fill="#85C61B" width="0.222" height="50.249"/>
		</g>
		<g clip-path="url(#SVGID_2_)">
			
				<rect x="37.621" y="-10.578" transform="matrix(0.8465 -0.5324 0.5324 0.8465 -1.9526 22.3208)" fill-rule="evenodd" clip-rule="evenodd" fill="#85C61B" width="0.222" height="50.249"/>
		</g>
		<g clip-path="url(#SVGID_2_)">
			
				<rect x="37.495" y="-10.499" transform="matrix(0.8466 -0.5323 0.5323 0.8466 -2.015 22.2604)" fill-rule="evenodd" clip-rule="evenodd" fill="#85C61B" width="0.222" height="50.249"/>
		</g>
		<g clip-path="url(#SVGID_2_)">
			
				<rect x="37.37" y="-10.42" transform="matrix(0.8464 -0.5326 0.5326 0.8464 -2.0731 22.2222)" fill-rule="evenodd" clip-rule="evenodd" fill="#85C61B" width="0.222" height="50.249"/>
		</g>
		<g clip-path="url(#SVGID_2_)">
			
				<rect x="37.245" y="-10.341" transform="matrix(0.8465 -0.5324 0.5324 0.8465 -2.1363 22.1568)" fill-rule="evenodd" clip-rule="evenodd" fill="#82C51B" width="0.222" height="50.249"/>
		</g>
		<g clip-path="url(#SVGID_2_)">
			
				<rect x="37.119" y="-10.263" transform="matrix(0.8465 -0.5325 0.5325 0.8465 -2.1969 22.1057)" fill-rule="evenodd" clip-rule="evenodd" fill="#82C51B" width="0.222" height="50.249"/>
		</g>
		<g clip-path="url(#SVGID_2_)">
			
				<rect x="36.994" y="-10.184" transform="matrix(0.8465 -0.5324 0.5324 0.8465 -2.2588 22.0475)" fill-rule="evenodd" clip-rule="evenodd" fill="#82C51B" width="0.222" height="50.249"/>
		</g>
		<g clip-path="url(#SVGID_2_)">
			
				<rect x="36.868" y="-10.105" transform="matrix(0.8466 -0.5323 0.5323 0.8466 -2.3211 21.9872)" fill-rule="evenodd" clip-rule="evenodd" fill="#82C51B" width="0.222" height="50.249"/>
		</g>
		<g clip-path="url(#SVGID_2_)">
			
				<rect x="36.743" y="-10.026" transform="matrix(0.8465 -0.5324 0.5324 0.8465 -2.3813 21.9382)" fill-rule="evenodd" clip-rule="evenodd" fill="#82C51B" width="0.222" height="50.249"/>
		</g>
		<g clip-path="url(#SVGID_2_)">
			
				<rect x="36.618" y="-9.947" transform="matrix(0.8466 -0.5323 0.5323 0.8466 -2.4435 21.8779)" fill-rule="evenodd" clip-rule="evenodd" fill="#82C51B" width="0.222" height="50.249"/>
		</g>
		<g clip-path="url(#SVGID_2_)">
			
				<rect x="36.492" y="-9.868" transform="matrix(0.8465 -0.5324 0.5324 0.8465 -2.5038 21.8289)" fill-rule="evenodd" clip-rule="evenodd" fill="#82C51B" width="0.222" height="50.249"/>
		</g>
		<g clip-path="url(#SVGID_2_)">
			
				<rect x="36.367" y="-9.789" transform="matrix(0.8465 -0.5324 0.5324 0.8465 -2.565 21.7742)" fill-rule="evenodd" clip-rule="evenodd" fill="#80C41C" width="0.222" height="50.249"/>
		</g>
		<g clip-path="url(#SVGID_2_)">
			
				<rect x="36.241" y="-9.71" transform="matrix(0.8464 -0.5325 0.5325 0.8464 -2.6254 21.7245)" fill-rule="evenodd" clip-rule="evenodd" fill="#80C41C" width="0.222" height="50.249"/>
		</g>
		<g clip-path="url(#SVGID_2_)">
			
				<rect x="36.116" y="-9.632" transform="matrix(0.8465 -0.5324 0.5324 0.8465 -2.6875 21.6649)" fill-rule="evenodd" clip-rule="evenodd" fill="#80C41C" width="0.222" height="50.249"/>
		</g>
		<g clip-path="url(#SVGID_2_)">
			
				<rect x="35.991" y="-9.553" transform="matrix(0.8465 -0.5323 0.5323 0.8465 -2.749 21.6081)" fill-rule="evenodd" clip-rule="evenodd" fill="#80C41C" width="0.222" height="50.249"/>
		</g>
		<g clip-path="url(#SVGID_2_)">
			
				<rect x="35.865" y="-9.474" transform="matrix(0.8465 -0.5324 0.5324 0.8465 -2.8099 21.5556)" fill-rule="evenodd" clip-rule="evenodd" fill="#80C41C" width="0.222" height="50.249"/>
		</g>
		<g clip-path="url(#SVGID_2_)">
			
				<rect x="35.74" y="-9.395" transform="matrix(0.8465 -0.5324 0.5324 0.8465 -2.8712 21.5009)" fill-rule="evenodd" clip-rule="evenodd" fill="#7DC21C" width="0.222" height="50.249"/>
		</g>
		<g clip-path="url(#SVGID_2_)">
			
				<rect x="35.614" y="-9.316" transform="matrix(0.8465 -0.5324 0.5324 0.8465 -2.9322 21.4477)" fill-rule="evenodd" clip-rule="evenodd" fill="#7DC21C" width="0.222" height="50.249"/>
		</g>
		<g clip-path="url(#SVGID_2_)">
			
				<rect x="35.489" y="-9.237" transform="matrix(0.8465 -0.5324 0.5324 0.8465 -2.9936 21.3916)" fill-rule="evenodd" clip-rule="evenodd" fill="#7DC21C" width="0.222" height="50.249"/>
		</g>
		<g clip-path="url(#SVGID_2_)">
			
				<rect x="35.364" y="-9.158" transform="matrix(0.8466 -0.5323 0.5323 0.8466 -3.0557 21.3314)" fill-rule="evenodd" clip-rule="evenodd" fill="#7DC21C" width="0.222" height="50.249"/>
		</g>
		<g clip-path="url(#SVGID_2_)">
			
				<rect x="35.238" y="-9.079" transform="matrix(0.8465 -0.5324 0.5324 0.8465 -3.1161 21.2823)" fill-rule="evenodd" clip-rule="evenodd" fill="#7DC21C" width="0.222" height="50.249"/>
		</g>
		<g clip-path="url(#SVGID_2_)">
			
				<rect x="35.113" y="-9.001" transform="matrix(0.8465 -0.5324 0.5324 0.8465 -3.1774 21.2277)" fill-rule="evenodd" clip-rule="evenodd" fill="#7DC21C" width="0.222" height="50.249"/>
		</g>
		<g clip-path="url(#SVGID_2_)">
			
				<rect x="34.987" y="-8.922" transform="matrix(0.8464 -0.5325 0.5325 0.8464 -3.2379 21.1779)" fill-rule="evenodd" clip-rule="evenodd" fill="#7DC21C" width="0.222" height="50.249"/>
		</g>
		<g clip-path="url(#SVGID_2_)">
			
				<rect x="34.862" y="-8.843" transform="matrix(0.8465 -0.5324 0.5324 0.8465 -3.2998 21.1184)" fill-rule="evenodd" clip-rule="evenodd" fill="#7AC11D" width="0.222" height="50.249"/>
		</g>
		<g clip-path="url(#SVGID_2_)">
			
				<rect x="34.737" y="-8.764" transform="matrix(0.8466 -0.5323 0.5323 0.8466 -3.3618 21.0582)" fill-rule="evenodd" clip-rule="evenodd" fill="#7AC11D" width="0.222" height="50.249"/>
		</g>
		<g clip-path="url(#SVGID_2_)">
			
				<rect x="34.611" y="-8.685" transform="matrix(0.8465 -0.5324 0.5324 0.8465 -3.4223 21.009)" fill-rule="evenodd" clip-rule="evenodd" fill="#7AC11D" width="0.222" height="50.249"/>
		</g>
		<g clip-path="url(#SVGID_2_)">
			
				<rect x="34.486" y="-8.606" transform="matrix(0.8465 -0.5324 0.5324 0.8465 -3.4834 20.9558)" fill-rule="evenodd" clip-rule="evenodd" fill="#7AC11D" width="0.222" height="50.249"/>
		</g>
		<g clip-path="url(#SVGID_2_)">
			
				<rect x="34.36" y="-8.527" transform="matrix(0.8466 -0.5323 0.5323 0.8466 -3.5454 20.8942)" fill-rule="evenodd" clip-rule="evenodd" fill="#7AC11D" width="0.222" height="50.249"/>
		</g>
		<g clip-path="url(#SVGID_2_)">
			
				<rect x="34.235" y="-8.449" transform="matrix(0.8465 -0.5324 0.5324 0.8465 -3.606 20.8451)" fill-rule="evenodd" clip-rule="evenodd" fill="#78C01D" width="0.222" height="50.249"/>
		</g>
		<g clip-path="url(#SVGID_2_)">
			
				<rect x="34.11" y="-8.37" transform="matrix(0.8465 -0.5323 0.5323 0.8465 -3.6675 20.7884)" fill-rule="evenodd" clip-rule="evenodd" fill="#78C01D" width="0.222" height="50.249"/>
		</g>
		<g clip-path="url(#SVGID_2_)">
			
				<rect x="33.984" y="-8.291" transform="matrix(0.8465 -0.5324 0.5324 0.8465 -3.7285 20.7358)" fill-rule="evenodd" clip-rule="evenodd" fill="#78C01D" width="0.222" height="50.249"/>
		</g>
		<g clip-path="url(#SVGID_2_)">
			
				<rect x="33.859" y="-8.212" transform="matrix(0.8464 -0.5325 0.5325 0.8464 -3.7892 20.6859)" fill-rule="evenodd" clip-rule="evenodd" fill="#78C01D" width="0.222" height="50.249"/>
		</g>
		<g clip-path="url(#SVGID_2_)">
			
				<rect x="33.733" y="-8.133" transform="matrix(0.8465 -0.5324 0.5324 0.8465 -3.8509 20.6265)" fill-rule="evenodd" clip-rule="evenodd" fill="#78C01D" width="0.222" height="50.249"/>
		</g>
		<g clip-path="url(#SVGID_2_)">
			
				<rect x="33.608" y="-8.054" transform="matrix(0.8465 -0.5324 0.5324 0.8465 -3.9122 20.5718)" fill-rule="evenodd" clip-rule="evenodd" fill="#78C01D" width="0.222" height="50.249"/>
		</g>
		<g clip-path="url(#SVGID_2_)">
			
				<rect x="33.483" y="-7.975" transform="matrix(0.8466 -0.5323 0.5323 0.8466 -3.9739 20.5117)" fill-rule="evenodd" clip-rule="evenodd" fill="#78C01D" width="0.222" height="50.249"/>
		</g>
		<g clip-path="url(#SVGID_2_)">
			
				<rect x="33.357" y="-7.896" transform="matrix(0.8465 -0.5324 0.5324 0.8465 -4.0346 20.4625)" fill-rule="evenodd" clip-rule="evenodd" fill="#75BF1E" width="0.222" height="50.249"/>
		</g>
		<g clip-path="url(#SVGID_2_)">
			
				<rect x="33.232" y="-7.818" transform="matrix(0.8464 -0.5325 0.5325 0.8464 -4.0955 20.4126)" fill-rule="evenodd" clip-rule="evenodd" fill="#75BF1E" width="0.222" height="50.249"/>
		</g>
		<g clip-path="url(#SVGID_2_)">
			
				<rect x="33.106" y="-7.739" transform="matrix(0.8465 -0.5324 0.5324 0.8465 -4.1571 20.3532)" fill-rule="evenodd" clip-rule="evenodd" fill="#75BF1E" width="0.222" height="50.249"/>
		</g>
		<g clip-path="url(#SVGID_2_)">
			
				<rect x="32.981" y="-7.66" transform="matrix(0.8463 -0.5328 0.5328 0.8463 -4.2171 20.3146)" fill-rule="evenodd" clip-rule="evenodd" fill="#75BF1E" width="0.222" height="50.249"/>
		</g>
		<g clip-path="url(#SVGID_2_)">
			
				<rect x="32.856" y="-7.581" transform="matrix(0.8466 -0.5323 0.5323 0.8466 -4.28 20.2385)" fill-rule="evenodd" clip-rule="evenodd" fill="#75BF1E" width="0.222" height="50.249"/>
		</g>
		<g clip-path="url(#SVGID_2_)">
			
				<rect x="32.73" y="-7.502" transform="matrix(0.8464 -0.5326 0.5326 0.8464 -4.3401 20.1993)" fill-rule="evenodd" clip-rule="evenodd" fill="#73BE1E" width="0.222" height="50.249"/>
		</g>
		<g clip-path="url(#SVGID_2_)">
			
				<rect x="32.605" y="-7.423" transform="matrix(0.8466 -0.5323 0.5323 0.8466 -4.4024 20.1292)" fill-rule="evenodd" clip-rule="evenodd" fill="#73BE1E" width="0.222" height="50.249"/>
		</g>
		<g clip-path="url(#SVGID_2_)">
			
				<rect x="32.479" y="-7.344" transform="matrix(0.8465 -0.5324 0.5324 0.8465 -4.4633 20.0799)" fill-rule="evenodd" clip-rule="evenodd" fill="#73BE1E" width="0.222" height="50.249"/>
		</g>
		<g clip-path="url(#SVGID_2_)">
			
				<rect x="32.354" y="-7.265" transform="matrix(0.8465 -0.5324 0.5324 0.8465 -4.5245 20.0252)" fill-rule="evenodd" clip-rule="evenodd" fill="#73BE1E" width="0.222" height="50.249"/>
		</g>
		<g clip-path="url(#SVGID_2_)">
			
				<rect x="32.229" y="-7.187" transform="matrix(0.8466 -0.5323 0.5323 0.8466 -4.5861 19.9653)" fill-rule="evenodd" clip-rule="evenodd" fill="#73BE1E" width="0.222" height="50.249"/>
		</g>
		<g clip-path="url(#SVGID_2_)">
			
				<rect x="32.103" y="-7.108" transform="matrix(0.8464 -0.5326 0.5326 0.8464 -4.6465 19.926)" fill-rule="evenodd" clip-rule="evenodd" fill="#73BE1E" width="0.222" height="50.249"/>
		</g>
		<g clip-path="url(#SVGID_2_)">
			
				<rect x="31.978" y="-7.029" transform="matrix(0.8466 -0.5323 0.5323 0.8466 -4.7085 19.856)" fill-rule="evenodd" clip-rule="evenodd" fill="#73BE1E" width="0.222" height="50.249"/>
		</g>
		<g clip-path="url(#SVGID_2_)">
			
				<rect x="31.852" y="-6.95" transform="matrix(0.8465 -0.5324 0.5324 0.8465 -4.7695 19.8066)" fill-rule="evenodd" clip-rule="evenodd" fill="#70BC1F" width="0.222" height="50.249"/>
		</g>
		<g clip-path="url(#SVGID_2_)">
			
				<rect x="31.727" y="-6.871" transform="matrix(0.8465 -0.5324 0.5324 0.8465 -4.8307 19.752)" fill-rule="evenodd" clip-rule="evenodd" fill="#70BC1F" width="0.222" height="50.249"/>
		</g>
		<g clip-path="url(#SVGID_2_)">
			
				<rect x="31.602" y="-6.792" transform="matrix(0.8465 -0.5324 0.5324 0.8465 -4.892 19.6973)" fill-rule="evenodd" clip-rule="evenodd" fill="#70BC1F" width="0.222" height="50.249"/>
		</g>
		<g clip-path="url(#SVGID_2_)">
			
				<rect x="31.476" y="-6.713" transform="matrix(0.8464 -0.5325 0.5325 0.8464 -4.953 19.6493)" fill-rule="evenodd" clip-rule="evenodd" fill="#70BC1F" width="0.222" height="50.249"/>
		</g>
		<g clip-path="url(#SVGID_2_)">
			
				<rect x="31.351" y="-6.635" transform="matrix(0.8466 -0.5323 0.5323 0.8466 -5.0146 19.5828)" fill-rule="evenodd" clip-rule="evenodd" fill="#70BC1F" width="0.222" height="50.249"/>
		</g>
		<g clip-path="url(#SVGID_2_)">
			
				<rect x="31.225" y="-6.556" transform="matrix(0.8465 -0.5324 0.5324 0.8465 -5.0757 19.5333)" fill-rule="evenodd" clip-rule="evenodd" fill="#70BC1F" width="0.222" height="50.249"/>
		</g>
		<g clip-path="url(#SVGID_2_)">
			
				<rect x="31.1" y="-6.477" transform="matrix(0.8465 -0.5325 0.5325 0.8465 -5.1368 19.482)" fill-rule="evenodd" clip-rule="evenodd" fill="#70BC1F" width="0.222" height="50.249"/>
		</g>
		<g clip-path="url(#SVGID_2_)">
			
				<rect x="30.975" y="-6.398" transform="matrix(0.8464 -0.5326 0.5326 0.8464 -5.198 19.4339)" fill-rule="evenodd" clip-rule="evenodd" fill="#6EBB20" width="0.222" height="50.249"/>
		</g>
		<g clip-path="url(#SVGID_2_)">
			
				<rect x="30.849" y="-6.319" transform="matrix(0.8465 -0.5324 0.5324 0.8465 -5.2594 19.3694)" fill-rule="evenodd" clip-rule="evenodd" fill="#6EBB20" width="0.222" height="50.249"/>
		</g>
		<g clip-path="url(#SVGID_2_)">
			
				<rect x="30.724" y="-6.24" transform="matrix(0.8466 -0.5323 0.5323 0.8466 -5.3207 19.3095)" fill-rule="evenodd" clip-rule="evenodd" fill="#6EBB20" width="0.222" height="50.249"/>
		</g>
		<g clip-path="url(#SVGID_2_)">
			
				<rect x="30.598" y="-6.161" transform="matrix(0.8465 -0.5324 0.5324 0.8465 -5.3819 19.2601)" fill-rule="evenodd" clip-rule="evenodd" fill="#6EBB20" width="0.222" height="50.249"/>
		</g>
		<g clip-path="url(#SVGID_2_)">
			
				<rect x="30.473" y="-6.083" transform="matrix(0.8463 -0.5326 0.5326 0.8463 -5.443 19.2158)" fill-rule="evenodd" clip-rule="evenodd" fill="#6EBB20" width="0.222" height="50.249"/>
		</g>
		<g clip-path="url(#SVGID_2_)">
			
				<rect x="30.348" y="-6.004" transform="matrix(0.8464 -0.5325 0.5325 0.8464 -5.5043 19.1573)" fill-rule="evenodd" clip-rule="evenodd" fill="#6BBA20" width="0.222" height="50.249"/>
		</g>
		<g clip-path="url(#SVGID_2_)">
			
				<rect x="30.222" y="-5.925" transform="matrix(0.8465 -0.5324 0.5324 0.8465 -5.5656 19.0961)" fill-rule="evenodd" clip-rule="evenodd" fill="#6BBA20" width="0.222" height="50.249"/>
		</g>
		<g clip-path="url(#SVGID_2_)">
			
				<rect x="30.097" y="-5.846" transform="matrix(0.8466 -0.5323 0.5323 0.8466 -5.6268 19.0363)" fill-rule="evenodd" clip-rule="evenodd" fill="#6BBA20" width="0.222" height="50.249"/>
		</g>
		<g clip-path="url(#SVGID_2_)">
			
				<rect x="29.971" y="-5.767" transform="matrix(0.8465 -0.5324 0.5324 0.8465 -5.688 18.9868)" fill-rule="evenodd" clip-rule="evenodd" fill="#6BBA20" width="0.222" height="50.249"/>
		</g>
		<g clip-path="url(#SVGID_2_)">
			
				<rect x="29.846" y="-5.688" transform="matrix(0.8466 -0.5323 0.5323 0.8466 -5.7492 18.927)" fill-rule="evenodd" clip-rule="evenodd" fill="#6BBA20" width="0.222" height="50.249"/>
		</g>
		<g clip-path="url(#SVGID_2_)">
			
				<rect x="29.721" y="-5.609" transform="matrix(0.8464 -0.5326 0.5326 0.8464 -5.8107 18.8872)" fill-rule="evenodd" clip-rule="evenodd" fill="#6BBA20" width="0.222" height="50.249"/>
		</g>
		<g clip-path="url(#SVGID_2_)">
			
				<rect x="29.595" y="-5.53" transform="matrix(0.8465 -0.5324 0.5324 0.8465 -5.8717 18.8228)" fill-rule="evenodd" clip-rule="evenodd" fill="#6BBA20" width="0.222" height="50.249"/>
		</g>
		<g clip-path="url(#SVGID_2_)">
			
				<rect x="29.47" y="-5.451" transform="matrix(0.8466 -0.5323 0.5323 0.8466 -5.9329 18.7631)" fill-rule="evenodd" clip-rule="evenodd" fill="#69B921" width="0.222" height="50.249"/>
		</g>
		<g clip-path="url(#SVGID_2_)">
			
				<rect x="29.344" y="-5.373" transform="matrix(0.8465 -0.5324 0.5324 0.8465 -5.9942 18.7135)" fill-rule="evenodd" clip-rule="evenodd" fill="#69B921" width="0.222" height="50.249"/>
		</g>
		<g clip-path="url(#SVGID_2_)">
			
				<rect x="29.219" y="-5.294" transform="matrix(0.8465 -0.5323 0.5323 0.8465 -6.0554 18.657)" fill-rule="evenodd" clip-rule="evenodd" fill="#69B921" width="0.222" height="50.249"/>
		</g>
		<g clip-path="url(#SVGID_2_)">
			
				<rect x="29.094" y="-5.215" transform="matrix(0.8465 -0.5324 0.5324 0.8465 -6.1167 18.6042)" fill-rule="evenodd" clip-rule="evenodd" fill="#69B921" width="0.222" height="50.249"/>
		</g>
		<g clip-path="url(#SVGID_2_)">
			
				<rect x="28.968" y="-5.136" transform="matrix(0.8465 -0.5324 0.5324 0.8465 -6.1779 18.5496)" fill-rule="evenodd" clip-rule="evenodd" fill="#69B921" width="0.222" height="50.249"/>
		</g>
		<g clip-path="url(#SVGID_2_)">
			
				<rect x="28.843" y="-5.057" transform="matrix(0.8466 -0.5323 0.5323 0.8466 -6.239 18.4898)" fill-rule="evenodd" clip-rule="evenodd" fill="#66B821" width="0.222" height="50.249"/>
		</g>
		<g clip-path="url(#SVGID_2_)">
			
				<rect x="28.717" y="-4.978" transform="matrix(0.8465 -0.5324 0.5324 0.8465 -6.3004 18.4403)" fill-rule="evenodd" clip-rule="evenodd" fill="#66B821" width="0.222" height="50.249"/>
		</g>
		<g clip-path="url(#SVGID_2_)">
			
				<rect x="28.592" y="-4.899" transform="matrix(0.8464 -0.5325 0.5325 0.8464 -6.3619 18.3901)" fill-rule="evenodd" clip-rule="evenodd" fill="#66B821" width="0.222" height="50.249"/>
		</g>
		<g clip-path="url(#SVGID_2_)">
			
				<rect x="28.467" y="-4.821" transform="matrix(0.8465 -0.5324 0.5324 0.8465 -6.4229 18.331)" fill-rule="evenodd" clip-rule="evenodd" fill="#66B821" width="0.222" height="50.249"/>
		</g>
		<g clip-path="url(#SVGID_2_)">
			
				<rect x="28.341" y="-4.742" transform="matrix(0.8466 -0.5323 0.5323 0.8466 -6.4838 18.2712)" fill-rule="evenodd" clip-rule="evenodd" fill="#66B821" width="0.222" height="50.249"/>
		</g>
		<g clip-path="url(#SVGID_2_)">
			
				<rect x="28.216" y="-4.663" transform="matrix(0.8466 -0.5323 0.5323 0.8466 -6.545 18.2166)" fill-rule="evenodd" clip-rule="evenodd" fill="#66B821" width="0.222" height="50.249"/>
		</g>
		<g clip-path="url(#SVGID_2_)">
			
				<rect x="28.09" y="-4.584" transform="matrix(0.8465 -0.5325 0.5325 0.8465 -6.6068 18.1701)" fill-rule="evenodd" clip-rule="evenodd" fill="#66B821" width="0.222" height="50.249"/>
		</g>
		<g clip-path="url(#SVGID_2_)">
			
				<rect x="27.965" y="-4.505" transform="matrix(0.8464 -0.5325 0.5325 0.8464 -6.6682 18.1168)" fill-rule="evenodd" clip-rule="evenodd" fill="#64B622" width="0.222" height="50.249"/>
		</g>
		<g clip-path="url(#SVGID_2_)">
			
				<rect x="27.84" y="-4.426" transform="matrix(0.8465 -0.5324 0.5324 0.8465 -6.729 18.0577)" fill-rule="evenodd" clip-rule="evenodd" fill="#64B622" width="0.222" height="50.249"/>
		</g>
		<g clip-path="url(#SVGID_2_)">
			
				<rect x="27.714" y="-4.347" transform="matrix(0.8466 -0.5323 0.5323 0.8466 -6.7899 17.998)" fill-rule="evenodd" clip-rule="evenodd" fill="#64B622" width="0.222" height="50.249"/>
		</g>
		<g clip-path="url(#SVGID_2_)">
			
				<rect x="27.589" y="-4.269" transform="matrix(0.8466 -0.5323 0.5323 0.8466 -6.8511 17.9434)" fill-rule="evenodd" clip-rule="evenodd" fill="#64B622" width="0.222" height="50.249"/>
		</g>
		<g clip-path="url(#SVGID_2_)">
			
				<rect x="27.463" y="-4.19" transform="matrix(0.8465 -0.5324 0.5324 0.8465 -6.9127 17.8937)" fill-rule="evenodd" clip-rule="evenodd" fill="#64B622" width="0.222" height="50.249"/>
		</g>
		<g clip-path="url(#SVGID_2_)">
			
				<rect x="27.338" y="-4.111" transform="matrix(0.8466 -0.5323 0.5323 0.8466 -6.9736 17.8341)" fill-rule="evenodd" clip-rule="evenodd" fill="#61B522" width="0.222" height="50.249"/>
		</g>
		<g clip-path="url(#SVGID_2_)">
			
				<rect x="27.213" y="-4.032" transform="matrix(0.8465 -0.5324 0.5324 0.8465 -7.0352 17.7844)" fill-rule="evenodd" clip-rule="evenodd" fill="#61B522" width="0.222" height="50.249"/>
		</g>
		<g clip-path="url(#SVGID_2_)">
			
				<rect x="27.087" y="-3.953" transform="matrix(0.8465 -0.5324 0.5324 0.8465 -7.0965 17.7297)" fill-rule="evenodd" clip-rule="evenodd" fill="#61B522" width="0.222" height="50.249"/>
		</g>
		<g clip-path="url(#SVGID_2_)">
			
				<rect x="26.962" y="-3.874" transform="matrix(0.8465 -0.5324 0.5324 0.8465 -7.1577 17.6751)" fill-rule="evenodd" clip-rule="evenodd" fill="#61B522" width="0.222" height="50.249"/>
		</g>
		<g clip-path="url(#SVGID_2_)">
			
				<rect x="26.836" y="-3.795" transform="matrix(0.8464 -0.5326 0.5326 0.8464 -7.22 17.6297)" fill-rule="evenodd" clip-rule="evenodd" fill="#61B522" width="0.222" height="50.249"/>
		</g>
		<g clip-path="url(#SVGID_2_)">
			
				<rect x="26.711" y="-3.716" transform="matrix(0.8466 -0.5323 0.5323 0.8466 -7.2796 17.5609)" fill-rule="evenodd" clip-rule="evenodd" fill="#61B522" width="0.222" height="50.249"/>
		</g>
		<g clip-path="url(#SVGID_2_)">
			
				<rect x="26.586" y="-3.638" transform="matrix(0.8465 -0.5324 0.5324 0.8465 -7.3414 17.5111)" fill-rule="evenodd" clip-rule="evenodd" fill="#61B522" width="0.222" height="50.249"/>
		</g>
		<g clip-path="url(#SVGID_2_)">
			
				<rect x="26.46" y="-3.559" transform="matrix(0.8465 -0.5324 0.5324 0.8465 -7.4026 17.4565)" fill-rule="evenodd" clip-rule="evenodd" fill="#5EB423" width="0.222" height="50.249"/>
		</g>
		<g clip-path="url(#SVGID_2_)">
			
				<rect x="26.335" y="-3.48" transform="matrix(0.8465 -0.5324 0.5324 0.8465 -7.4639 17.4018)" fill-rule="evenodd" clip-rule="evenodd" fill="#5EB423" width="0.222" height="50.249"/>
		</g>
		<g clip-path="url(#SVGID_2_)">
			
				<rect x="26.209" y="-3.401" transform="matrix(0.8464 -0.5326 0.5326 0.8464 -7.5263 17.3564)" fill-rule="evenodd" clip-rule="evenodd" fill="#5EB423" width="0.222" height="50.249"/>
		</g>
		<g clip-path="url(#SVGID_2_)">
			
				<rect x="26.084" y="-3.322" transform="matrix(0.8466 -0.5323 0.5323 0.8466 -7.5857 17.2876)" fill-rule="evenodd" clip-rule="evenodd" fill="#5EB423" width="0.222" height="50.249"/>
		</g>
		<g clip-path="url(#SVGID_2_)">
			
				<rect x="25.959" y="-3.243" transform="matrix(0.8465 -0.5324 0.5324 0.8465 -7.6476 17.2378)" fill-rule="evenodd" clip-rule="evenodd" fill="#5CB323" width="0.222" height="50.249"/>
		</g>
		<g clip-path="url(#SVGID_2_)">
			
				<rect x="25.833" y="-3.164" transform="matrix(0.8466 -0.5323 0.5323 0.8466 -7.7081 17.1783)" fill-rule="evenodd" clip-rule="evenodd" fill="#5CB323" width="0.222" height="50.249"/>
		</g>
		<g clip-path="url(#SVGID_2_)">
			
				<rect x="25.708" y="-3.086" transform="matrix(0.8465 -0.5324 0.5324 0.8465 -7.7701 17.1286)" fill-rule="evenodd" clip-rule="evenodd" fill="#5CB323" width="0.222" height="50.249"/>
		</g>
		<g clip-path="url(#SVGID_2_)">
			
				<rect x="25.582" y="-3.007" transform="matrix(0.8465 -0.5324 0.5324 0.8465 -7.8313 17.0739)" fill-rule="evenodd" clip-rule="evenodd" fill="#5CB323" width="0.222" height="50.249"/>
		</g>
		<g clip-path="url(#SVGID_2_)">
			
				<rect x="25.457" y="-2.928" transform="matrix(0.8466 -0.5323 0.5323 0.8466 -7.8918 17.0144)" fill-rule="evenodd" clip-rule="evenodd" fill="#5CB323" width="0.222" height="50.249"/>
		</g>
		<g clip-path="url(#SVGID_2_)">
			
				<rect x="25.332" y="-2.849" transform="matrix(0.8465 -0.5324 0.5324 0.8465 -7.9538 16.9646)" fill-rule="evenodd" clip-rule="evenodd" fill="#5CB323" width="0.222" height="50.249"/>
		</g>
		<g clip-path="url(#SVGID_2_)">
			
				<rect x="25.206" y="-2.77" transform="matrix(0.8466 -0.5323 0.5323 0.8466 -8.0142 16.9051)" fill-rule="evenodd" clip-rule="evenodd" fill="#5CB323" width="0.222" height="50.249"/>
		</g>
		<g clip-path="url(#SVGID_2_)">
			
				<rect x="25.081" y="-2.691" transform="matrix(0.8464 -0.5326 0.5326 0.8464 -8.0778 16.8643)" fill-rule="evenodd" clip-rule="evenodd" fill="#5CB323" width="0.222" height="50.249"/>
		</g>
		<g clip-path="url(#SVGID_2_)">
			
				<rect x="24.955" y="-2.612" transform="matrix(0.8465 -0.5324 0.5324 0.8465 -8.1375 16.8006)" fill-rule="evenodd" clip-rule="evenodd" fill="#59B224" width="0.222" height="50.249"/>
		</g>
		<g clip-path="url(#SVGID_2_)">
			
				<rect x="24.83" y="-2.533" transform="matrix(0.8466 -0.5323 0.5323 0.8466 -8.1979 16.7412)" fill-rule="evenodd" clip-rule="evenodd" fill="#59B224" width="0.222" height="50.249"/>
		</g>
		<g clip-path="url(#SVGID_2_)">
			
				<rect x="24.705" y="-2.455" transform="matrix(0.8465 -0.5324 0.5324 0.8465 -8.26 16.6913)" fill-rule="evenodd" clip-rule="evenodd" fill="#59B224" width="0.222" height="50.249"/>
		</g>
		<g clip-path="url(#SVGID_2_)">
			
				<rect x="24.579" y="-2.376" transform="matrix(0.8466 -0.5323 0.5323 0.8466 -8.3203 16.6319)" fill-rule="evenodd" clip-rule="evenodd" fill="#59B224" width="0.222" height="50.249"/>
		</g>
		<g clip-path="url(#SVGID_2_)">
			
				<rect x="24.454" y="-2.297" transform="matrix(0.8464 -0.5326 0.5326 0.8464 -8.3841 16.5909)" fill-rule="evenodd" clip-rule="evenodd" fill="#59B224" width="0.222" height="50.249"/>
		</g>
		<g clip-path="url(#SVGID_2_)">
			
				<rect x="9.61" y="2.026" transform="matrix(0.8465 -0.5324 0.5324 0.8465 -11.7388 13.5865)" fill-rule="evenodd" clip-rule="evenodd" fill="#59B224" width="16.165" height="50.249"/>
		</g>
	</g>
</g>
<g>
	<path fill-rule="evenodd" clip-rule="evenodd" fill="#FFFFFF" d="M29.841,9.507c-4.716,4.975-8.705,3.322-9.734-1.707
		c0.619-0.815,4.293-1.546,6.042,1.648c-1.51-0.669-3.17-0.784-4.154-0.306c1.124,2.259,2.996,2.379,5.884-0.006
		c-1.329-1.961-3.331-3.479-5.746-3.873c2.783-1.292,5.918,0.037,7.715,4.227c-0.004-0.003-0.009-0.007-0.015-0.01
		C29.838,9.492,29.841,9.501,29.841,9.507z"/>
	<path fill-rule="evenodd" clip-rule="evenodd" fill="#FFFFFF" d="M27.383,15.324c-2.316-3.204-5.917-2.819-7.351-1.145
		c-0.887,1.035-0.811,2.663-1.078,4.543c-0.525,3.688-0.685,8.35-0.212,11.426c0.212,0.465,5.267,2.942,6.691,1.6
		C25.249,28.676,25.241,22.65,27.383,15.324z"/>
	<polygon fill-rule="evenodd" clip-rule="evenodd" fill="#FFFFFF" points="20.028,29.001 26.325,39.638 29.019,52.515 30.266,38.08 
		25.346,27.162 	"/>
	<polygon fill-rule="evenodd" clip-rule="evenodd" fill="#FFFFFF" points="18.763,28.513 19.102,37.851 15.093,50.144 
		23.653,39.499 23.567,29.477 	"/>
	<path fill-rule="evenodd" clip-rule="evenodd" fill="#FFFFFF" d="M25.047,13.542l5.846,5.981l7.997-4.637l-7.863,8.064
		l-6.989-5.174C24.039,17.776,24.913,13.677,25.047,13.542z"/>
	<path fill-rule="evenodd" clip-rule="evenodd" fill="#FFFFFF" d="M22.493,13.139l24.797-1.008l-0.134,0.874l-24.461,1.411
		C22.695,14.416,22.426,13.206,22.493,13.139z"/>
	<path fill-rule="evenodd" clip-rule="evenodd" fill="#FFFFFF" d="M42.855,13.072l-1.21,1.613L28.81,15.491l-4.906,1.814
		l0.067-3.561C23.972,13.744,42.788,12.938,42.855,13.072z"/>
	<path fill-rule="evenodd" clip-rule="evenodd" fill="#FFFFFF" d="M21.082,13.811l5.578,5.107l7.997-4.637l-7.863,8.064
		l-6.989-5.174C19.805,17.171,20.948,13.946,21.082,13.811z"/>
</g>
</svg>
