<?xml version="1.0" encoding="utf-8"?>
<!-- Generator: Adobe Illustrator 17.0.0, SVG Export Plug-In . SVG Version: 6.00 Build 0)  -->
<!DOCTYPE svg PUBLIC "-//W3C//DTD SVG 1.1//EN" "http://www.w3.org/Graphics/SVG/1.1/DTD/svg11.dtd">
<svg version="1.1" id="Layer_1" xmlns="http://www.w3.org/2000/svg" xmlns:xlink="http://www.w3.org/1999/xlink" x="0px" y="0px"
	 width="56px" height="56px" viewBox="0 0 56 56" enable-background="new 0 0 56 56" xml:space="preserve">
<g>
	<g>
		<defs>
			<path id="SVGID_1_" d="M55.756,11.19C35.504,5.036,19.498,1.033,0.244,3.61c3.265,16.105,8.622,34.798,19.751,50.441
				C31.33,38.543,42.362,25.029,55.756,11.19z"/>
		</defs>
		<clipPath id="SVGID_2_">
			<use xlink:href="#SVGID_1_"  overflow="visible"/>
		</clipPath>
		<g clip-path="url(#SVGID_2_)">
			
				<rect x="52.333" y="-21.742" transform="matrix(-0.8719 0.4897 -0.4897 -0.8719 100.5557 -16.1399)" fill-rule="evenodd" clip-rule="evenodd" fill="#EE047F" width="0.112" height="53.65"/>
		</g>
		<g clip-path="url(#SVGID_2_)">
			
				<rect x="52.203" y="-21.74" transform="matrix(0.8719 -0.4897 0.4897 0.8719 4.2202 26.3029)" fill-rule="evenodd" clip-rule="evenodd" fill="#EE047F" width="0.364" height="53.65"/>
		</g>
		<g clip-path="url(#SVGID_2_)">
			
				<rect x="51.992" y="-21.621" transform="matrix(0.8718 -0.4899 0.4899 0.8718 4.1397 26.2254)" fill-rule="evenodd" clip-rule="evenodd" fill="#EE047F" width="0.364" height="53.65"/>
		</g>
		<g clip-path="url(#SVGID_2_)">
			
				<rect x="51.78" y="-21.503" transform="matrix(0.8719 -0.4896 0.4896 0.8719 4.0487 26.1238)" fill-rule="evenodd" clip-rule="evenodd" fill="#EC047F" width="0.364" height="53.65"/>
		</g>
		<g clip-path="url(#SVGID_2_)">
			
				<rect x="51.569" y="-21.384" transform="matrix(0.8717 -0.4901 0.4901 0.8717 3.9734 26.0586)" fill-rule="evenodd" clip-rule="evenodd" fill="#EC047F" width="0.364" height="53.65"/>
		</g>
		<g clip-path="url(#SVGID_2_)">
			
				<rect x="51.358" y="-21.265" transform="matrix(0.8718 -0.4899 0.4899 0.8718 3.8839 25.9604)" fill-rule="evenodd" clip-rule="evenodd" fill="#EC047F" width="0.364" height="53.65"/>
		</g>
		<g clip-path="url(#SVGID_2_)">
			
				<rect x="51.146" y="-21.146" transform="matrix(0.8719 -0.4898 0.4898 0.8719 3.7959 25.8658)" fill-rule="evenodd" clip-rule="evenodd" fill="#E9047F" width="0.364" height="53.65"/>
		</g>
		<g clip-path="url(#SVGID_2_)">
			
				<rect x="50.935" y="-21.028" transform="matrix(0.8718 -0.4899 0.4899 0.8718 3.7144 25.7862)" fill-rule="evenodd" clip-rule="evenodd" fill="#E9047F" width="0.364" height="53.65"/>
		</g>
		<g clip-path="url(#SVGID_2_)">
			
				<rect x="50.723" y="-20.909" transform="matrix(0.8718 -0.4898 0.4898 0.8718 3.6274 25.6941)" fill-rule="evenodd" clip-rule="evenodd" fill="#E9047F" width="0.364" height="53.65"/>
		</g>
		<g clip-path="url(#SVGID_2_)">
			
				<rect x="50.512" y="-20.79" transform="matrix(0.8718 -0.4899 0.4899 0.8718 3.5438 25.6096)" fill-rule="evenodd" clip-rule="evenodd" fill="#E7047F" width="0.364" height="53.65"/>
		</g>
		<g clip-path="url(#SVGID_2_)">
			
				<rect x="50.301" y="-20.671" transform="matrix(0.8718 -0.4899 0.4899 0.8718 3.4585 25.5212)" fill-rule="evenodd" clip-rule="evenodd" fill="#E7047F" width="0.364" height="53.65"/>
		</g>
		<g clip-path="url(#SVGID_2_)">
			
				<rect x="50.089" y="-20.552" transform="matrix(0.8719 -0.4896 0.4896 0.8719 3.3669 25.4175)" fill-rule="evenodd" clip-rule="evenodd" fill="#E7047F" width="0.364" height="53.65"/>
		</g>
		<g clip-path="url(#SVGID_2_)">
			
				<rect x="49.878" y="-20.434" transform="matrix(0.8717 -0.49 0.49 0.8717 3.2899 25.3494)" fill-rule="evenodd" clip-rule="evenodd" fill="#E5037F" width="0.364" height="53.65"/>
		</g>
		<g clip-path="url(#SVGID_2_)">
			
				<rect x="49.667" y="-20.315" transform="matrix(0.8719 -0.4897 0.4897 0.8719 3.1974 25.2433)" fill-rule="evenodd" clip-rule="evenodd" fill="#E5037F" width="0.364" height="53.65"/>
		</g>
		<g clip-path="url(#SVGID_2_)">
			
				<rect x="49.455" y="-20.196" transform="matrix(0.8718 -0.4899 0.4899 0.8718 3.1164 25.1655)" fill-rule="evenodd" clip-rule="evenodd" fill="#E5037F" width="0.364" height="53.65"/>
		</g>
		<g clip-path="url(#SVGID_2_)">
			
				<rect x="49.244" y="-20.077" transform="matrix(0.8718 -0.4899 0.4899 0.8718 3.0311 25.0772)" fill-rule="evenodd" clip-rule="evenodd" fill="#E5037F" width="0.364" height="53.65"/>
		</g>
		<g clip-path="url(#SVGID_2_)">
			
				<rect x="49.032" y="-19.959" transform="matrix(0.8718 -0.4898 0.4898 0.8718 2.9445 24.9856)" fill-rule="evenodd" clip-rule="evenodd" fill="#E3037F" width="0.364" height="53.65"/>
		</g>
		<g clip-path="url(#SVGID_2_)">
			
				<rect x="48.821" y="-19.84" transform="matrix(0.8718 -0.4899 0.4899 0.8718 2.8605 24.9005)" fill-rule="evenodd" clip-rule="evenodd" fill="#E3037F" width="0.364" height="53.65"/>
		</g>
		<g clip-path="url(#SVGID_2_)">
			
				<rect x="48.61" y="-19.721" transform="matrix(0.8719 -0.4897 0.4897 0.8719 2.7713 24.8019)" fill-rule="evenodd" clip-rule="evenodd" fill="#E0037F" width="0.364" height="53.65"/>
		</g>
		<g clip-path="url(#SVGID_2_)">
			
				<rect x="48.398" y="-19.602" transform="matrix(0.8718 -0.4899 0.4899 0.8718 2.6909 24.7263)" fill-rule="evenodd" clip-rule="evenodd" fill="#E0037F" width="0.364" height="53.65"/>
		</g>
		<g clip-path="url(#SVGID_2_)">
			
				<rect x="48.187" y="-19.484" transform="matrix(0.8717 -0.49 0.49 0.8717 2.6074 24.6427)" fill-rule="evenodd" clip-rule="evenodd" fill="#E0037F" width="0.364" height="53.65"/>
		</g>
		<g clip-path="url(#SVGID_2_)">
			
				<rect x="47.976" y="-19.365" transform="matrix(0.8719 -0.4897 0.4897 0.8719 2.5156 24.537)" fill-rule="evenodd" clip-rule="evenodd" fill="#E0037F" width="0.364" height="53.65"/>
		</g>
		<g clip-path="url(#SVGID_2_)">
			
				<rect x="47.764" y="-19.246" transform="matrix(0.8718 -0.4899 0.4899 0.8718 2.435 24.4613)" fill-rule="evenodd" clip-rule="evenodd" fill="#DE037F" width="0.364" height="53.65"/>
		</g>
		<g clip-path="url(#SVGID_2_)">
			
				<rect x="47.553" y="-19.127" transform="matrix(0.8719 -0.4896 0.4896 0.8719 2.3442 24.358)" fill-rule="evenodd" clip-rule="evenodd" fill="#DE037F" width="0.364" height="53.65"/>
		</g>
		<g clip-path="url(#SVGID_2_)">
			
				<rect x="47.341" y="-19.009" transform="matrix(0.8717 -0.49 0.49 0.8717 2.2661 24.2893)" fill-rule="evenodd" clip-rule="evenodd" fill="#DC037F" width="0.364" height="53.65"/>
		</g>
		<g clip-path="url(#SVGID_2_)">
			
				<rect x="47.13" y="-18.89" transform="matrix(0.8719 -0.4897 0.4897 0.8719 2.1746 24.1838)" fill-rule="evenodd" clip-rule="evenodd" fill="#DC037F" width="0.364" height="53.65"/>
		</g>
		<g clip-path="url(#SVGID_2_)">
			
				<rect x="46.919" y="-18.771" transform="matrix(0.8718 -0.4899 0.4899 0.8718 2.093 24.1056)" fill-rule="evenodd" clip-rule="evenodd" fill="#DC037F" width="0.364" height="53.65"/>
		</g>
		<g clip-path="url(#SVGID_2_)">
			
				<rect x="46.707" y="-18.652" transform="matrix(0.8718 -0.4899 0.4899 0.8718 2.0078 24.0173)" fill-rule="evenodd" clip-rule="evenodd" fill="#DA037F" width="0.364" height="53.65"/>
		</g>
		<g clip-path="url(#SVGID_2_)">
			
				<rect x="46.496" y="-18.533" transform="matrix(0.8719 -0.4897 0.4897 0.8719 1.9189 23.9189)" fill-rule="evenodd" clip-rule="evenodd" fill="#DA037F" width="0.364" height="53.65"/>
		</g>
		<g clip-path="url(#SVGID_2_)">
			
				<rect x="46.284" y="-18.415" transform="matrix(0.8718 -0.4899 0.4899 0.8718 1.8372 23.8406)" fill-rule="evenodd" clip-rule="evenodd" fill="#DA037F" width="0.364" height="53.65"/>
		</g>
		<g clip-path="url(#SVGID_2_)">
			
				<rect x="46.073" y="-18.296" transform="matrix(0.8719 -0.4897 0.4897 0.8719 1.7485 23.7423)" fill-rule="evenodd" clip-rule="evenodd" fill="#D8037F" width="0.364" height="53.65"/>
		</g>
		<g clip-path="url(#SVGID_2_)">
			
				<rect x="45.862" y="-18.177" transform="matrix(0.8718 -0.4899 0.4899 0.8718 1.6674 23.6663)" fill-rule="evenodd" clip-rule="evenodd" fill="#D8037F" width="0.364" height="53.65"/>
		</g>
		<g clip-path="url(#SVGID_2_)">
			
				<rect x="45.65" y="-18.059" transform="matrix(0.8718 -0.4899 0.4899 0.8718 1.5814 23.5757)" fill-rule="evenodd" clip-rule="evenodd" fill="#D8037F" width="0.364" height="53.65"/>
		</g>
		<g clip-path="url(#SVGID_2_)">
			
				<rect x="45.439" y="-17.94" transform="matrix(0.8719 -0.4897 0.4897 0.8719 1.4928 23.4774)" fill-rule="evenodd" clip-rule="evenodd" fill="#D5037F" width="0.364" height="53.65"/>
		</g>
		<g clip-path="url(#SVGID_2_)">
			
				<rect x="45.228" y="-17.821" transform="matrix(0.8718 -0.4899 0.4899 0.8718 1.4116 23.4013)" fill-rule="evenodd" clip-rule="evenodd" fill="#D5037F" width="0.364" height="53.65"/>
		</g>
		<g clip-path="url(#SVGID_2_)">
			
				<rect x="45.016" y="-17.702" transform="matrix(0.8719 -0.4896 0.4896 0.8719 1.3216 23.2986)" fill-rule="evenodd" clip-rule="evenodd" fill="#D5037F" width="0.364" height="53.65"/>
		</g>
		<g clip-path="url(#SVGID_2_)">
			
				<rect x="44.805" y="-17.583" transform="matrix(0.8718 -0.4899 0.4899 0.8718 1.241 23.2246)" fill-rule="evenodd" clip-rule="evenodd" fill="#D3037F" width="0.364" height="53.65"/>
		</g>
		<g clip-path="url(#SVGID_2_)">
			
				<rect x="44.593" y="-17.465" transform="matrix(0.8718 -0.4899 0.4899 0.8718 1.1557 23.1363)" fill-rule="evenodd" clip-rule="evenodd" fill="#D3037F" width="0.364" height="53.65"/>
		</g>
		<g clip-path="url(#SVGID_2_)">
			
				<rect x="44.382" y="-17.346" transform="matrix(0.8719 -0.4896 0.4896 0.8719 1.0659 23.0337)" fill-rule="evenodd" clip-rule="evenodd" fill="#D3037F" width="0.364" height="53.65"/>
		</g>
		<g clip-path="url(#SVGID_2_)">
			
				<rect x="44.171" y="-17.227" transform="matrix(0.8718 -0.4899 0.4899 0.8718 0.9844 22.9574)" fill-rule="evenodd" clip-rule="evenodd" fill="#D1037F" width="0.364" height="53.65"/>
		</g>
		<g clip-path="url(#SVGID_2_)">
			
				<rect x="43.959" y="-17.108" transform="matrix(0.8719 -0.4897 0.4897 0.8719 0.8962 22.8593)" fill-rule="evenodd" clip-rule="evenodd" fill="#D1037F" width="0.364" height="53.65"/>
		</g>
		<g clip-path="url(#SVGID_2_)">
			
				<rect x="43.748" y="-16.99" transform="matrix(0.8718 -0.4899 0.4899 0.8718 0.8139 22.7808)" fill-rule="evenodd" clip-rule="evenodd" fill="#D1037F" width="0.364" height="53.65"/>
		</g>
		<g clip-path="url(#SVGID_2_)">
			
				<rect x="43.536" y="-16.871" transform="matrix(0.8718 -0.4899 0.4899 0.8718 0.7293 22.6947)" fill-rule="evenodd" clip-rule="evenodd" fill="#CF037F" width="0.364" height="53.65"/>
		</g>
		<g clip-path="url(#SVGID_2_)">
			
				<rect x="43.325" y="-16.752" transform="matrix(0.8719 -0.4898 0.4898 0.8719 0.6416 22.5984)" fill-rule="evenodd" clip-rule="evenodd" fill="#CF037F" width="0.364" height="53.65"/>
		</g>
		<g clip-path="url(#SVGID_2_)">
			
				<rect x="43.114" y="-16.633" transform="matrix(0.8718 -0.4899 0.4899 0.8718 0.5581 22.5158)" fill-rule="evenodd" clip-rule="evenodd" fill="#CF037F" width="0.364" height="53.65"/>
		</g>
		<g clip-path="url(#SVGID_2_)">
			
				<rect x="42.902" y="-16.515" transform="matrix(0.8719 -0.4898 0.4898 0.8719 0.4711 22.4218)" fill-rule="evenodd" clip-rule="evenodd" fill="#CD037F" width="0.364" height="53.65"/>
		</g>
		<g clip-path="url(#SVGID_2_)">
			
				<rect x="42.691" y="-16.396" transform="matrix(0.8718 -0.4898 0.4898 0.8718 0.387 22.3374)" fill-rule="evenodd" clip-rule="evenodd" fill="#CD037F" width="0.364" height="53.65"/>
		</g>
		<g clip-path="url(#SVGID_2_)">
			
				<rect x="42.48" y="-16.277" transform="matrix(0.8718 -0.4899 0.4899 0.8718 0.3022 22.2508)" fill-rule="evenodd" clip-rule="evenodd" fill="#CD037F" width="0.364" height="53.65"/>
		</g>
		<g clip-path="url(#SVGID_2_)">
			
				<rect x="42.268" y="-16.158" transform="matrix(0.8718 -0.4899 0.4899 0.8718 0.2175 22.1647)" fill-rule="evenodd" clip-rule="evenodd" fill="#CD037F" width="0.364" height="53.65"/>
		</g>
		<g clip-path="url(#SVGID_2_)">
			
				<rect x="42.057" y="-16.04" transform="matrix(0.8718 -0.4899 0.4899 0.8718 0.1322 22.0763)" fill-rule="evenodd" clip-rule="evenodd" fill="#CA037F" width="0.364" height="53.65"/>
		</g>
		<g clip-path="url(#SVGID_2_)">
			
				<rect x="41.845" y="-15.921" transform="matrix(0.8719 -0.4896 0.4896 0.8719 0.0433 21.9742)" fill-rule="evenodd" clip-rule="evenodd" fill="#CA037F" width="0.364" height="53.65"/>
		</g>
		<g clip-path="url(#SVGID_2_)">
			
				<rect x="41.634" y="-15.802" transform="matrix(0.8718 -0.4899 0.4899 0.8718 -0.0389 21.8975)" fill-rule="evenodd" clip-rule="evenodd" fill="#C8037F" width="0.364" height="53.65"/>
		</g>
		<g clip-path="url(#SVGID_2_)">
			
				<rect x="41.423" y="-15.683" transform="matrix(0.8719 -0.4897 0.4897 0.8719 -0.1266 21.7998)" fill-rule="evenodd" clip-rule="evenodd" fill="#C8037F" width="0.364" height="53.65"/>
		</g>
		<g clip-path="url(#SVGID_2_)">
			
				<rect x="41.211" y="-15.565" transform="matrix(0.8718 -0.4899 0.4899 0.8718 -0.2095 21.7209)" fill-rule="evenodd" clip-rule="evenodd" fill="#C8037F" width="0.364" height="53.65"/>
		</g>
		<g clip-path="url(#SVGID_2_)">
			
				<rect x="41" y="-15.446" transform="matrix(0.8718 -0.4899 0.4899 0.8718 -0.2942 21.6347)" fill-rule="evenodd" clip-rule="evenodd" fill="#C8037F" width="0.364" height="53.65"/>
		</g>
		<g clip-path="url(#SVGID_2_)">
			
				<rect x="40.789" y="-15.327" transform="matrix(0.8719 -0.4897 0.4897 0.8719 -0.3823 21.5349)" fill-rule="evenodd" clip-rule="evenodd" fill="#C6037E" width="0.364" height="53.65"/>
		</g>
		<g clip-path="url(#SVGID_2_)">
			
				<rect x="40.577" y="-15.208" transform="matrix(0.8718 -0.4899 0.4899 0.8718 -0.4653 21.4559)" fill-rule="evenodd" clip-rule="evenodd" fill="#C6037E" width="0.364" height="53.65"/>
		</g>
		<g clip-path="url(#SVGID_2_)">
			
				<rect x="40.366" y="-15.089" transform="matrix(0.8719 -0.4897 0.4897 0.8719 -0.5528 21.3583)" fill-rule="evenodd" clip-rule="evenodd" fill="#C4037E" width="0.364" height="53.65"/>
		</g>
		<g clip-path="url(#SVGID_2_)">
			
				<rect x="40.154" y="-14.971" transform="matrix(0.8718 -0.4899 0.4899 0.8718 -0.6354 21.2814)" fill-rule="evenodd" clip-rule="evenodd" fill="#C4037E" width="0.364" height="53.65"/>
		</g>
		<g clip-path="url(#SVGID_2_)">
			
				<rect x="39.943" y="-14.852" transform="matrix(0.8717 -0.49 0.49 0.8717 -0.7197 21.1973)" fill-rule="evenodd" clip-rule="evenodd" fill="#C4037E" width="0.364" height="53.65"/>
		</g>
		<g clip-path="url(#SVGID_2_)">
			
				<rect x="39.732" y="-14.733" transform="matrix(0.8719 -0.4897 0.4897 0.8719 -0.8085 21.0934)" fill-rule="evenodd" clip-rule="evenodd" fill="#C2037E" width="0.364" height="53.65"/>
		</g>
		<g clip-path="url(#SVGID_2_)">
			
				<rect x="39.52" y="-14.614" transform="matrix(0.8718 -0.4899 0.4899 0.8718 -0.8912 21.0164)" fill-rule="evenodd" clip-rule="evenodd" fill="#C2037E" width="0.364" height="53.65"/>
		</g>
		<g clip-path="url(#SVGID_2_)">
			
				<rect x="39.309" y="-14.496" transform="matrix(0.8719 -0.4896 0.4896 0.8719 -0.9794 20.9148)" fill-rule="evenodd" clip-rule="evenodd" fill="#C2037E" width="0.364" height="53.65"/>
		</g>
		<g clip-path="url(#SVGID_2_)">
			
				<rect x="39.097" y="-14.377" transform="matrix(0.8717 -0.49 0.49 0.8717 -1.0609 20.8439)" fill-rule="evenodd" clip-rule="evenodd" fill="#BF037E" width="0.364" height="53.65"/>
		</g>
		<g clip-path="url(#SVGID_2_)">
			
				<rect x="38.886" y="-14.258" transform="matrix(0.8718 -0.4899 0.4899 0.8718 -1.1471 20.7514)" fill-rule="evenodd" clip-rule="evenodd" fill="#BF037E" width="0.364" height="53.65"/>
		</g>
		<g clip-path="url(#SVGID_2_)">
			
				<rect x="38.675" y="-14.139" transform="matrix(0.8719 -0.4896 0.4896 0.8719 -1.235 20.6499)" fill-rule="evenodd" clip-rule="evenodd" fill="#BF037E" width="0.364" height="53.65"/>
		</g>
		<g clip-path="url(#SVGID_2_)">
			
				<rect x="38.463" y="-14.021" transform="matrix(0.8718 -0.4899 0.4899 0.8718 -1.3181 20.5727)" fill-rule="evenodd" clip-rule="evenodd" fill="#BD037E" width="0.364" height="53.65"/>
		</g>
		<g clip-path="url(#SVGID_2_)">
			
				<rect x="38.252" y="-13.902" transform="matrix(0.8718 -0.4898 0.4898 0.8718 -1.4039 20.4815)" fill-rule="evenodd" clip-rule="evenodd" fill="#BD037E" width="0.364" height="53.65"/>
		</g>
		<g clip-path="url(#SVGID_2_)">
			
				<rect x="38.04" y="-13.783" transform="matrix(0.8718 -0.4899 0.4899 0.8718 -1.4886 20.396)" fill-rule="evenodd" clip-rule="evenodd" fill="#BD037E" width="0.364" height="53.65"/>
		</g>
		<g clip-path="url(#SVGID_2_)">
			
				<rect x="37.829" y="-13.664" transform="matrix(0.8718 -0.4899 0.4899 0.8718 -1.5735 20.3097)" fill-rule="evenodd" clip-rule="evenodd" fill="#BB037E" width="0.364" height="53.65"/>
		</g>
		<g clip-path="url(#SVGID_2_)">
			
				<rect x="37.618" y="-13.546" transform="matrix(0.8719 -0.4897 0.4897 0.8719 -1.6607 20.2105)" fill-rule="evenodd" clip-rule="evenodd" fill="#BB037E" width="0.364" height="53.65"/>
		</g>
		<g clip-path="url(#SVGID_2_)">
			
				<rect x="37.406" y="-13.427" transform="matrix(0.8717 -0.49 0.49 0.8717 -1.7434 20.1371)" fill-rule="evenodd" clip-rule="evenodd" fill="#BB037E" width="0.364" height="53.65"/>
		</g>
		<g clip-path="url(#SVGID_2_)">
			
				<rect x="37.195" y="-13.308" transform="matrix(0.8719 -0.4897 0.4897 0.8719 -1.8312 20.0339)" fill-rule="evenodd" clip-rule="evenodd" fill="#B9027E" width="0.364" height="53.65"/>
		</g>
		<g clip-path="url(#SVGID_2_)">
			
				<rect x="36.984" y="-13.189" transform="matrix(0.8718 -0.4899 0.4899 0.8718 -1.9147 19.9564)" fill-rule="evenodd" clip-rule="evenodd" fill="#B9027E" width="0.364" height="53.65"/>
		</g>
		<g clip-path="url(#SVGID_2_)">
			
				<rect x="36.772" y="-13.071" transform="matrix(0.8719 -0.4896 0.4896 0.8719 -2.002 19.8553)" fill-rule="evenodd" clip-rule="evenodd" fill="#B9027E" width="0.364" height="53.65"/>
		</g>
		<g clip-path="url(#SVGID_2_)">
			
				<rect x="36.561" y="-12.952" transform="matrix(0.8717 -0.49 0.49 0.8717 -2.0847 19.7838)" fill-rule="evenodd" clip-rule="evenodd" fill="#B9027E" width="0.364" height="53.65"/>
		</g>
		<g clip-path="url(#SVGID_2_)">
			
				<rect x="36.349" y="-12.833" transform="matrix(0.8718 -0.4899 0.4899 0.8718 -2.1705 19.6914)" fill-rule="evenodd" clip-rule="evenodd" fill="#B6027E" width="0.364" height="53.65"/>
		</g>
		<g clip-path="url(#SVGID_2_)">
			
				<rect x="36.138" y="-12.714" transform="matrix(0.8719 -0.4896 0.4896 0.8719 -2.2576 19.5904)" fill-rule="evenodd" clip-rule="evenodd" fill="#B6027E" width="0.364" height="53.65"/>
		</g>
		<g clip-path="url(#SVGID_2_)">
			
				<rect x="35.927" y="-12.596" transform="matrix(0.8718 -0.4899 0.4899 0.8718 -2.3414 19.5128)" fill-rule="evenodd" clip-rule="evenodd" fill="#B4027E" width="0.364" height="53.65"/>
		</g>
		<g clip-path="url(#SVGID_2_)">
			
				<rect x="35.715" y="-12.477" transform="matrix(0.8718 -0.4898 0.4898 0.8718 -2.427 19.4217)" fill-rule="evenodd" clip-rule="evenodd" fill="#B4027E" width="0.364" height="53.65"/>
		</g>
		<g clip-path="url(#SVGID_2_)">
			
				<rect x="35.504" y="-12.358" transform="matrix(0.8718 -0.4899 0.4899 0.8718 -2.512 19.3361)" fill-rule="evenodd" clip-rule="evenodd" fill="#B4027E" width="0.364" height="53.65"/>
		</g>
		<g clip-path="url(#SVGID_2_)">
			
				<rect x="35.293" y="-12.239" transform="matrix(0.8718 -0.4898 0.4898 0.8718 -2.5974 19.2463)" fill-rule="evenodd" clip-rule="evenodd" fill="#B4027E" width="0.364" height="53.65"/>
		</g>
		<g clip-path="url(#SVGID_2_)">
			
				<rect x="35.081" y="-12.12" transform="matrix(0.8719 -0.4898 0.4898 0.8719 -2.6831 19.1544)" fill-rule="evenodd" clip-rule="evenodd" fill="#B2027E" width="0.364" height="53.65"/>
		</g>
		<g clip-path="url(#SVGID_2_)">
			
				<rect x="34.87" y="-12.002" transform="matrix(0.8718 -0.4899 0.4899 0.8718 -2.7678 19.0711)" fill-rule="evenodd" clip-rule="evenodd" fill="#B2027E" width="0.364" height="53.65"/>
		</g>
		<g clip-path="url(#SVGID_2_)">
			
				<rect x="34.658" y="-11.883" transform="matrix(0.8719 -0.4898 0.4898 0.8719 -2.8536 18.9778)" fill-rule="evenodd" clip-rule="evenodd" fill="#B0027E" width="0.364" height="53.65"/>
		</g>
		<g clip-path="url(#SVGID_2_)">
			
				<rect x="34.447" y="-11.764" transform="matrix(0.8718 -0.4899 0.4899 0.8718 -2.9381 18.8964)" fill-rule="evenodd" clip-rule="evenodd" fill="#B0027E" width="0.364" height="53.65"/>
		</g>
		<g clip-path="url(#SVGID_2_)">
			
				<rect x="34.236" y="-11.645" transform="matrix(0.8718 -0.4899 0.4899 0.8718 -3.0236 18.8062)" fill-rule="evenodd" clip-rule="evenodd" fill="#B0027E" width="0.364" height="53.65"/>
		</g>
		<g clip-path="url(#SVGID_2_)">
			
				<rect x="34.024" y="-11.527" transform="matrix(0.8719 -0.4897 0.4897 0.8719 -3.1097 18.7094)" fill-rule="evenodd" clip-rule="evenodd" fill="#B0027E" width="0.364" height="53.65"/>
		</g>
		<g clip-path="url(#SVGID_2_)">
			
				<rect x="33.813" y="-11.408" transform="matrix(0.8718 -0.4899 0.4899 0.8718 -3.194 18.6314)" fill-rule="evenodd" clip-rule="evenodd" fill="#AE027E" width="0.364" height="53.65"/>
		</g>
		<g clip-path="url(#SVGID_2_)">
			
				<rect x="33.602" y="-11.289" transform="matrix(0.8719 -0.4896 0.4896 0.8719 -3.2803 18.531)" fill-rule="evenodd" clip-rule="evenodd" fill="#AE027E" width="0.364" height="53.65"/>
		</g>
		<g clip-path="url(#SVGID_2_)">
			
				<rect x="33.39" y="-11.17" transform="matrix(0.8718 -0.4899 0.4899 0.8718 -3.3647 18.4529)" fill-rule="evenodd" clip-rule="evenodd" fill="#AB027E" width="0.364" height="53.65"/>
		</g>
		<g clip-path="url(#SVGID_2_)">
			
				<rect x="33.179" y="-11.052" transform="matrix(0.8718 -0.4899 0.4899 0.8718 -3.4499 18.3664)" fill-rule="evenodd" clip-rule="evenodd" fill="#AB027E" width="0.364" height="53.65"/>
		</g>
		<g clip-path="url(#SVGID_2_)">
			
				<rect x="32.967" y="-10.933" transform="matrix(0.8719 -0.4896 0.4896 0.8719 -3.5359 18.2661)" fill-rule="evenodd" clip-rule="evenodd" fill="#AB027E" width="0.364" height="53.65"/>
		</g>
		<g clip-path="url(#SVGID_2_)">
			
				<rect x="32.756" y="-10.814" transform="matrix(0.8718 -0.4899 0.4899 0.8718 -3.6204 18.1898)" fill-rule="evenodd" clip-rule="evenodd" fill="#A9027E" width="0.364" height="53.65"/>
		</g>
		<g clip-path="url(#SVGID_2_)">
			
				<rect x="32.545" y="-10.695" transform="matrix(0.8719 -0.4897 0.4897 0.8719 -3.7063 18.0914)" fill-rule="evenodd" clip-rule="evenodd" fill="#A9027E" width="0.364" height="53.65"/>
		</g>
		<g clip-path="url(#SVGID_2_)">
			
				<rect x="32.333" y="-10.577" transform="matrix(0.8718 -0.4899 0.4899 0.8718 -3.7911 18.0112)" fill-rule="evenodd" clip-rule="evenodd" fill="#A9027E" width="0.364" height="53.65"/>
		</g>
		<g clip-path="url(#SVGID_2_)">
			
				<rect x="32.122" y="-10.458" transform="matrix(0.8718 -0.4899 0.4899 0.8718 -3.8763 17.9248)" fill-rule="evenodd" clip-rule="evenodd" fill="#A7027E" width="0.364" height="53.65"/>
		</g>
		<g clip-path="url(#SVGID_2_)">
			
				<rect x="31.91" y="-10.339" transform="matrix(0.8719 -0.4897 0.4897 0.8719 -3.962 17.8265)" fill-rule="evenodd" clip-rule="evenodd" fill="#A7027E" width="0.364" height="53.65"/>
		</g>
		<g clip-path="url(#SVGID_2_)">
			
				<rect x="31.699" y="-10.22" transform="matrix(0.8718 -0.4899 0.4899 0.8718 -4.0469 17.7463)" fill-rule="evenodd" clip-rule="evenodd" fill="#A7027E" width="0.364" height="53.65"/>
		</g>
		<g clip-path="url(#SVGID_2_)">
			
				<rect x="31.488" y="-10.101" transform="matrix(0.8719 -0.4897 0.4897 0.8719 -4.1325 17.6499)" fill-rule="evenodd" clip-rule="evenodd" fill="#A5027E" width="0.364" height="53.65"/>
		</g>
		<g clip-path="url(#SVGID_2_)">
			
				<rect x="31.276" y="-9.983" transform="matrix(0.8718 -0.4899 0.4899 0.8718 -4.2175 17.5715)" fill-rule="evenodd" clip-rule="evenodd" fill="#A5027E" width="0.364" height="53.65"/>
		</g>
		<g clip-path="url(#SVGID_2_)">
			
				<rect x="31.065" y="-9.864" transform="matrix(0.8719 -0.4896 0.4896 0.8719 -4.3029 17.4715)" fill-rule="evenodd" clip-rule="evenodd" fill="#A5027E" width="0.364" height="53.65"/>
		</g>
		<g clip-path="url(#SVGID_2_)">
			
				<rect x="30.853" y="-9.745" transform="matrix(0.8718 -0.4899 0.4899 0.8718 -4.3881 17.393)" fill-rule="evenodd" clip-rule="evenodd" fill="#A3027E" width="0.364" height="53.65"/>
		</g>
		<g clip-path="url(#SVGID_2_)">
			
				<rect x="30.642" y="-9.627" transform="matrix(0.8718 -0.4899 0.4899 0.8718 -4.4733 17.3065)" fill-rule="evenodd" clip-rule="evenodd" fill="#A3027E" width="0.364" height="53.65"/>
		</g>
		<g clip-path="url(#SVGID_2_)">
			
				<rect x="30.431" y="-9.508" transform="matrix(0.8719 -0.4896 0.4896 0.8719 -4.5586 17.2066)" fill-rule="evenodd" clip-rule="evenodd" fill="#A3027E" width="0.364" height="53.65"/>
		</g>
		<g clip-path="url(#SVGID_2_)">
			
				<rect x="30.219" y="-9.389" transform="matrix(0.8718 -0.4899 0.4899 0.8718 -4.6439 17.1298)" fill-rule="evenodd" clip-rule="evenodd" fill="#A0027E" width="0.364" height="53.65"/>
		</g>
		<g clip-path="url(#SVGID_2_)">
			
				<rect x="30.008" y="-9.27" transform="matrix(0.8719 -0.4897 0.4897 0.8719 -4.7291 17.0318)" fill-rule="evenodd" clip-rule="evenodd" fill="#A0027E" width="0.364" height="53.65"/>
		</g>
		<g clip-path="url(#SVGID_2_)">
			
				<rect x="29.797" y="-9.151" transform="matrix(0.8718 -0.4899 0.4899 0.8718 -4.8144 16.9514)" fill-rule="evenodd" clip-rule="evenodd" fill="#A0027E" width="0.364" height="53.65"/>
		</g>
		<g clip-path="url(#SVGID_2_)">
			
				<rect x="29.585" y="-9.033" transform="matrix(0.8718 -0.4899 0.4899 0.8718 -4.8997 16.8648)" fill-rule="evenodd" clip-rule="evenodd" fill="#A0027E" width="0.364" height="53.65"/>
		</g>
		<g clip-path="url(#SVGID_2_)">
			
				<rect x="29.374" y="-8.914" transform="matrix(0.8719 -0.4897 0.4897 0.8719 -4.9848 16.767)" fill-rule="evenodd" clip-rule="evenodd" fill="#9E027E" width="0.364" height="53.65"/>
		</g>
		<g clip-path="url(#SVGID_2_)">
			
				<rect x="29.162" y="-8.795" transform="matrix(0.8717 -0.49 0.49 0.8717 -5.0705 16.6917)" fill-rule="evenodd" clip-rule="evenodd" fill="#9E027E" width="0.364" height="53.65"/>
		</g>
		<g clip-path="url(#SVGID_2_)">
			
				<rect x="28.951" y="-8.676" transform="matrix(0.8719 -0.4897 0.4897 0.8719 -5.1552 16.5903)" fill-rule="evenodd" clip-rule="evenodd" fill="#9C027E" width="0.364" height="53.65"/>
		</g>
		<g clip-path="url(#SVGID_2_)">
			
				<rect x="28.74" y="-8.558" transform="matrix(0.8718 -0.4899 0.4899 0.8718 -5.2409 16.5115)" fill-rule="evenodd" clip-rule="evenodd" fill="#9C027E" width="0.364" height="53.65"/>
		</g>
		<g clip-path="url(#SVGID_2_)">
			
				<rect x="28.528" y="-8.439" transform="matrix(0.8718 -0.4899 0.4899 0.8718 -5.3261 16.4214)" fill-rule="evenodd" clip-rule="evenodd" fill="#9C027E" width="0.364" height="53.65"/>
		</g>
		<g clip-path="url(#SVGID_2_)">
			
				<rect x="28.317" y="-8.32" transform="matrix(0.8719 -0.4898 0.4898 0.8719 -5.4111 16.329)" fill-rule="evenodd" clip-rule="evenodd" fill="#9C027E" width="0.364" height="53.65"/>
		</g>
		<g clip-path="url(#SVGID_2_)">
			
				<rect x="28.105" y="-8.201" transform="matrix(0.8718 -0.4899 0.4899 0.8718 -5.4968 16.2465)" fill-rule="evenodd" clip-rule="evenodd" fill="#9A027E" width="0.364" height="53.65"/>
		</g>
		<g clip-path="url(#SVGID_2_)">
			
				<rect x="27.894" y="-8.082" transform="matrix(0.8719 -0.4896 0.4896 0.8719 -5.5812 16.1471)" fill-rule="evenodd" clip-rule="evenodd" fill="#9A027E" width="0.364" height="53.65"/>
		</g>
		<g clip-path="url(#SVGID_2_)">
			
				<rect x="27.683" y="-7.964" transform="matrix(0.8718 -0.4899 0.4899 0.8718 -5.6674 16.0699)" fill-rule="evenodd" clip-rule="evenodd" fill="#98027E" width="0.364" height="53.65"/>
		</g>
		<g clip-path="url(#SVGID_2_)">
			
				<rect x="27.471" y="-7.845" transform="matrix(0.8717 -0.49 0.49 0.8717 -5.7528 15.9836)" fill-rule="evenodd" clip-rule="evenodd" fill="#98027E" width="0.364" height="53.65"/>
		</g>
		<g clip-path="url(#SVGID_2_)">
			
				<rect x="27.26" y="-7.726" transform="matrix(0.8719 -0.4897 0.4897 0.8719 -5.8372 15.8853)" fill-rule="evenodd" clip-rule="evenodd" fill="#98027E" width="0.364" height="53.65"/>
		</g>
		<g clip-path="url(#SVGID_2_)">
			
				<rect x="27.049" y="-7.608" transform="matrix(0.8718 -0.4899 0.4899 0.8718 -5.9232 15.8049)" fill-rule="evenodd" clip-rule="evenodd" fill="#98027E" width="0.364" height="53.65"/>
		</g>
		<g clip-path="url(#SVGID_2_)">
			
				<rect x="26.837" y="-7.489" transform="matrix(0.8719 -0.4898 0.4898 0.8719 -6.0079 15.7105)" fill-rule="evenodd" clip-rule="evenodd" fill="#95027E" width="0.364" height="53.65"/>
		</g>
		<g clip-path="url(#SVGID_2_)">
			
				<rect x="26.626" y="-7.37" transform="matrix(0.8717 -0.49 0.49 0.8717 -6.0942 15.6316)" fill-rule="evenodd" clip-rule="evenodd" fill="#95027E" width="0.364" height="53.65"/>
		</g>
		<g clip-path="url(#SVGID_2_)">
			
				<rect x="26.414" y="-7.251" transform="matrix(0.8718 -0.4899 0.4899 0.8718 -6.1791 15.5399)" fill-rule="evenodd" clip-rule="evenodd" fill="#93027E" width="0.364" height="53.65"/>
		</g>
		<g clip-path="url(#SVGID_2_)">
			
				<rect x="26.203" y="-7.132" transform="matrix(0.8718 -0.4899 0.4899 0.8718 -6.2644 15.4515)" fill-rule="evenodd" clip-rule="evenodd" fill="#93027E" width="0.364" height="53.65"/>
		</g>
		<g clip-path="url(#SVGID_2_)">
			
				<rect x="25.992" y="-7.014" transform="matrix(0.8718 -0.4899 0.4899 0.8718 -6.3494 15.3615)" fill-rule="evenodd" clip-rule="evenodd" fill="#93027E" width="0.364" height="53.65"/>
		</g>
		<g clip-path="url(#SVGID_2_)">
			
				<rect x="25.78" y="-6.895" transform="matrix(0.8719 -0.4898 0.4898 0.8719 -6.4342 15.2693)" fill-rule="evenodd" clip-rule="evenodd" fill="#93027E" width="0.364" height="53.65"/>
		</g>
		<g clip-path="url(#SVGID_2_)">
			
				<rect x="25.569" y="-6.776" transform="matrix(0.8718 -0.4899 0.4899 0.8718 -6.5202 15.1865)" fill-rule="evenodd" clip-rule="evenodd" fill="#91027E" width="0.364" height="53.65"/>
		</g>
		<g clip-path="url(#SVGID_2_)">
			
				<rect x="25.358" y="-6.657" transform="matrix(0.8719 -0.4896 0.4896 0.8719 -6.6039 15.0877)" fill-rule="evenodd" clip-rule="evenodd" fill="#91027E" width="0.364" height="53.65"/>
		</g>
		<g clip-path="url(#SVGID_2_)">
			
				<rect x="25.146" y="-6.539" transform="matrix(0.8718 -0.4899 0.4899 0.8718 -6.6906 15.0082)" fill-rule="evenodd" clip-rule="evenodd" fill="#8F027E" width="0.364" height="53.65"/>
		</g>
		<g clip-path="url(#SVGID_2_)">
			
				<rect x="24.935" y="-6.42" transform="matrix(0.8717 -0.4901 0.4901 0.8717 -6.777 14.9265)" fill-rule="evenodd" clip-rule="evenodd" fill="#8F027E" width="0.364" height="53.65"/>
		</g>
		<g clip-path="url(#SVGID_2_)">
			
				<rect x="24.723" y="-6.301" transform="matrix(0.8719 -0.4896 0.4896 0.8719 -6.8595 14.8228)" fill-rule="evenodd" clip-rule="evenodd" fill="#8F027E" width="0.364" height="53.65"/>
		</g>
		<g clip-path="url(#SVGID_2_)">
			
				<rect x="24.512" y="-6.182" transform="matrix(0.8718 -0.4899 0.4899 0.8718 -6.9467 14.7449)" fill-rule="evenodd" clip-rule="evenodd" fill="#8D027E" width="0.364" height="53.65"/>
		</g>
		<g clip-path="url(#SVGID_2_)">
			
				<rect x="24.301" y="-6.064" transform="matrix(0.8719 -0.4897 0.4897 0.8719 -7.0303 14.6478)" fill-rule="evenodd" clip-rule="evenodd" fill="#8D027E" width="0.364" height="53.65"/>
		</g>
		<g clip-path="url(#SVGID_2_)">
			
				<rect x="24.089" y="-5.945" transform="matrix(0.8718 -0.4899 0.4899 0.8718 -7.1169 14.5666)" fill-rule="evenodd" clip-rule="evenodd" fill="#8D027E" width="0.364" height="53.65"/>
		</g>
		<g clip-path="url(#SVGID_2_)">
			
				<rect x="23.878" y="-5.826" transform="matrix(0.8718 -0.4899 0.4899 0.8718 -7.2025 14.4799)" fill-rule="evenodd" clip-rule="evenodd" fill="#8D027E" width="0.364" height="53.65"/>
		</g>
		<g clip-path="url(#SVGID_2_)">
			
				<rect x="23.667" y="-5.707" transform="matrix(0.8719 -0.4897 0.4897 0.8719 -7.286 14.383)" fill-rule="evenodd" clip-rule="evenodd" fill="#8A027E" width="0.364" height="53.65"/>
		</g>
		<g clip-path="url(#SVGID_2_)">
			
				<rect x="23.455" y="-5.589" transform="matrix(0.8718 -0.4899 0.4899 0.8718 -7.3728 14.3016)" fill-rule="evenodd" clip-rule="evenodd" fill="#8A027E" width="0.364" height="53.65"/>
		</g>
		<g clip-path="url(#SVGID_2_)">
			
				<rect x="23.244" y="-5.47" transform="matrix(0.8719 -0.4897 0.4897 0.8719 -7.4565 14.2064)" fill-rule="evenodd" clip-rule="evenodd" fill="#88027E" width="0.364" height="53.65"/>
		</g>
		<g clip-path="url(#SVGID_2_)">
			
				<rect x="23.032" y="-5.351" transform="matrix(0.8718 -0.4899 0.4899 0.8718 -7.5437 14.1266)" fill-rule="evenodd" clip-rule="evenodd" fill="#88027E" width="0.364" height="53.65"/>
		</g>
		<g clip-path="url(#SVGID_2_)">
			
				<rect x="22.821" y="-5.232" transform="matrix(0.8718 -0.4899 0.4899 0.8718 -7.6286 14.0367)" fill-rule="evenodd" clip-rule="evenodd" fill="#88027E" width="0.364" height="53.65"/>
		</g>
		<g clip-path="url(#SVGID_2_)">
			
				<rect x="22.61" y="-5.113" transform="matrix(0.8719 -0.4896 0.4896 0.8719 -7.7117 13.9399)" fill-rule="evenodd" clip-rule="evenodd" fill="#88027E" width="0.364" height="53.65"/>
		</g>
		<g clip-path="url(#SVGID_2_)">
			
				<rect x="22.398" y="-4.995" transform="matrix(0.8718 -0.4899 0.4899 0.8718 -7.7996 13.8616)" fill-rule="evenodd" clip-rule="evenodd" fill="#86027E" width="0.364" height="53.65"/>
		</g>
		<g clip-path="url(#SVGID_2_)">
			
				<rect x="22.187" y="-4.876" transform="matrix(0.8719 -0.4896 0.4896 0.8719 -7.8822 13.7633)" fill-rule="evenodd" clip-rule="evenodd" fill="#86027E" width="0.364" height="53.65"/>
		</g>
		<g clip-path="url(#SVGID_2_)">
			
				<rect x="21.975" y="-4.757" transform="matrix(0.8718 -0.4899 0.4899 0.8718 -7.9701 13.6849)" fill-rule="evenodd" clip-rule="evenodd" fill="#84027E" width="0.364" height="53.65"/>
		</g>
		<g clip-path="url(#SVGID_2_)">
			
				<rect x="21.764" y="-4.639" transform="matrix(0.8718 -0.4899 0.4899 0.8718 -8.0554 13.5966)" fill-rule="evenodd" clip-rule="evenodd" fill="#84027E" width="0.364" height="53.65"/>
		</g>
		<g clip-path="url(#SVGID_2_)">
			
				<rect x="21.553" y="-4.52" transform="matrix(0.8719 -0.4896 0.4896 0.8719 -8.1378 13.4984)" fill-rule="evenodd" clip-rule="evenodd" fill="#84027E" width="0.364" height="53.65"/>
		</g>
		<g clip-path="url(#SVGID_2_)">
			
				<rect x="21.341" y="-4.401" transform="matrix(0.8718 -0.4899 0.4899 0.8718 -8.226 13.4199)" fill-rule="evenodd" clip-rule="evenodd" fill="#84027E" width="0.364" height="53.65"/>
		</g>
		<g clip-path="url(#SVGID_2_)">
			
				<rect x="21.13" y="-4.282" transform="matrix(0.8719 -0.4897 0.4897 0.8719 -8.3088 13.3234)" fill-rule="evenodd" clip-rule="evenodd" fill="#82027E" width="0.364" height="53.65"/>
		</g>
		<g clip-path="url(#SVGID_2_)">
			
				<rect x="20.919" y="-4.163" transform="matrix(0.8718 -0.4899 0.4899 0.8718 -8.3961 13.2418)" fill-rule="evenodd" clip-rule="evenodd" fill="#82027E" width="0.364" height="53.65"/>
		</g>
		<g clip-path="url(#SVGID_2_)">
			
				<rect x="20.707" y="-4.045" transform="matrix(0.8719 -0.4897 0.4897 0.8719 -8.4792 13.1468)" fill-rule="evenodd" clip-rule="evenodd" fill="#7F017E" width="0.364" height="53.65"/>
		</g>
		<g clip-path="url(#SVGID_2_)">
			
				<rect x="20.496" y="-3.926" transform="matrix(0.8718 -0.4899 0.4899 0.8718 -8.5672 13.0666)" fill-rule="evenodd" clip-rule="evenodd" fill="#7F017E" width="0.364" height="53.65"/>
		</g>
		<g clip-path="url(#SVGID_2_)">
			
				<rect x="20.284" y="-3.807" transform="matrix(0.8718 -0.4899 0.4899 0.8718 -8.6519 12.9768)" fill-rule="evenodd" clip-rule="evenodd" fill="#7D017D" width="0.364" height="53.65"/>
		</g>
		<g clip-path="url(#SVGID_2_)">
			
				<rect x="20.073" y="-3.688" transform="matrix(0.8719 -0.4896 0.4896 0.8719 -8.7344 12.8804)" fill-rule="evenodd" clip-rule="evenodd" fill="#7D017D" width="0.364" height="53.65"/>
		</g>
		<g clip-path="url(#SVGID_2_)">
			
				<rect x="19.862" y="-3.57" transform="matrix(0.8718 -0.4899 0.4899 0.8718 -8.823 12.8016)" fill-rule="evenodd" clip-rule="evenodd" fill="#7B017D" width="0.364" height="53.65"/>
		</g>
		<g clip-path="url(#SVGID_2_)">
			
				<rect x="19.65" y="-3.451" transform="matrix(0.8719 -0.4897 0.4897 0.8719 -8.9058 12.7065)" fill-rule="evenodd" clip-rule="evenodd" fill="#7B017D" width="0.364" height="53.65"/>
		</g>
		<g clip-path="url(#SVGID_2_)">
			
				<rect x="19.439" y="-3.332" transform="matrix(0.8718 -0.4899 0.4899 0.8718 -8.9936 12.625)" fill-rule="evenodd" clip-rule="evenodd" fill="#79017D" width="0.364" height="53.65"/>
		</g>
		<g clip-path="url(#SVGID_2_)">
			
				<rect x="19.227" y="-3.213" transform="matrix(0.8718 -0.4899 0.4899 0.8718 -9.0789 12.5366)" fill-rule="evenodd" clip-rule="evenodd" fill="#79017D" width="0.364" height="53.65"/>
		</g>
		<g clip-path="url(#SVGID_2_)">
			
				<rect x="19.016" y="-3.095" transform="matrix(0.8719 -0.4897 0.4897 0.8719 -9.1615 12.4416)" fill-rule="evenodd" clip-rule="evenodd" fill="#76017D" width="0.364" height="53.65"/>
		</g>
		<g clip-path="url(#SVGID_2_)">
			
				<rect x="18.805" y="-2.976" transform="matrix(0.8718 -0.4899 0.4899 0.8718 -9.2495 12.36)" fill-rule="evenodd" clip-rule="evenodd" fill="#76017D" width="0.364" height="53.65"/>
		</g>
		<g clip-path="url(#SVGID_2_)">
			
				<rect x="18.593" y="-2.857" transform="matrix(0.8719 -0.4897 0.4897 0.8719 -9.3315 12.2639)" fill-rule="evenodd" clip-rule="evenodd" fill="#74017D" width="0.364" height="53.65"/>
		</g>
		<g clip-path="url(#SVGID_2_)">
			
				<rect x="18.382" y="-2.738" transform="matrix(0.8718 -0.4899 0.4899 0.8718 -9.4194 12.1819)" fill-rule="evenodd" clip-rule="evenodd" fill="#74017D" width="0.364" height="53.65"/>
		</g>
		<g clip-path="url(#SVGID_2_)">
			
				<rect x="18.171" y="-2.62" transform="matrix(0.8718 -0.4899 0.4899 0.8718 -9.5053 12.095)" fill-rule="evenodd" clip-rule="evenodd" fill="#74017D" width="0.364" height="53.65"/>
		</g>
		<g clip-path="url(#SVGID_2_)">
			
				<rect x="17.959" y="-2.501" transform="matrix(0.8719 -0.4897 0.4897 0.8719 -9.5872 11.999)" fill-rule="evenodd" clip-rule="evenodd" fill="#72017D" width="0.364" height="53.65"/>
		</g>
		<g clip-path="url(#SVGID_2_)">
			
				<rect x="17.748" y="-2.382" transform="matrix(0.8718 -0.4899 0.4899 0.8718 -9.6752 11.9169)" fill-rule="evenodd" clip-rule="evenodd" fill="#72017D" width="0.364" height="53.65"/>
		</g>
		<g clip-path="url(#SVGID_2_)">
			
				<rect x="17.536" y="-2.263" transform="matrix(0.8719 -0.4898 0.4898 0.8719 -9.759 11.8252)" fill-rule="evenodd" clip-rule="evenodd" fill="#70017D" width="0.364" height="53.65"/>
		</g>
		<g clip-path="url(#SVGID_2_)">
			
				<rect x="17.325" y="-2.145" transform="matrix(0.8718 -0.4899 0.4899 0.8718 -9.8465 11.7416)" fill-rule="evenodd" clip-rule="evenodd" fill="#70017D" width="0.364" height="53.65"/>
		</g>
		<g clip-path="url(#SVGID_2_)">
			
				<rect x="17.114" y="-2.026" transform="matrix(0.8718 -0.4899 0.4899 0.8718 -9.9311 11.6519)" fill-rule="evenodd" clip-rule="evenodd" fill="#6E017D" width="0.364" height="53.65"/>
		</g>
		<g clip-path="url(#SVGID_2_)">
			
				<rect x="16.902" y="-1.907" transform="matrix(0.8719 -0.4897 0.4897 0.8719 -10.0134 11.5575)" fill-rule="evenodd" clip-rule="evenodd" fill="#6E017D" width="0.364" height="53.65"/>
		</g>
		<g clip-path="url(#SVGID_2_)">
			
				<rect x="16.691" y="-1.788" transform="matrix(0.8717 -0.4901 0.4901 0.8717 -10.1045 11.4808)" fill-rule="evenodd" clip-rule="evenodd" fill="#6B017D" width="0.364" height="53.65"/>
		</g>
		<g clip-path="url(#SVGID_2_)">
			
				<rect x="16.479" y="-1.669" transform="matrix(0.8719 -0.4896 0.4896 0.8719 -10.1831 11.3795)" fill-rule="evenodd" clip-rule="evenodd" fill="#6B017D" width="0.364" height="53.65"/>
		</g>
		<g clip-path="url(#SVGID_2_)">
			
				<rect x="16.268" y="-1.551" transform="matrix(0.8718 -0.4899 0.4899 0.8718 -10.2729 11.3)" fill-rule="evenodd" clip-rule="evenodd" fill="#69017D" width="0.364" height="53.65"/>
		</g>
		<g clip-path="url(#SVGID_2_)">
			
				<rect x="16.057" y="-1.432" transform="matrix(0.8718 -0.4899 0.4899 0.8718 -10.3582 11.2117)" fill-rule="evenodd" clip-rule="evenodd" fill="#69017D" width="0.364" height="53.65"/>
		</g>
		<g clip-path="url(#SVGID_2_)">
			
				<rect x="15.845" y="-1.313" transform="matrix(0.8717 -0.49 0.49 0.8717 -10.445 11.1261)" fill-rule="evenodd" clip-rule="evenodd" fill="#67017D" width="0.364" height="53.65"/>
		</g>
		<g clip-path="url(#SVGID_2_)">
			
				<rect x="15.634" y="-1.194" transform="matrix(0.8718 -0.4899 0.4899 0.8718 -10.5288 11.035)" fill-rule="evenodd" clip-rule="evenodd" fill="#67017D" width="0.364" height="53.65"/>
		</g>
		<g clip-path="url(#SVGID_2_)">
			
				<rect x="15.423" y="-1.076" transform="matrix(0.8719 -0.4897 0.4897 0.8719 -10.61 10.9394)" fill-rule="evenodd" clip-rule="evenodd" fill="#65017D" width="0.364" height="53.65"/>
		</g>
		<g clip-path="url(#SVGID_2_)">
			
				<rect x="15.211" y="-0.957" transform="matrix(0.8718 -0.4899 0.4899 0.8718 -10.6986 10.857)" fill-rule="evenodd" clip-rule="evenodd" fill="#65017D" width="0.364" height="53.65"/>
		</g>
		<g clip-path="url(#SVGID_2_)">
			
				<rect x="15" y="-0.838" transform="matrix(0.8719 -0.4898 0.4898 0.8719 -10.782 10.7655)" fill-rule="evenodd" clip-rule="evenodd" fill="#63017D" width="0.364" height="53.65"/>
		</g>
		<g clip-path="url(#SVGID_2_)">
			
				<rect x="14.788" y="-0.719" transform="matrix(0.8718 -0.4899 0.4899 0.8718 -10.87 10.6817)" fill-rule="evenodd" clip-rule="evenodd" fill="#63017D" width="0.364" height="53.65"/>
		</g>
		<g clip-path="url(#SVGID_2_)">
			
				<rect x="14.577" y="-0.601" transform="matrix(0.8718 -0.4899 0.4899 0.8718 -10.9544 10.592)" fill-rule="evenodd" clip-rule="evenodd" fill="#60017D" width="0.364" height="53.65"/>
		</g>
		<g clip-path="url(#SVGID_2_)">
			
				<rect x="14.366" y="-0.482" transform="matrix(0.8719 -0.4897 0.4897 0.8719 -11.0362 10.4979)" fill-rule="evenodd" clip-rule="evenodd" fill="#60017D" width="0.364" height="53.65"/>
		</g>
		<g clip-path="url(#SVGID_2_)">
			
				<rect x="14.154" y="-0.363" transform="matrix(0.8717 -0.4901 0.4901 0.8717 -11.1283 10.4206)" fill-rule="evenodd" clip-rule="evenodd" fill="#60017D" width="0.364" height="53.65"/>
		</g>
		<g clip-path="url(#SVGID_2_)">
			
				<rect x="13.943" y="-0.244" transform="matrix(0.8719 -0.4896 0.4896 0.8719 -11.2058 10.32)" fill-rule="evenodd" clip-rule="evenodd" fill="#5E017D" width="0.364" height="53.65"/>
		</g>
		<g clip-path="url(#SVGID_2_)">
			
				<rect x="13.732" y="-0.126" transform="matrix(0.8718 -0.4899 0.4899 0.8718 -11.2964 10.24)" fill-rule="evenodd" clip-rule="evenodd" fill="#5C017D" width="0.364" height="53.65"/>
		</g>
		<g clip-path="url(#SVGID_2_)">
			
				<rect x="13.52" y="-0.007" transform="matrix(0.8718 -0.4899 0.4899 0.8718 -11.3817 10.1517)" fill-rule="evenodd" clip-rule="evenodd" fill="#5C017D" width="0.364" height="53.65"/>
		</g>
		<g clip-path="url(#SVGID_2_)">
			
				<rect x="13.309" y="0.112" transform="matrix(0.8719 -0.4898 0.4898 0.8719 -11.4641 10.059)" fill-rule="evenodd" clip-rule="evenodd" fill="#5C017D" width="0.364" height="53.65"/>
		</g>
		<g clip-path="url(#SVGID_2_)">
			
				<rect x="13.097" y="0.231" transform="matrix(0.8718 -0.4899 0.4899 0.8718 -11.5522 9.975)" fill-rule="evenodd" clip-rule="evenodd" fill="#5A017D" width="0.364" height="53.65"/>
		</g>
		<g clip-path="url(#SVGID_2_)">
			
				<rect x="12.886" y="0.35" transform="matrix(0.8719 -0.4897 0.4897 0.8719 -11.6328 9.8799)" fill-rule="evenodd" clip-rule="evenodd" fill="#58017D" width="0.364" height="53.65"/>
		</g>
		<g clip-path="url(#SVGID_2_)">
			
				<rect x="12.675" y="0.468" transform="matrix(0.8718 -0.4899 0.4899 0.8718 -11.7219 9.7971)" fill-rule="evenodd" clip-rule="evenodd" fill="#58017D" width="0.364" height="53.65"/>
		</g>
		<g clip-path="url(#SVGID_2_)">
			
				<rect x="12.463" y="0.587" transform="matrix(0.8718 -0.4899 0.4899 0.8718 -11.8081 9.71)" fill-rule="evenodd" clip-rule="evenodd" fill="#58017D" width="0.364" height="53.65"/>
		</g>
		<g clip-path="url(#SVGID_2_)">
			
				<rect x="12.252" y="0.706" transform="matrix(0.8719 -0.4898 0.4898 0.8719 -11.8901 9.6172)" fill-rule="evenodd" clip-rule="evenodd" fill="#55017D" width="0.364" height="53.65"/>
		</g>
		<g clip-path="url(#SVGID_2_)">
			
				<rect x="12.04" y="0.824" transform="matrix(0.8718 -0.4899 0.4899 0.8718 -11.9777 9.5321)" fill-rule="evenodd" clip-rule="evenodd" fill="#55017D" width="0.364" height="53.65"/>
		</g>
		<g clip-path="url(#SVGID_2_)">
			
				<rect x="11.829" y="0.943" transform="matrix(0.8719 -0.4897 0.4897 0.8719 -12.0597 9.4394)" fill-rule="evenodd" clip-rule="evenodd" fill="#53017D" width="0.364" height="53.65"/>
		</g>
		<g clip-path="url(#SVGID_2_)">
			
				<rect x="11.618" y="1.062" transform="matrix(0.8718 -0.4899 0.4899 0.8718 -12.1493 9.3567)" fill-rule="evenodd" clip-rule="evenodd" fill="#53017D" width="0.364" height="53.65"/>
		</g>
		<g clip-path="url(#SVGID_2_)">
			
				<rect x="11.406" y="1.181" transform="matrix(0.8718 -0.4899 0.4899 0.8718 -12.2336 9.2672)" fill-rule="evenodd" clip-rule="evenodd" fill="#51017D" width="0.364" height="53.65"/>
		</g>
		<g clip-path="url(#SVGID_2_)">
			
				<rect x="11.195" y="1.3" transform="matrix(0.8719 -0.4897 0.4897 0.8719 -12.3146 9.1735)" fill-rule="evenodd" clip-rule="evenodd" fill="#51017D" width="0.364" height="53.65"/>
		</g>
		<g clip-path="url(#SVGID_2_)">
			
				<rect x="10.984" y="1.418" transform="matrix(0.8718 -0.4899 0.4899 0.8718 -12.4051 9.0917)" fill-rule="evenodd" clip-rule="evenodd" fill="#4F017D" width="0.364" height="53.65"/>
		</g>
		<g clip-path="url(#SVGID_2_)">
			
				<rect x="10.772" y="1.537" transform="matrix(0.8719 -0.4896 0.4896 0.8719 -12.4841 8.9957)" fill-rule="evenodd" clip-rule="evenodd" fill="#4F017D" width="0.364" height="53.65"/>
		</g>
		<g clip-path="url(#SVGID_2_)">
			
				<rect x="10.561" y="1.656" transform="matrix(0.8718 -0.4899 0.4899 0.8718 -12.5757 8.9151)" fill-rule="evenodd" clip-rule="evenodd" fill="#4D007D" width="0.364" height="53.65"/>
		</g>
		<g clip-path="url(#SVGID_2_)">
			
				<rect x="10.349" y="1.775" transform="matrix(0.8719 -0.4897 0.4897 0.8719 -12.6555 8.8203)" fill-rule="evenodd" clip-rule="evenodd" fill="#4D007D" width="0.364" height="53.65"/>
		</g>
		<g clip-path="url(#SVGID_2_)">
			
				<rect x="10.138" y="1.893" transform="matrix(0.8718 -0.4899 0.4899 0.8718 -12.7453 8.7372)" fill-rule="evenodd" clip-rule="evenodd" fill="#4A007D" width="0.364" height="53.65"/>
		</g>
		<g clip-path="url(#SVGID_2_)">
			
				<rect x="9.927" y="2.012" transform="matrix(0.8718 -0.4899 0.4899 0.8718 -12.8316 8.6501)" fill-rule="evenodd" clip-rule="evenodd" fill="#4A007D" width="0.364" height="53.65"/>
		</g>
		<g clip-path="url(#SVGID_2_)">
			
				<rect x="9.715" y="2.131" transform="matrix(0.8719 -0.4897 0.4897 0.8719 -12.9112 8.5554)" fill-rule="evenodd" clip-rule="evenodd" fill="#48007D" width="0.364" height="53.65"/>
		</g>
		<g clip-path="url(#SVGID_2_)">
			
				<rect x="9.504" y="2.25" transform="matrix(0.8718 -0.4899 0.4899 0.8718 -13.0011 8.4723)" fill-rule="evenodd" clip-rule="evenodd" fill="#48007D" width="0.364" height="53.65"/>
		</g>
		<g clip-path="url(#SVGID_2_)">
			
				<rect x="9.293" y="2.368" transform="matrix(0.8719 -0.4896 0.4896 0.8719 -13.0806 8.3777)" fill-rule="evenodd" clip-rule="evenodd" fill="#48007D" width="0.364" height="53.65"/>
		</g>
		<g clip-path="url(#SVGID_2_)">
			
				<rect x="9.081" y="2.487" transform="matrix(0.8718 -0.4899 0.4899 0.8718 -13.1727 8.2967)" fill-rule="evenodd" clip-rule="evenodd" fill="#46007D" width="0.364" height="53.65"/>
		</g>
		<g clip-path="url(#SVGID_2_)">
			
				<rect x="8.87" y="2.606" transform="matrix(0.8718 -0.4899 0.4899 0.8718 -13.2569 8.2073)" fill-rule="evenodd" clip-rule="evenodd" fill="#44017D" width="0.364" height="53.65"/>
		</g>
		<g clip-path="url(#SVGID_2_)">
			
				<rect x="8.658" y="2.725" transform="matrix(0.8719 -0.4897 0.4897 0.8719 -13.3374 8.114)" fill-rule="evenodd" clip-rule="evenodd" fill="#44017D" width="0.364" height="53.65"/>
		</g>
		<g clip-path="url(#SVGID_2_)">
			
				<rect x="8.447" y="2.843" transform="matrix(0.8718 -0.4899 0.4899 0.8718 -13.4286 8.0318)" fill-rule="evenodd" clip-rule="evenodd" fill="#44017D" width="0.364" height="53.65"/>
		</g>
		<g clip-path="url(#SVGID_2_)">
			
				<rect x="8.236" y="2.962" transform="matrix(0.8719 -0.4896 0.4896 0.8719 -13.5067 7.9362)" fill-rule="evenodd" clip-rule="evenodd" fill="#42017D" width="0.364" height="53.65"/>
		</g>
		<g clip-path="url(#SVGID_2_)">
			
				<rect x="8.024" y="3.081" transform="matrix(0.8718 -0.4899 0.4899 0.8718 -13.5992 7.8551)" fill-rule="evenodd" clip-rule="evenodd" fill="#3F017D" width="0.364" height="53.65"/>
		</g>
		<g clip-path="url(#SVGID_2_)">
			
				<rect x="7.813" y="3.2" transform="matrix(0.8718 -0.4899 0.4899 0.8718 -13.6844 7.7668)" fill-rule="evenodd" clip-rule="evenodd" fill="#3F017D" width="0.364" height="53.65"/>
		</g>
		<g clip-path="url(#SVGID_2_)">
			
				<rect x="7.601" y="3.319" transform="matrix(0.8719 -0.4896 0.4896 0.8719 -13.7624 7.6714)" fill-rule="evenodd" clip-rule="evenodd" fill="#3F017D" width="0.364" height="53.65"/>
		</g>
		<g clip-path="url(#SVGID_2_)">
			
				<rect x="7.39" y="3.437" transform="matrix(0.8718 -0.4899 0.4899 0.8718 -13.855 7.5901)" fill-rule="evenodd" clip-rule="evenodd" fill="#3D017D" width="0.364" height="53.65"/>
		</g>
		<g clip-path="url(#SVGID_2_)">
			
				<rect x="7.179" y="3.556" transform="matrix(0.8719 -0.4897 0.4897 0.8719 -13.934 7.4959)" fill-rule="evenodd" clip-rule="evenodd" fill="#3D017D" width="0.364" height="53.65"/>
		</g>
		<g clip-path="url(#SVGID_2_)">
			
				<rect x="6.967" y="3.675" transform="matrix(0.8718 -0.4899 0.4899 0.8718 -14.0244 7.4124)" fill-rule="evenodd" clip-rule="evenodd" fill="#3B007D" width="0.364" height="53.65"/>
		</g>
		<g clip-path="url(#SVGID_2_)">
			
				<rect x="6.756" y="3.793" transform="matrix(0.8717 -0.49 0.49 0.8717 -14.1133 7.3273)" fill-rule="evenodd" clip-rule="evenodd" fill="#3B007D" width="0.364" height="53.65"/>
		</g>
		<g clip-path="url(#SVGID_2_)">
			
				<rect x="6.545" y="3.912" transform="matrix(0.8719 -0.4897 0.4897 0.8719 -14.1897 7.231)" fill-rule="evenodd" clip-rule="evenodd" fill="#39007D" width="0.364" height="53.65"/>
		</g>
		<g clip-path="url(#SVGID_2_)">
			
				<rect x="6.333" y="4.031" transform="matrix(0.8718 -0.4899 0.4899 0.8718 -14.2802 7.1474)" fill-rule="evenodd" clip-rule="evenodd" fill="#39007D" width="0.364" height="53.65"/>
		</g>
		<g clip-path="url(#SVGID_2_)">
			
				<rect x="6.122" y="4.15" transform="matrix(0.8719 -0.4897 0.4897 0.8719 -14.3602 7.0544)" fill-rule="evenodd" clip-rule="evenodd" fill="#37007D" width="0.364" height="53.65"/>
		</g>
		<g clip-path="url(#SVGID_2_)">
			
				<rect x="5.91" y="4.269" transform="matrix(0.8717 -0.4901 0.4901 0.8717 -14.4558 6.975)" fill-rule="evenodd" clip-rule="evenodd" fill="#37007D" width="0.364" height="53.65"/>
		</g>
		<g clip-path="url(#SVGID_2_)">
			
				<rect x="5.699" y="4.387" transform="matrix(0.8718 -0.4899 0.4899 0.8718 -14.5361 6.8824)" fill-rule="evenodd" clip-rule="evenodd" fill="#35007C" width="0.364" height="53.65"/>
		</g>
		<g clip-path="url(#SVGID_2_)">
			
				<rect x="5.488" y="4.506" transform="matrix(0.8718 -0.4899 0.4899 0.8718 -14.6226 6.7951)" fill-rule="evenodd" clip-rule="evenodd" fill="#35007C" width="0.364" height="53.65"/>
		</g>
		<g clip-path="url(#SVGID_2_)">
			
				<rect x="5.276" y="4.625" transform="matrix(0.8718 -0.4899 0.4899 0.8718 -14.7079 6.7068)" fill-rule="evenodd" clip-rule="evenodd" fill="#35007C" width="0.364" height="53.65"/>
		</g>
		<g clip-path="url(#SVGID_2_)">
			
				<rect x="5.065" y="4.744" transform="matrix(0.8719 -0.4898 0.4898 0.8719 -14.7889 6.615)" fill-rule="evenodd" clip-rule="evenodd" fill="#32007C" width="0.364" height="53.65"/>
		</g>
		<g clip-path="url(#SVGID_2_)">
			
				<rect x="5.069" y="4.806" transform="matrix(0.8716 -0.4902 0.4902 0.8716 -14.8457 6.5781)" fill-rule="evenodd" clip-rule="evenodd" fill="#30007C" width="0.134" height="53.65"/>
		</g>
	</g>
</g>
<g>
	<path fill-rule="evenodd" clip-rule="evenodd" fill="#FFFFFF" d="M12.463,9.141c3.652,4.791,7.293,3.722,8.665-0.575
		c-0.464-0.771-3.605-1.755-5.434,0.871c1.382-0.442,2.844-0.386,3.658,0.124c-1.195,1.868-2.841,1.796-5.141-0.56
		c1.346-1.588,3.238-2.726,5.385-2.843c-2.31-1.391-5.175-0.525-7.139,2.967c0.004-0.003,0.009-0.005,0.014-0.007
		C12.467,9.128,12.464,9.136,12.463,9.141z"/>
	<path fill-rule="evenodd" clip-rule="evenodd" fill="#FFFFFF" d="M15.745,13.263c1.745,3.002,3.293,6.106,4.205,9.838
		c1.421-0.799,3.063-1.581,5.131-1.593c-2.275,1.249-3.729,2.298-4.702,3.64c0.847,5.128,0.289,14.365-2.169,23.012
		c5.294-7.339,7.817-16.521,7.49-24.296c-0.206-4.895-1.848-9.197-3.674-12.242C20.75,9.674,15.729,13.128,15.745,13.263z"/>
	<path fill-rule="evenodd" clip-rule="evenodd" fill="#FFFFFF" d="M23.325,23.123c0,0,6.203-2.876,9.189-3.827
		c2.986-0.951,14.095-1.604,14.584-1.102c0.489,0.502-9.897,2.189-14.602,4.632c-4.705,2.443-8.627,6.429-8.537,5.73
		C24.05,27.857,23.495,23.103,23.325,23.123z"/>
	<path fill-rule="evenodd" clip-rule="evenodd" fill="#FFFFFF" d="M16.438,12.776c0,0-0.43,0.187-0.699,0.488
		c-0.61,0.686-1.758,2.239-3.014,5.095c-1.809,4.114-0.891,8.103-0.891,8.103c1.993-0.793,5.817-3.353,7.117-6.068
		c-1.612,1.077-4.554,2.638-5.459,2.875c-0.045-3.1,3.214-6.586,6.003-8.249C19.496,15.02,16.395,12.684,16.438,12.776z"/>
	<path fill-rule="evenodd" clip-rule="evenodd" fill="#FFFFFF" d="M21.163,11.072c2.158,0.184,7.037,3.523,7.483,4.03
		c-0.305-2.641-1.426-4.071-3.063-5.966c0,0,2.85,0.829,4.243,3.548c1.393,2.719,0.597,5.48,0.597,5.48s-2.33-1.535-4.946-2.563
		c-2.615-1.028-3.269-0.736-3.269-0.736S21.178,11.199,21.163,11.072z"/>
	<path fill-rule="evenodd" clip-rule="evenodd" fill="#FFFFFF" d="M25.153,21.564c0,0-4.738,0.597-7.801,4.568
		c-3.063,3.972-3.324,4.69-4.897,5.95c-1.574,1.259-3.062,1.777-3.062,1.777s4.333,0.268,6.415-2.169
		c2.186-2.56,2.532-4.416,3.537-6.065C20.189,24.24,21.45,23.005,25.153,21.564z"/>
</g>
</svg>
