<?xml version="1.0" encoding="utf-8"?>
<!-- Generator: Adobe Illustrator 17.0.0, SVG Export Plug-In . SVG Version: 6.00 Build 0)  -->
<!DOCTYPE svg PUBLIC "-//W3C//DTD SVG 1.1//EN" "http://www.w3.org/Graphics/SVG/1.1/DTD/svg11.dtd">
<svg version="1.1" id="Layer_1" xmlns="http://www.w3.org/2000/svg" xmlns:xlink="http://www.w3.org/1999/xlink" x="0px" y="0px"
	 width="56px" height="56px" viewBox="0 0 56 56" enable-background="new 0 0 56 56" xml:space="preserve">
<g>
	<g>
		<defs>
			<path id="SVGID_1_" d="M0.169,2.739c5.404,20.63,14.175,35.406,26.547,50.573c10.495-11.648,21.56-24.689,29.115-42.496
				C36.538,9.271,19.116,6.932,0.169,2.739z"/>
		</defs>
		<clipPath id="SVGID_2_">
			<use xlink:href="#SVGID_1_"  overflow="visible"/>
		</clipPath>
		<g clip-path="url(#SVGID_2_)">
			
				<rect x="36.253" y="5.91" transform="matrix(0.8187 0.5742 -0.5742 0.8187 25.5632 -17.633)" fill-rule="evenodd" clip-rule="evenodd" fill="#FF0000" width="8.903" height="51.51"/>
		</g>
		<g clip-path="url(#SVGID_2_)">
			
				<rect x="36.935" y="3.335" transform="matrix(0.8187 0.5743 -0.5743 0.8187 23.4202 -15.992)" fill-rule="evenodd" clip-rule="evenodd" fill="#FF0000" width="0.197" height="51.51"/>
		</g>
		<g clip-path="url(#SVGID_2_)">
			
				<rect x="36.828" y="3.26" transform="matrix(0.8187 0.5743 -0.5743 0.8187 23.3575 -15.9441)" fill-rule="evenodd" clip-rule="evenodd" fill="#FF0000" width="0.197" height="51.51"/>
		</g>
		<g clip-path="url(#SVGID_2_)">
			
				<rect x="36.721" y="3.185" transform="matrix(0.8187 0.5743 -0.5743 0.8187 23.2948 -15.8961)" fill-rule="evenodd" clip-rule="evenodd" fill="#FF0000" width="0.197" height="51.51"/>
		</g>
		<g clip-path="url(#SVGID_2_)">
			
				<rect x="36.613" y="3.109" transform="matrix(0.8188 0.5741 -0.5741 0.8188 23.222 -15.845)" fill-rule="evenodd" clip-rule="evenodd" fill="#FF0700" width="0.197" height="51.51"/>
		</g>
		<g clip-path="url(#SVGID_2_)">
			
				<rect x="36.506" y="3.034" transform="matrix(0.8187 0.5743 -0.5743 0.8187 23.1694 -15.8001)" fill-rule="evenodd" clip-rule="evenodd" fill="#FF0700" width="0.197" height="51.51"/>
		</g>
		<g clip-path="url(#SVGID_2_)">
			
				<rect x="36.399" y="2.959" transform="matrix(0.8186 0.5744 -0.5744 0.8186 23.1139 -15.7543)" fill-rule="evenodd" clip-rule="evenodd" fill="#FF0700" width="0.197" height="51.51"/>
		</g>
		<g clip-path="url(#SVGID_2_)">
			
				<rect x="36.291" y="2.883" transform="matrix(0.8187 0.5743 -0.5743 0.8187 23.0441 -15.7041)" fill-rule="evenodd" clip-rule="evenodd" fill="#FF0700" width="0.197" height="51.51"/>
		</g>
		<g clip-path="url(#SVGID_2_)">
			
				<rect x="36.184" y="2.808" transform="matrix(0.8187 0.5743 -0.5743 0.8187 22.9814 -15.6562)" fill-rule="evenodd" clip-rule="evenodd" fill="#FF0700" width="0.197" height="51.51"/>
		</g>
		<g clip-path="url(#SVGID_2_)">
			
				<rect x="36.077" y="2.733" transform="matrix(0.8186 0.5743 -0.5743 0.8186 22.9237 -15.6097)" fill-rule="evenodd" clip-rule="evenodd" fill="#FF0A00" width="0.197" height="51.51"/>
		</g>
		<g clip-path="url(#SVGID_2_)">
			
				<rect x="35.969" y="2.658" transform="matrix(0.8189 0.574 -0.574 0.8189 22.8411 -15.5557)" fill-rule="evenodd" clip-rule="evenodd" fill="#FF0A00" width="0.197" height="51.51"/>
		</g>
		<g clip-path="url(#SVGID_2_)">
			
				<rect x="35.862" y="2.582" transform="matrix(0.8187 0.5742 -0.5742 0.8187 22.7905 -15.5114)" fill-rule="evenodd" clip-rule="evenodd" fill="#FF0A00" width="0.197" height="51.51"/>
		</g>
		<g clip-path="url(#SVGID_2_)">
			
				<rect x="35.755" y="2.507" transform="matrix(0.8187 0.5743 -0.5743 0.8187 22.7306 -15.4642)" fill-rule="evenodd" clip-rule="evenodd" fill="#FF0A00" width="0.197" height="51.51"/>
		</g>
		<g clip-path="url(#SVGID_2_)">
			
				<rect x="35.647" y="2.432" transform="matrix(0.8187 0.5743 -0.5743 0.8187 22.668 -15.4162)" fill-rule="evenodd" clip-rule="evenodd" fill="#FF0A00" width="0.197" height="51.51"/>
		</g>
		<g clip-path="url(#SVGID_2_)">
			
				<rect x="35.54" y="2.357" transform="matrix(0.8187 0.5743 -0.5743 0.8187 22.6053 -15.3683)" fill-rule="evenodd" clip-rule="evenodd" fill="#FF0A00" width="0.197" height="51.51"/>
		</g>
		<g clip-path="url(#SVGID_2_)">
			
				<rect x="35.433" y="2.281" transform="matrix(0.8186 0.5744 -0.5744 0.8186 22.5496 -15.3224)" fill-rule="evenodd" clip-rule="evenodd" fill="#FF0A00" width="0.197" height="51.51"/>
		</g>
		<g clip-path="url(#SVGID_2_)">
			
				<rect x="35.325" y="2.206" transform="matrix(0.8187 0.5742 -0.5742 0.8187 22.4771 -15.2715)" fill-rule="evenodd" clip-rule="evenodd" fill="#FF0A00" width="0.197" height="51.51"/>
		</g>
		<g clip-path="url(#SVGID_2_)">
			
				<rect x="35.218" y="2.131" transform="matrix(0.8189 0.574 -0.574 0.8189 22.4026 -15.2199)" fill-rule="evenodd" clip-rule="evenodd" fill="#FF0D00" width="0.197" height="51.51"/>
		</g>
		<g clip-path="url(#SVGID_2_)">
			
				<rect x="35.111" y="2.055" transform="matrix(0.8187 0.5743 -0.5743 0.8187 22.3545 -15.1763)" fill-rule="evenodd" clip-rule="evenodd" fill="#FF0D00" width="0.197" height="51.51"/>
		</g>
		<g clip-path="url(#SVGID_2_)">
			
				<rect x="35.003" y="1.98" transform="matrix(0.8187 0.5743 -0.5743 0.8187 22.2919 -15.1284)" fill-rule="evenodd" clip-rule="evenodd" fill="#FF0D00" width="0.197" height="51.51"/>
		</g>
		<g clip-path="url(#SVGID_2_)">
			
				<rect x="34.896" y="1.905" transform="matrix(0.8186 0.5744 -0.5744 0.8186 22.2361 -15.0824)" fill-rule="evenodd" clip-rule="evenodd" fill="#FF0D00" width="0.197" height="51.51"/>
		</g>
		<g clip-path="url(#SVGID_2_)">
			
				<rect x="34.789" y="1.83" transform="matrix(0.8186 0.5743 -0.5743 0.8186 22.1713 -15.0339)" fill-rule="evenodd" clip-rule="evenodd" fill="#FF0D00" width="0.197" height="51.51"/>
		</g>
		<g clip-path="url(#SVGID_2_)">
			
				<rect x="34.681" y="1.754" transform="matrix(0.8189 0.574 -0.574 0.8189 22.0894 -14.9801)" fill-rule="evenodd" clip-rule="evenodd" fill="#FF0F00" width="0.197" height="51.51"/>
		</g>
		<g clip-path="url(#SVGID_2_)">
			
				<rect x="34.574" y="1.679" transform="matrix(0.8189 0.574 -0.574 0.8189 22.0267 -14.9321)" fill-rule="evenodd" clip-rule="evenodd" fill="#FF0F00" width="0.197" height="51.51"/>
		</g>
		<g clip-path="url(#SVGID_2_)">
			
				<rect x="34.467" y="1.604" transform="matrix(0.8187 0.5743 -0.5743 0.8187 21.9784 -14.8884)" fill-rule="evenodd" clip-rule="evenodd" fill="#FF0F00" width="0.197" height="51.51"/>
		</g>
		<g clip-path="url(#SVGID_2_)">
			
				<rect x="34.359" y="1.529" transform="matrix(0.8186 0.5744 -0.5744 0.8186 21.9225 -14.8425)" fill-rule="evenodd" clip-rule="evenodd" fill="#FF0F00" width="0.197" height="51.51"/>
		</g>
		<g clip-path="url(#SVGID_2_)">
			
				<rect x="34.252" y="1.453" transform="matrix(0.8187 0.5743 -0.5743 0.8187 21.853 -14.7925)" fill-rule="evenodd" clip-rule="evenodd" fill="#FF0F00" width="0.197" height="51.51"/>
		</g>
		<g clip-path="url(#SVGID_2_)">
			
				<rect x="34.145" y="1.378" transform="matrix(0.8187 0.5743 -0.5743 0.8187 21.7903 -14.7445)" fill-rule="evenodd" clip-rule="evenodd" fill="#FF0F00" width="0.197" height="51.51"/>
		</g>
		<g clip-path="url(#SVGID_2_)">
			
				<rect x="34.038" y="1.303" transform="matrix(0.8187 0.5743 -0.5743 0.8187 21.7276 -14.6966)" fill-rule="evenodd" clip-rule="evenodd" fill="#FF0F00" width="0.197" height="51.51"/>
		</g>
		<g clip-path="url(#SVGID_2_)">
			
				<rect x="33.93" y="1.227" transform="matrix(0.8189 0.574 -0.574 0.8189 21.6508 -14.6444)" fill-rule="evenodd" clip-rule="evenodd" fill="#FF1100" width="0.197" height="51.51"/>
		</g>
		<g clip-path="url(#SVGID_2_)">
			
				<rect x="33.823" y="1.152" transform="matrix(0.8187 0.5743 -0.5743 0.8187 21.6023 -14.6006)" fill-rule="evenodd" clip-rule="evenodd" fill="#FF1100" width="0.197" height="51.51"/>
		</g>
		<g clip-path="url(#SVGID_2_)">
			
				<rect x="33.716" y="1.077" transform="matrix(0.8187 0.5743 -0.5743 0.8187 21.5396 -14.5526)" fill-rule="evenodd" clip-rule="evenodd" fill="#FF1100" width="0.197" height="51.51"/>
		</g>
		<g clip-path="url(#SVGID_2_)">
			
				<rect x="33.608" y="1.002" transform="matrix(0.8187 0.5743 -0.5743 0.8187 21.4769 -14.5046)" fill-rule="evenodd" clip-rule="evenodd" fill="#FF1100" width="0.197" height="51.51"/>
		</g>
		<g clip-path="url(#SVGID_2_)">
			
				<rect x="33.501" y="0.926" transform="matrix(0.8187 0.5743 -0.5743 0.8187 21.4142 -14.4566)" fill-rule="evenodd" clip-rule="evenodd" fill="#FF1100" width="0.197" height="51.51"/>
		</g>
		<g clip-path="url(#SVGID_2_)">
			
				<rect x="33.394" y="0.851" transform="matrix(0.8186 0.5744 -0.5744 0.8186 21.3582 -14.4106)" fill-rule="evenodd" clip-rule="evenodd" fill="#FF1100" width="0.197" height="51.51"/>
		</g>
		<g clip-path="url(#SVGID_2_)">
			
				<rect x="33.286" y="0.776" transform="matrix(0.8189 0.574 -0.574 0.8189 21.275 -14.3566)" fill-rule="evenodd" clip-rule="evenodd" fill="#FF1100" width="0.197" height="51.51"/>
		</g>
		<g clip-path="url(#SVGID_2_)">
			
				<rect x="33.179" y="0.7" transform="matrix(0.8187 0.5743 -0.5743 0.8187 21.2261 -14.3127)" fill-rule="evenodd" clip-rule="evenodd" fill="#FF1100" width="0.197" height="51.51"/>
		</g>
		<g clip-path="url(#SVGID_2_)">
			
				<rect x="33.072" y="0.625" transform="matrix(0.8187 0.5743 -0.5743 0.8187 21.1635 -14.2647)" fill-rule="evenodd" clip-rule="evenodd" fill="#FF1300" width="0.197" height="51.51"/>
		</g>
		<g clip-path="url(#SVGID_2_)">
			
				<rect x="32.964" y="0.55" transform="matrix(0.8187 0.5743 -0.5743 0.8187 21.1008 -14.2167)" fill-rule="evenodd" clip-rule="evenodd" fill="#FF1300" width="0.197" height="51.51"/>
		</g>
		<g clip-path="url(#SVGID_2_)">
			
				<rect x="32.857" y="0.475" transform="matrix(0.8186 0.5744 -0.5744 0.8186 21.0446 -14.1707)" fill-rule="evenodd" clip-rule="evenodd" fill="#FF1300" width="0.197" height="51.51"/>
		</g>
		<g clip-path="url(#SVGID_2_)">
			
				<rect x="32.75" y="0.399" transform="matrix(0.8187 0.5743 -0.5743 0.8187 20.9754 -14.1208)" fill-rule="evenodd" clip-rule="evenodd" fill="#FF1300" width="0.197" height="51.51"/>
		</g>
		<g clip-path="url(#SVGID_2_)">
			
				<rect x="32.642" y="0.324" transform="matrix(0.8189 0.574 -0.574 0.8189 20.8991 -14.0687)" fill-rule="evenodd" clip-rule="evenodd" fill="#FF1300" width="0.197" height="51.51"/>
		</g>
		<g clip-path="url(#SVGID_2_)">
			
				<rect x="32.535" y="0.249" transform="matrix(0.8187 0.5743 -0.5743 0.8187 20.85 -14.0248)" fill-rule="evenodd" clip-rule="evenodd" fill="#FF1500" width="0.197" height="51.51"/>
		</g>
		<g clip-path="url(#SVGID_2_)">
			
				<rect x="32.428" y="0.174" transform="matrix(0.8186 0.5744 -0.5744 0.8186 20.7938 -13.9787)" fill-rule="evenodd" clip-rule="evenodd" fill="#FF1500" width="0.197" height="51.51"/>
		</g>
		<g clip-path="url(#SVGID_2_)">
			
				<rect x="32.32" y="0.098" transform="matrix(0.8186 0.5744 -0.5744 0.8186 20.7311 -13.9307)" fill-rule="evenodd" clip-rule="evenodd" fill="#FF1500" width="0.197" height="51.51"/>
		</g>
		<g clip-path="url(#SVGID_2_)">
			
				<rect x="32.213" y="0.023" transform="matrix(0.8187 0.5743 -0.5743 0.8187 20.662 -13.8809)" fill-rule="evenodd" clip-rule="evenodd" fill="#FF1500" width="0.197" height="51.51"/>
		</g>
		<g clip-path="url(#SVGID_2_)">
			
				<rect x="32.106" y="-0.052" transform="matrix(0.8187 0.5743 -0.5743 0.8187 20.5993 -13.8329)" fill-rule="evenodd" clip-rule="evenodd" fill="#FF1500" width="0.197" height="51.51"/>
		</g>
		<g clip-path="url(#SVGID_2_)">
			
				<rect x="31.998" y="-0.128" transform="matrix(0.8189 0.574 -0.574 0.8189 20.5232 -13.781)" fill-rule="evenodd" clip-rule="evenodd" fill="#FF1500" width="0.197" height="51.51"/>
		</g>
		<g clip-path="url(#SVGID_2_)">
			
				<rect x="31.891" y="-0.203" transform="matrix(0.8188 0.5741 -0.5741 0.8188 20.4669 -13.7349)" fill-rule="evenodd" clip-rule="evenodd" fill="#FF1500" width="0.197" height="51.51"/>
		</g>
		<g clip-path="url(#SVGID_2_)">
			
				<rect x="31.784" y="-0.278" transform="matrix(0.8187 0.5743 -0.5743 0.8187 20.4112 -13.6889)" fill-rule="evenodd" clip-rule="evenodd" fill="#FF1600" width="0.197" height="51.51"/>
		</g>
		<g clip-path="url(#SVGID_2_)">
			
				<rect x="31.676" y="-0.353" transform="matrix(0.8186 0.5743 -0.5743 0.8186 20.353 -13.6422)" fill-rule="evenodd" clip-rule="evenodd" fill="#FF1600" width="0.197" height="51.51"/>
		</g>
		<g clip-path="url(#SVGID_2_)">
			
				<rect x="31.569" y="-0.429" transform="matrix(0.8187 0.5743 -0.5743 0.8187 20.2858 -13.593)" fill-rule="evenodd" clip-rule="evenodd" fill="#FF1600" width="0.197" height="51.51"/>
		</g>
		<g clip-path="url(#SVGID_2_)">
			
				<rect x="31.462" y="-0.504" transform="matrix(0.8187 0.5743 -0.5743 0.8187 20.2231 -13.545)" fill-rule="evenodd" clip-rule="evenodd" fill="#FF1600" width="0.197" height="51.51"/>
		</g>
		<g clip-path="url(#SVGID_2_)">
			
				<rect x="31.354" y="-0.579" transform="matrix(0.8188 0.5741 -0.5741 0.8188 20.1536 -13.495)" fill-rule="evenodd" clip-rule="evenodd" fill="#FF1600" width="0.197" height="51.51"/>
		</g>
		<g clip-path="url(#SVGID_2_)">
			
				<rect x="31.247" y="-0.655" transform="matrix(0.8189 0.574 -0.574 0.8189 20.0847 -13.4452)" fill-rule="evenodd" clip-rule="evenodd" fill="#FF1800" width="0.197" height="51.51"/>
		</g>
		<g clip-path="url(#SVGID_2_)">
			
				<rect x="31.14" y="-0.73" transform="matrix(0.8187 0.5743 -0.5743 0.8187 20.0351 -13.401)" fill-rule="evenodd" clip-rule="evenodd" fill="#FF1800" width="0.197" height="51.51"/>
		</g>
		<g clip-path="url(#SVGID_2_)">
			
				<rect x="31.033" y="-0.805" transform="matrix(0.8187 0.5743 -0.5743 0.8187 19.9724 -13.353)" fill-rule="evenodd" clip-rule="evenodd" fill="#FF1800" width="0.197" height="51.51"/>
		</g>
		<g clip-path="url(#SVGID_2_)">
			
				<rect x="30.925" y="-0.88" transform="matrix(0.8187 0.5743 -0.5743 0.8187 19.9097 -13.3051)" fill-rule="evenodd" clip-rule="evenodd" fill="#FF1800" width="0.197" height="51.51"/>
		</g>
		<g clip-path="url(#SVGID_2_)">
			
				<rect x="30.818" y="-0.956" transform="matrix(0.8187 0.5743 -0.5743 0.8187 19.847 -13.2571)" fill-rule="evenodd" clip-rule="evenodd" fill="#FF1800" width="0.197" height="51.51"/>
		</g>
		<g clip-path="url(#SVGID_2_)">
			
				<rect x="30.711" y="-1.031" transform="matrix(0.8189 0.574 -0.574 0.8189 19.7715 -13.2054)" fill-rule="evenodd" clip-rule="evenodd" fill="#FF1800" width="0.197" height="51.51"/>
		</g>
		<g clip-path="url(#SVGID_2_)">
			
				<rect x="30.603" y="-1.106" transform="matrix(0.8188 0.5741 -0.5741 0.8188 19.7131 -13.1586)" fill-rule="evenodd" clip-rule="evenodd" fill="#FF1800" width="0.197" height="51.51"/>
		</g>
		<g clip-path="url(#SVGID_2_)">
			
				<rect x="30.496" y="-1.181" transform="matrix(0.8187 0.5743 -0.5743 0.8187 19.6589 -13.1131)" fill-rule="evenodd" clip-rule="evenodd" fill="#FF1800" width="0.197" height="51.51"/>
		</g>
		<g clip-path="url(#SVGID_2_)">
			
				<rect x="30.389" y="-1.257" transform="matrix(0.8186 0.5743 -0.5743 0.8186 19.6005 -13.0664)" fill-rule="evenodd" clip-rule="evenodd" fill="#FF1900" width="0.197" height="51.51"/>
		</g>
		<g clip-path="url(#SVGID_2_)">
			
				<rect x="30.281" y="-1.332" transform="matrix(0.8187 0.5743 -0.5743 0.8187 19.5336 -13.0172)" fill-rule="evenodd" clip-rule="evenodd" fill="#FF1900" width="0.197" height="51.51"/>
		</g>
		<g clip-path="url(#SVGID_2_)">
			
				<rect x="30.174" y="-1.407" transform="matrix(0.8187 0.5743 -0.5743 0.8187 19.4709 -12.9692)" fill-rule="evenodd" clip-rule="evenodd" fill="#FF1900" width="0.197" height="51.51"/>
		</g>
		<g clip-path="url(#SVGID_2_)">
			
				<rect x="30.067" y="-1.482" transform="matrix(0.8187 0.5743 -0.5743 0.8187 19.4082 -12.9212)" fill-rule="evenodd" clip-rule="evenodd" fill="#FF1900" width="0.197" height="51.51"/>
		</g>
		<g clip-path="url(#SVGID_2_)">
			
				<rect x="29.959" y="-1.558" transform="matrix(0.8189 0.574 -0.574 0.8189 19.3329 -12.8696)" fill-rule="evenodd" clip-rule="evenodd" fill="#FF1900" width="0.197" height="51.51"/>
		</g>
		<g clip-path="url(#SVGID_2_)">
			
				<rect x="29.852" y="-1.633" transform="matrix(0.8186 0.5744 -0.5744 0.8186 19.2888 -12.827)" fill-rule="evenodd" clip-rule="evenodd" fill="#FF1D00" width="0.197" height="51.51"/>
		</g>
		<g clip-path="url(#SVGID_2_)">
			
				<rect x="29.745" y="-1.708" transform="matrix(0.8187 0.5743 -0.5743 0.8187 19.2202 -12.7773)" fill-rule="evenodd" clip-rule="evenodd" fill="#FF1D00" width="0.197" height="51.51"/>
		</g>
		<g clip-path="url(#SVGID_2_)">
			
				<rect x="29.637" y="-1.784" transform="matrix(0.8187 0.5743 -0.5743 0.8187 19.1575 -12.7293)" fill-rule="evenodd" clip-rule="evenodd" fill="#FF1D00" width="0.197" height="51.51"/>
		</g>
		<g clip-path="url(#SVGID_2_)">
			
				<rect x="29.53" y="-1.859" transform="matrix(0.8187 0.5743 -0.5743 0.8187 19.0948 -12.6813)" fill-rule="evenodd" clip-rule="evenodd" fill="#FF1D00" width="0.197" height="51.51"/>
		</g>
		<g clip-path="url(#SVGID_2_)">
			
				<rect x="29.423" y="-1.934" transform="matrix(0.8186 0.5744 -0.5744 0.8186 19.038 -12.635)" fill-rule="evenodd" clip-rule="evenodd" fill="#FF1D00" width="0.197" height="51.51"/>
		</g>
		<g clip-path="url(#SVGID_2_)">
			
				<rect x="29.315" y="-2.009" transform="matrix(0.8187 0.5742 -0.5742 0.8187 18.967 -12.5847)" fill-rule="evenodd" clip-rule="evenodd" fill="#FF1D00" width="0.197" height="51.51"/>
		</g>
		<g clip-path="url(#SVGID_2_)">
			
				<rect x="29.208" y="-2.085" transform="matrix(0.8187 0.5743 -0.5743 0.8187 18.9067 -12.5374)" fill-rule="evenodd" clip-rule="evenodd" fill="#FF1D00" width="0.197" height="51.51"/>
		</g>
		<g clip-path="url(#SVGID_2_)">
			
				<rect x="29.101" y="-2.16" transform="matrix(0.8187 0.5743 -0.5743 0.8187 18.844 -12.4894)" fill-rule="evenodd" clip-rule="evenodd" fill="#FF2000" width="0.197" height="51.51"/>
		</g>
		<g clip-path="url(#SVGID_2_)">
			
				<rect x="28.993" y="-2.235" transform="matrix(0.8187 0.5743 -0.5743 0.8187 18.7813 -12.4414)" fill-rule="evenodd" clip-rule="evenodd" fill="#FF2000" width="0.197" height="51.51"/>
		</g>
		<g clip-path="url(#SVGID_2_)">
			
				<rect x="28.886" y="-2.311" transform="matrix(0.8186 0.5744 -0.5744 0.8186 18.7244 -12.3951)" fill-rule="evenodd" clip-rule="evenodd" fill="#FF2000" width="0.197" height="51.51"/>
		</g>
		<g clip-path="url(#SVGID_2_)">
			
				<rect x="28.779" y="-2.386" transform="matrix(0.8187 0.5743 -0.5743 0.8187 18.656 -12.3455)" fill-rule="evenodd" clip-rule="evenodd" fill="#FF2000" width="0.197" height="51.51"/>
		</g>
		<g clip-path="url(#SVGID_2_)">
			
				<rect x="28.671" y="-2.461" transform="matrix(0.8189 0.574 -0.574 0.8189 18.5812 -12.294)" fill-rule="evenodd" clip-rule="evenodd" fill="#FF2000" width="0.197" height="51.51"/>
		</g>
		<g clip-path="url(#SVGID_2_)">
			
				<rect x="28.564" y="-2.536" transform="matrix(0.8186 0.5743 -0.5743 0.8186 18.5346 -12.2506)" fill-rule="evenodd" clip-rule="evenodd" fill="#FF2200" width="0.197" height="51.51"/>
		</g>
		<g clip-path="url(#SVGID_2_)">
			
				<rect x="28.457" y="-2.612" transform="matrix(0.8187 0.5743 -0.5743 0.8187 18.4679 -12.2015)" fill-rule="evenodd" clip-rule="evenodd" fill="#FF2200" width="0.197" height="51.51"/>
		</g>
		<g clip-path="url(#SVGID_2_)">
			
				<rect x="28.349" y="-2.687" transform="matrix(0.8186 0.5744 -0.5744 0.8186 18.4109 -12.1551)" fill-rule="evenodd" clip-rule="evenodd" fill="#FF2200" width="0.197" height="51.51"/>
		</g>
		<g clip-path="url(#SVGID_2_)">
			
				<rect x="28.242" y="-2.762" transform="matrix(0.8187 0.5743 -0.5743 0.8187 18.3425 -12.1056)" fill-rule="evenodd" clip-rule="evenodd" fill="#FF2200" width="0.197" height="51.51"/>
		</g>
		<g clip-path="url(#SVGID_2_)">
			
				<rect x="28.135" y="-2.838" transform="matrix(0.8187 0.5743 -0.5743 0.8187 18.2798 -12.0576)" fill-rule="evenodd" clip-rule="evenodd" fill="#FF2200" width="0.197" height="51.51"/>
		</g>
		<g clip-path="url(#SVGID_2_)">
			
				<rect x="28.027" y="-2.913" transform="matrix(0.8188 0.5741 -0.5741 0.8188 18.2093 -12.0073)" fill-rule="evenodd" clip-rule="evenodd" fill="#FF2200" width="0.197" height="51.51"/>
		</g>
		<g clip-path="url(#SVGID_2_)">
			
				<rect x="27.92" y="-2.988" transform="matrix(0.8189 0.574 -0.574 0.8189 18.1426 -11.9583)" fill-rule="evenodd" clip-rule="evenodd" fill="#FF2200" width="0.197" height="51.51"/>
		</g>
		<g clip-path="url(#SVGID_2_)">
			
				<rect x="27.813" y="-3.063" transform="matrix(0.8187 0.5743 -0.5743 0.8187 18.0917 -11.9136)" fill-rule="evenodd" clip-rule="evenodd" fill="#FF2200" width="0.197" height="51.51"/>
		</g>
		<g clip-path="url(#SVGID_2_)">
			
				<rect x="27.706" y="-3.139" transform="matrix(0.8187 0.5743 -0.5743 0.8187 18.0291 -11.8656)" fill-rule="evenodd" clip-rule="evenodd" fill="#FF2500" width="0.197" height="51.51"/>
		</g>
		<g clip-path="url(#SVGID_2_)">
			
				<rect x="27.598" y="-3.214" transform="matrix(0.8187 0.5743 -0.5743 0.8187 17.9664 -11.8177)" fill-rule="evenodd" clip-rule="evenodd" fill="#FF2500" width="0.197" height="51.51"/>
		</g>
		<g clip-path="url(#SVGID_2_)">
			
				<rect x="27.491" y="-3.289" transform="matrix(0.8187 0.5743 -0.5743 0.8187 17.9037 -11.7697)" fill-rule="evenodd" clip-rule="evenodd" fill="#FF2500" width="0.197" height="51.51"/>
		</g>
		<g clip-path="url(#SVGID_2_)">
			
				<rect x="27.383" y="-3.364" transform="matrix(0.8189 0.574 -0.574 0.8189 17.8294 -11.7184)" fill-rule="evenodd" clip-rule="evenodd" fill="#FF2500" width="0.197" height="51.51"/>
		</g>
		<g clip-path="url(#SVGID_2_)">
			
				<rect x="27.276" y="-3.44" transform="matrix(0.8188 0.5741 -0.5741 0.8188 17.7706 -11.6715)" fill-rule="evenodd" clip-rule="evenodd" fill="#FF2500" width="0.197" height="51.51"/>
		</g>
		<g clip-path="url(#SVGID_2_)">
			
				<rect x="27.169" y="-3.515" transform="matrix(0.8187 0.5743 -0.5743 0.8187 17.7156 -11.6257)" fill-rule="evenodd" clip-rule="evenodd" fill="#FF2800" width="0.197" height="51.51"/>
		</g>
		<g clip-path="url(#SVGID_2_)">
			
				<rect x="27.062" y="-3.59" transform="matrix(0.8187 0.5743 -0.5743 0.8187 17.653 -11.5777)" fill-rule="evenodd" clip-rule="evenodd" fill="#FF2800" width="0.197" height="51.51"/>
		</g>
		<g clip-path="url(#SVGID_2_)">
			
				<rect x="26.954" y="-3.666" transform="matrix(0.8187 0.5743 -0.5743 0.8187 17.5903 -11.5298)" fill-rule="evenodd" clip-rule="evenodd" fill="#FF2800" width="0.197" height="51.51"/>
		</g>
		<g clip-path="url(#SVGID_2_)">
			
				<rect x="26.847" y="-3.741" transform="matrix(0.8186 0.5744 -0.5744 0.8186 17.533 -11.4833)" fill-rule="evenodd" clip-rule="evenodd" fill="#FF2800" width="0.197" height="51.51"/>
		</g>
		<g clip-path="url(#SVGID_2_)">
			
				<rect x="26.74" y="-3.816" transform="matrix(0.8188 0.5741 -0.5741 0.8188 17.4574 -11.4317)" fill-rule="evenodd" clip-rule="evenodd" fill="#FF2800" width="0.197" height="51.51"/>
		</g>
		<g clip-path="url(#SVGID_2_)">
			
				<rect x="26.632" y="-3.891" transform="matrix(0.8189 0.574 -0.574 0.8189 17.3909 -11.3827)" fill-rule="evenodd" clip-rule="evenodd" fill="#FF2800" width="0.197" height="51.51"/>
		</g>
		<g clip-path="url(#SVGID_2_)">
			
				<rect x="26.525" y="-3.967" transform="matrix(0.8187 0.5743 -0.5743 0.8187 17.3395 -11.3378)" fill-rule="evenodd" clip-rule="evenodd" fill="#FF2800" width="0.197" height="51.51"/>
		</g>
		<g clip-path="url(#SVGID_2_)">
			
				<rect x="26.418" y="-4.042" transform="matrix(0.8187 0.5743 -0.5743 0.8187 17.2768 -11.2898)" fill-rule="evenodd" clip-rule="evenodd" fill="#FF2A00" width="0.197" height="51.51"/>
		</g>
		<g clip-path="url(#SVGID_2_)">
			
				<rect x="26.31" y="-4.117" transform="matrix(0.8186 0.5744 -0.5744 0.8186 17.2195 -11.2434)" fill-rule="evenodd" clip-rule="evenodd" fill="#FF2A00" width="0.197" height="51.51"/>
		</g>
		<g clip-path="url(#SVGID_2_)">
			
				<rect x="26.203" y="-4.192" transform="matrix(0.8186 0.5743 -0.5743 0.8186 17.1552 -11.1949)" fill-rule="evenodd" clip-rule="evenodd" fill="#FF2A00" width="0.197" height="51.51"/>
		</g>
		<g clip-path="url(#SVGID_2_)">
			
				<rect x="26.096" y="-4.268" transform="matrix(0.8187 0.5743 -0.5743 0.8187 17.0888 -11.1459)" fill-rule="evenodd" clip-rule="evenodd" fill="#FF2A00" width="0.197" height="51.51"/>
		</g>
		<g clip-path="url(#SVGID_2_)">
			
				<rect x="25.988" y="-4.343" transform="matrix(0.8189 0.574 -0.574 0.8189 17.015 -11.0949)" fill-rule="evenodd" clip-rule="evenodd" fill="#FF2A00" width="0.197" height="51.51"/>
		</g>
		<g clip-path="url(#SVGID_2_)">
			
				<rect x="25.881" y="-4.418" transform="matrix(0.8186 0.5744 -0.5744 0.8186 16.9686 -11.0514)" fill-rule="evenodd" clip-rule="evenodd" fill="#FF2A00" width="0.197" height="51.51"/>
		</g>
		<g clip-path="url(#SVGID_2_)">
			
				<rect x="25.774" y="-4.493" transform="matrix(0.8186 0.5744 -0.5744 0.8186 16.9059 -11.0034)" fill-rule="evenodd" clip-rule="evenodd" fill="#FF2A00" width="0.197" height="51.51"/>
		</g>
		<g clip-path="url(#SVGID_2_)">
			
				<rect x="25.666" y="-4.569" transform="matrix(0.8187 0.5743 -0.5743 0.8187 16.838 -10.954)" fill-rule="evenodd" clip-rule="evenodd" fill="#FF2A00" width="0.197" height="51.51"/>
		</g>
		<g clip-path="url(#SVGID_2_)">
			
				<rect x="25.559" y="-4.644" transform="matrix(0.8187 0.5743 -0.5743 0.8187 16.7753 -10.906)" fill-rule="evenodd" clip-rule="evenodd" fill="#FF2C00" width="0.197" height="51.51"/>
		</g>
		<g clip-path="url(#SVGID_2_)">
			
				<rect x="25.452" y="-4.719" transform="matrix(0.8187 0.5743 -0.5743 0.8187 16.7127 -10.858)" fill-rule="evenodd" clip-rule="evenodd" fill="#FF2C00" width="0.197" height="51.51"/>
		</g>
		<g clip-path="url(#SVGID_2_)">
			
				<rect x="25.344" y="-4.795" transform="matrix(0.8188 0.5741 -0.5741 0.8188 16.6443 -10.8085)" fill-rule="evenodd" clip-rule="evenodd" fill="#FF2C00" width="0.197" height="51.51"/>
		</g>
		<g clip-path="url(#SVGID_2_)">
			
				<rect x="25.237" y="-4.87" transform="matrix(0.8187 0.5743 -0.5743 0.8187 16.5872 -10.762)" fill-rule="evenodd" clip-rule="evenodd" fill="#FF2C00" width="0.197" height="51.51"/>
		</g>
		<g clip-path="url(#SVGID_2_)">
			
				<rect x="25.13" y="-4.945" transform="matrix(0.8187 0.5743 -0.5743 0.8187 16.5246 -10.7141)" fill-rule="evenodd" clip-rule="evenodd" fill="#FF2C00" width="0.197" height="51.51"/>
		</g>
		<g clip-path="url(#SVGID_2_)">
			
				<rect x="25.022" y="-5.02" transform="matrix(0.8187 0.5743 -0.5743 0.8187 16.4619 -10.6661)" fill-rule="evenodd" clip-rule="evenodd" fill="#FF2F00" width="0.197" height="51.51"/>
		</g>
		<g clip-path="url(#SVGID_2_)">
			
				<rect x="24.915" y="-5.096" transform="matrix(0.8186 0.5743 -0.5743 0.8186 16.4027 -10.6191)" fill-rule="evenodd" clip-rule="evenodd" fill="#FF2F00" width="0.197" height="51.51"/>
		</g>
		<g clip-path="url(#SVGID_2_)">
			
				<rect x="24.808" y="-5.171" transform="matrix(0.8187 0.5743 -0.5743 0.8187 16.3365 -10.5702)" fill-rule="evenodd" clip-rule="evenodd" fill="#FF2F00" width="0.197" height="51.51"/>
		</g>
		<g clip-path="url(#SVGID_2_)">
			
				<rect x="24.7" y="-5.246" transform="matrix(0.8189 0.574 -0.574 0.8189 16.2633 -10.5193)" fill-rule="evenodd" clip-rule="evenodd" fill="#FF2F00" width="0.197" height="51.51"/>
		</g>
		<g clip-path="url(#SVGID_2_)">
			
				<rect x="24.593" y="-5.322" transform="matrix(0.8187 0.5743 -0.5743 0.8187 16.2111 -10.4742)" fill-rule="evenodd" clip-rule="evenodd" fill="#FF2F00" width="0.197" height="51.51"/>
		</g>
		<g clip-path="url(#SVGID_2_)">
			
				<rect x="24.486" y="-5.397" transform="matrix(0.8187 0.5743 -0.5743 0.8187 16.1484 -10.4262)" fill-rule="evenodd" clip-rule="evenodd" fill="#FF2F00" width="0.197" height="51.51"/>
		</g>
		<g clip-path="url(#SVGID_2_)">
			
				<rect x="24.379" y="-5.472" transform="matrix(0.8187 0.5743 -0.5743 0.8187 16.0858 -10.3782)" fill-rule="evenodd" clip-rule="evenodd" fill="#FF2F00" width="0.197" height="51.51"/>
		</g>
		<g clip-path="url(#SVGID_2_)">
			
				<rect x="24.271" y="-5.547" transform="matrix(0.8187 0.5743 -0.5743 0.8187 16.0231 -10.3302)" fill-rule="evenodd" clip-rule="evenodd" fill="#FF3100" width="0.197" height="51.51"/>
		</g>
		<g clip-path="url(#SVGID_2_)">
			
				<rect x="24.164" y="-5.623" transform="matrix(0.8187 0.5743 -0.5743 0.8187 15.9604 -10.2823)" fill-rule="evenodd" clip-rule="evenodd" fill="#FF3100" width="0.197" height="51.51"/>
		</g>
		<g clip-path="url(#SVGID_2_)">
			
				<rect x="24.057" y="-5.698" transform="matrix(0.8189 0.574 -0.574 0.8189 15.8874 -10.2315)" fill-rule="evenodd" clip-rule="evenodd" fill="#FF3100" width="0.197" height="51.51"/>
		</g>
		<g clip-path="url(#SVGID_2_)">
			
				<rect x="23.949" y="-5.773" transform="matrix(0.8189 0.574 -0.574 0.8189 15.8248 -10.1835)" fill-rule="evenodd" clip-rule="evenodd" fill="#FF3100" width="0.197" height="51.51"/>
		</g>
		<g clip-path="url(#SVGID_2_)">
			
				<rect x="23.842" y="-5.848" transform="matrix(0.8186 0.5744 -0.5744 0.8186 15.7772 -10.1396)" fill-rule="evenodd" clip-rule="evenodd" fill="#FF3100" width="0.197" height="51.51"/>
		</g>
		<g clip-path="url(#SVGID_2_)">
			
				<rect x="23.735" y="-5.924" transform="matrix(0.8187 0.5743 -0.5743 0.8187 15.7097 -10.0903)" fill-rule="evenodd" clip-rule="evenodd" fill="#FF3300" width="0.197" height="51.51"/>
		</g>
		<g clip-path="url(#SVGID_2_)">
			
				<rect x="23.627" y="-5.999" transform="matrix(0.8187 0.5743 -0.5743 0.8187 15.647 -10.0423)" fill-rule="evenodd" clip-rule="evenodd" fill="#FF3300" width="0.197" height="51.51"/>
		</g>
		<g clip-path="url(#SVGID_2_)">
			
				<rect x="23.52" y="-6.074" transform="matrix(0.8187 0.5743 -0.5743 0.8187 15.5842 -9.9944)" fill-rule="evenodd" clip-rule="evenodd" fill="#FF3300" width="0.197" height="51.51"/>
		</g>
		<g clip-path="url(#SVGID_2_)">
			
				<rect x="23.413" y="-6.15" transform="matrix(0.8189 0.574 -0.574 0.8189 15.5115 -9.9437)" fill-rule="evenodd" clip-rule="evenodd" fill="#FF3300" width="0.197" height="51.51"/>
		</g>
		<g clip-path="url(#SVGID_2_)">
			
				<rect x="23.305" y="-6.225" transform="matrix(0.8188 0.5741 -0.5741 0.8188 15.4536 -9.897)" fill-rule="evenodd" clip-rule="evenodd" fill="#FF3300" width="0.197" height="51.51"/>
		</g>
		<g clip-path="url(#SVGID_2_)">
			
				<rect x="23.198" y="-6.3" transform="matrix(0.8187 0.5743 -0.5743 0.8187 15.3962 -9.8504)" fill-rule="evenodd" clip-rule="evenodd" fill="#FF3300" width="0.197" height="51.51"/>
		</g>
		<g clip-path="url(#SVGID_2_)">
			
				<rect x="23.091" y="-6.375" transform="matrix(0.8186 0.5743 -0.5743 0.8186 15.3368 -9.8033)" fill-rule="evenodd" clip-rule="evenodd" fill="#FF3300" width="0.197" height="51.51"/>
		</g>
		<g clip-path="url(#SVGID_2_)">
			
				<rect x="22.983" y="-6.451" transform="matrix(0.8187 0.5743 -0.5743 0.8187 15.2708 -9.7545)" fill-rule="evenodd" clip-rule="evenodd" fill="#FF3300" width="0.197" height="51.51"/>
		</g>
		<g clip-path="url(#SVGID_2_)">
			
				<rect x="22.876" y="-6.526" transform="matrix(0.8186 0.5744 -0.5744 0.8186 15.2128 -9.7078)" fill-rule="evenodd" clip-rule="evenodd" fill="#FF3600" width="0.197" height="51.51"/>
		</g>
		<g clip-path="url(#SVGID_2_)">
			
				<rect x="22.769" y="-6.601" transform="matrix(0.8188 0.5741 -0.5741 0.8188 15.1403 -9.6571)" fill-rule="evenodd" clip-rule="evenodd" fill="#FF3600" width="0.197" height="51.51"/>
		</g>
		<g clip-path="url(#SVGID_2_)">
			
				<rect x="22.661" y="-6.677" transform="matrix(0.8189 0.574 -0.574 0.8189 15.073 -9.6079)" fill-rule="evenodd" clip-rule="evenodd" fill="#FF3600" width="0.197" height="51.51"/>
		</g>
		<g clip-path="url(#SVGID_2_)">
			
				<rect x="22.554" y="-6.752" transform="matrix(0.8187 0.5743 -0.5743 0.8187 15.0201 -9.5625)" fill-rule="evenodd" clip-rule="evenodd" fill="#FF3600" width="0.197" height="51.51"/>
		</g>
		<g clip-path="url(#SVGID_2_)">
			
				<rect x="22.447" y="-6.827" transform="matrix(0.8187 0.5743 -0.5743 0.8187 14.9574 -9.5145)" fill-rule="evenodd" clip-rule="evenodd" fill="#FF3600" width="0.197" height="51.51"/>
		</g>
		<g clip-path="url(#SVGID_2_)">
			
				<rect x="22.339" y="-6.902" transform="matrix(0.8186 0.5744 -0.5744 0.8186 14.8993 -9.4678)" fill-rule="evenodd" clip-rule="evenodd" fill="#FF3900" width="0.197" height="51.51"/>
		</g>
		<g clip-path="url(#SVGID_2_)">
			
				<rect x="22.232" y="-6.978" transform="matrix(0.8187 0.5743 -0.5743 0.8187 14.832 -9.4186)" fill-rule="evenodd" clip-rule="evenodd" fill="#FF3900" width="0.197" height="51.51"/>
		</g>
		<g clip-path="url(#SVGID_2_)">
			
				<rect x="22.125" y="-7.053" transform="matrix(0.8187 0.5743 -0.5743 0.8187 14.7694 -9.3706)" fill-rule="evenodd" clip-rule="evenodd" fill="#FF3900" width="0.197" height="51.51"/>
		</g>
		<g clip-path="url(#SVGID_2_)">
			
				<rect x="22.017" y="-7.128" transform="matrix(0.8189 0.574 -0.574 0.8189 14.6971 -9.3201)" fill-rule="evenodd" clip-rule="evenodd" fill="#FF3900" width="0.197" height="51.51"/>
		</g>
		<g clip-path="url(#SVGID_2_)">
			
				<rect x="21.91" y="-7.203" transform="matrix(0.8187 0.5743 -0.5743 0.8187 14.6439 -9.2746)" fill-rule="evenodd" clip-rule="evenodd" fill="#FF3900" width="0.197" height="51.51"/>
		</g>
		<g clip-path="url(#SVGID_2_)">
			
				<rect x="21.803" y="-7.279" transform="matrix(0.8185 0.5745 -0.5745 0.8185 14.5889 -9.2287)" fill-rule="evenodd" clip-rule="evenodd" fill="#FF3900" width="0.197" height="51.51"/>
		</g>
		<g clip-path="url(#SVGID_2_)">
			
				<rect x="21.695" y="-7.354" transform="matrix(0.8187 0.5743 -0.5743 0.8187 14.5186 -9.1787)" fill-rule="evenodd" clip-rule="evenodd" fill="#FF3900" width="0.197" height="51.51"/>
		</g>
		<g clip-path="url(#SVGID_2_)">
			
				<rect x="21.588" y="-7.429" transform="matrix(0.8187 0.5743 -0.5743 0.8187 14.4559 -9.1307)" fill-rule="evenodd" clip-rule="evenodd" fill="#FF3B00" width="0.197" height="51.51"/>
		</g>
		<g clip-path="url(#SVGID_2_)">
			
				<rect x="21.481" y="-7.505" transform="matrix(0.8187 0.5743 -0.5743 0.8187 14.3932 -9.0827)" fill-rule="evenodd" clip-rule="evenodd" fill="#FF3B00" width="0.197" height="51.51"/>
		</g>
		<g clip-path="url(#SVGID_2_)">
			
				<rect x="21.373" y="-7.58" transform="matrix(0.8189 0.574 -0.574 0.8189 14.3213 -9.0323)" fill-rule="evenodd" clip-rule="evenodd" fill="#FF3B00" width="0.197" height="51.51"/>
		</g>
		<g clip-path="url(#SVGID_2_)">
			
				<rect x="21.266" y="-7.655" transform="matrix(0.8187 0.5743 -0.5743 0.8187 14.2678 -8.9867)" fill-rule="evenodd" clip-rule="evenodd" fill="#FF3B00" width="0.197" height="51.51"/>
		</g>
		<g clip-path="url(#SVGID_2_)">
			
				<rect x="21.159" y="-7.73" transform="matrix(0.8187 0.5743 -0.5743 0.8187 14.2052 -8.9388)" fill-rule="evenodd" clip-rule="evenodd" fill="#FF3B00" width="0.197" height="51.51"/>
		</g>
		<g clip-path="url(#SVGID_2_)">
			
				<rect x="21.052" y="-7.806" transform="matrix(0.8187 0.5743 -0.5743 0.8187 14.1425 -8.8908)" fill-rule="evenodd" clip-rule="evenodd" fill="#FF3E00" width="0.197" height="51.51"/>
		</g>
		<g clip-path="url(#SVGID_2_)">
			
				<rect x="20.944" y="-7.881" transform="matrix(0.8187 0.5743 -0.5743 0.8187 14.0797 -8.8428)" fill-rule="evenodd" clip-rule="evenodd" fill="#FF3E00" width="0.197" height="51.51"/>
		</g>
		<g clip-path="url(#SVGID_2_)">
			
				<rect x="20.837" y="-7.956" transform="matrix(0.8187 0.5743 -0.5743 0.8187 14.0171 -8.7948)" fill-rule="evenodd" clip-rule="evenodd" fill="#FF3E00" width="0.197" height="51.51"/>
		</g>
		<g clip-path="url(#SVGID_2_)">
			
				<rect x="20.73" y="-8.031" transform="matrix(0.8188 0.5741 -0.5741 0.8188 13.9484 -8.7453)" fill-rule="evenodd" clip-rule="evenodd" fill="#FF3E00" width="0.197" height="51.51"/>
		</g>
		<g clip-path="url(#SVGID_2_)">
			
				<rect x="20.622" y="-8.107" transform="matrix(0.8189 0.574 -0.574 0.8189 13.8827 -8.6966)" fill-rule="evenodd" clip-rule="evenodd" fill="#FF3E00" width="0.197" height="51.51"/>
		</g>
		<g clip-path="url(#SVGID_2_)">
			
				<rect x="20.515" y="-8.182" transform="matrix(0.8187 0.5743 -0.5743 0.8187 13.829 -8.6509)" fill-rule="evenodd" clip-rule="evenodd" fill="#FF3E00" width="0.197" height="51.51"/>
		</g>
		<g clip-path="url(#SVGID_2_)">
			
				<rect x="20.408" y="-8.257" transform="matrix(0.8187 0.5743 -0.5743 0.8187 13.7663 -8.6029)" fill-rule="evenodd" clip-rule="evenodd" fill="#FF3E00" width="0.197" height="51.51"/>
		</g>
		<g clip-path="url(#SVGID_2_)">
			
				<rect x="20.3" y="-8.333" transform="matrix(0.8186 0.5744 -0.5744 0.8186 13.7078 -8.556)" fill-rule="evenodd" clip-rule="evenodd" fill="#FF3E00" width="0.197" height="51.51"/>
		</g>
		<g clip-path="url(#SVGID_2_)">
			
				<rect x="20.193" y="-8.408" transform="matrix(0.8187 0.5743 -0.5743 0.8187 13.641 -8.507)" fill-rule="evenodd" clip-rule="evenodd" fill="#FF4000" width="0.197" height="51.51"/>
		</g>
		<g clip-path="url(#SVGID_2_)">
			
				<rect x="20.086" y="-8.483" transform="matrix(0.8189 0.574 -0.574 0.8189 13.5695 -8.4567)" fill-rule="evenodd" clip-rule="evenodd" fill="#FF4000" width="0.197" height="51.51"/>
		</g>
		<g clip-path="url(#SVGID_2_)">
			
				<rect x="19.978" y="-8.558" transform="matrix(0.8188 0.5741 -0.5741 0.8188 13.5098 -8.4095)" fill-rule="evenodd" clip-rule="evenodd" fill="#FF4000" width="0.197" height="51.51"/>
		</g>
		<g clip-path="url(#SVGID_2_)">
			
				<rect x="19.871" y="-8.634" transform="matrix(0.8186 0.5744 -0.5744 0.8186 13.457 -8.364)" fill-rule="evenodd" clip-rule="evenodd" fill="#FF4000" width="0.197" height="51.51"/>
		</g>
		<g clip-path="url(#SVGID_2_)">
			
				<rect x="19.764" y="-8.709" transform="matrix(0.8186 0.5744 -0.5744 0.8186 13.3943 -8.3161)" fill-rule="evenodd" clip-rule="evenodd" fill="#FF4000" width="0.197" height="51.51"/>
		</g>
		<g clip-path="url(#SVGID_2_)">
			
				<rect x="19.656" y="-8.784" transform="matrix(0.8187 0.5743 -0.5743 0.8187 13.3275 -8.267)" fill-rule="evenodd" clip-rule="evenodd" fill="#FF4000" width="0.197" height="51.51"/>
		</g>
		<g clip-path="url(#SVGID_2_)">
			
				<rect x="19.549" y="-8.859" transform="matrix(0.8187 0.5743 -0.5743 0.8187 13.2648 -8.2191)" fill-rule="evenodd" clip-rule="evenodd" fill="#FF4000" width="0.197" height="51.51"/>
		</g>
		<g clip-path="url(#SVGID_2_)">
			
				<rect x="19.442" y="-8.935" transform="matrix(0.8188 0.5741 -0.5741 0.8188 13.1965 -8.1696)" fill-rule="evenodd" clip-rule="evenodd" fill="#FF4300" width="0.197" height="51.51"/>
		</g>
		<g clip-path="url(#SVGID_2_)">
			
				<rect x="19.334" y="-9.01" transform="matrix(0.8188 0.5741 -0.5741 0.8188 13.135 -8.122)" fill-rule="evenodd" clip-rule="evenodd" fill="#FF4300" width="0.197" height="51.51"/>
		</g>
		<g clip-path="url(#SVGID_2_)">
			
				<rect x="19.227" y="-9.085" transform="matrix(0.8187 0.5743 -0.5743 0.8187 13.0768 -8.0751)" fill-rule="evenodd" clip-rule="evenodd" fill="#FF4300" width="0.197" height="51.51"/>
		</g>
		<g clip-path="url(#SVGID_2_)">
			
				<rect x="19.12" y="-9.161" transform="matrix(0.8187 0.5743 -0.5743 0.8187 13.0141 -8.0271)" fill-rule="evenodd" clip-rule="evenodd" fill="#FF4300" width="0.197" height="51.51"/>
		</g>
		<g clip-path="url(#SVGID_2_)">
			
				<rect x="19.012" y="-9.236" transform="matrix(0.8187 0.5743 -0.5743 0.8187 12.9514 -7.9791)" fill-rule="evenodd" clip-rule="evenodd" fill="#FF4300" width="0.197" height="51.51"/>
		</g>
		<g clip-path="url(#SVGID_2_)">
			
				<rect x="18.905" y="-9.311" transform="matrix(0.8187 0.5743 -0.5743 0.8187 12.8887 -7.9312)" fill-rule="evenodd" clip-rule="evenodd" fill="#FF4500" width="0.197" height="51.51"/>
		</g>
		<g clip-path="url(#SVGID_2_)">
			
				<rect x="18.798" y="-9.386" transform="matrix(0.8186 0.5744 -0.5744 0.8186 12.83 -7.8842)" fill-rule="evenodd" clip-rule="evenodd" fill="#FF4500" width="0.197" height="51.51"/>
		</g>
		<g clip-path="url(#SVGID_2_)">
			
				<rect x="18.69" y="-9.462" transform="matrix(0.8188 0.5741 -0.5741 0.8188 12.7579 -7.8338)" fill-rule="evenodd" clip-rule="evenodd" fill="#FF4500" width="0.197" height="51.51"/>
		</g>
		<g clip-path="url(#SVGID_2_)">
			
				<rect x="18.583" y="-9.537" transform="matrix(0.8187 0.5743 -0.5743 0.8187 12.7006 -7.7872)" fill-rule="evenodd" clip-rule="evenodd" fill="#FF4500" width="0.197" height="51.51"/>
		</g>
		<g clip-path="url(#SVGID_2_)">
			
				<rect x="18.476" y="-9.612" transform="matrix(0.8187 0.5743 -0.5743 0.8187 12.638 -7.7392)" fill-rule="evenodd" clip-rule="evenodd" fill="#FF4500" width="0.197" height="51.51"/>
		</g>
		<g clip-path="url(#SVGID_2_)">
			
				<rect x="18.368" y="-9.688" transform="matrix(0.8187 0.5743 -0.5743 0.8187 12.5753 -7.6913)" fill-rule="evenodd" clip-rule="evenodd" fill="#FF4500" width="0.197" height="51.51"/>
		</g>
		<g clip-path="url(#SVGID_2_)">
			
				<rect x="18.261" y="-9.763" transform="matrix(0.8187 0.5743 -0.5743 0.8187 12.5126 -7.6433)" fill-rule="evenodd" clip-rule="evenodd" fill="#FF4500" width="0.197" height="51.51"/>
		</g>
		<g clip-path="url(#SVGID_2_)">
			
				<rect x="18.154" y="-9.838" transform="matrix(0.8187 0.5743 -0.5743 0.8187 12.4499 -7.5953)" fill-rule="evenodd" clip-rule="evenodd" fill="#FF4500" width="0.197" height="51.51"/>
		</g>
		<g clip-path="url(#SVGID_2_)">
			
				<rect x="18.046" y="-9.913" transform="matrix(0.8189 0.574 -0.574 0.8189 12.3793 -7.5454)" fill-rule="evenodd" clip-rule="evenodd" fill="#FF4800" width="0.197" height="51.51"/>
		</g>
		<g clip-path="url(#SVGID_2_)">
			
				<rect x="17.939" y="-9.989" transform="matrix(0.8187 0.5743 -0.5743 0.8187 12.3245 -7.4993)" fill-rule="evenodd" clip-rule="evenodd" fill="#FF4800" width="0.197" height="51.51"/>
		</g>
		<g clip-path="url(#SVGID_2_)">
			
				<rect x="17.832" y="-10.064" transform="matrix(0.8187 0.5743 -0.5743 0.8187 12.2618 -7.4513)" fill-rule="evenodd" clip-rule="evenodd" fill="#FF4800" width="0.197" height="51.51"/>
		</g>
		<g clip-path="url(#SVGID_2_)">
			
				<rect x="17.725" y="-10.139" transform="matrix(0.8187 0.5743 -0.5743 0.8187 12.1991 -7.4034)" fill-rule="evenodd" clip-rule="evenodd" fill="#FF4800" width="0.197" height="51.51"/>
		</g>
		<g clip-path="url(#SVGID_2_)">
			
				<rect x="17.617" y="-10.214" transform="matrix(0.8186 0.5743 -0.5743 0.8186 12.139 -7.356)" fill-rule="evenodd" clip-rule="evenodd" fill="#FF4800" width="0.197" height="51.51"/>
		</g>
		<g clip-path="url(#SVGID_2_)">
			
				<rect x="17.51" y="-10.29" transform="matrix(0.8187 0.5743 -0.5743 0.8187 12.0738 -7.3074)" fill-rule="evenodd" clip-rule="evenodd" fill="#FF4A00" width="0.197" height="51.51"/>
		</g>
		<g clip-path="url(#SVGID_2_)">
			
				<rect x="17.403" y="-10.365" transform="matrix(0.8189 0.574 -0.574 0.8189 12.0034 -7.2576)" fill-rule="evenodd" clip-rule="evenodd" fill="#FF4A00" width="0.197" height="51.51"/>
		</g>
		<g clip-path="url(#SVGID_2_)">
			
				<rect x="17.295" y="-10.44" transform="matrix(0.8186 0.5744 -0.5744 0.8186 11.952 -7.2123)" fill-rule="evenodd" clip-rule="evenodd" fill="#FF4A00" width="0.197" height="51.51"/>
		</g>
		<g clip-path="url(#SVGID_2_)">
			
				<rect x="17.188" y="-10.516" transform="matrix(0.8187 0.5743 -0.5743 0.8187 11.8857 -7.1634)" fill-rule="evenodd" clip-rule="evenodd" fill="#FF4A00" width="0.197" height="51.51"/>
		</g>
		<g clip-path="url(#SVGID_2_)">
			
				<rect x="17.081" y="-10.591" transform="matrix(0.8187 0.5743 -0.5743 0.8187 11.823 -7.1155)" fill-rule="evenodd" clip-rule="evenodd" fill="#FF4A00" width="0.197" height="51.51"/>
		</g>
		<g clip-path="url(#SVGID_2_)">
			
				<rect x="16.973" y="-10.666" transform="matrix(0.8187 0.5743 -0.5743 0.8187 11.7603 -7.0675)" fill-rule="evenodd" clip-rule="evenodd" fill="#FF4A00" width="0.197" height="51.51"/>
		</g>
		<g clip-path="url(#SVGID_2_)">
			
				<rect x="16.866" y="-10.741" transform="matrix(0.8187 0.5743 -0.5743 0.8187 11.6977 -7.0195)" fill-rule="evenodd" clip-rule="evenodd" fill="#FF4A00" width="0.197" height="51.51"/>
		</g>
		<g clip-path="url(#SVGID_2_)">
			
				<rect x="16.759" y="-10.817" transform="matrix(0.8188 0.5741 -0.5741 0.8188 11.631 -6.9706)" fill-rule="evenodd" clip-rule="evenodd" fill="#FF4D00" width="0.197" height="51.51"/>
		</g>
		<g clip-path="url(#SVGID_2_)">
			
				<rect x="16.651" y="-10.892" transform="matrix(0.8189 0.574 -0.574 0.8189 11.5649 -6.9218)" fill-rule="evenodd" clip-rule="evenodd" fill="#FF4D00" width="0.197" height="51.51"/>
		</g>
		<g clip-path="url(#SVGID_2_)">
			
				<rect x="16.544" y="-10.967" transform="matrix(0.8187 0.5743 -0.5743 0.8187 11.5096 -6.8756)" fill-rule="evenodd" clip-rule="evenodd" fill="#FF4D00" width="0.197" height="51.51"/>
		</g>
		<g clip-path="url(#SVGID_2_)">
			
				<rect x="16.437" y="-11.042" transform="matrix(0.8187 0.5743 -0.5743 0.8187 11.4469 -6.8276)" fill-rule="evenodd" clip-rule="evenodd" fill="#FF4D00" width="0.197" height="51.51"/>
		</g>
		<g clip-path="url(#SVGID_2_)">
			
				<rect x="16.329" y="-11.118" transform="matrix(0.8185 0.5745 -0.5745 0.8185 11.3901 -6.781)" fill-rule="evenodd" clip-rule="evenodd" fill="#FF4D00" width="0.197" height="51.51"/>
		</g>
		<g clip-path="url(#SVGID_2_)">
			
				<rect x="16.222" y="-11.193" transform="matrix(0.8187 0.5743 -0.5743 0.8187 11.3215 -6.7316)" fill-rule="evenodd" clip-rule="evenodd" fill="#FF4F00" width="0.197" height="51.51"/>
		</g>
		<g clip-path="url(#SVGID_2_)">
			
				<rect x="16.115" y="-11.268" transform="matrix(0.8189 0.574 -0.574 0.8189 11.2516 -6.682)" fill-rule="evenodd" clip-rule="evenodd" fill="#FF4F00" width="0.197" height="51.51"/>
		</g>
		<g clip-path="url(#SVGID_2_)">
			
				<rect x="16.007" y="-11.344" transform="matrix(0.8189 0.574 -0.574 0.8189 11.189 -6.634)" fill-rule="evenodd" clip-rule="evenodd" fill="#FF4F00" width="0.197" height="51.51"/>
		</g>
		<g clip-path="url(#SVGID_2_)">
			
				<rect x="15.9" y="-11.419" transform="matrix(0.8187 0.5743 -0.5743 0.8187 11.1335 -6.5877)" fill-rule="evenodd" clip-rule="evenodd" fill="#FF4F00" width="0.197" height="51.51"/>
		</g>
		<g clip-path="url(#SVGID_2_)">
			
				<rect x="15.793" y="-11.494" transform="matrix(0.8186 0.5744 -0.5744 0.8186 11.0741 -6.5405)" fill-rule="evenodd" clip-rule="evenodd" fill="#FF4F00" width="0.197" height="51.51"/>
		</g>
		<g clip-path="url(#SVGID_2_)">
			
				<rect x="15.685" y="-11.569" transform="matrix(0.8187 0.5743 -0.5743 0.8187 11.0081 -6.4917)" fill-rule="evenodd" clip-rule="evenodd" fill="#FF4F00" width="0.197" height="51.51"/>
		</g>
		<g clip-path="url(#SVGID_2_)">
			
				<rect x="15.578" y="-11.645" transform="matrix(0.8187 0.5743 -0.5743 0.8187 10.9454 -6.4438)" fill-rule="evenodd" clip-rule="evenodd" fill="#FF4F00" width="0.197" height="51.51"/>
		</g>
		<g clip-path="url(#SVGID_2_)">
			
				<rect x="15.471" y="-11.72" transform="matrix(0.8189 0.574 -0.574 0.8189 10.8758 -6.3942)" fill-rule="evenodd" clip-rule="evenodd" fill="#FF4F00" width="0.197" height="51.51"/>
		</g>
		<g clip-path="url(#SVGID_2_)">
			
				<rect x="15.363" y="-11.795" transform="matrix(0.8189 0.574 -0.574 0.8189 10.8131 -6.3462)" fill-rule="evenodd" clip-rule="evenodd" fill="#FF5200" width="0.197" height="51.51"/>
		</g>
		<g clip-path="url(#SVGID_2_)">
			
				<rect x="15.256" y="-11.87" transform="matrix(0.8187 0.5743 -0.5743 0.8187 10.7573 -6.2998)" fill-rule="evenodd" clip-rule="evenodd" fill="#FF5200" width="0.197" height="51.51"/>
		</g>
		<g clip-path="url(#SVGID_2_)">
			
				<rect x="15.149" y="-11.946" transform="matrix(0.8187 0.5743 -0.5743 0.8187 10.6946 -6.2518)" fill-rule="evenodd" clip-rule="evenodd" fill="#FF5200" width="0.197" height="51.51"/>
		</g>
		<g clip-path="url(#SVGID_2_)">
			
				<rect x="15.041" y="-12.021" transform="matrix(0.8187 0.5743 -0.5743 0.8187 10.6319 -6.2038)" fill-rule="evenodd" clip-rule="evenodd" fill="#FF5200" width="0.197" height="51.51"/>
		</g>
		<g clip-path="url(#SVGID_2_)">
			
				<rect x="14.934" y="-12.096" transform="matrix(0.8187 0.5743 -0.5743 0.8187 10.5693 -6.1559)" fill-rule="evenodd" clip-rule="evenodd" fill="#FF5200" width="0.197" height="51.51"/>
		</g>
		<g clip-path="url(#SVGID_2_)">
			
				<rect x="14.827" y="-12.172" transform="matrix(0.8186 0.5744 -0.5744 0.8186 10.5098 -6.1086)" fill-rule="evenodd" clip-rule="evenodd" fill="#FF5400" width="0.197" height="51.51"/>
		</g>
		<g clip-path="url(#SVGID_2_)">
			
				<rect x="14.719" y="-12.247" transform="matrix(0.8189 0.574 -0.574 0.8189 10.4372 -6.0584)" fill-rule="evenodd" clip-rule="evenodd" fill="#FF5400" width="0.197" height="51.51"/>
		</g>
		<g clip-path="url(#SVGID_2_)">
			
				<rect x="14.612" y="-12.322" transform="matrix(0.8187 0.5743 -0.5743 0.8187 10.3812 -6.0119)" fill-rule="evenodd" clip-rule="evenodd" fill="#FF5400" width="0.197" height="51.51"/>
		</g>
		<g clip-path="url(#SVGID_2_)">
			
				<rect x="14.505" y="-12.397" transform="matrix(0.8186 0.5743 -0.5743 0.8186 10.3207 -5.9644)" fill-rule="evenodd" clip-rule="evenodd" fill="#FF5400" width="0.197" height="51.51"/>
		</g>
		<g clip-path="url(#SVGID_2_)">
			
				<rect x="14.398" y="-12.473" transform="matrix(0.8187 0.5743 -0.5743 0.8187 10.2558 -5.916)" fill-rule="evenodd" clip-rule="evenodd" fill="#FF5400" width="0.197" height="51.51"/>
		</g>
		<g clip-path="url(#SVGID_2_)">
			
				<rect x="14.29" y="-12.548" transform="matrix(0.8186 0.5744 -0.5744 0.8186 10.1962 -5.8687)" fill-rule="evenodd" clip-rule="evenodd" fill="#FF5400" width="0.197" height="51.51"/>
		</g>
		<g clip-path="url(#SVGID_2_)">
			
				<rect x="14.183" y="-12.623" transform="matrix(0.8187 0.5743 -0.5743 0.8187 10.1305 -5.82)" fill-rule="evenodd" clip-rule="evenodd" fill="#FF5400" width="0.197" height="51.51"/>
		</g>
		<g clip-path="url(#SVGID_2_)">
			
				<rect x="14.076" y="-12.699" transform="matrix(0.8189 0.574 -0.574 0.8189 10.0614 -5.7706)" fill-rule="evenodd" clip-rule="evenodd" fill="#FF5700" width="0.197" height="51.51"/>
		</g>
		<g clip-path="url(#SVGID_2_)">
			
				<rect x="13.968" y="-12.774" transform="matrix(0.8187 0.5743 -0.5743 0.8187 10.005 -5.724)" fill-rule="evenodd" clip-rule="evenodd" fill="#FF5700" width="0.197" height="51.51"/>
		</g>
		<g clip-path="url(#SVGID_2_)">
			
				<rect x="13.861" y="-12.849" transform="matrix(0.8187 0.5743 -0.5743 0.8187 9.9424 -5.676)" fill-rule="evenodd" clip-rule="evenodd" fill="#FF5700" width="0.197" height="51.51"/>
		</g>
		<g clip-path="url(#SVGID_2_)">
			
				<rect x="13.754" y="-12.924" transform="matrix(0.8187 0.5743 -0.5743 0.8187 9.8797 -5.6281)" fill-rule="evenodd" clip-rule="evenodd" fill="#FF5700" width="0.197" height="51.51"/>
		</g>
		<g clip-path="url(#SVGID_2_)">
			
				<rect x="13.646" y="-13" transform="matrix(0.8187 0.5743 -0.5743 0.8187 9.817 -5.5801)" fill-rule="evenodd" clip-rule="evenodd" fill="#FF5700" width="0.197" height="51.51"/>
		</g>
		<g clip-path="url(#SVGID_2_)">
			
				<rect x="13.539" y="-13.075" transform="matrix(0.8187 0.5743 -0.5743 0.8187 9.7543 -5.5321)" fill-rule="evenodd" clip-rule="evenodd" fill="#FF5A00" width="0.197" height="51.51"/>
		</g>
		<g clip-path="url(#SVGID_2_)">
			
				<rect x="13.432" y="-13.15" transform="matrix(0.8189 0.574 -0.574 0.8189 9.6855 -5.4828)" fill-rule="evenodd" clip-rule="evenodd" fill="#FF5A00" width="0.197" height="51.51"/>
		</g>
		<g clip-path="url(#SVGID_2_)">
			
				<rect x="13.324" y="-13.226" transform="matrix(0.8186 0.5744 -0.5744 0.8186 9.6318 -5.4367)" fill-rule="evenodd" clip-rule="evenodd" fill="#FF5A00" width="0.197" height="51.51"/>
		</g>
		<g clip-path="url(#SVGID_2_)">
			
				<rect x="13.217" y="-13.301" transform="matrix(0.8186 0.5743 -0.5743 0.8186 9.5683 -5.3886)" fill-rule="evenodd" clip-rule="evenodd" fill="#FF5A00" width="0.197" height="51.51"/>
		</g>
		<g clip-path="url(#SVGID_2_)">
			
				<rect x="13.11" y="-13.376" transform="matrix(0.8187 0.5743 -0.5743 0.8187 9.5036 -5.3402)" fill-rule="evenodd" clip-rule="evenodd" fill="#FF5A00" width="0.197" height="51.51"/>
		</g>
		<g clip-path="url(#SVGID_2_)">
			
				<rect x="13.002" y="-13.451" transform="matrix(0.8187 0.5743 -0.5743 0.8187 9.4409 -5.2922)" fill-rule="evenodd" clip-rule="evenodd" fill="#FF5A00" width="0.197" height="51.51"/>
		</g>
		<g clip-path="url(#SVGID_2_)">
			
				<rect x="12.895" y="-13.527" transform="matrix(0.8187 0.5743 -0.5743 0.8187 9.3782 -5.2442)" fill-rule="evenodd" clip-rule="evenodd" fill="#FF5A00" width="0.197" height="51.51"/>
		</g>
		<g clip-path="url(#SVGID_2_)">
			
				<rect x="12.788" y="-13.602" transform="matrix(0.8188 0.5741 -0.5741 0.8188 9.3124 -5.1956)" fill-rule="evenodd" clip-rule="evenodd" fill="#FF5A00" width="0.197" height="51.51"/>
		</g>
		<g clip-path="url(#SVGID_2_)">
			
				<rect x="12.68" y="-13.677" transform="matrix(0.8188 0.5741 -0.5741 0.8188 9.2489 -5.1475)" fill-rule="evenodd" clip-rule="evenodd" fill="#FF5C00" width="0.197" height="51.51"/>
		</g>
		<g clip-path="url(#SVGID_2_)">
			
				<rect x="12.573" y="-13.752" transform="matrix(0.8187 0.5743 -0.5743 0.8187 9.1902 -5.1002)" fill-rule="evenodd" clip-rule="evenodd" fill="#FF5C00" width="0.197" height="51.51"/>
		</g>
		<g clip-path="url(#SVGID_2_)">
			
				<rect x="12.466" y="-13.828" transform="matrix(0.8187 0.5743 -0.5743 0.8187 9.1274 -5.0523)" fill-rule="evenodd" clip-rule="evenodd" fill="#FF5C00" width="0.197" height="51.51"/>
		</g>
		<g clip-path="url(#SVGID_2_)">
			
				<rect x="12.358" y="-13.903" transform="matrix(0.8186 0.5744 -0.5744 0.8186 9.0675 -5.0049)" fill-rule="evenodd" clip-rule="evenodd" fill="#FF5C00" width="0.197" height="51.51"/>
		</g>
		<g clip-path="url(#SVGID_2_)">
			
				<rect x="12.251" y="-13.978" transform="matrix(0.8186 0.5744 -0.5744 0.8186 9.0048 -4.9569)" fill-rule="evenodd" clip-rule="evenodd" fill="#FF5C00" width="0.197" height="51.51"/>
		</g>
		<g clip-path="url(#SVGID_2_)">
			
				<rect x="12.144" y="-14.054" transform="matrix(0.8188 0.5741 -0.5741 0.8188 8.9356 -4.9076)" fill-rule="evenodd" clip-rule="evenodd" fill="#FF5C00" width="0.197" height="51.51"/>
		</g>
		<g clip-path="url(#SVGID_2_)">
			
				<rect x="12.036" y="-14.129" transform="matrix(0.8189 0.574 -0.574 0.8189 8.8711 -4.8593)" fill-rule="evenodd" clip-rule="evenodd" fill="#FF5C00" width="0.197" height="51.51"/>
		</g>
		<g clip-path="url(#SVGID_2_)">
			
				<rect x="11.929" y="-14.204" transform="matrix(0.8187 0.5743 -0.5743 0.8187 8.814 -4.8124)" fill-rule="evenodd" clip-rule="evenodd" fill="#FF5F00" width="0.197" height="51.51"/>
		</g>
		<g clip-path="url(#SVGID_2_)">
			
				<rect x="11.822" y="-14.279" transform="matrix(0.8186 0.5744 -0.5744 0.8186 8.754 -4.7649)" fill-rule="evenodd" clip-rule="evenodd" fill="#FF5F00" width="0.197" height="51.51"/>
		</g>
		<g clip-path="url(#SVGID_2_)">
			
				<rect x="11.714" y="-14.355" transform="matrix(0.8187 0.5743 -0.5743 0.8187 8.6886 -4.7164)" fill-rule="evenodd" clip-rule="evenodd" fill="#FF5F00" width="0.197" height="51.51"/>
		</g>
		<g clip-path="url(#SVGID_2_)">
			
				<rect x="11.607" y="-14.43" transform="matrix(0.8187 0.5743 -0.5743 0.8187 8.626 -4.6684)" fill-rule="evenodd" clip-rule="evenodd" fill="#FF5F00" width="0.197" height="51.51"/>
		</g>
		<g clip-path="url(#SVGID_2_)">
			
				<rect x="11.5" y="-14.505" transform="matrix(0.8189 0.574 -0.574 0.8189 8.5579 -4.6194)" fill-rule="evenodd" clip-rule="evenodd" fill="#FF5F00" width="0.197" height="51.51"/>
		</g>
		<g clip-path="url(#SVGID_2_)">
			
				<rect x="11.392" y="-14.58" transform="matrix(0.8188 0.5741 -0.5741 0.8188 8.497 -4.5718)" fill-rule="evenodd" clip-rule="evenodd" fill="#FF6100" width="0.197" height="51.51"/>
		</g>
		<g clip-path="url(#SVGID_2_)">
			
				<rect x="11.285" y="-14.656" transform="matrix(0.8186 0.5744 -0.5744 0.8186 8.4404 -4.5249)" fill-rule="evenodd" clip-rule="evenodd" fill="#FF6100" width="0.197" height="51.51"/>
		</g>
		<g clip-path="url(#SVGID_2_)">
			
				<rect x="11.178" y="-14.731" transform="matrix(0.8187 0.5743 -0.5743 0.8187 8.3752 -4.4765)" fill-rule="evenodd" clip-rule="evenodd" fill="#FF6100" width="0.197" height="51.51"/>
		</g>
		<g clip-path="url(#SVGID_2_)">
			
				<rect x="11.071" y="-14.806" transform="matrix(0.8187 0.5743 -0.5743 0.8187 8.3125 -4.4285)" fill-rule="evenodd" clip-rule="evenodd" fill="#FF6100" width="0.197" height="51.51"/>
		</g>
		<g clip-path="url(#SVGID_2_)">
			
				<rect x="10.963" y="-14.881" transform="matrix(0.8187 0.5743 -0.5743 0.8187 8.2498 -4.3806)" fill-rule="evenodd" clip-rule="evenodd" fill="#FF6100" width="0.197" height="51.51"/>
		</g>
		<g clip-path="url(#SVGID_2_)">
			
				<rect x="10.856" y="-14.957" transform="matrix(0.8186 0.5743 -0.5743 0.8186 8.1889 -4.3329)" fill-rule="evenodd" clip-rule="evenodd" fill="#FF6100" width="0.197" height="51.51"/>
		</g>
		<g clip-path="url(#SVGID_2_)">
			
				<rect x="10.749" y="-15.032" transform="matrix(0.8189 0.574 -0.574 0.8189 8.1193 -4.2837)" fill-rule="evenodd" clip-rule="evenodd" fill="#FF6100" width="0.197" height="51.51"/>
		</g>
		<g clip-path="url(#SVGID_2_)">
			
				<rect x="10.641" y="-15.107" transform="matrix(0.8187 0.5743 -0.5743 0.8187 8.0618 -4.2366)" fill-rule="evenodd" clip-rule="evenodd" fill="#FF6100" width="0.197" height="51.51"/>
		</g>
		<g clip-path="url(#SVGID_2_)">
			
				<rect x="10.534" y="-15.183" transform="matrix(0.8187 0.5743 -0.5743 0.8187 7.9991 -4.1886)" fill-rule="evenodd" clip-rule="evenodd" fill="#FF6400" width="0.197" height="51.51"/>
		</g>
		<g clip-path="url(#SVGID_2_)">
			
				<rect x="10.427" y="-15.258" transform="matrix(0.8187 0.5743 -0.5743 0.8187 7.9364 -4.1406)" fill-rule="evenodd" clip-rule="evenodd" fill="#FF6400" width="0.197" height="51.51"/>
		</g>
		<g clip-path="url(#SVGID_2_)">
			
				<rect x="10.319" y="-15.333" transform="matrix(0.8186 0.5744 -0.5744 0.8186 7.8761 -4.0931)" fill-rule="evenodd" clip-rule="evenodd" fill="#FF6400" width="0.197" height="51.51"/>
		</g>
		<g clip-path="url(#SVGID_2_)">
			
				<rect x="10.212" y="-15.408" transform="matrix(0.8187 0.5743 -0.5743 0.8187 7.811 -4.0447)" fill-rule="evenodd" clip-rule="evenodd" fill="#FF6400" width="0.197" height="51.51"/>
		</g>
		<g clip-path="url(#SVGID_2_)">
			
				<rect x="10.105" y="-15.484" transform="matrix(0.8188 0.5741 -0.5741 0.8188 7.7451 -3.9961)" fill-rule="evenodd" clip-rule="evenodd" fill="#FF6400" width="0.197" height="51.51"/>
		</g>
		<g clip-path="url(#SVGID_2_)">
			
				<rect x="9.997" y="-15.559" transform="matrix(0.8187 0.5743 -0.5743 0.8187 7.6856 -3.9487)" fill-rule="evenodd" clip-rule="evenodd" fill="#FF6600" width="0.197" height="51.51"/>
		</g>
		<g clip-path="url(#SVGID_2_)">
			
				<rect x="9.89" y="-15.634" transform="matrix(0.8187 0.5743 -0.5743 0.8187 7.623 -3.9007)" fill-rule="evenodd" clip-rule="evenodd" fill="#FF6600" width="0.197" height="51.51"/>
		</g>
		<g clip-path="url(#SVGID_2_)">
			
				<rect x="9.783" y="-15.71" transform="matrix(0.8186 0.5744 -0.5744 0.8186 7.5625 -3.8531)" fill-rule="evenodd" clip-rule="evenodd" fill="#FF6600" width="0.197" height="51.51"/>
		</g>
		<g clip-path="url(#SVGID_2_)">
			
				<rect x="-1.162" y="-19.206" transform="matrix(0.8187 0.5742 -0.5742 0.8187 4.6478 -1.6238)" fill-rule="evenodd" clip-rule="evenodd" fill="#FF6600" width="12.114" height="51.51"/>
		</g>
	</g>
</g>
<path fill-rule="evenodd" clip-rule="evenodd" fill="#FFFFFF" d="M30.837,21.351c-4.474,4.875-8.349,3.342-9.42-1.495
	c0.585-0.797,4.119-1.559,5.856,1.496c-1.468-0.622-3.071-0.707-4.014-0.23c1.12,2.162,2.928,2.248,5.678-0.098
	c-1.313-1.871-3.269-3.306-5.606-3.648c2.665-1.291,5.712-0.057,7.512,3.959c-0.004-0.003-0.009-0.006-0.014-0.01
	C30.833,21.337,30.836,21.346,30.837,21.351z"/>
<path fill-rule="evenodd" clip-rule="evenodd" fill="#FFFFFF" d="M19.805,22.984c3.093,1.684,8.132,3.146,9.411,3.481
	c-1.26,3.314-1.391,6.373-1.191,9.083c-1.152,0.003-3.295-0.579-6.188-1.229C20.05,29.974,19.967,25.046,19.805,22.984z"/>
<path fill-rule="evenodd" clip-rule="evenodd" fill="#FFFFFF" d="M23.918,29.071c-3.97-0.89-9.227-4.146-9.998-8.176
	c-0.588-3.072,0.994-6.893,3.62-10.504c-1.198,3.829-2.394,7.393-1.058,9.808c0.965,1.744,3.356,2.913,7.063,4.421
	C23.545,24.619,23.697,29.07,23.918,29.071z"/>
<path fill-rule="evenodd" clip-rule="evenodd" fill="#FFFFFF" d="M5.782,32.6c6.363-3.514,12.387-1.667,18.34,0.158
	c7.843,2.405,15.558,4.77,23.614-5.884l0.64,0.483c-0.06,0.079-0.12,0.156-0.18,0.234l0.188,0.132
	c-8.377,11.868-16.354,10.173-24.463,8.45c-4.546-0.966-9.135-1.941-13.836-0.417c0.74-0.083,1.477-0.108,2.211-0.083
	c2.121,0.07,4.209,0.549,6.276,1.221c1.87,0.608,3.731,1.378,5.584,2.145c2.916,1.206,5.814,2.406,8.698,2.941
	c0.49,0.091,0.98,0.163,1.47,0.213c0.492,0.05,0.981,0.077,1.467,0.079c1.957,0.008,3.922-0.392,5.902-1.408
	c1.994-1.023,4.009-2.672,6.054-5.157l0.618,0.508c-2.118,2.575-4.219,4.29-6.308,5.361c-2.103,1.079-4.191,1.504-6.269,1.496
	c-0.518-0.002-1.032-0.031-1.543-0.082c-0.513-0.052-1.025-0.127-1.536-0.222c-2.967-0.551-5.903-1.766-8.857-2.988
	c-1.832-0.758-3.672-1.519-5.528-2.123c-2.005-0.652-4.022-1.116-6.053-1.183c-2.019-0.067-4.061,0.258-6.133,1.18l-0.163-0.366
	l-0.217-0.336c6.355-4.108,12.378-2.828,18.329-1.563c5.842,1.242,11.613,2.467,17.51-1.703c-5.973,3.436-11.807,1.649-17.711-0.161
	c-5.79-1.775-11.65-3.572-17.718-0.221L5.782,32.6z"/>
<path fill-rule="evenodd" clip-rule="evenodd" fill="#FFFFFF" d="M25.893,25.448c6.377,1.661,12.539,1.324,19.114,0.519
	c-5.379,2.935-9.8,3.416-18.997,3.293C25.506,29.254,26.028,25.489,25.893,25.448z"/>
<path fill-rule="evenodd" clip-rule="evenodd" fill="#FFFFFF" d="M20.647,9.544c1.887,0,3.416,1.529,3.416,3.416
	c0,1.886-1.529,3.416-3.416,3.416c-1.886,0-3.416-1.529-3.416-3.416C17.231,11.073,18.76,9.544,20.647,9.544L20.647,9.544z
	 M20.647,10.463c-1.379,0-2.497,1.118-2.497,2.497c0,1.379,1.118,2.497,2.497,2.497c1.379,0,2.497-1.118,2.497-2.497
	C23.144,11.581,22.026,10.463,20.647,10.463z"/>
</svg>
