<?xml version="1.0" encoding="utf-8"?>
<!-- Generator: Adobe Illustrator 17.0.0, SVG Export Plug-In . SVG Version: 6.00 Build 0)  -->
<!DOCTYPE svg PUBLIC "-//W3C//DTD SVG 1.1//EN" "http://www.w3.org/Graphics/SVG/1.1/DTD/svg11.dtd">
<svg version="1.1" id="Layer_1" xmlns="http://www.w3.org/2000/svg" xmlns:xlink="http://www.w3.org/1999/xlink" x="0px" y="0px"
	 width="56px" height="56px" viewBox="0 0 56 56" enable-background="new 0 0 56 56" xml:space="preserve">
<g>
	<g>
		<defs>
			<path id="SVGID_1_" d="M0.39,5.858c16.604-3.182,38.059-1.992,55.414,3.293c-6.517,13.88-14.072,28.803-27.257,42.371
				C20.49,35.97,11.585,22.18,0.39,5.858z"/>
		</defs>
		<clipPath id="SVGID_2_">
			<use xlink:href="#SVGID_1_"  overflow="visible"/>
		</clipPath>
		<g clip-path="url(#SVGID_2_)">
			
				<rect x="1.201" y="-20.619" transform="matrix(-0.8432 -0.5376 0.5376 -0.8432 -0.2341 9.0709)" fill-rule="evenodd" clip-rule="evenodd" fill="#ABD812" width="0.01" height="50.378"/>
		</g>
		<g clip-path="url(#SVGID_2_)">
			
				<rect x="1.13" y="-20.597" transform="matrix(-0.8465 -0.5324 0.5324 -0.8465 -0.1524 9.14)" fill-rule="evenodd" clip-rule="evenodd" fill="#ABD812" width="0.223" height="50.378"/>
		</g>
		<g clip-path="url(#SVGID_2_)">
			
				<rect x="1.256" y="-20.518" transform="matrix(-0.8464 -0.5325 0.5325 -0.8464 0.0371 9.3527)" fill-rule="evenodd" clip-rule="evenodd" fill="#ABD812" width="0.223" height="50.378"/>
		</g>
		<g clip-path="url(#SVGID_2_)">
			
				<rect x="1.382" y="-20.439" transform="matrix(-0.8466 -0.5323 0.5323 -0.8466 0.2285 9.5661)" fill-rule="evenodd" clip-rule="evenodd" fill="#ABD812" width="0.223" height="50.378"/>
		</g>
		<g clip-path="url(#SVGID_2_)">
			
				<rect x="1.507" y="-20.36" transform="matrix(-0.8465 -0.5324 0.5324 -0.8465 0.4178 9.7788)" fill-rule="evenodd" clip-rule="evenodd" fill="#ABD812" width="0.223" height="50.378"/>
		</g>
		<g clip-path="url(#SVGID_2_)">
			
				<rect x="1.633" y="-20.281" transform="matrix(-0.8466 -0.5323 0.5323 -0.8466 0.6085 9.9918)" fill-rule="evenodd" clip-rule="evenodd" fill="#ABD812" width="0.223" height="50.378"/>
		</g>
		<g clip-path="url(#SVGID_2_)">
			
				<rect x="1.759" y="-20.202" transform="matrix(-0.8465 -0.5324 0.5324 -0.8465 0.7978 10.2047)" fill-rule="evenodd" clip-rule="evenodd" fill="#ABD812" width="0.223" height="50.378"/>
		</g>
		<g clip-path="url(#SVGID_2_)">
			
				<rect x="1.884" y="-20.123" transform="matrix(-0.8464 -0.5325 0.5325 -0.8464 0.9872 10.4175)" fill-rule="evenodd" clip-rule="evenodd" fill="#ABD812" width="0.223" height="50.378"/>
		</g>
		<g clip-path="url(#SVGID_2_)">
			
				<rect x="2.01" y="-20.044" transform="matrix(-0.8465 -0.5324 0.5324 -0.8465 1.178 10.6305)" fill-rule="evenodd" clip-rule="evenodd" fill="#ABD812" width="0.223" height="50.378"/>
		</g>
		<g clip-path="url(#SVGID_2_)">
			
				<rect x="2.136" y="-19.965" transform="matrix(-0.8465 -0.5324 0.5324 -0.8465 1.368 10.8435)" fill-rule="evenodd" clip-rule="evenodd" fill="#ABD812" width="0.223" height="50.378"/>
		</g>
		<g clip-path="url(#SVGID_2_)">
			
				<rect x="2.262" y="-19.885" transform="matrix(-0.8466 -0.5323 0.5323 -0.8466 1.5589 11.0565)" fill-rule="evenodd" clip-rule="evenodd" fill="#ABD812" width="0.223" height="50.378"/>
		</g>
		<g clip-path="url(#SVGID_2_)">
			
				<rect x="2.387" y="-19.806" transform="matrix(-0.8464 -0.5326 0.5326 -0.8464 1.7466 11.2691)" fill-rule="evenodd" clip-rule="evenodd" fill="#A8D713" width="0.223" height="50.378"/>
		</g>
		<g clip-path="url(#SVGID_2_)">
			
				<rect x="2.513" y="-19.727" transform="matrix(-0.8466 -0.5323 0.5323 -0.8466 1.9391 11.4825)" fill-rule="evenodd" clip-rule="evenodd" fill="#A8D713" width="0.223" height="50.378"/>
		</g>
		<g clip-path="url(#SVGID_2_)">
			
				<rect x="2.639" y="-19.648" transform="matrix(-0.8465 -0.5324 0.5324 -0.8465 2.1283 11.6952)" fill-rule="evenodd" clip-rule="evenodd" fill="#A8D713" width="0.223" height="50.378"/>
		</g>
		<g clip-path="url(#SVGID_2_)">
			
				<rect x="2.764" y="-19.569" transform="matrix(-0.8463 -0.5328 0.5328 -0.8463 2.3155 11.9079)" fill-rule="evenodd" clip-rule="evenodd" fill="#A8D713" width="0.223" height="50.378"/>
		</g>
		<g clip-path="url(#SVGID_2_)">
			
				<rect x="2.89" y="-19.49" transform="matrix(-0.8466 -0.5323 0.5323 -0.8466 2.5092 12.1212)" fill-rule="evenodd" clip-rule="evenodd" fill="#A8D713" width="0.223" height="50.378"/>
		</g>
		<g clip-path="url(#SVGID_2_)">
			
				<rect x="3.016" y="-19.411" transform="matrix(-0.8464 -0.5326 0.5326 -0.8464 2.6966 12.3339)" fill-rule="evenodd" clip-rule="evenodd" fill="#A8D713" width="0.223" height="50.378"/>
		</g>
		<g clip-path="url(#SVGID_2_)">
			
				<rect x="3.142" y="-19.332" transform="matrix(-0.8466 -0.5323 0.5323 -0.8466 2.8894 12.5471)" fill-rule="evenodd" clip-rule="evenodd" fill="#A8D713" width="0.223" height="50.378"/>
		</g>
		<g clip-path="url(#SVGID_2_)">
			
				<rect x="3.267" y="-19.253" transform="matrix(-0.8465 -0.5324 0.5324 -0.8465 3.0785 12.7599)" fill-rule="evenodd" clip-rule="evenodd" fill="#A6D514" width="0.223" height="50.378"/>
		</g>
		<g clip-path="url(#SVGID_2_)">
			
				<rect x="3.393" y="-19.174" transform="matrix(-0.8465 -0.5324 0.5324 -0.8465 3.2685 12.9728)" fill-rule="evenodd" clip-rule="evenodd" fill="#A6D514" width="0.223" height="50.378"/>
		</g>
		<g clip-path="url(#SVGID_2_)">
			
				<rect x="3.519" y="-19.095" transform="matrix(-0.8466 -0.5323 0.5323 -0.8466 3.4595 13.1859)" fill-rule="evenodd" clip-rule="evenodd" fill="#A6D514" width="0.223" height="50.378"/>
		</g>
		<g clip-path="url(#SVGID_2_)">
			
				<rect x="3.645" y="-19.016" transform="matrix(-0.8464 -0.5326 0.5326 -0.8464 3.6467 13.3987)" fill-rule="evenodd" clip-rule="evenodd" fill="#A6D514" width="0.223" height="50.378"/>
		</g>
		<g clip-path="url(#SVGID_2_)">
			
				<rect x="3.77" y="-18.937" transform="matrix(-0.8466 -0.5323 0.5323 -0.8466 3.8398 13.6116)" fill-rule="evenodd" clip-rule="evenodd" fill="#A6D514" width="0.223" height="50.378"/>
		</g>
		<g clip-path="url(#SVGID_2_)">
			
				<rect x="3.896" y="-18.858" transform="matrix(-0.8465 -0.5324 0.5324 -0.8465 4.0287 13.8246)" fill-rule="evenodd" clip-rule="evenodd" fill="#A6D514" width="0.223" height="50.378"/>
		</g>
		<g clip-path="url(#SVGID_2_)">
			
				<rect x="4.022" y="-18.779" transform="matrix(-0.8465 -0.5324 0.5324 -0.8465 4.2188 14.0375)" fill-rule="evenodd" clip-rule="evenodd" fill="#A6D514" width="0.223" height="50.378"/>
		</g>
		<g clip-path="url(#SVGID_2_)">
			
				<rect x="4.147" y="-18.699" transform="matrix(-0.8464 -0.5326 0.5326 -0.8464 4.4068 14.2504)" fill-rule="evenodd" clip-rule="evenodd" fill="#A6D514" width="0.223" height="50.378"/>
		</g>
		<g clip-path="url(#SVGID_2_)">
			
				<rect x="4.273" y="-18.62" transform="matrix(-0.8465 -0.5324 0.5324 -0.8465 4.5989 14.4634)" fill-rule="evenodd" clip-rule="evenodd" fill="#A6D514" width="0.223" height="50.378"/>
		</g>
		<g clip-path="url(#SVGID_2_)">
			
				<rect x="4.399" y="-18.541" transform="matrix(-0.8466 -0.5323 0.5323 -0.8466 4.7901 14.6763)" fill-rule="evenodd" clip-rule="evenodd" fill="#A6D514" width="0.223" height="50.378"/>
		</g>
		<g clip-path="url(#SVGID_2_)">
			
				<rect x="4.525" y="-18.462" transform="matrix(-0.8465 -0.5324 0.5324 -0.8465 4.979 14.8892)" fill-rule="evenodd" clip-rule="evenodd" fill="#A3D414" width="0.223" height="50.378"/>
		</g>
		<g clip-path="url(#SVGID_2_)">
			
				<rect x="4.65" y="-18.383" transform="matrix(-0.8465 -0.5324 0.5324 -0.8465 5.169 15.1022)" fill-rule="evenodd" clip-rule="evenodd" fill="#A3D414" width="0.223" height="50.378"/>
		</g>
		<g clip-path="url(#SVGID_2_)">
			
				<rect x="4.776" y="-18.304" transform="matrix(-0.8464 -0.5326 0.5326 -0.8464 5.3568 15.3152)" fill-rule="evenodd" clip-rule="evenodd" fill="#A3D414" width="0.223" height="50.378"/>
		</g>
		<g clip-path="url(#SVGID_2_)">
			
				<rect x="4.902" y="-18.225" transform="matrix(-0.8465 -0.5324 0.5324 -0.8465 5.5492 15.5281)" fill-rule="evenodd" clip-rule="evenodd" fill="#A3D414" width="0.223" height="50.378"/>
		</g>
		<g clip-path="url(#SVGID_2_)">
			
				<rect x="5.027" y="-18.146" transform="matrix(-0.8466 -0.5323 0.5323 -0.8466 5.7404 15.741)" fill-rule="evenodd" clip-rule="evenodd" fill="#A3D414" width="0.223" height="50.378"/>
		</g>
		<g clip-path="url(#SVGID_2_)">
			
				<rect x="5.153" y="-18.067" transform="matrix(-0.8465 -0.5324 0.5324 -0.8465 5.9292 15.9539)" fill-rule="evenodd" clip-rule="evenodd" fill="#A3D414" width="0.223" height="50.378"/>
		</g>
		<g clip-path="url(#SVGID_2_)">
			
				<rect x="5.279" y="-17.988" transform="matrix(-0.8465 -0.5324 0.5324 -0.8465 6.1192 16.1669)" fill-rule="evenodd" clip-rule="evenodd" fill="#A3D414" width="0.223" height="50.378"/>
		</g>
		<g clip-path="url(#SVGID_2_)">
			
				<rect x="5.405" y="-17.909" transform="matrix(-0.8464 -0.5326 0.5326 -0.8464 6.3068 16.38)" fill-rule="evenodd" clip-rule="evenodd" fill="#A3D414" width="0.223" height="50.378"/>
		</g>
		<g clip-path="url(#SVGID_2_)">
			
				<rect x="5.53" y="-17.83" transform="matrix(-0.8465 -0.5324 0.5324 -0.8465 6.4995 16.5927)" fill-rule="evenodd" clip-rule="evenodd" fill="#A3D414" width="0.223" height="50.378"/>
		</g>
		<g clip-path="url(#SVGID_2_)">
			
				<rect x="5.656" y="-17.751" transform="matrix(-0.8466 -0.5323 0.5323 -0.8466 6.6908 16.8057)" fill-rule="evenodd" clip-rule="evenodd" fill="#A3D414" width="0.223" height="50.378"/>
		</g>
		<g clip-path="url(#SVGID_2_)">
			
				<rect x="5.782" y="-17.672" transform="matrix(-0.8465 -0.5324 0.5324 -0.8465 6.8794 17.0186)" fill-rule="evenodd" clip-rule="evenodd" fill="#A1D315" width="0.223" height="50.378"/>
		</g>
		<g clip-path="url(#SVGID_2_)">
			
				<rect x="5.908" y="-17.592" transform="matrix(-0.8464 -0.5325 0.5325 -0.8464 7.0684 17.2317)" fill-rule="evenodd" clip-rule="evenodd" fill="#A1D315" width="0.223" height="50.378"/>
		</g>
		<g clip-path="url(#SVGID_2_)">
			
				<rect x="6.033" y="-17.513" transform="matrix(-0.8465 -0.5324 0.5324 -0.8465 7.2597 17.4446)" fill-rule="evenodd" clip-rule="evenodd" fill="#A1D315" width="0.223" height="50.378"/>
		</g>
		<g clip-path="url(#SVGID_2_)">
			
				<rect x="6.159" y="-17.434" transform="matrix(-0.8465 -0.5324 0.5324 -0.8465 7.4497 17.6574)" fill-rule="evenodd" clip-rule="evenodd" fill="#A1D315" width="0.223" height="50.378"/>
		</g>
		<g clip-path="url(#SVGID_2_)">
			
				<rect x="6.285" y="-17.355" transform="matrix(-0.8466 -0.5323 0.5323 -0.8466 7.6412 17.8701)" fill-rule="evenodd" clip-rule="evenodd" fill="#A1D315" width="0.223" height="50.378"/>
		</g>
		<g clip-path="url(#SVGID_2_)">
			
				<rect x="6.41" y="-17.276" transform="matrix(-0.8465 -0.5324 0.5324 -0.8465 7.8297 18.0833)" fill-rule="evenodd" clip-rule="evenodd" fill="#A1D315" width="0.223" height="50.378"/>
		</g>
		<g clip-path="url(#SVGID_2_)">
			
				<rect x="6.536" y="-17.197" transform="matrix(-0.8464 -0.5325 0.5325 -0.8464 8.0185 18.2964)" fill-rule="evenodd" clip-rule="evenodd" fill="#A1D315" width="0.223" height="50.378"/>
		</g>
		<g clip-path="url(#SVGID_2_)">
			
				<rect x="6.662" y="-17.118" transform="matrix(-0.8465 -0.5324 0.5324 -0.8465 8.21 18.5091)" fill-rule="evenodd" clip-rule="evenodd" fill="#9ED215" width="0.223" height="50.378"/>
		</g>
		<g clip-path="url(#SVGID_2_)">
			
				<rect x="6.788" y="-17.039" transform="matrix(-0.8465 -0.5324 0.5324 -0.8465 8.3999 18.7222)" fill-rule="evenodd" clip-rule="evenodd" fill="#9ED215" width="0.223" height="50.378"/>
		</g>
		<g clip-path="url(#SVGID_2_)">
			
				<rect x="6.913" y="-16.96" transform="matrix(-0.8466 -0.5323 0.5323 -0.8466 8.5915 18.9348)" fill-rule="evenodd" clip-rule="evenodd" fill="#9ED215" width="0.223" height="50.378"/>
		</g>
		<g clip-path="url(#SVGID_2_)">
			
				<rect x="7.039" y="-16.881" transform="matrix(-0.8465 -0.5324 0.5324 -0.8465 8.78 19.1479)" fill-rule="evenodd" clip-rule="evenodd" fill="#9ED215" width="0.223" height="50.378"/>
		</g>
		<g clip-path="url(#SVGID_2_)">
			
				<rect x="7.165" y="-16.802" transform="matrix(-0.8464 -0.5325 0.5325 -0.8464 8.9686 19.3612)" fill-rule="evenodd" clip-rule="evenodd" fill="#9ED215" width="0.223" height="50.378"/>
		</g>
		<g clip-path="url(#SVGID_2_)">
			
				<rect x="7.29" y="-16.723" transform="matrix(-0.8465 -0.5324 0.5324 -0.8465 9.1602 19.5738)" fill-rule="evenodd" clip-rule="evenodd" fill="#9ED215" width="0.223" height="50.378"/>
		</g>
		<g clip-path="url(#SVGID_2_)">
			
				<rect x="7.416" y="-16.644" transform="matrix(-0.8466 -0.5323 0.5323 -0.8466 9.3518 19.7866)" fill-rule="evenodd" clip-rule="evenodd" fill="#9ED215" width="0.223" height="50.378"/>
		</g>
		<g clip-path="url(#SVGID_2_)">
			
				<rect x="7.542" y="-16.565" transform="matrix(-0.8466 -0.5323 0.5323 -0.8466 9.5418 19.9995)" fill-rule="evenodd" clip-rule="evenodd" fill="#9ED215" width="0.223" height="50.378"/>
		</g>
		<g clip-path="url(#SVGID_2_)">
			
				<rect x="7.668" y="-16.485" transform="matrix(-0.8465 -0.5324 0.5324 -0.8465 9.7302 20.2126)" fill-rule="evenodd" clip-rule="evenodd" fill="#9ED215" width="0.223" height="50.378"/>
		</g>
		<g clip-path="url(#SVGID_2_)">
			
				<rect x="7.793" y="-16.406" transform="matrix(-0.8466 -0.5323 0.5323 -0.8466 9.9219 20.4254)" fill-rule="evenodd" clip-rule="evenodd" fill="#9ED215" width="0.223" height="50.378"/>
		</g>
		<g clip-path="url(#SVGID_2_)">
			
				<rect x="7.919" y="-16.327" transform="matrix(-0.8465 -0.5324 0.5324 -0.8465 10.1104 20.6385)" fill-rule="evenodd" clip-rule="evenodd" fill="#9CD116" width="0.223" height="50.378"/>
		</g>
		<g clip-path="url(#SVGID_2_)">
			
				<rect x="8.045" y="-16.248" transform="matrix(-0.8466 -0.5323 0.5323 -0.8466 10.3021 20.8511)" fill-rule="evenodd" clip-rule="evenodd" fill="#9CD116" width="0.223" height="50.378"/>
		</g>
		<g clip-path="url(#SVGID_2_)">
			
				<rect x="8.17" y="-16.169" transform="matrix(-0.8466 -0.5323 0.5323 -0.8466 10.4921 21.0642)" fill-rule="evenodd" clip-rule="evenodd" fill="#9CD116" width="0.223" height="50.378"/>
		</g>
		<g clip-path="url(#SVGID_2_)">
			
				<rect x="8.296" y="-16.09" transform="matrix(-0.8464 -0.5326 0.5326 -0.8464 10.6772 21.278)" fill-rule="evenodd" clip-rule="evenodd" fill="#9CD116" width="0.223" height="50.378"/>
		</g>
		<g clip-path="url(#SVGID_2_)">
			
				<rect x="8.422" y="-16.011" transform="matrix(-0.8466 -0.5323 0.5323 -0.8466 10.8724 21.4899)" fill-rule="evenodd" clip-rule="evenodd" fill="#9CD116" width="0.223" height="50.378"/>
		</g>
		<g clip-path="url(#SVGID_2_)">
			
				<rect x="8.548" y="-15.932" transform="matrix(-0.8465 -0.5324 0.5324 -0.8465 11.0606 21.7033)" fill-rule="evenodd" clip-rule="evenodd" fill="#9CD116" width="0.223" height="50.378"/>
		</g>
		<g clip-path="url(#SVGID_2_)">
			
				<rect x="8.673" y="-15.853" transform="matrix(-0.8466 -0.5323 0.5323 -0.8466 11.2525 21.9158)" fill-rule="evenodd" clip-rule="evenodd" fill="#9CD116" width="0.223" height="50.378"/>
		</g>
		<g clip-path="url(#SVGID_2_)">
			
				<rect x="8.799" y="-15.774" transform="matrix(-0.8465 -0.5324 0.5324 -0.8465 11.4407 22.129)" fill-rule="evenodd" clip-rule="evenodd" fill="#99CF16" width="0.223" height="50.378"/>
		</g>
		<g clip-path="url(#SVGID_2_)">
			
				<rect x="8.925" y="-15.695" transform="matrix(-0.8464 -0.5326 0.5326 -0.8464 11.6273 22.3428)" fill-rule="evenodd" clip-rule="evenodd" fill="#99CF16" width="0.223" height="50.378"/>
		</g>
		<g clip-path="url(#SVGID_2_)">
			
				<rect x="9.051" y="-15.616" transform="matrix(-0.8466 -0.5323 0.5323 -0.8466 11.8227 22.5546)" fill-rule="evenodd" clip-rule="evenodd" fill="#99CF16" width="0.223" height="50.378"/>
		</g>
		<g clip-path="url(#SVGID_2_)">
			
				<rect x="9.176" y="-15.537" transform="matrix(-0.8465 -0.5324 0.5324 -0.8465 12.0109 22.7678)" fill-rule="evenodd" clip-rule="evenodd" fill="#99CF16" width="0.223" height="50.378"/>
		</g>
		<g clip-path="url(#SVGID_2_)">
			
				<rect x="9.302" y="-15.458" transform="matrix(-0.8466 -0.5323 0.5323 -0.8466 12.2028 22.9805)" fill-rule="evenodd" clip-rule="evenodd" fill="#99CF16" width="0.223" height="50.378"/>
		</g>
		<g clip-path="url(#SVGID_2_)">
			
				<rect x="9.428" y="-15.378" transform="matrix(-0.8465 -0.5324 0.5324 -0.8465 12.3909 23.1937)" fill-rule="evenodd" clip-rule="evenodd" fill="#99CF16" width="0.223" height="50.378"/>
		</g>
		<g clip-path="url(#SVGID_2_)">
			
				<rect x="9.553" y="-15.299" transform="matrix(-0.8465 -0.5324 0.5324 -0.8465 12.581 23.4066)" fill-rule="evenodd" clip-rule="evenodd" fill="#99CF16" width="0.223" height="50.378"/>
		</g>
		<g clip-path="url(#SVGID_2_)">
			
				<rect x="9.679" y="-15.22" transform="matrix(-0.8466 -0.5323 0.5323 -0.8466 12.7731 23.6193)" fill-rule="evenodd" clip-rule="evenodd" fill="#99CF16" width="0.223" height="50.378"/>
		</g>
		<g clip-path="url(#SVGID_2_)">
			
				<rect x="9.805" y="-15.141" transform="matrix(-0.8465 -0.5324 0.5324 -0.8465 12.9611 23.8325)" fill-rule="evenodd" clip-rule="evenodd" fill="#99CF16" width="0.223" height="50.378"/>
		</g>
		<g clip-path="url(#SVGID_2_)">
			
				<rect x="9.931" y="-15.062" transform="matrix(-0.8463 -0.5326 0.5326 -0.8463 13.1471 24.0464)" fill-rule="evenodd" clip-rule="evenodd" fill="#99CF16" width="0.223" height="50.378"/>
		</g>
		<g clip-path="url(#SVGID_2_)">
			
				<rect x="10.056" y="-14.983" transform="matrix(-0.8464 -0.5326 0.5326 -0.8464 13.3374 24.2593)" fill-rule="evenodd" clip-rule="evenodd" fill="#96CE17" width="0.223" height="50.378"/>
		</g>
		<g clip-path="url(#SVGID_2_)">
			
				<rect x="10.182" y="-14.904" transform="matrix(-0.8465 -0.5324 0.5324 -0.8465 13.5314 24.4713)" fill-rule="evenodd" clip-rule="evenodd" fill="#96CE17" width="0.223" height="50.378"/>
		</g>
		<g clip-path="url(#SVGID_2_)">
			
				<rect x="10.308" y="-14.825" transform="matrix(-0.8466 -0.5323 0.5323 -0.8466 13.7234 24.6839)" fill-rule="evenodd" clip-rule="evenodd" fill="#96CE17" width="0.223" height="50.378"/>
		</g>
		<g clip-path="url(#SVGID_2_)">
			
				<rect x="10.433" y="-14.746" transform="matrix(-0.8465 -0.5324 0.5324 -0.8465 13.9114 24.8972)" fill-rule="evenodd" clip-rule="evenodd" fill="#96CE17" width="0.223" height="50.378"/>
		</g>
		<g clip-path="url(#SVGID_2_)">
			
				<rect x="10.559" y="-14.667" transform="matrix(-0.8466 -0.5323 0.5323 -0.8466 14.1035 25.1096)" fill-rule="evenodd" clip-rule="evenodd" fill="#96CE17" width="0.223" height="50.378"/>
		</g>
		<g clip-path="url(#SVGID_2_)">
			
				<rect x="10.685" y="-14.588" transform="matrix(-0.8464 -0.5326 0.5326 -0.8464 14.2874 25.3241)" fill-rule="evenodd" clip-rule="evenodd" fill="#96CE17" width="0.223" height="50.378"/>
		</g>
		<g clip-path="url(#SVGID_2_)">
			
				<rect x="10.811" y="-14.509" transform="matrix(-0.8465 -0.5324 0.5324 -0.8465 14.4816 25.5361)" fill-rule="evenodd" clip-rule="evenodd" fill="#96CE17" width="0.223" height="50.378"/>
		</g>
		<g clip-path="url(#SVGID_2_)">
			
				<rect x="10.936" y="-14.43" transform="matrix(-0.8465 -0.5324 0.5324 -0.8465 14.6716 25.7489)" fill-rule="evenodd" clip-rule="evenodd" fill="#94CD17" width="0.223" height="50.378"/>
		</g>
		<g clip-path="url(#SVGID_2_)">
			
				<rect x="11.062" y="-14.351" transform="matrix(-0.8465 -0.5324 0.5324 -0.8465 14.8616 25.962)" fill-rule="evenodd" clip-rule="evenodd" fill="#94CD17" width="0.223" height="50.378"/>
		</g>
		<g clip-path="url(#SVGID_2_)">
			
				<rect x="11.188" y="-14.271" transform="matrix(-0.8466 -0.5323 0.5323 -0.8466 15.0538 26.1743)" fill-rule="evenodd" clip-rule="evenodd" fill="#94CD17" width="0.223" height="50.378"/>
		</g>
		<g clip-path="url(#SVGID_2_)">
			
				<rect x="11.314" y="-14.193" transform="matrix(-0.8465 -0.5324 0.5324 -0.8465 15.2417 26.3877)" fill-rule="evenodd" clip-rule="evenodd" fill="#94CD17" width="0.223" height="50.378"/>
		</g>
		<g clip-path="url(#SVGID_2_)">
			
				<rect x="11.439" y="-14.113" transform="matrix(-0.8465 -0.5324 0.5324 -0.8465 15.4318 26.6008)" fill-rule="evenodd" clip-rule="evenodd" fill="#94CD17" width="0.223" height="50.378"/>
		</g>
		<g clip-path="url(#SVGID_2_)">
			
				<rect x="11.565" y="-14.034" transform="matrix(-0.8466 -0.5323 0.5323 -0.8466 15.6241 26.8131)" fill-rule="evenodd" clip-rule="evenodd" fill="#94CD17" width="0.223" height="50.378"/>
		</g>
		<g clip-path="url(#SVGID_2_)">
			
				<rect x="11.691" y="-13.955" transform="matrix(-0.8465 -0.5324 0.5324 -0.8465 15.8119 27.0265)" fill-rule="evenodd" clip-rule="evenodd" fill="#94CD17" width="0.223" height="50.378"/>
		</g>
		<g clip-path="url(#SVGID_2_)">
			
				<rect x="11.816" y="-13.876" transform="matrix(-0.8464 -0.5325 0.5325 -0.8464 15.9999 27.2401)" fill-rule="evenodd" clip-rule="evenodd" fill="#94CD17" width="0.223" height="50.378"/>
		</g>
		<g clip-path="url(#SVGID_2_)">
			
				<rect x="11.942" y="-13.797" transform="matrix(-0.8465 -0.5324 0.5324 -0.8465 16.1921 27.4525)" fill-rule="evenodd" clip-rule="evenodd" fill="#94CD17" width="0.223" height="50.378"/>
		</g>
		<g clip-path="url(#SVGID_2_)">
			
				<rect x="12.068" y="-13.718" transform="matrix(-0.8466 -0.5323 0.5323 -0.8466 16.3844 27.6647)" fill-rule="evenodd" clip-rule="evenodd" fill="#94CD17" width="0.223" height="50.378"/>
		</g>
		<g clip-path="url(#SVGID_2_)">
			
				<rect x="12.194" y="-13.639" transform="matrix(-0.8466 -0.5323 0.5323 -0.8466 16.5744 27.8778)" fill-rule="evenodd" clip-rule="evenodd" fill="#91CC18" width="0.223" height="50.378"/>
		</g>
		<g clip-path="url(#SVGID_2_)">
			
				<rect x="12.319" y="-13.56" transform="matrix(-0.8465 -0.5324 0.5324 -0.8465 16.7621 28.0912)" fill-rule="evenodd" clip-rule="evenodd" fill="#91CC18" width="0.223" height="50.378"/>
		</g>
		<g clip-path="url(#SVGID_2_)">
			
				<rect x="12.445" y="-13.481" transform="matrix(-0.8462 -0.5329 0.5329 -0.8462 16.9429 28.3067)" fill-rule="evenodd" clip-rule="evenodd" fill="#91CC18" width="0.223" height="50.378"/>
		</g>
		<g clip-path="url(#SVGID_2_)">
			
				<rect x="12.571" y="-13.402" transform="matrix(-0.8465 -0.5324 0.5324 -0.8465 17.1423 28.5172)" fill-rule="evenodd" clip-rule="evenodd" fill="#91CC18" width="0.223" height="50.378"/>
		</g>
		<g clip-path="url(#SVGID_2_)">
			
				<rect x="12.696" y="-13.323" transform="matrix(-0.8466 -0.5323 0.5323 -0.8466 17.3348 28.7294)" fill-rule="evenodd" clip-rule="evenodd" fill="#91CC18" width="0.223" height="50.378"/>
		</g>
		<g clip-path="url(#SVGID_2_)">
			
				<rect x="12.822" y="-13.244" transform="matrix(-0.8466 -0.5323 0.5323 -0.8466 17.5247 28.9424)" fill-rule="evenodd" clip-rule="evenodd" fill="#91CC18" width="0.223" height="50.378"/>
		</g>
		<g clip-path="url(#SVGID_2_)">
			
				<rect x="12.948" y="-13.165" transform="matrix(-0.8465 -0.5324 0.5324 -0.8465 17.7123 29.156)" fill-rule="evenodd" clip-rule="evenodd" fill="#91CC18" width="0.223" height="50.378"/>
		</g>
		<g clip-path="url(#SVGID_2_)">
			
				<rect x="13.074" y="-13.086" transform="matrix(-0.8466 -0.5323 0.5323 -0.8466 17.9049 29.3682)" fill-rule="evenodd" clip-rule="evenodd" fill="#8FCB18" width="0.223" height="50.378"/>
		</g>
		<g clip-path="url(#SVGID_2_)">
			
				<rect x="13.199" y="-13.006" transform="matrix(-0.8465 -0.5324 0.5324 -0.8465 18.0925 29.5819)" fill-rule="evenodd" clip-rule="evenodd" fill="#8FCB18" width="0.223" height="50.378"/>
		</g>
		<g clip-path="url(#SVGID_2_)">
			
				<rect x="13.325" y="-12.927" transform="matrix(-0.8466 -0.5323 0.5323 -0.8466 18.285 29.7941)" fill-rule="evenodd" clip-rule="evenodd" fill="#8FCB18" width="0.223" height="50.378"/>
		</g>
		<g clip-path="url(#SVGID_2_)">
			
				<rect x="13.451" y="-12.848" transform="matrix(-0.8465 -0.5324 0.5324 -0.8465 18.4726 30.0076)" fill-rule="evenodd" clip-rule="evenodd" fill="#8FCB18" width="0.223" height="50.378"/>
		</g>
		<g clip-path="url(#SVGID_2_)">
			
				<rect x="13.577" y="-12.769" transform="matrix(-0.8464 -0.5326 0.5326 -0.8464 18.6578 30.2221)" fill-rule="evenodd" clip-rule="evenodd" fill="#8FCB18" width="0.223" height="50.378"/>
		</g>
		<g clip-path="url(#SVGID_2_)">
			
				<rect x="13.702" y="-12.69" transform="matrix(-0.8466 -0.5323 0.5323 -0.8466 18.8553 30.4329)" fill-rule="evenodd" clip-rule="evenodd" fill="#8FCB18" width="0.223" height="50.378"/>
		</g>
		<g clip-path="url(#SVGID_2_)">
			
				<rect x="13.828" y="-12.611" transform="matrix(-0.8465 -0.5324 0.5324 -0.8465 19.0428 30.6465)" fill-rule="evenodd" clip-rule="evenodd" fill="#8FCB18" width="0.223" height="50.378"/>
		</g>
		<g clip-path="url(#SVGID_2_)">
			
				<rect x="13.954" y="-12.532" transform="matrix(-0.8466 -0.5323 0.5323 -0.8466 19.2354 30.8588)" fill-rule="evenodd" clip-rule="evenodd" fill="#8FCB18" width="0.223" height="50.378"/>
		</g>
		<g clip-path="url(#SVGID_2_)">
			
				<rect x="14.079" y="-12.453" transform="matrix(-0.8465 -0.5324 0.5324 -0.8465 19.4228 31.0723)" fill-rule="evenodd" clip-rule="evenodd" fill="#8FCB18" width="0.223" height="50.378"/>
		</g>
		<g clip-path="url(#SVGID_2_)">
			
				<rect x="14.205" y="-12.374" transform="matrix(-0.8464 -0.5326 0.5326 -0.8464 19.6079 31.2867)" fill-rule="evenodd" clip-rule="evenodd" fill="#8FCB18" width="0.223" height="50.378"/>
		</g>
		<g clip-path="url(#SVGID_2_)">
			
				<rect x="14.331" y="-12.295" transform="matrix(-0.8466 -0.5323 0.5323 -0.8466 19.8057 31.4975)" fill-rule="evenodd" clip-rule="evenodd" fill="#8CC919" width="0.223" height="50.378"/>
		</g>
		<g clip-path="url(#SVGID_2_)">
			
				<rect x="14.457" y="-12.216" transform="matrix(-0.8465 -0.5324 0.5324 -0.8465 19.993 31.7111)" fill-rule="evenodd" clip-rule="evenodd" fill="#8CC919" width="0.223" height="50.378"/>
		</g>
		<g clip-path="url(#SVGID_2_)">
			
				<rect x="14.582" y="-12.137" transform="matrix(-0.8466 -0.5323 0.5323 -0.8466 20.1857 31.9233)" fill-rule="evenodd" clip-rule="evenodd" fill="#8CC919" width="0.223" height="50.378"/>
		</g>
		<g clip-path="url(#SVGID_2_)">
			
				<rect x="14.708" y="-12.058" transform="matrix(-0.8465 -0.5324 0.5324 -0.8465 20.373 32.1371)" fill-rule="evenodd" clip-rule="evenodd" fill="#8CC919" width="0.223" height="50.378"/>
		</g>
		<g clip-path="url(#SVGID_2_)">
			
				<rect x="14.834" y="-11.978" transform="matrix(-0.8464 -0.5326 0.5326 -0.8464 20.5579 32.3515)" fill-rule="evenodd" clip-rule="evenodd" fill="#8CC919" width="0.223" height="50.378"/>
		</g>
		<g clip-path="url(#SVGID_2_)">
			
				<rect x="14.96" y="-11.899" transform="matrix(-0.8466 -0.5323 0.5323 -0.8466 20.756 32.5622)" fill-rule="evenodd" clip-rule="evenodd" fill="#8CC919" width="0.223" height="50.378"/>
		</g>
		<g clip-path="url(#SVGID_2_)">
			
				<rect x="15.085" y="-11.82" transform="matrix(-0.8465 -0.5324 0.5324 -0.8465 20.9433 32.7759)" fill-rule="evenodd" clip-rule="evenodd" fill="#8CC919" width="0.223" height="50.378"/>
		</g>
		<g clip-path="url(#SVGID_2_)">
			
				<rect x="15.211" y="-11.741" transform="matrix(-0.8466 -0.5323 0.5323 -0.8466 21.1361 32.9879)" fill-rule="evenodd" clip-rule="evenodd" fill="#8CC919" width="0.223" height="50.378"/>
		</g>
		<g clip-path="url(#SVGID_2_)">
			
				<rect x="15.337" y="-11.662" transform="matrix(-0.8464 -0.5326 0.5326 -0.8464 21.318 33.2034)" fill-rule="evenodd" clip-rule="evenodd" fill="#8CC919" width="0.223" height="50.378"/>
		</g>
		<g clip-path="url(#SVGID_2_)">
			
				<rect x="15.462" y="-11.583" transform="matrix(-0.8465 -0.5324 0.5324 -0.8465 21.5135 33.4147)" fill-rule="evenodd" clip-rule="evenodd" fill="#8CC919" width="0.223" height="50.378"/>
		</g>
		<g clip-path="url(#SVGID_2_)">
			
				<rect x="15.588" y="-11.504" transform="matrix(-0.8465 -0.5324 0.5324 -0.8465 21.7035 33.6276)" fill-rule="evenodd" clip-rule="evenodd" fill="#8CC919" width="0.223" height="50.378"/>
		</g>
		<g clip-path="url(#SVGID_2_)">
			
				<rect x="15.714" y="-11.425" transform="matrix(-0.8465 -0.5324 0.5324 -0.8465 21.8935 33.8406)" fill-rule="evenodd" clip-rule="evenodd" fill="#8AC81A" width="0.223" height="50.378"/>
		</g>
		<g clip-path="url(#SVGID_2_)">
			
				<rect x="15.84" y="-11.346" transform="matrix(-0.8466 -0.5323 0.5323 -0.8466 22.0864 34.0526)" fill-rule="evenodd" clip-rule="evenodd" fill="#8AC81A" width="0.223" height="50.378"/>
		</g>
		<g clip-path="url(#SVGID_2_)">
			
				<rect x="15.965" y="-11.267" transform="matrix(-0.8464 -0.5326 0.5326 -0.8464 22.2681 34.268)" fill-rule="evenodd" clip-rule="evenodd" fill="#8AC81A" width="0.223" height="50.378"/>
		</g>
		<g clip-path="url(#SVGID_2_)">
			
				<rect x="16.091" y="-11.188" transform="matrix(-0.8465 -0.5324 0.5324 -0.8465 22.4637 34.4794)" fill-rule="evenodd" clip-rule="evenodd" fill="#8AC81A" width="0.223" height="50.378"/>
		</g>
		<g clip-path="url(#SVGID_2_)">
			
				<rect x="16.217" y="-11.109" transform="matrix(-0.8465 -0.5324 0.5324 -0.8465 22.6537 34.6923)" fill-rule="evenodd" clip-rule="evenodd" fill="#8AC81A" width="0.223" height="50.378"/>
		</g>
		<g clip-path="url(#SVGID_2_)">
			
				<rect x="16.342" y="-11.03" transform="matrix(-0.8465 -0.5324 0.5324 -0.8465 22.8437 34.9051)" fill-rule="evenodd" clip-rule="evenodd" fill="#8AC81A" width="0.223" height="50.378"/>
		</g>
		<g clip-path="url(#SVGID_2_)">
			
				<rect x="16.468" y="-10.951" transform="matrix(-0.8466 -0.5323 0.5323 -0.8466 23.0367 35.1173)" fill-rule="evenodd" clip-rule="evenodd" fill="#8AC81A" width="0.223" height="50.378"/>
		</g>
		<g clip-path="url(#SVGID_2_)">
			
				<rect x="16.594" y="-10.871" transform="matrix(-0.8464 -0.5326 0.5326 -0.8464 23.2181 35.3328)" fill-rule="evenodd" clip-rule="evenodd" fill="#87C71A" width="0.223" height="50.378"/>
		</g>
		<g clip-path="url(#SVGID_2_)">
			
				<rect x="16.72" y="-10.792" transform="matrix(-0.8466 -0.5323 0.5323 -0.8466 23.417 35.543)" fill-rule="evenodd" clip-rule="evenodd" fill="#87C71A" width="0.223" height="50.378"/>
		</g>
		<g clip-path="url(#SVGID_2_)">
			
				<rect x="16.845" y="-10.713" transform="matrix(-0.8465 -0.5324 0.5324 -0.8465 23.604 35.757)" fill-rule="evenodd" clip-rule="evenodd" fill="#87C71A" width="0.223" height="50.378"/>
		</g>
		<g clip-path="url(#SVGID_2_)">
			
				<rect x="16.971" y="-10.634" transform="matrix(-0.8465 -0.5324 0.5324 -0.8465 23.794 35.9699)" fill-rule="evenodd" clip-rule="evenodd" fill="#87C71A" width="0.223" height="50.378"/>
		</g>
		<g clip-path="url(#SVGID_2_)">
			
				<rect x="17.097" y="-10.555" transform="matrix(-0.8464 -0.5325 0.5325 -0.8464 23.9813 36.1837)" fill-rule="evenodd" clip-rule="evenodd" fill="#87C71A" width="0.223" height="50.378"/>
		</g>
		<g clip-path="url(#SVGID_2_)">
			
				<rect x="17.223" y="-10.476" transform="matrix(-0.8465 -0.5324 0.5324 -0.8465 24.1742 36.3958)" fill-rule="evenodd" clip-rule="evenodd" fill="#87C71A" width="0.223" height="50.378"/>
		</g>
		<g clip-path="url(#SVGID_2_)">
			
				<rect x="17.348" y="-10.397" transform="matrix(-0.8466 -0.5323 0.5323 -0.8466 24.3674 36.6077)" fill-rule="evenodd" clip-rule="evenodd" fill="#87C71A" width="0.223" height="50.378"/>
		</g>
		<g clip-path="url(#SVGID_2_)">
			
				<rect x="17.474" y="-10.318" transform="matrix(-0.8465 -0.5324 0.5324 -0.8465 24.5542 36.8217)" fill-rule="evenodd" clip-rule="evenodd" fill="#87C71A" width="0.223" height="50.378"/>
		</g>
		<g clip-path="url(#SVGID_2_)">
			
				<rect x="17.6" y="-10.239" transform="matrix(-0.8465 -0.5324 0.5324 -0.8465 24.7442 37.0346)" fill-rule="evenodd" clip-rule="evenodd" fill="#87C71A" width="0.223" height="50.378"/>
		</g>
		<g clip-path="url(#SVGID_2_)">
			
				<rect x="17.725" y="-10.16" transform="matrix(-0.8464 -0.5325 0.5325 -0.8464 24.9315 37.2484)" fill-rule="evenodd" clip-rule="evenodd" fill="#87C71A" width="0.223" height="50.378"/>
		</g>
		<g clip-path="url(#SVGID_2_)">
			
				<rect x="17.851" y="-10.081" transform="matrix(-0.8465 -0.5324 0.5324 -0.8465 25.1244 37.4605)" fill-rule="evenodd" clip-rule="evenodd" fill="#85C61B" width="0.223" height="50.378"/>
		</g>
		<g clip-path="url(#SVGID_2_)">
			
				<rect x="17.977" y="-10.002" transform="matrix(-0.8466 -0.5323 0.5323 -0.8466 25.3177 37.6724)" fill-rule="evenodd" clip-rule="evenodd" fill="#85C61B" width="0.223" height="50.378"/>
		</g>
		<g clip-path="url(#SVGID_2_)">
			
				<rect x="18.103" y="-9.923" transform="matrix(-0.8465 -0.5324 0.5324 -0.8465 25.5045 37.8862)" fill-rule="evenodd" clip-rule="evenodd" fill="#85C61B" width="0.223" height="50.378"/>
		</g>
		<g clip-path="url(#SVGID_2_)">
			
				<rect x="18.228" y="-9.844" transform="matrix(-0.8465 -0.5324 0.5324 -0.8465 25.6944 38.0993)" fill-rule="evenodd" clip-rule="evenodd" fill="#85C61B" width="0.223" height="50.378"/>
		</g>
		<g clip-path="url(#SVGID_2_)">
			
				<rect x="18.354" y="-9.765" transform="matrix(-0.8464 -0.5325 0.5325 -0.8464 25.8816 38.3131)" fill-rule="evenodd" clip-rule="evenodd" fill="#85C61B" width="0.223" height="50.378"/>
		</g>
		<g clip-path="url(#SVGID_2_)">
			
				<rect x="18.48" y="-9.685" transform="matrix(-0.8465 -0.5324 0.5324 -0.8465 26.0747 38.5251)" fill-rule="evenodd" clip-rule="evenodd" fill="#85C61B" width="0.223" height="50.378"/>
		</g>
		<g clip-path="url(#SVGID_2_)">
			
				<rect x="18.605" y="-9.606" transform="matrix(-0.8466 -0.5323 0.5323 -0.8466 26.268 38.7371)" fill-rule="evenodd" clip-rule="evenodd" fill="#82C51B" width="0.223" height="50.378"/>
		</g>
		<g clip-path="url(#SVGID_2_)">
			
				<rect x="18.731" y="-9.527" transform="matrix(-0.8465 -0.5324 0.5324 -0.8465 26.4547 38.951)" fill-rule="evenodd" clip-rule="evenodd" fill="#82C51B" width="0.223" height="50.378"/>
		</g>
		<g clip-path="url(#SVGID_2_)">
			
				<rect x="18.857" y="-9.448" transform="matrix(-0.8465 -0.5324 0.5324 -0.8465 26.6439 39.1642)" fill-rule="evenodd" clip-rule="evenodd" fill="#82C51B" width="0.223" height="50.378"/>
		</g>
		<g clip-path="url(#SVGID_2_)">
			
				<rect x="18.983" y="-9.369" transform="matrix(-0.8466 -0.5323 0.5323 -0.8466 26.8383 39.3758)" fill-rule="evenodd" clip-rule="evenodd" fill="#82C51B" width="0.223" height="50.378"/>
		</g>
		<g clip-path="url(#SVGID_2_)">
			
				<rect x="19.108" y="-9.29" transform="matrix(-0.8465 -0.5324 0.5324 -0.8465 27.0249 39.5898)" fill-rule="evenodd" clip-rule="evenodd" fill="#82C51B" width="0.223" height="50.378"/>
		</g>
		<g clip-path="url(#SVGID_2_)">
			
				<rect x="19.234" y="-9.211" transform="matrix(-0.8466 -0.5323 0.5323 -0.8466 27.2184 39.8015)" fill-rule="evenodd" clip-rule="evenodd" fill="#82C51B" width="0.223" height="50.378"/>
		</g>
		<g clip-path="url(#SVGID_2_)">
			
				<rect x="19.36" y="-9.132" transform="matrix(-0.8465 -0.5324 0.5324 -0.8465 27.4049 40.0157)" fill-rule="evenodd" clip-rule="evenodd" fill="#82C51B" width="0.223" height="50.378"/>
		</g>
		<g clip-path="url(#SVGID_2_)">
			
				<rect x="19.486" y="-9.053" transform="matrix(-0.8464 -0.5325 0.5325 -0.8464 27.592 40.2296)" fill-rule="evenodd" clip-rule="evenodd" fill="#80C41C" width="0.223" height="50.378"/>
		</g>
		<g clip-path="url(#SVGID_2_)">
			
				<rect x="19.611" y="-8.974" transform="matrix(-0.8463 -0.5326 0.5326 -0.8463 27.7782 40.4439)" fill-rule="evenodd" clip-rule="evenodd" fill="#80C41C" width="0.223" height="50.378"/>
		</g>
		<g clip-path="url(#SVGID_2_)">
			
				<rect x="19.737" y="-8.895" transform="matrix(-0.8465 -0.5324 0.5324 -0.8465 27.9751 40.6545)" fill-rule="evenodd" clip-rule="evenodd" fill="#80C41C" width="0.223" height="50.378"/>
		</g>
		<g clip-path="url(#SVGID_2_)">
			
				<rect x="19.863" y="-8.816" transform="matrix(-0.8466 -0.5323 0.5323 -0.8466 28.1687 40.8662)" fill-rule="evenodd" clip-rule="evenodd" fill="#80C41C" width="0.223" height="50.378"/>
		</g>
		<g clip-path="url(#SVGID_2_)">
			
				<rect x="19.988" y="-8.737" transform="matrix(-0.8465 -0.5324 0.5324 -0.8465 28.3551 41.0804)" fill-rule="evenodd" clip-rule="evenodd" fill="#80C41C" width="0.223" height="50.378"/>
		</g>
		<g clip-path="url(#SVGID_2_)">
			
				<rect x="20.114" y="-8.657" transform="matrix(-0.8464 -0.5325 0.5325 -0.8464 28.5421 41.2944)" fill-rule="evenodd" clip-rule="evenodd" fill="#7DC21C" width="0.223" height="50.378"/>
		</g>
		<g clip-path="url(#SVGID_2_)">
			
				<rect x="20.24" y="-8.578" transform="matrix(-0.8465 -0.5324 0.5324 -0.8465 28.7354 41.5062)" fill-rule="evenodd" clip-rule="evenodd" fill="#7DC21C" width="0.223" height="50.378"/>
		</g>
		<g clip-path="url(#SVGID_2_)">
			
				<rect x="20.366" y="-8.499" transform="matrix(-0.8465 -0.5324 0.5324 -0.8465 28.9254 41.7193)" fill-rule="evenodd" clip-rule="evenodd" fill="#7DC21C" width="0.223" height="50.378"/>
		</g>
		<g clip-path="url(#SVGID_2_)">
			
				<rect x="20.491" y="-8.42" transform="matrix(-0.8466 -0.5323 0.5323 -0.8466 29.119 41.9309)" fill-rule="evenodd" clip-rule="evenodd" fill="#7DC21C" width="0.223" height="50.378"/>
		</g>
		<g clip-path="url(#SVGID_2_)">
			
				<rect x="20.617" y="-8.341" transform="matrix(-0.8465 -0.5324 0.5324 -0.8465 29.3054 42.1449)" fill-rule="evenodd" clip-rule="evenodd" fill="#7DC21C" width="0.223" height="50.378"/>
		</g>
		<g clip-path="url(#SVGID_2_)">
			
				<rect x="20.743" y="-8.262" transform="matrix(-0.8465 -0.5325 0.5325 -0.8465 29.4932 42.3588)" fill-rule="evenodd" clip-rule="evenodd" fill="#7DC21C" width="0.223" height="50.378"/>
		</g>
		<g clip-path="url(#SVGID_2_)">
			
				<rect x="20.868" y="-8.183" transform="matrix(-0.8465 -0.5324 0.5324 -0.8465 29.6856 42.5709)" fill-rule="evenodd" clip-rule="evenodd" fill="#7DC21C" width="0.223" height="50.378"/>
		</g>
		<g clip-path="url(#SVGID_2_)">
			
				<rect x="20.994" y="-8.104" transform="matrix(-0.8465 -0.5324 0.5324 -0.8465 29.8757 42.7838)" fill-rule="evenodd" clip-rule="evenodd" fill="#7AC11D" width="0.223" height="50.378"/>
		</g>
		<g clip-path="url(#SVGID_2_)">
			
				<rect x="21.12" y="-8.025" transform="matrix(-0.8466 -0.5323 0.5323 -0.8466 30.0693 42.9956)" fill-rule="evenodd" clip-rule="evenodd" fill="#7AC11D" width="0.223" height="50.378"/>
		</g>
		<g clip-path="url(#SVGID_2_)">
			
				<rect x="21.246" y="-7.946" transform="matrix(-0.8464 -0.5326 0.5326 -0.8464 30.2487 43.2121)" fill-rule="evenodd" clip-rule="evenodd" fill="#7AC11D" width="0.223" height="50.378"/>
		</g>
		<g clip-path="url(#SVGID_2_)">
			
				<rect x="21.371" y="-7.867" transform="matrix(-0.8466 -0.5323 0.5323 -0.8466 30.4496 43.4213)" fill-rule="evenodd" clip-rule="evenodd" fill="#7AC11D" width="0.223" height="50.378"/>
		</g>
		<g clip-path="url(#SVGID_2_)">
			
				<rect x="21.497" y="-7.788" transform="matrix(-0.8465 -0.5324 0.5324 -0.8465 30.6358 43.6356)" fill-rule="evenodd" clip-rule="evenodd" fill="#7AC11D" width="0.223" height="50.378"/>
		</g>
		<g clip-path="url(#SVGID_2_)">
			
				<rect x="21.623" y="-7.709" transform="matrix(-0.8465 -0.5324 0.5324 -0.8465 30.8259 43.8485)" fill-rule="evenodd" clip-rule="evenodd" fill="#78C01D" width="0.223" height="50.378"/>
		</g>
		<g clip-path="url(#SVGID_2_)">
			
				<rect x="21.748" y="-7.63" transform="matrix(-0.8466 -0.5323 0.5323 -0.8466 31.0197 44.06)" fill-rule="evenodd" clip-rule="evenodd" fill="#78C01D" width="0.223" height="50.378"/>
		</g>
		<g clip-path="url(#SVGID_2_)">
			
				<rect x="21.874" y="-7.551" transform="matrix(-0.8464 -0.5325 0.5325 -0.8464 31.2011 44.2761)" fill-rule="evenodd" clip-rule="evenodd" fill="#78C01D" width="0.223" height="50.378"/>
		</g>
		<g clip-path="url(#SVGID_2_)">
			
				<rect x="22" y="-7.471" transform="matrix(-0.8466 -0.5323 0.5323 -0.8466 31.4 44.486)" fill-rule="evenodd" clip-rule="evenodd" fill="#78C01D" width="0.223" height="50.378"/>
		</g>
		<g clip-path="url(#SVGID_2_)">
			
				<rect x="22.126" y="-7.392" transform="matrix(-0.8463 -0.5328 0.5328 -0.8463 31.5745 44.7043)" fill-rule="evenodd" clip-rule="evenodd" fill="#78C01D" width="0.223" height="50.378"/>
		</g>
		<g clip-path="url(#SVGID_2_)">
			
				<rect x="22.251" y="-7.313" transform="matrix(-0.8465 -0.5324 0.5324 -0.8465 31.7761 44.9132)" fill-rule="evenodd" clip-rule="evenodd" fill="#78C01D" width="0.223" height="50.378"/>
		</g>
		<g clip-path="url(#SVGID_2_)">
			
				<rect x="22.377" y="-7.234" transform="matrix(-0.8466 -0.5323 0.5323 -0.8466 31.97 45.1247)" fill-rule="evenodd" clip-rule="evenodd" fill="#78C01D" width="0.223" height="50.378"/>
		</g>
		<g clip-path="url(#SVGID_2_)">
			
				<rect x="22.503" y="-7.155" transform="matrix(-0.8465 -0.5324 0.5324 -0.8465 32.1562 45.3391)" fill-rule="evenodd" clip-rule="evenodd" fill="#75BF1E" width="0.223" height="50.378"/>
		</g>
		<g clip-path="url(#SVGID_2_)">
			
				<rect x="22.629" y="-7.076" transform="matrix(-0.8465 -0.5323 0.5323 -0.8465 32.3478 45.5515)" fill-rule="evenodd" clip-rule="evenodd" fill="#75BF1E" width="0.223" height="50.378"/>
		</g>
		<g clip-path="url(#SVGID_2_)">
			
				<rect x="22.754" y="-6.997" transform="matrix(-0.8465 -0.5324 0.5324 -0.8465 32.5364 45.7649)" fill-rule="evenodd" clip-rule="evenodd" fill="#75BF1E" width="0.223" height="50.378"/>
		</g>
		<g clip-path="url(#SVGID_2_)">
			
				<rect x="22.88" y="-6.918" transform="matrix(-0.8465 -0.5324 0.5324 -0.8465 32.7263 45.9779)" fill-rule="evenodd" clip-rule="evenodd" fill="#75BF1E" width="0.223" height="50.378"/>
		</g>
		<g clip-path="url(#SVGID_2_)">
			
				<rect x="23.006" y="-6.839" transform="matrix(-0.8465 -0.5324 0.5324 -0.8465 32.9154 46.1912)" fill-rule="evenodd" clip-rule="evenodd" fill="#75BF1E" width="0.223" height="50.378"/>
		</g>
		<g clip-path="url(#SVGID_2_)">
			
				<rect x="23.131" y="-6.76" transform="matrix(-0.8465 -0.5324 0.5324 -0.8465 33.1066 46.4037)" fill-rule="evenodd" clip-rule="evenodd" fill="#73BE1E" width="0.223" height="50.378"/>
		</g>
		<g clip-path="url(#SVGID_2_)">
			
				<rect x="23.257" y="-6.681" transform="matrix(-0.8466 -0.5323 0.5323 -0.8466 33.3006 46.6153)" fill-rule="evenodd" clip-rule="evenodd" fill="#73BE1E" width="0.223" height="50.378"/>
		</g>
		<g clip-path="url(#SVGID_2_)">
			
				<rect x="23.383" y="-6.602" transform="matrix(-0.8465 -0.5324 0.5324 -0.8465 33.4866 46.8296)" fill-rule="evenodd" clip-rule="evenodd" fill="#73BE1E" width="0.223" height="50.378"/>
		</g>
		<g clip-path="url(#SVGID_2_)">
			
				<rect x="23.509" y="-6.523" transform="matrix(-0.8466 -0.5323 0.5323 -0.8466 33.6807 47.041)" fill-rule="evenodd" clip-rule="evenodd" fill="#73BE1E" width="0.223" height="50.378"/>
		</g>
		<g clip-path="url(#SVGID_2_)">
			
				<rect x="23.634" y="-6.444" transform="matrix(-0.8464 -0.5325 0.5325 -0.8464 33.863 47.2568)" fill-rule="evenodd" clip-rule="evenodd" fill="#73BE1E" width="0.223" height="50.378"/>
		</g>
		<g clip-path="url(#SVGID_2_)">
			
				<rect x="23.76" y="-6.364" transform="matrix(-0.8465 -0.5325 0.5325 -0.8465 34.0542 47.4694)" fill-rule="evenodd" clip-rule="evenodd" fill="#73BE1E" width="0.223" height="50.378"/>
		</g>
		<g clip-path="url(#SVGID_2_)">
			
				<rect x="23.886" y="-6.285" transform="matrix(-0.8466 -0.5323 0.5323 -0.8466 34.251 47.6798)" fill-rule="evenodd" clip-rule="evenodd" fill="#73BE1E" width="0.223" height="50.378"/>
		</g>
		<g clip-path="url(#SVGID_2_)">
			
				<rect x="24.011" y="-6.206" transform="matrix(-0.8465 -0.5324 0.5324 -0.8465 34.4368 47.8943)" fill-rule="evenodd" clip-rule="evenodd" fill="#70BC1F" width="0.223" height="50.378"/>
		</g>
		<g clip-path="url(#SVGID_2_)">
			
				<rect x="24.137" y="-6.127" transform="matrix(-0.8466 -0.5323 0.5323 -0.8466 34.631 48.1057)" fill-rule="evenodd" clip-rule="evenodd" fill="#70BC1F" width="0.223" height="50.378"/>
		</g>
		<g clip-path="url(#SVGID_2_)">
			
				<rect x="24.263" y="-6.048" transform="matrix(-0.8465 -0.5324 0.5324 -0.8465 34.817 48.3201)" fill-rule="evenodd" clip-rule="evenodd" fill="#70BC1F" width="0.223" height="50.378"/>
		</g>
		<g clip-path="url(#SVGID_2_)">
			
				<rect x="24.389" y="-5.969" transform="matrix(-0.8465 -0.5324 0.5324 -0.8465 35.007 48.5332)" fill-rule="evenodd" clip-rule="evenodd" fill="#70BC1F" width="0.223" height="50.378"/>
		</g>
		<g clip-path="url(#SVGID_2_)">
			
				<rect x="24.514" y="-5.89" transform="matrix(-0.8466 -0.5323 0.5323 -0.8466 35.2013 48.7445)" fill-rule="evenodd" clip-rule="evenodd" fill="#70BC1F" width="0.223" height="50.378"/>
		</g>
		<g clip-path="url(#SVGID_2_)">
			
				<rect x="24.64" y="-5.811" transform="matrix(-0.8465 -0.5324 0.5324 -0.8465 35.387 48.959)" fill-rule="evenodd" clip-rule="evenodd" fill="#70BC1F" width="0.223" height="50.378"/>
		</g>
		<g clip-path="url(#SVGID_2_)">
			
				<rect x="24.766" y="-5.732" transform="matrix(-0.8464 -0.5325 0.5325 -0.8464 35.5734 49.1733)" fill-rule="evenodd" clip-rule="evenodd" fill="#70BC1F" width="0.223" height="50.378"/>
		</g>
		<g clip-path="url(#SVGID_2_)">
			
				<rect x="24.892" y="-5.653" transform="matrix(-0.8465 -0.5324 0.5324 -0.8465 35.7673 49.3848)" fill-rule="evenodd" clip-rule="evenodd" fill="#6EBB20" width="0.223" height="50.378"/>
		</g>
		<g clip-path="url(#SVGID_2_)">
			
				<rect x="25.017" y="-5.574" transform="matrix(-0.8465 -0.5324 0.5324 -0.8465 35.9572 49.5979)" fill-rule="evenodd" clip-rule="evenodd" fill="#6EBB20" width="0.223" height="50.378"/>
		</g>
		<g clip-path="url(#SVGID_2_)">
			
				<rect x="25.143" y="-5.495" transform="matrix(-0.8466 -0.5323 0.5323 -0.8466 36.1516 49.8092)" fill-rule="evenodd" clip-rule="evenodd" fill="#6EBB20" width="0.223" height="50.378"/>
		</g>
		<g clip-path="url(#SVGID_2_)">
			
				<rect x="25.269" y="-5.416" transform="matrix(-0.8465 -0.5324 0.5324 -0.8465 36.3373 50.0236)" fill-rule="evenodd" clip-rule="evenodd" fill="#6EBB20" width="0.223" height="50.378"/>
		</g>
		<g clip-path="url(#SVGID_2_)">
			
				<rect x="25.394" y="-5.337" transform="matrix(-0.8464 -0.5325 0.5325 -0.8464 36.5235 50.2381)" fill-rule="evenodd" clip-rule="evenodd" fill="#6EBB20" width="0.223" height="50.378"/>
		</g>
		<g clip-path="url(#SVGID_2_)">
			
				<rect x="25.52" y="-5.258" transform="matrix(-0.8465 -0.5324 0.5324 -0.8465 36.7175 50.4495)" fill-rule="evenodd" clip-rule="evenodd" fill="#6BBA20" width="0.223" height="50.378"/>
		</g>
		<g clip-path="url(#SVGID_2_)">
			
				<rect x="25.646" y="-5.178" transform="matrix(-0.8465 -0.5325 0.5325 -0.8465 36.9048 50.6634)" fill-rule="evenodd" clip-rule="evenodd" fill="#6BBA20" width="0.223" height="50.378"/>
		</g>
		<g clip-path="url(#SVGID_2_)">
			
				<rect x="25.772" y="-5.099" transform="matrix(-0.8466 -0.5323 0.5323 -0.8466 37.1019 50.8738)" fill-rule="evenodd" clip-rule="evenodd" fill="#6BBA20" width="0.223" height="50.378"/>
		</g>
		<g clip-path="url(#SVGID_2_)">
			
				<rect x="25.897" y="-5.02" transform="matrix(-0.8465 -0.5324 0.5324 -0.8465 37.2876 51.0883)" fill-rule="evenodd" clip-rule="evenodd" fill="#6BBA20" width="0.223" height="50.378"/>
		</g>
		<g clip-path="url(#SVGID_2_)">
			
				<rect x="26.023" y="-4.941" transform="matrix(-0.8466 -0.5323 0.5323 -0.8466 37.4821 51.2996)" fill-rule="evenodd" clip-rule="evenodd" fill="#6BBA20" width="0.223" height="50.378"/>
		</g>
		<g clip-path="url(#SVGID_2_)">
			
				<rect x="26.149" y="-4.862" transform="matrix(-0.8465 -0.5324 0.5324 -0.8465 37.6677 51.5143)" fill-rule="evenodd" clip-rule="evenodd" fill="#6BBA20" width="0.223" height="50.378"/>
		</g>
		<g clip-path="url(#SVGID_2_)">
			
				<rect x="26.274" y="-4.783" transform="matrix(-0.8465 -0.5324 0.5324 -0.8465 37.8577 51.7271)" fill-rule="evenodd" clip-rule="evenodd" fill="#6BBA20" width="0.223" height="50.378"/>
		</g>
		<g clip-path="url(#SVGID_2_)">
			
				<rect x="26.4" y="-4.704" transform="matrix(-0.8465 -0.5324 0.5324 -0.8465 38.0478 51.94)" fill-rule="evenodd" clip-rule="evenodd" fill="#69B921" width="0.223" height="50.378"/>
		</g>
		<g clip-path="url(#SVGID_2_)">
			
				<rect x="26.526" y="-4.625" transform="matrix(-0.8464 -0.5326 0.5326 -0.8464 38.2293 52.1562)" fill-rule="evenodd" clip-rule="evenodd" fill="#69B921" width="0.223" height="50.378"/>
		</g>
		<g clip-path="url(#SVGID_2_)">
			
				<rect x="26.652" y="-4.546" transform="matrix(-0.8466 -0.5323 0.5323 -0.8466 38.4325 52.3643)" fill-rule="evenodd" clip-rule="evenodd" fill="#69B921" width="0.223" height="50.378"/>
		</g>
		<g clip-path="url(#SVGID_2_)">
			
				<rect x="26.777" y="-4.467" transform="matrix(-0.8465 -0.5324 0.5324 -0.8465 38.618 52.5789)" fill-rule="evenodd" clip-rule="evenodd" fill="#69B921" width="0.223" height="50.378"/>
		</g>
		<g clip-path="url(#SVGID_2_)">
			
				<rect x="26.903" y="-4.388" transform="matrix(-0.8465 -0.5324 0.5324 -0.8465 38.808 52.7918)" fill-rule="evenodd" clip-rule="evenodd" fill="#69B921" width="0.223" height="50.378"/>
		</g>
		<g clip-path="url(#SVGID_2_)">
			
				<rect x="27.029" y="-4.309" transform="matrix(-0.8465 -0.5324 0.5324 -0.8465 38.998 53.0047)" fill-rule="evenodd" clip-rule="evenodd" fill="#66B821" width="0.223" height="50.378"/>
		</g>
		<g clip-path="url(#SVGID_2_)">
			
				<rect x="27.155" y="-4.23" transform="matrix(-0.8464 -0.5325 0.5325 -0.8464 39.1822 53.2199)" fill-rule="evenodd" clip-rule="evenodd" fill="#66B821" width="0.223" height="50.378"/>
		</g>
		<g clip-path="url(#SVGID_2_)">
			
				<rect x="27.28" y="-4.151" transform="matrix(-0.8466 -0.5323 0.5323 -0.8466 39.3829 53.429)" fill-rule="evenodd" clip-rule="evenodd" fill="#66B821" width="0.223" height="50.378"/>
		</g>
		<g clip-path="url(#SVGID_2_)">
			
				<rect x="27.406" y="-4.071" transform="matrix(-0.8465 -0.5324 0.5324 -0.8465 39.5682 53.6435)" fill-rule="evenodd" clip-rule="evenodd" fill="#66B821" width="0.223" height="50.378"/>
		</g>
		<g clip-path="url(#SVGID_2_)">
			
				<rect x="27.532" y="-3.992" transform="matrix(-0.8465 -0.5324 0.5324 -0.8465 39.7582 53.8566)" fill-rule="evenodd" clip-rule="evenodd" fill="#66B821" width="0.223" height="50.378"/>
		</g>
		<g clip-path="url(#SVGID_2_)">
			
				<rect x="27.657" y="-3.913" transform="matrix(-0.8465 -0.5324 0.5324 -0.8465 39.9482 54.0694)" fill-rule="evenodd" clip-rule="evenodd" fill="#66B821" width="0.223" height="50.378"/>
		</g>
		<g clip-path="url(#SVGID_2_)">
			
				<rect x="27.783" y="-3.834" transform="matrix(-0.8464 -0.5326 0.5326 -0.8464 40.1294 54.2856)" fill-rule="evenodd" clip-rule="evenodd" fill="#66B821" width="0.223" height="50.378"/>
		</g>
		<g clip-path="url(#SVGID_2_)">
			
				<rect x="27.909" y="-3.755" transform="matrix(-0.8466 -0.5323 0.5323 -0.8466 40.3332 54.4936)" fill-rule="evenodd" clip-rule="evenodd" fill="#64B622" width="0.223" height="50.378"/>
		</g>
		<g clip-path="url(#SVGID_2_)">
			
				<rect x="28.035" y="-3.676" transform="matrix(-0.8465 -0.5324 0.5324 -0.8465 40.5185 54.7082)" fill-rule="evenodd" clip-rule="evenodd" fill="#64B622" width="0.223" height="50.378"/>
		</g>
		<g clip-path="url(#SVGID_2_)">
			
				<rect x="28.16" y="-3.597" transform="matrix(-0.8466 -0.5323 0.5323 -0.8466 40.7133 54.9193)" fill-rule="evenodd" clip-rule="evenodd" fill="#64B622" width="0.223" height="50.378"/>
		</g>
		<g clip-path="url(#SVGID_2_)">
			
				<rect x="28.286" y="-3.518" transform="matrix(-0.8464 -0.5325 0.5325 -0.8464 40.8925 55.1364)" fill-rule="evenodd" clip-rule="evenodd" fill="#64B622" width="0.223" height="50.378"/>
		</g>
		<g clip-path="url(#SVGID_2_)">
			
				<rect x="28.412" y="-3.439" transform="matrix(-0.8465 -0.5324 0.5324 -0.8465 41.0887 55.3471)" fill-rule="evenodd" clip-rule="evenodd" fill="#64B622" width="0.223" height="50.378"/>
		</g>
		<g clip-path="url(#SVGID_2_)">
			
				<rect x="28.537" y="-3.36" transform="matrix(-0.8466 -0.5323 0.5323 -0.8466 41.2836 55.5581)" fill-rule="evenodd" clip-rule="evenodd" fill="#61B522" width="0.223" height="50.378"/>
		</g>
		<g clip-path="url(#SVGID_2_)">
			
				<rect x="28.663" y="-3.281" transform="matrix(-0.8465 -0.5325 0.5325 -0.8465 41.4656 55.7741)" fill-rule="evenodd" clip-rule="evenodd" fill="#61B522" width="0.223" height="50.378"/>
		</g>
		<g clip-path="url(#SVGID_2_)">
			
				<rect x="28.789" y="-3.202" transform="matrix(-0.8466 -0.5323 0.5323 -0.8466 41.6636 55.984)" fill-rule="evenodd" clip-rule="evenodd" fill="#61B522" width="0.223" height="50.378"/>
		</g>
		<g clip-path="url(#SVGID_2_)">
			
				<rect x="28.915" y="-3.123" transform="matrix(-0.8464 -0.5326 0.5326 -0.8464 41.8396 56.2022)" fill-rule="evenodd" clip-rule="evenodd" fill="#61B522" width="0.223" height="50.378"/>
		</g>
		<g clip-path="url(#SVGID_2_)">
			
				<rect x="29.04" y="-3.044" transform="matrix(-0.8465 -0.5324 0.5324 -0.8465 42.0389 56.4118)" fill-rule="evenodd" clip-rule="evenodd" fill="#61B522" width="0.223" height="50.378"/>
		</g>
		<g clip-path="url(#SVGID_2_)">
			
				<rect x="29.166" y="-2.964" transform="matrix(-0.8466 -0.5323 0.5323 -0.8466 42.2339 56.6228)" fill-rule="evenodd" clip-rule="evenodd" fill="#61B522" width="0.223" height="50.378"/>
		</g>
		<g clip-path="url(#SVGID_2_)">
			
				<rect x="29.292" y="-2.885" transform="matrix(-0.8463 -0.5328 0.5328 -0.8463 42.404 56.8432)" fill-rule="evenodd" clip-rule="evenodd" fill="#61B522" width="0.223" height="50.378"/>
		</g>
		<g clip-path="url(#SVGID_2_)">
			
				<rect x="29.417" y="-2.806" transform="matrix(-0.8466 -0.5323 0.5323 -0.8466 42.6139 57.0487)" fill-rule="evenodd" clip-rule="evenodd" fill="#5EB423" width="0.223" height="50.378"/>
		</g>
		<g clip-path="url(#SVGID_2_)">
			
				<rect x="29.543" y="-2.727" transform="matrix(-0.8464 -0.5326 0.5326 -0.8464 42.7896 57.267)" fill-rule="evenodd" clip-rule="evenodd" fill="#5EB423" width="0.223" height="50.378"/>
		</g>
		<g clip-path="url(#SVGID_2_)">
			
				<rect x="29.669" y="-2.648" transform="matrix(-0.8465 -0.5324 0.5324 -0.8465 42.9891 57.4765)" fill-rule="evenodd" clip-rule="evenodd" fill="#5EB423" width="0.223" height="50.378"/>
		</g>
		<g clip-path="url(#SVGID_2_)">
			
				<rect x="29.795" y="-2.569" transform="matrix(-0.8466 -0.5323 0.5323 -0.8466 43.1842 57.6874)" fill-rule="evenodd" clip-rule="evenodd" fill="#5EB423" width="0.223" height="50.378"/>
		</g>
		<g clip-path="url(#SVGID_2_)">
			
				<rect x="29.92" y="-2.49" transform="matrix(-0.8465 -0.5324 0.5324 -0.8465 43.3692 57.9022)" fill-rule="evenodd" clip-rule="evenodd" fill="#5CB323" width="0.223" height="50.378"/>
		</g>
		<g clip-path="url(#SVGID_2_)">
			
				<rect x="30.046" y="-2.411" transform="matrix(-0.8464 -0.5325 0.5325 -0.8464 43.5548 58.117)" fill-rule="evenodd" clip-rule="evenodd" fill="#5CB323" width="0.223" height="50.378"/>
		</g>
		<g clip-path="url(#SVGID_2_)">
			
				<rect x="30.172" y="-2.332" transform="matrix(-0.8465 -0.5324 0.5324 -0.8465 43.7494 58.3282)" fill-rule="evenodd" clip-rule="evenodd" fill="#5CB323" width="0.223" height="50.378"/>
		</g>
		<g clip-path="url(#SVGID_2_)">
			
				<rect x="30.298" y="-2.253" transform="matrix(-0.8466 -0.5323 0.5323 -0.8466 43.9446 58.5391)" fill-rule="evenodd" clip-rule="evenodd" fill="#5CB323" width="0.223" height="50.378"/>
		</g>
		<g clip-path="url(#SVGID_2_)">
			
				<rect x="30.423" y="-2.174" transform="matrix(-0.8466 -0.5323 0.5323 -0.8466 44.1345 58.7521)" fill-rule="evenodd" clip-rule="evenodd" fill="#5CB323" width="0.223" height="50.378"/>
		</g>
		<g clip-path="url(#SVGID_2_)">
			
				<rect x="30.549" y="-2.095" transform="matrix(-0.8465 -0.5325 0.5325 -0.8465 44.3162 58.9682)" fill-rule="evenodd" clip-rule="evenodd" fill="#5CB323" width="0.223" height="50.378"/>
		</g>
		<g clip-path="url(#SVGID_2_)">
			
				<rect x="30.675" y="-2.016" transform="matrix(-0.8464 -0.5325 0.5325 -0.8464 44.5049 59.1816)" fill-rule="evenodd" clip-rule="evenodd" fill="#5CB323" width="0.223" height="50.378"/>
		</g>
		<g clip-path="url(#SVGID_2_)">
			
				<rect x="30.8" y="-1.937" transform="matrix(-0.8465 -0.5324 0.5324 -0.8465 44.6996 59.3929)" fill-rule="evenodd" clip-rule="evenodd" fill="#5CB323" width="0.223" height="50.378"/>
		</g>
		<g clip-path="url(#SVGID_2_)">
			
				<rect x="30.926" y="-1.858" transform="matrix(-0.8465 -0.5324 0.5324 -0.8465 44.8896 59.6057)" fill-rule="evenodd" clip-rule="evenodd" fill="#59B224" width="0.223" height="50.378"/>
		</g>
		<g clip-path="url(#SVGID_2_)">
			
				<rect x="31.052" y="-1.778" transform="matrix(-0.8465 -0.5324 0.5324 -0.8465 45.0797 59.8186)" fill-rule="evenodd" clip-rule="evenodd" fill="#59B224" width="0.223" height="50.378"/>
		</g>
		<g clip-path="url(#SVGID_2_)">
			
				<rect x="31.178" y="-1.699" transform="matrix(-0.8465 -0.5324 0.5324 -0.8465 45.2696 60.0317)" fill-rule="evenodd" clip-rule="evenodd" fill="#59B224" width="0.223" height="50.378"/>
		</g>
		<g clip-path="url(#SVGID_2_)">
			
				<rect x="31.303" y="-1.62" transform="matrix(-0.8465 -0.5324 0.5324 -0.8465 45.4584 60.2451)" fill-rule="evenodd" clip-rule="evenodd" fill="#59B224" width="0.223" height="50.378"/>
		</g>
		<g clip-path="url(#SVGID_2_)">
			
				<rect x="31.429" y="-1.541" transform="matrix(-0.8465 -0.5324 0.5324 -0.8465 45.6499 60.4574)" fill-rule="evenodd" clip-rule="evenodd" fill="#59B224" width="0.223" height="50.378"/>
		</g>
		<g clip-path="url(#SVGID_2_)">
			
				<rect x="30.328" y="2.793" transform="matrix(-0.8465 -0.5324 0.5324 -0.8465 56.0661 72.1284)" fill-rule="evenodd" clip-rule="evenodd" fill="#59B224" width="16.206" height="50.378"/>
		</g>
	</g>
</g>
<g>
	<g>
		<path fill-rule="evenodd" clip-rule="evenodd" fill="#FFFFFF" d="M27.307,36.566c1.215-4.984,4.42-5.392,6.957-2.507
			c-0.099,0.76-2.214,2.599-4.536,1.174c1.229-0.127,2.35-0.669,2.812-1.345c-1.569-1.05-2.829-0.432-3.82,2.19
			c1.592,0.78,3.456,1.022,5.171,0.381c-1.327,1.873-3.858,2.175-6.582,0.121c0.004,0.001,0.008,0.001,0.013,0.001
			C27.314,36.575,27.309,36.57,27.307,36.566z"/>
		<path fill-rule="evenodd" clip-rule="evenodd" fill="#FFFFFF" d="M30.658,30.48c-1.765-3.328-3.021-6.919-3.175-10.804
			c-0.192-0.041-0.402-0.087-0.634-0.138c-1.281-0.281-2.241-0.737-2.864-1.106l-0.001,0.007c-1.41-0.877-2.636-1.978-3.537-3.477
			c0.575-1.654,3.09-5.432,7.511-8.53c-4.925,1.783-9.736,5.42-11.566,8.993c1.931,2.714,4.165,5.575,7.137,7.134
			c-0.156,3.884,0.509,7.698,2.548,10.119C27.054,34.52,30.661,30.601,30.658,30.48z"/>
		<path fill-rule="evenodd" clip-rule="evenodd" fill="#FFFFFF" d="M26.579,47.226c0,0-2.181-6.08-1.035-11.803
			c1.26-6.29,3.357-7.292,6.888-7.983c4.912-0.961,9.13,0.136,10.469,0.882l-1.7,1.632c-0.003-0.007-6.626-2.569-10.957,1.01
			c-1.288,1.065-2.113,2.281-2.826,4.762C26.375,39.352,26.544,47.122,26.579,47.226z"/>
		<path fill-rule="evenodd" clip-rule="evenodd" fill="#FFFFFF" d="M23.985,18.44l15.413-1.351l7.763-0.98
			c0,0-7.009,2.713-11.23,3.618c-4.22,0.904-11.23,2.035-11.23,2.035L23.985,18.44z"/>
	</g>
</g>
</svg>
