<?xml version="1.0" encoding="utf-8"?>
<!-- Generator: Adobe Illustrator 17.0.0, SVG Export Plug-In . SVG Version: 6.00 Build 0)  -->
<!DOCTYPE svg PUBLIC "-//W3C//DTD SVG 1.1//EN" "http://www.w3.org/Graphics/SVG/1.1/DTD/svg11.dtd">
<svg version="1.1" id="Layer_1" xmlns="http://www.w3.org/2000/svg" xmlns:xlink="http://www.w3.org/1999/xlink" x="0px" y="0px"
	 width="56px" height="56px" viewBox="0 0 56 56" enable-background="new 0 0 56 56" xml:space="preserve">
<g>
	<g>
		<defs>
			<path id="SVGID_1_" d="M14.682,0.506c14.879,9.629,30.259,26.084,39.569,42.668C39.254,48.958,22.714,54.78,2.895,55.494
				C8.07,37.877,11.326,20.981,14.682,0.506z"/>
		</defs>
		<clipPath id="SVGID_2_">
			<use xlink:href="#SVGID_1_"  overflow="visible"/>
		</clipPath>
		<g clip-path="url(#SVGID_2_)">
			<rect x="-10.17" y="0.117" fill-rule="evenodd" clip-rule="evenodd" fill="#ABD812" width="52.81" height="0.01"/>
		</g>
		<g clip-path="url(#SVGID_2_)">
			
				<rect x="16.129" y="-26.24" transform="matrix(-0.2433 -0.97 0.97 -0.2433 20.0374 15.9625)" fill-rule="evenodd" clip-rule="evenodd" fill="#ABD812" width="0.233" height="52.81"/>
		</g>
		<g clip-path="url(#SVGID_2_)">
			
				<rect x="16.167" y="-26.089" transform="matrix(-0.2433 -0.97 0.97 -0.2433 19.938 16.1869)" fill-rule="evenodd" clip-rule="evenodd" fill="#ABD812" width="0.233" height="52.81"/>
		</g>
		<g clip-path="url(#SVGID_2_)">
			
				<rect x="16.204" y="-25.938" transform="matrix(-0.2432 -0.97 0.97 -0.2432 19.8367 16.4118)" fill-rule="evenodd" clip-rule="evenodd" fill="#ABD812" width="0.234" height="52.81"/>
		</g>
		<g clip-path="url(#SVGID_2_)">
			
				<rect x="16.242" y="-25.787" transform="matrix(-0.2432 -0.97 0.97 -0.2432 19.7373 16.6363)" fill-rule="evenodd" clip-rule="evenodd" fill="#ABD812" width="0.234" height="52.81"/>
		</g>
		<g clip-path="url(#SVGID_2_)">
			
				<rect x="16.28" y="-25.636" transform="matrix(-0.2434 -0.9699 0.9699 -0.2434 19.6411 16.8601)" fill-rule="evenodd" clip-rule="evenodd" fill="#ABD812" width="0.234" height="52.81"/>
		</g>
		<g clip-path="url(#SVGID_2_)">
			
				<rect x="16.318" y="-25.485" transform="matrix(-0.2433 -0.9699 0.9699 -0.2433 19.541 17.0848)" fill-rule="evenodd" clip-rule="evenodd" fill="#ABD812" width="0.233" height="52.81"/>
		</g>
		<g clip-path="url(#SVGID_2_)">
			
				<rect x="16.356" y="-25.334" transform="matrix(-0.2432 -0.97 0.97 -0.2432 19.4398 17.3096)" fill-rule="evenodd" clip-rule="evenodd" fill="#ABD812" width="0.234" height="52.81"/>
		</g>
		<g clip-path="url(#SVGID_2_)">
			
				<rect x="16.394" y="-25.183" transform="matrix(-0.2427 -0.9701 0.9701 -0.2427 19.3318 17.5355)" fill-rule="evenodd" clip-rule="evenodd" fill="#ABD812" width="0.234" height="52.81"/>
		</g>
		<g clip-path="url(#SVGID_2_)">
			
				<rect x="16.431" y="-25.032" transform="matrix(-0.2432 -0.97 0.97 -0.2432 19.2401 17.7585)" fill-rule="evenodd" clip-rule="evenodd" fill="#ABD812" width="0.234" height="52.81"/>
		</g>
		<g clip-path="url(#SVGID_2_)">
			
				<rect x="16.469" y="-24.881" transform="matrix(-0.2434 -0.9699 0.9699 -0.2434 19.1453 17.9823)" fill-rule="evenodd" clip-rule="evenodd" fill="#ABD812" width="0.233" height="52.81"/>
		</g>
		<g clip-path="url(#SVGID_2_)">
			
				<rect x="16.507" y="-24.73" transform="matrix(-0.2433 -0.97 0.97 -0.2433 19.0433 18.2072)" fill-rule="evenodd" clip-rule="evenodd" fill="#A8D713" width="0.233" height="52.81"/>
		</g>
		<g clip-path="url(#SVGID_2_)">
			
				<rect x="16.545" y="-24.579" transform="matrix(-0.2432 -0.97 0.97 -0.2432 18.9426 18.4318)" fill-rule="evenodd" clip-rule="evenodd" fill="#A8D713" width="0.234" height="52.81"/>
		</g>
		<g clip-path="url(#SVGID_2_)">
			
				<rect x="16.583" y="-24.428" transform="matrix(-0.2432 -0.97 0.97 -0.2432 18.8432 18.6563)" fill-rule="evenodd" clip-rule="evenodd" fill="#A8D713" width="0.234" height="52.81"/>
		</g>
		<g clip-path="url(#SVGID_2_)">
			
				<rect x="16.621" y="-24.277" transform="matrix(-0.2432 -0.97 0.97 -0.2432 18.7431 18.8809)" fill-rule="evenodd" clip-rule="evenodd" fill="#A8D713" width="0.234" height="52.81"/>
		</g>
		<g clip-path="url(#SVGID_2_)">
			
				<rect x="16.659" y="-24.126" transform="matrix(-0.2434 -0.9699 0.9699 -0.2434 18.6484 19.1049)" fill-rule="evenodd" clip-rule="evenodd" fill="#A8D713" width="0.233" height="52.81"/>
		</g>
		<g clip-path="url(#SVGID_2_)">
			
				<rect x="16.696" y="-23.975" transform="matrix(-0.2432 -0.97 0.97 -0.2432 18.5443 19.3298)" fill-rule="evenodd" clip-rule="evenodd" fill="#A8D713" width="0.234" height="52.81"/>
		</g>
		<g clip-path="url(#SVGID_2_)">
			
				<rect x="16.734" y="-23.824" transform="matrix(-0.2432 -0.97 0.97 -0.2432 18.4449 19.5543)" fill-rule="evenodd" clip-rule="evenodd" fill="#A8D713" width="0.234" height="52.81"/>
		</g>
		<g clip-path="url(#SVGID_2_)">
			
				<rect x="16.772" y="-23.673" transform="matrix(-0.2432 -0.97 0.97 -0.2432 18.3455 19.7788)" fill-rule="evenodd" clip-rule="evenodd" fill="#A6D514" width="0.234" height="52.81"/>
		</g>
		<g clip-path="url(#SVGID_2_)">
			
				<rect x="16.81" y="-23.522" transform="matrix(-0.2433 -0.9699 0.9699 -0.2433 18.2488 20.003)" fill-rule="evenodd" clip-rule="evenodd" fill="#A6D514" width="0.233" height="52.81"/>
		</g>
		<g clip-path="url(#SVGID_2_)">
			
				<rect x="16.848" y="-23.371" transform="matrix(-0.2433 -0.97 0.97 -0.2433 18.1488 20.2275)" fill-rule="evenodd" clip-rule="evenodd" fill="#A6D514" width="0.233" height="52.81"/>
		</g>
		<g clip-path="url(#SVGID_2_)">
			
				<rect x="16.886" y="-23.22" transform="matrix(-0.2432 -0.97 0.97 -0.2432 18.0473 20.4521)" fill-rule="evenodd" clip-rule="evenodd" fill="#A6D514" width="0.234" height="52.81"/>
		</g>
		<g clip-path="url(#SVGID_2_)">
			
				<rect x="16.924" y="-23.069" transform="matrix(-0.2432 -0.97 0.97 -0.2432 17.9479 20.6766)" fill-rule="evenodd" clip-rule="evenodd" fill="#A6D514" width="0.234" height="52.81"/>
		</g>
		<g clip-path="url(#SVGID_2_)">
			
				<rect x="16.962" y="-22.918" transform="matrix(-0.2432 -0.97 0.97 -0.2432 17.8484 20.9011)" fill-rule="evenodd" clip-rule="evenodd" fill="#A6D514" width="0.234" height="52.81"/>
		</g>
		<g clip-path="url(#SVGID_2_)">
			
				<rect x="16.999" y="-22.767" transform="matrix(-0.2434 -0.9699 0.9699 -0.2434 17.7539 21.1254)" fill-rule="evenodd" clip-rule="evenodd" fill="#A6D514" width="0.233" height="52.81"/>
		</g>
		<g clip-path="url(#SVGID_2_)">
			
				<rect x="17.037" y="-22.616" transform="matrix(-0.2428 -0.9701 0.9701 -0.2428 17.644 21.3501)" fill-rule="evenodd" clip-rule="evenodd" fill="#A6D514" width="0.234" height="52.81"/>
		</g>
		<g clip-path="url(#SVGID_2_)">
			
				<rect x="17.075" y="-22.465" transform="matrix(-0.2432 -0.97 0.97 -0.2432 17.5508 21.5743)" fill-rule="evenodd" clip-rule="evenodd" fill="#A6D514" width="0.234" height="52.81"/>
		</g>
		<g clip-path="url(#SVGID_2_)">
			
				<rect x="17.113" y="-22.313" transform="matrix(-0.2432 -0.97 0.97 -0.2432 17.4507 21.7988)" fill-rule="evenodd" clip-rule="evenodd" fill="#A6D514" width="0.234" height="52.81"/>
		</g>
		<g clip-path="url(#SVGID_2_)">
			
				<rect x="17.151" y="-22.162" transform="matrix(-0.2433 -0.97 0.97 -0.2433 17.3534 22.0233)" fill-rule="evenodd" clip-rule="evenodd" fill="#A3D414" width="0.233" height="52.81"/>
		</g>
		<g clip-path="url(#SVGID_2_)">
			
				<rect x="17.189" y="-22.011" transform="matrix(-0.2433 -0.97 0.97 -0.2433 17.2541 22.2478)" fill-rule="evenodd" clip-rule="evenodd" fill="#A3D414" width="0.233" height="52.81"/>
		</g>
		<g clip-path="url(#SVGID_2_)">
			
				<rect x="17.227" y="-21.86" transform="matrix(-0.2433 -0.9699 0.9699 -0.2433 17.1554 22.4722)" fill-rule="evenodd" clip-rule="evenodd" fill="#A3D414" width="0.234" height="52.81"/>
		</g>
		<g clip-path="url(#SVGID_2_)">
			
				<rect x="17.264" y="-21.709" transform="matrix(-0.2432 -0.97 0.97 -0.2432 17.0531 22.6967)" fill-rule="evenodd" clip-rule="evenodd" fill="#A3D414" width="0.234" height="52.81"/>
		</g>
		<g clip-path="url(#SVGID_2_)">
			
				<rect x="17.302" y="-21.558" transform="matrix(-0.2432 -0.97 0.97 -0.2432 16.9544 22.9212)" fill-rule="evenodd" clip-rule="evenodd" fill="#A3D414" width="0.234" height="52.81"/>
		</g>
		<g clip-path="url(#SVGID_2_)">
			
				<rect x="17.34" y="-21.407" transform="matrix(-0.2433 -0.97 0.97 -0.2433 16.8565 23.1458)" fill-rule="evenodd" clip-rule="evenodd" fill="#A3D414" width="0.233" height="52.81"/>
		</g>
		<g clip-path="url(#SVGID_2_)">
			
				<rect x="17.378" y="-21.256" transform="matrix(-0.2432 -0.97 0.97 -0.2432 16.7549 23.37)" fill-rule="evenodd" clip-rule="evenodd" fill="#A3D414" width="0.234" height="52.81"/>
		</g>
		<g clip-path="url(#SVGID_2_)">
			
				<rect x="17.416" y="-21.105" transform="matrix(-0.2432 -0.97 0.97 -0.2432 16.6555 23.5945)" fill-rule="evenodd" clip-rule="evenodd" fill="#A3D414" width="0.234" height="52.81"/>
		</g>
		<g clip-path="url(#SVGID_2_)">
			
				<rect x="17.454" y="-20.954" transform="matrix(-0.2432 -0.97 0.97 -0.2432 16.5561 23.8191)" fill-rule="evenodd" clip-rule="evenodd" fill="#A3D414" width="0.234" height="52.81"/>
		</g>
		<g clip-path="url(#SVGID_2_)">
			
				<rect x="17.492" y="-20.803" transform="matrix(-0.2433 -0.97 0.97 -0.2433 16.4589 24.0437)" fill-rule="evenodd" clip-rule="evenodd" fill="#A3D414" width="0.233" height="52.81"/>
		</g>
		<g clip-path="url(#SVGID_2_)">
			
				<rect x="17.53" y="-20.652" transform="matrix(-0.2433 -0.97 0.97 -0.2433 16.3594 24.2682)" fill-rule="evenodd" clip-rule="evenodd" fill="#A1D315" width="0.233" height="52.81"/>
		</g>
		<g clip-path="url(#SVGID_2_)">
			
				<rect x="17.567" y="-20.501" transform="matrix(-0.2434 -0.9699 0.9699 -0.2434 16.2616 24.4927)" fill-rule="evenodd" clip-rule="evenodd" fill="#A1D315" width="0.234" height="52.81"/>
		</g>
		<g clip-path="url(#SVGID_2_)">
			
				<rect x="17.605" y="-20.35" transform="matrix(-0.2432 -0.97 0.97 -0.2432 16.1585 24.7169)" fill-rule="evenodd" clip-rule="evenodd" fill="#A1D315" width="0.234" height="52.81"/>
		</g>
		<g clip-path="url(#SVGID_2_)">
			
				<rect x="17.643" y="-20.199" transform="matrix(-0.2427 -0.9701 0.9701 -0.2427 16.05 24.9405)" fill-rule="evenodd" clip-rule="evenodd" fill="#A1D315" width="0.234" height="52.81"/>
		</g>
		<g clip-path="url(#SVGID_2_)">
			
				<rect x="17.681" y="-20.048" transform="matrix(-0.2428 -0.9701 0.9701 -0.2428 15.9528 25.1652)" fill-rule="evenodd" clip-rule="evenodd" fill="#A1D315" width="0.233" height="52.81"/>
		</g>
		<g clip-path="url(#SVGID_2_)">
			
				<rect x="17.719" y="-19.897" transform="matrix(-0.2432 -0.97 0.97 -0.2432 15.8602 25.3902)" fill-rule="evenodd" clip-rule="evenodd" fill="#A1D315" width="0.234" height="52.81"/>
		</g>
		<g clip-path="url(#SVGID_2_)">
			
				<rect x="17.757" y="-19.746" transform="matrix(-0.2432 -0.97 0.97 -0.2432 15.7607 25.6146)" fill-rule="evenodd" clip-rule="evenodd" fill="#A1D315" width="0.234" height="52.81"/>
		</g>
		<g clip-path="url(#SVGID_2_)">
			
				<rect x="17.794" y="-19.595" transform="matrix(-0.2434 -0.9699 0.9699 -0.2434 15.6651 25.8396)" fill-rule="evenodd" clip-rule="evenodd" fill="#9ED215" width="0.234" height="52.81"/>
		</g>
		<g clip-path="url(#SVGID_2_)">
			
				<rect x="17.832" y="-19.444" transform="matrix(-0.2433 -0.97 0.97 -0.2433 15.5642 26.0639)" fill-rule="evenodd" clip-rule="evenodd" fill="#9ED215" width="0.233" height="52.81"/>
		</g>
		<g clip-path="url(#SVGID_2_)">
			
				<rect x="17.87" y="-19.293" transform="matrix(-0.2433 -0.97 0.97 -0.2433 15.4648 26.2884)" fill-rule="evenodd" clip-rule="evenodd" fill="#9ED215" width="0.233" height="52.81"/>
		</g>
		<g clip-path="url(#SVGID_2_)">
			
				<rect x="17.908" y="-19.142" transform="matrix(-0.2432 -0.97 0.97 -0.2432 15.3631 26.5125)" fill-rule="evenodd" clip-rule="evenodd" fill="#9ED215" width="0.234" height="52.81"/>
		</g>
		<g clip-path="url(#SVGID_2_)">
			
				<rect x="17.946" y="-18.991" transform="matrix(-0.2433 -0.9699 0.9699 -0.2433 15.2668 26.7374)" fill-rule="evenodd" clip-rule="evenodd" fill="#9ED215" width="0.234" height="52.81"/>
		</g>
		<g clip-path="url(#SVGID_2_)">
			
				<rect x="17.984" y="-18.84" transform="matrix(-0.2432 -0.97 0.97 -0.2432 15.1643 26.9615)" fill-rule="evenodd" clip-rule="evenodd" fill="#9ED215" width="0.234" height="52.81"/>
		</g>
		<g clip-path="url(#SVGID_2_)">
			
				<rect x="18.022" y="-18.689" transform="matrix(-0.2433 -0.97 0.97 -0.2433 15.0672 27.1864)" fill-rule="evenodd" clip-rule="evenodd" fill="#9ED215" width="0.233" height="52.81"/>
		</g>
		<g clip-path="url(#SVGID_2_)">
			
				<rect x="18.06" y="-18.538" transform="matrix(-0.2432 -0.97 0.97 -0.2432 14.9663 27.4105)" fill-rule="evenodd" clip-rule="evenodd" fill="#9ED215" width="0.234" height="52.81"/>
		</g>
		<g clip-path="url(#SVGID_2_)">
			
				<rect x="18.097" y="-18.387" transform="matrix(-0.2432 -0.97 0.97 -0.2432 14.8669 27.635)" fill-rule="evenodd" clip-rule="evenodd" fill="#9ED215" width="0.234" height="52.81"/>
		</g>
		<g clip-path="url(#SVGID_2_)">
			
				<rect x="18.135" y="-18.236" transform="matrix(-0.2433 -0.9699 0.9699 -0.2433 14.7698 27.8599)" fill-rule="evenodd" clip-rule="evenodd" fill="#9ED215" width="0.234" height="52.81"/>
		</g>
		<g clip-path="url(#SVGID_2_)">
			
				<rect x="18.173" y="-18.085" transform="matrix(-0.2433 -0.97 0.97 -0.2433 14.6696 28.0843)" fill-rule="evenodd" clip-rule="evenodd" fill="#9CD116" width="0.233" height="52.81"/>
		</g>
		<g clip-path="url(#SVGID_2_)">
			
				<rect x="18.211" y="-17.934" transform="matrix(-0.2433 -0.97 0.97 -0.2433 14.5702 28.3088)" fill-rule="evenodd" clip-rule="evenodd" fill="#9CD116" width="0.233" height="52.81"/>
		</g>
		<g clip-path="url(#SVGID_2_)">
			
				<rect x="18.249" y="-17.783" transform="matrix(-0.2432 -0.97 0.97 -0.2432 14.4685 28.5327)" fill-rule="evenodd" clip-rule="evenodd" fill="#9CD116" width="0.234" height="52.81"/>
		</g>
		<g clip-path="url(#SVGID_2_)">
			
				<rect x="18.287" y="-17.632" transform="matrix(-0.2427 -0.9701 0.9701 -0.2427 14.3602 28.7554)" fill-rule="evenodd" clip-rule="evenodd" fill="#9CD116" width="0.234" height="52.81"/>
		</g>
		<g clip-path="url(#SVGID_2_)">
			
				<rect x="18.325" y="-17.481" transform="matrix(-0.2432 -0.97 0.97 -0.2432 14.2703 28.9818)" fill-rule="evenodd" clip-rule="evenodd" fill="#9CD116" width="0.234" height="52.81"/>
		</g>
		<g clip-path="url(#SVGID_2_)">
			
				<rect x="18.362" y="-17.33" transform="matrix(-0.2433 -0.97 0.97 -0.2433 14.1725 29.2066)" fill-rule="evenodd" clip-rule="evenodd" fill="#9CD116" width="0.233" height="52.81"/>
		</g>
		<g clip-path="url(#SVGID_2_)">
			
				<rect x="18.4" y="-17.179" transform="matrix(-0.2432 -0.97 0.97 -0.2432 14.0707 29.4304)" fill-rule="evenodd" clip-rule="evenodd" fill="#9CD116" width="0.234" height="52.81"/>
		</g>
		<g clip-path="url(#SVGID_2_)">
			
				<rect x="18.438" y="-17.028" transform="matrix(-0.2432 -0.97 0.97 -0.2432 13.9713 29.655)" fill-rule="evenodd" clip-rule="evenodd" fill="#99CF16" width="0.234" height="52.81"/>
		</g>
		<g clip-path="url(#SVGID_2_)">
			
				<rect x="18.476" y="-16.877" transform="matrix(-0.2432 -0.97 0.97 -0.2432 13.8719 29.8794)" fill-rule="evenodd" clip-rule="evenodd" fill="#99CF16" width="0.234" height="52.81"/>
		</g>
		<g clip-path="url(#SVGID_2_)">
			
				<rect x="18.514" y="-16.726" transform="matrix(-0.2434 -0.9699 0.9699 -0.2434 13.7782 30.1053)" fill-rule="evenodd" clip-rule="evenodd" fill="#99CF16" width="0.233" height="52.81"/>
		</g>
		<g clip-path="url(#SVGID_2_)">
			
				<rect x="18.552" y="-16.575" transform="matrix(-0.2433 -0.9699 0.9699 -0.2433 13.6763 30.3292)" fill-rule="evenodd" clip-rule="evenodd" fill="#99CF16" width="0.233" height="52.81"/>
		</g>
		<g clip-path="url(#SVGID_2_)">
			
				<rect x="18.59" y="-16.424" transform="matrix(-0.2432 -0.97 0.97 -0.2432 13.5745 30.553)" fill-rule="evenodd" clip-rule="evenodd" fill="#99CF16" width="0.234" height="52.81"/>
		</g>
		<g clip-path="url(#SVGID_2_)">
			
				<rect x="18.628" y="-16.273" transform="matrix(-0.2432 -0.97 0.97 -0.2432 13.4743 30.7773)" fill-rule="evenodd" clip-rule="evenodd" fill="#99CF16" width="0.234" height="52.81"/>
		</g>
		<g clip-path="url(#SVGID_2_)">
			
				<rect x="18.665" y="-16.122" transform="matrix(-0.2432 -0.97 0.97 -0.2432 13.3748 31.0018)" fill-rule="evenodd" clip-rule="evenodd" fill="#99CF16" width="0.234" height="52.81"/>
		</g>
		<g clip-path="url(#SVGID_2_)">
			
				<rect x="18.703" y="-15.971" transform="matrix(-0.2434 -0.9699 0.9699 -0.2434 13.2812 31.2278)" fill-rule="evenodd" clip-rule="evenodd" fill="#99CF16" width="0.233" height="52.81"/>
		</g>
		<g clip-path="url(#SVGID_2_)">
			
				<rect x="18.741" y="-15.82" transform="matrix(-0.2432 -0.97 0.97 -0.2432 13.1761 31.4506)" fill-rule="evenodd" clip-rule="evenodd" fill="#99CF16" width="0.234" height="52.81"/>
		</g>
		<g clip-path="url(#SVGID_2_)">
			
				<rect x="18.779" y="-15.669" transform="matrix(-0.2432 -0.97 0.97 -0.2432 13.0775 31.6754)" fill-rule="evenodd" clip-rule="evenodd" fill="#99CF16" width="0.234" height="52.81"/>
		</g>
		<g clip-path="url(#SVGID_2_)">
			
				<rect x="18.817" y="-15.518" transform="matrix(-0.2432 -0.97 0.97 -0.2432 12.9781 31.8999)" fill-rule="evenodd" clip-rule="evenodd" fill="#96CE17" width="0.234" height="52.81"/>
		</g>
		<g clip-path="url(#SVGID_2_)">
			
				<rect x="18.855" y="-15.367" transform="matrix(-0.2433 -0.97 0.97 -0.2433 12.8804 32.1249)" fill-rule="evenodd" clip-rule="evenodd" fill="#96CE17" width="0.233" height="52.81"/>
		</g>
		<g clip-path="url(#SVGID_2_)">
			
				<rect x="18.893" y="-15.216" transform="matrix(-0.243 -0.97 0.97 -0.243 12.7741 32.3474)" fill-rule="evenodd" clip-rule="evenodd" fill="#96CE17" width="0.233" height="52.81"/>
		</g>
		<g clip-path="url(#SVGID_2_)">
			
				<rect x="18.93" y="-15.065" transform="matrix(-0.2427 -0.9701 0.9701 -0.2427 12.6688 32.5699)" fill-rule="evenodd" clip-rule="evenodd" fill="#96CE17" width="0.234" height="52.81"/>
		</g>
		<g clip-path="url(#SVGID_2_)">
			
				<rect x="18.968" y="-14.914" transform="matrix(-0.2432 -0.97 0.97 -0.2432 12.5795 32.7974)" fill-rule="evenodd" clip-rule="evenodd" fill="#96CE17" width="0.234" height="52.81"/>
		</g>
		<g clip-path="url(#SVGID_2_)">
			
				<rect x="19.006" y="-14.763" transform="matrix(-0.2432 -0.97 0.97 -0.2432 12.4801 33.0219)" fill-rule="evenodd" clip-rule="evenodd" fill="#96CE17" width="0.234" height="52.81"/>
		</g>
		<g clip-path="url(#SVGID_2_)">
			
				<rect x="19.044" y="-14.612" transform="matrix(-0.2433 -0.9699 0.9699 -0.2433 12.3841 33.2475)" fill-rule="evenodd" clip-rule="evenodd" fill="#96CE17" width="0.233" height="52.81"/>
		</g>
		<g clip-path="url(#SVGID_2_)">
			
				<rect x="19.082" y="-14.461" transform="matrix(-0.2434 -0.9699 0.9699 -0.2434 12.2856 33.4721)" fill-rule="evenodd" clip-rule="evenodd" fill="#94CD17" width="0.234" height="52.81"/>
		</g>
		<g clip-path="url(#SVGID_2_)">
			
				<rect x="19.12" y="-14.31" transform="matrix(-0.2432 -0.97 0.97 -0.2432 12.1819 33.6952)" fill-rule="evenodd" clip-rule="evenodd" fill="#94CD17" width="0.234" height="52.81"/>
		</g>
		<g clip-path="url(#SVGID_2_)">
			
				<rect x="19.158" y="-14.159" transform="matrix(-0.2432 -0.97 0.97 -0.2432 12.0825 33.9197)" fill-rule="evenodd" clip-rule="evenodd" fill="#94CD17" width="0.234" height="52.81"/>
		</g>
		<g clip-path="url(#SVGID_2_)">
			
				<rect x="19.195" y="-14.008" transform="matrix(-0.2433 -0.97 0.97 -0.2433 11.9857 34.1451)" fill-rule="evenodd" clip-rule="evenodd" fill="#94CD17" width="0.233" height="52.81"/>
		</g>
		<g clip-path="url(#SVGID_2_)">
			
				<rect x="19.233" y="-13.857" transform="matrix(-0.2433 -0.97 0.97 -0.2433 11.8862 34.3696)" fill-rule="evenodd" clip-rule="evenodd" fill="#94CD17" width="0.233" height="52.81"/>
		</g>
		<g clip-path="url(#SVGID_2_)">
			
				<rect x="19.271" y="-13.706" transform="matrix(-0.2433 -0.9699 0.9699 -0.2433 11.7878 34.5943)" fill-rule="evenodd" clip-rule="evenodd" fill="#94CD17" width="0.234" height="52.81"/>
		</g>
		<g clip-path="url(#SVGID_2_)">
			
				<rect x="19.309" y="-13.555" transform="matrix(-0.2432 -0.97 0.97 -0.2432 11.6857 34.8179)" fill-rule="evenodd" clip-rule="evenodd" fill="#94CD17" width="0.234" height="52.81"/>
		</g>
		<g clip-path="url(#SVGID_2_)">
			
				<rect x="19.347" y="-13.404" transform="matrix(-0.2432 -0.97 0.97 -0.2432 11.5854 35.0421)" fill-rule="evenodd" clip-rule="evenodd" fill="#94CD17" width="0.234" height="52.81"/>
		</g>
		<g clip-path="url(#SVGID_2_)">
			
				<rect x="19.385" y="-13.253" transform="matrix(-0.2433 -0.97 0.97 -0.2433 11.4887 35.2676)" fill-rule="evenodd" clip-rule="evenodd" fill="#94CD17" width="0.233" height="52.81"/>
		</g>
		<g clip-path="url(#SVGID_2_)">
			
				<rect x="19.423" y="-13.102" transform="matrix(-0.2432 -0.97 0.97 -0.2432 11.3867 35.491)" fill-rule="evenodd" clip-rule="evenodd" fill="#94CD17" width="0.234" height="52.81"/>
		</g>
		<g clip-path="url(#SVGID_2_)">
			
				<rect x="19.46" y="-12.951" transform="matrix(-0.2432 -0.97 0.97 -0.2432 11.2872 35.7155)" fill-rule="evenodd" clip-rule="evenodd" fill="#91CC18" width="0.234" height="52.81"/>
		</g>
		<g clip-path="url(#SVGID_2_)">
			
				<rect x="19.498" y="-12.8" transform="matrix(-0.2432 -0.97 0.97 -0.2432 11.1878 35.9399)" fill-rule="evenodd" clip-rule="evenodd" fill="#91CC18" width="0.234" height="52.81"/>
		</g>
		<g clip-path="url(#SVGID_2_)">
			
				<rect x="19.536" y="-12.649" transform="matrix(-0.2428 -0.9701 0.9701 -0.2428 11.0802 36.1613)" fill-rule="evenodd" clip-rule="evenodd" fill="#91CC18" width="0.233" height="52.81"/>
		</g>
		<g clip-path="url(#SVGID_2_)">
			
				<rect x="19.574" y="-12.498" transform="matrix(-0.2433 -0.97 0.97 -0.2433 10.9916 36.3899)" fill-rule="evenodd" clip-rule="evenodd" fill="#91CC18" width="0.233" height="52.81"/>
		</g>
		<g clip-path="url(#SVGID_2_)">
			
				<rect x="19.612" y="-12.347" transform="matrix(-0.2432 -0.97 0.97 -0.2432 10.8895 36.6132)" fill-rule="evenodd" clip-rule="evenodd" fill="#91CC18" width="0.234" height="52.81"/>
		</g>
		<g clip-path="url(#SVGID_2_)">
			
				<rect x="19.65" y="-12.196" transform="matrix(-0.2433 -0.9699 0.9699 -0.2433 10.7937 36.8391)" fill-rule="evenodd" clip-rule="evenodd" fill="#91CC18" width="0.234" height="52.81"/>
		</g>
		<g clip-path="url(#SVGID_2_)">
			
				<rect x="19.688" y="-12.044" transform="matrix(-0.2432 -0.97 0.97 -0.2432 10.6906 37.0622)" fill-rule="evenodd" clip-rule="evenodd" fill="#91CC18" width="0.234" height="52.81"/>
		</g>
		<g clip-path="url(#SVGID_2_)">
			
				<rect x="19.726" y="-11.893" transform="matrix(-0.2433 -0.97 0.97 -0.2433 10.594 37.2878)" fill-rule="evenodd" clip-rule="evenodd" fill="#8FCB18" width="0.233" height="52.81"/>
		</g>
		<g clip-path="url(#SVGID_2_)">
			
				<rect x="19.763" y="-11.743" transform="matrix(-0.2432 -0.97 0.97 -0.2432 10.4919 37.5111)" fill-rule="evenodd" clip-rule="evenodd" fill="#8FCB18" width="0.234" height="52.81"/>
		</g>
		<g clip-path="url(#SVGID_2_)">
			
				<rect x="19.801" y="-11.592" transform="matrix(-0.2432 -0.97 0.97 -0.2432 10.3934 37.7359)" fill-rule="evenodd" clip-rule="evenodd" fill="#8FCB18" width="0.234" height="52.81"/>
		</g>
		<g clip-path="url(#SVGID_2_)">
			
				<rect x="19.839" y="-11.44" transform="matrix(-0.2433 -0.9699 0.9699 -0.2433 10.2967 37.9616)" fill-rule="evenodd" clip-rule="evenodd" fill="#8FCB18" width="0.234" height="52.81"/>
		</g>
		<g clip-path="url(#SVGID_2_)">
			
				<rect x="19.877" y="-11.289" transform="matrix(-0.2433 -0.97 0.97 -0.2433 10.1964 38.1857)" fill-rule="evenodd" clip-rule="evenodd" fill="#8FCB18" width="0.233" height="52.81"/>
		</g>
		<g clip-path="url(#SVGID_2_)">
			
				<rect x="19.915" y="-11.138" transform="matrix(-0.2433 -0.97 0.97 -0.2433 10.097 38.4102)" fill-rule="evenodd" clip-rule="evenodd" fill="#8FCB18" width="0.233" height="52.81"/>
		</g>
		<g clip-path="url(#SVGID_2_)">
			
				<rect x="19.953" y="-10.987" transform="matrix(-0.2432 -0.97 0.97 -0.2432 9.9949 38.6334)" fill-rule="evenodd" clip-rule="evenodd" fill="#8FCB18" width="0.234" height="52.81"/>
		</g>
		<g clip-path="url(#SVGID_2_)">
			
				<rect x="19.991" y="-10.836" transform="matrix(-0.2433 -0.9699 0.9699 -0.2433 9.8992 38.8595)" fill-rule="evenodd" clip-rule="evenodd" fill="#8FCB18" width="0.234" height="52.81"/>
		</g>
		<g clip-path="url(#SVGID_2_)">
			
				<rect x="20.028" y="-10.685" transform="matrix(-0.2432 -0.97 0.97 -0.2432 9.7969 39.0828)" fill-rule="evenodd" clip-rule="evenodd" fill="#8FCB18" width="0.234" height="52.81"/>
		</g>
		<g clip-path="url(#SVGID_2_)">
			
				<rect x="20.066" y="-10.534" transform="matrix(-0.2433 -0.97 0.97 -0.2433 9.6994 39.3081)" fill-rule="evenodd" clip-rule="evenodd" fill="#8FCB18" width="0.233" height="52.81"/>
		</g>
		<g clip-path="url(#SVGID_2_)">
			
				<rect x="20.104" y="-10.383" transform="matrix(-0.2432 -0.97 0.97 -0.2432 9.5973 39.5312)" fill-rule="evenodd" clip-rule="evenodd" fill="#8CC919" width="0.234" height="52.81"/>
		</g>
		<g clip-path="url(#SVGID_2_)">
			
				<rect x="20.142" y="-10.232" transform="matrix(-0.2427 -0.9701 0.9701 -0.2427 9.4865 39.7506)" fill-rule="evenodd" clip-rule="evenodd" fill="#8CC919" width="0.234" height="52.81"/>
		</g>
		<g clip-path="url(#SVGID_2_)">
			
				<rect x="20.18" y="-10.081" transform="matrix(-0.2428 -0.9701 0.9701 -0.2428 9.3907 39.9767)" fill-rule="evenodd" clip-rule="evenodd" fill="#8CC919" width="0.234" height="52.81"/>
		</g>
		<g clip-path="url(#SVGID_2_)">
			
				<rect x="20.218" y="-9.93" transform="matrix(-0.2433 -0.9699 0.9699 -0.2433 9.3026 40.2064)" fill-rule="evenodd" clip-rule="evenodd" fill="#8CC919" width="0.234" height="52.81"/>
		</g>
		<g clip-path="url(#SVGID_2_)">
			
				<rect x="20.256" y="-9.779" transform="matrix(-0.2433 -0.97 0.97 -0.2433 9.2023 40.4305)" fill-rule="evenodd" clip-rule="evenodd" fill="#8CC919" width="0.233" height="52.81"/>
		</g>
		<g clip-path="url(#SVGID_2_)">
			
				<rect x="20.293" y="-9.628" transform="matrix(-0.2432 -0.97 0.97 -0.2432 9.101 40.654)" fill-rule="evenodd" clip-rule="evenodd" fill="#8CC919" width="0.234" height="52.81"/>
		</g>
		<g clip-path="url(#SVGID_2_)">
			
				<rect x="20.331" y="-9.477" transform="matrix(-0.2432 -0.97 0.97 -0.2432 9.0016 40.8785)" fill-rule="evenodd" clip-rule="evenodd" fill="#8CC919" width="0.234" height="52.81"/>
		</g>
		<g clip-path="url(#SVGID_2_)">
			
				<rect x="20.369" y="-9.326" transform="matrix(-0.2432 -0.97 0.97 -0.2432 8.9012 41.1025)" fill-rule="evenodd" clip-rule="evenodd" fill="#8CC919" width="0.234" height="52.81"/>
		</g>
		<g clip-path="url(#SVGID_2_)">
			
				<rect x="20.407" y="-9.175" transform="matrix(-0.2434 -0.9699 0.9699 -0.2434 8.8086 41.3303)" fill-rule="evenodd" clip-rule="evenodd" fill="#8CC919" width="0.233" height="52.81"/>
		</g>
		<g clip-path="url(#SVGID_2_)">
			
				<rect x="20.445" y="-9.024" transform="matrix(-0.2433 -0.97 0.97 -0.2433 8.7053 41.5529)" fill-rule="evenodd" clip-rule="evenodd" fill="#8CC919" width="0.233" height="52.81"/>
		</g>
		<g clip-path="url(#SVGID_2_)">
			
				<rect x="20.483" y="-8.873" transform="matrix(-0.2432 -0.97 0.97 -0.2432 8.6031 41.7758)" fill-rule="evenodd" clip-rule="evenodd" fill="#8CC919" width="0.234" height="52.81"/>
		</g>
		<g clip-path="url(#SVGID_2_)">
			
				<rect x="20.521" y="-8.722" transform="matrix(-0.2432 -0.97 0.97 -0.2432 8.5046 42.0008)" fill-rule="evenodd" clip-rule="evenodd" fill="#8AC81A" width="0.234" height="52.81"/>
		</g>
		<g clip-path="url(#SVGID_2_)">
			
				<rect x="20.558" y="-8.571" transform="matrix(-0.2434 -0.9699 0.9699 -0.2434 8.4091 42.2273)" fill-rule="evenodd" clip-rule="evenodd" fill="#8AC81A" width="0.234" height="52.81"/>
		</g>
		<g clip-path="url(#SVGID_2_)">
			
				<rect x="20.596" y="-8.42" transform="matrix(-0.2433 -0.97 0.97 -0.2433 8.3077 42.4508)" fill-rule="evenodd" clip-rule="evenodd" fill="#8AC81A" width="0.233" height="52.81"/>
		</g>
		<g clip-path="url(#SVGID_2_)">
			
				<rect x="20.634" y="-8.269" transform="matrix(-0.2432 -0.97 0.97 -0.2432 8.2055 42.6737)" fill-rule="evenodd" clip-rule="evenodd" fill="#8AC81A" width="0.234" height="52.81"/>
		</g>
		<g clip-path="url(#SVGID_2_)">
			
				<rect x="20.672" y="-8.118" transform="matrix(-0.2432 -0.97 0.97 -0.2432 8.106 42.8982)" fill-rule="evenodd" clip-rule="evenodd" fill="#8AC81A" width="0.234" height="52.81"/>
		</g>
		<g clip-path="url(#SVGID_2_)">
			
				<rect x="20.71" y="-7.967" transform="matrix(-0.2432 -0.97 0.97 -0.2432 8.0066 43.1227)" fill-rule="evenodd" clip-rule="evenodd" fill="#8AC81A" width="0.234" height="52.81"/>
		</g>
		<g clip-path="url(#SVGID_2_)">
			
				<rect x="20.748" y="-7.816" transform="matrix(-0.2434 -0.9699 0.9699 -0.2434 7.9141 43.3508)" fill-rule="evenodd" clip-rule="evenodd" fill="#8AC81A" width="0.233" height="52.81"/>
		</g>
		<g clip-path="url(#SVGID_2_)">
			
				<rect x="20.786" y="-7.665" transform="matrix(-0.243 -0.97 0.97 -0.243 7.8037 43.5695)" fill-rule="evenodd" clip-rule="evenodd" fill="#87C71A" width="0.233" height="52.81"/>
		</g>
		<g clip-path="url(#SVGID_2_)">
			
				<rect x="20.824" y="-7.514" transform="matrix(-0.2427 -0.9701 0.9701 -0.2427 7.6974 43.7902)" fill-rule="evenodd" clip-rule="evenodd" fill="#87C71A" width="0.234" height="52.81"/>
		</g>
		<g clip-path="url(#SVGID_2_)">
			
				<rect x="20.861" y="-7.363" transform="matrix(-0.2432 -0.97 0.97 -0.2432 7.6089 44.0204)" fill-rule="evenodd" clip-rule="evenodd" fill="#87C71A" width="0.234" height="52.81"/>
		</g>
		<g clip-path="url(#SVGID_2_)">
			
				<rect x="20.899" y="-7.212" transform="matrix(-0.2432 -0.97 0.97 -0.2432 7.5094 44.2449)" fill-rule="evenodd" clip-rule="evenodd" fill="#87C71A" width="0.234" height="52.81"/>
		</g>
		<g clip-path="url(#SVGID_2_)">
			
				<rect x="20.937" y="-7.061" transform="matrix(-0.2433 -0.97 0.97 -0.2433 7.413 44.4711)" fill-rule="evenodd" clip-rule="evenodd" fill="#87C71A" width="0.233" height="52.81"/>
		</g>
		<g clip-path="url(#SVGID_2_)">
			
				<rect x="20.975" y="-6.91" transform="matrix(-0.2432 -0.97 0.97 -0.2432 7.3107 44.6938)" fill-rule="evenodd" clip-rule="evenodd" fill="#87C71A" width="0.234" height="52.81"/>
		</g>
		<g clip-path="url(#SVGID_2_)">
			
				<rect x="21.013" y="-6.759" transform="matrix(-0.2432 -0.97 0.97 -0.2432 7.2123 44.9188)" fill-rule="evenodd" clip-rule="evenodd" fill="#87C71A" width="0.234" height="52.81"/>
		</g>
		<g clip-path="url(#SVGID_2_)">
			
				<rect x="21.051" y="-6.608" transform="matrix(-0.2432 -0.97 0.97 -0.2432 7.1128 45.1434)" fill-rule="evenodd" clip-rule="evenodd" fill="#87C71A" width="0.234" height="52.81"/>
		</g>
		<g clip-path="url(#SVGID_2_)">
			
				<rect x="21.089" y="-6.457" transform="matrix(-0.2433 -0.97 0.97 -0.2433 7.0155 45.369)" fill-rule="evenodd" clip-rule="evenodd" fill="#87C71A" width="0.233" height="52.81"/>
		</g>
		<g clip-path="url(#SVGID_2_)">
			
				<rect x="21.126" y="-6.306" transform="matrix(-0.2434 -0.9699 0.9699 -0.2434 6.9202 45.5957)" fill-rule="evenodd" clip-rule="evenodd" fill="#87C71A" width="0.233" height="52.81"/>
		</g>
		<g clip-path="url(#SVGID_2_)">
			
				<rect x="21.164" y="-6.155" transform="matrix(-0.2432 -0.97 0.97 -0.2432 6.8136 45.8161)" fill-rule="evenodd" clip-rule="evenodd" fill="#85C61B" width="0.234" height="52.81"/>
		</g>
		<g clip-path="url(#SVGID_2_)">
			
				<rect x="21.202" y="-6.004" transform="matrix(-0.2432 -0.97 0.97 -0.2432 6.7142 46.0407)" fill-rule="evenodd" clip-rule="evenodd" fill="#85C61B" width="0.234" height="52.81"/>
		</g>
		<g clip-path="url(#SVGID_2_)">
			
				<rect x="21.24" y="-5.853" transform="matrix(-0.2432 -0.97 0.97 -0.2432 6.6148 46.2651)" fill-rule="evenodd" clip-rule="evenodd" fill="#85C61B" width="0.234" height="52.81"/>
		</g>
		<g clip-path="url(#SVGID_2_)">
			
				<rect x="21.278" y="-5.702" transform="matrix(-0.2433 -0.9699 0.9699 -0.2433 6.5195 46.492)" fill-rule="evenodd" clip-rule="evenodd" fill="#85C61B" width="0.233" height="52.81"/>
		</g>
		<g clip-path="url(#SVGID_2_)">
			
				<rect x="21.316" y="-5.551" transform="matrix(-0.2434 -0.9699 0.9699 -0.2434 6.4212 46.717)" fill-rule="evenodd" clip-rule="evenodd" fill="#85C61B" width="0.234" height="52.81"/>
		</g>
		<g clip-path="url(#SVGID_2_)">
			
				<rect x="21.354" y="-5.4" transform="matrix(-0.2432 -0.97 0.97 -0.2432 6.3166 46.9385)" fill-rule="evenodd" clip-rule="evenodd" fill="#85C61B" width="0.234" height="52.81"/>
		</g>
		<g clip-path="url(#SVGID_2_)">
			
				<rect x="21.392" y="-5.249" transform="matrix(-0.2432 -0.97 0.97 -0.2432 6.2172 47.163)" fill-rule="evenodd" clip-rule="evenodd" fill="#82C51B" width="0.234" height="52.81"/>
		</g>
		<g clip-path="url(#SVGID_2_)">
			
				<rect x="21.429" y="-5.098" transform="matrix(-0.2428 -0.9701 0.9701 -0.2428 6.1083 47.3819)" fill-rule="evenodd" clip-rule="evenodd" fill="#82C51B" width="0.233" height="52.81"/>
		</g>
		<g clip-path="url(#SVGID_2_)">
			
				<rect x="21.467" y="-4.947" transform="matrix(-0.2433 -0.97 0.97 -0.2433 6.0214 47.6137)" fill-rule="evenodd" clip-rule="evenodd" fill="#82C51B" width="0.233" height="52.81"/>
		</g>
		<g clip-path="url(#SVGID_2_)">
			
				<rect x="21.505" y="-4.796" transform="matrix(-0.2433 -0.9699 0.9699 -0.2433 5.923 47.8387)" fill-rule="evenodd" clip-rule="evenodd" fill="#82C51B" width="0.234" height="52.81"/>
		</g>
		<g clip-path="url(#SVGID_2_)">
			
				<rect x="21.543" y="-4.645" transform="matrix(-0.2432 -0.97 0.97 -0.2432 5.8205 48.0614)" fill-rule="evenodd" clip-rule="evenodd" fill="#82C51B" width="0.234" height="52.81"/>
		</g>
		<g clip-path="url(#SVGID_2_)">
			
				<rect x="21.581" y="-4.494" transform="matrix(-0.2432 -0.97 0.97 -0.2432 5.72 48.2852)" fill-rule="evenodd" clip-rule="evenodd" fill="#82C51B" width="0.234" height="52.81"/>
		</g>
		<g clip-path="url(#SVGID_2_)">
			
				<rect x="21.619" y="-4.343" transform="matrix(-0.2433 -0.97 0.97 -0.2433 5.6238 48.5117)" fill-rule="evenodd" clip-rule="evenodd" fill="#82C51B" width="0.233" height="52.81"/>
		</g>
		<g clip-path="url(#SVGID_2_)">
			
				<rect x="21.656" y="-4.192" transform="matrix(-0.2432 -0.97 0.97 -0.2432 5.5213 48.7341)" fill-rule="evenodd" clip-rule="evenodd" fill="#80C41C" width="0.234" height="52.81"/>
		</g>
		<g clip-path="url(#SVGID_2_)">
			
				<rect x="21.694" y="-4.041" transform="matrix(-0.2433 -0.9699 0.9699 -0.2433 5.4261 48.9612)" fill-rule="evenodd" clip-rule="evenodd" fill="#80C41C" width="0.234" height="52.81"/>
		</g>
		<g clip-path="url(#SVGID_2_)">
			
				<rect x="21.732" y="-3.89" transform="matrix(-0.2432 -0.97 0.97 -0.2432 5.3224 49.1831)" fill-rule="evenodd" clip-rule="evenodd" fill="#80C41C" width="0.234" height="52.81"/>
		</g>
		<g clip-path="url(#SVGID_2_)">
			
				<rect x="21.77" y="-3.739" transform="matrix(-0.2433 -0.97 0.97 -0.2433 5.2262 49.4096)" fill-rule="evenodd" clip-rule="evenodd" fill="#80C41C" width="0.233" height="52.81"/>
		</g>
		<g clip-path="url(#SVGID_2_)">
			
				<rect x="21.808" y="-3.588" transform="matrix(-0.2433 -0.97 0.97 -0.2433 5.1269 49.634)" fill-rule="evenodd" clip-rule="evenodd" fill="#80C41C" width="0.233" height="52.81"/>
		</g>
		<g clip-path="url(#SVGID_2_)">
			
				<rect x="21.846" y="-3.437" transform="matrix(-0.2432 -0.97 0.97 -0.2432 5.0242 49.8564)" fill-rule="evenodd" clip-rule="evenodd" fill="#7DC21C" width="0.234" height="52.81"/>
		</g>
		<g clip-path="url(#SVGID_2_)">
			
				<rect x="21.884" y="-3.286" transform="matrix(-0.2433 -0.9699 0.9699 -0.2433 4.9291 50.0837)" fill-rule="evenodd" clip-rule="evenodd" fill="#7DC21C" width="0.234" height="52.81"/>
		</g>
		<g clip-path="url(#SVGID_2_)">
			
				<rect x="21.922" y="-3.135" transform="matrix(-0.2432 -0.97 0.97 -0.2432 4.8254 50.3054)" fill-rule="evenodd" clip-rule="evenodd" fill="#7DC21C" width="0.234" height="52.81"/>
		</g>
		<g clip-path="url(#SVGID_2_)">
			
				<rect x="21.959" y="-2.984" transform="matrix(-0.2433 -0.97 0.97 -0.2433 4.7292 50.532)" fill-rule="evenodd" clip-rule="evenodd" fill="#7DC21C" width="0.233" height="52.81"/>
		</g>
		<g clip-path="url(#SVGID_2_)">
			
				<rect x="21.997" y="-2.833" transform="matrix(-0.2432 -0.97 0.97 -0.2432 4.6266 50.7543)" fill-rule="evenodd" clip-rule="evenodd" fill="#7DC21C" width="0.234" height="52.81"/>
		</g>
		<g clip-path="url(#SVGID_2_)">
			
				<rect x="22.035" y="-2.682" transform="matrix(-0.2427 -0.9701 0.9701 -0.2427 4.5152 50.971)" fill-rule="evenodd" clip-rule="evenodd" fill="#7DC21C" width="0.234" height="52.81"/>
		</g>
		<g clip-path="url(#SVGID_2_)">
			
				<rect x="22.073" y="-2.531" transform="matrix(-0.2428 -0.9701 0.9701 -0.2428 4.4189 51.1975)" fill-rule="evenodd" clip-rule="evenodd" fill="#7DC21C" width="0.234" height="52.81"/>
		</g>
		<g clip-path="url(#SVGID_2_)">
			
				<rect x="22.111" y="-2.38" transform="matrix(-0.2433 -0.97 0.97 -0.2433 4.3315 51.4298)" fill-rule="evenodd" clip-rule="evenodd" fill="#7AC11D" width="0.233" height="52.81"/>
		</g>
		<g clip-path="url(#SVGID_2_)">
			
				<rect x="22.149" y="-2.229" transform="matrix(-0.2433 -0.97 0.97 -0.2433 4.2321 51.6543)" fill-rule="evenodd" clip-rule="evenodd" fill="#7AC11D" width="0.233" height="52.81"/>
		</g>
		<g clip-path="url(#SVGID_2_)">
			
				<rect x="22.187" y="-2.078" transform="matrix(-0.2432 -0.97 0.97 -0.2432 4.1294 51.8766)" fill-rule="evenodd" clip-rule="evenodd" fill="#7AC11D" width="0.234" height="52.81"/>
		</g>
		<g clip-path="url(#SVGID_2_)">
			
				<rect x="22.224" y="-1.927" transform="matrix(-0.2432 -0.97 0.97 -0.2432 4.03 52.101)" fill-rule="evenodd" clip-rule="evenodd" fill="#7AC11D" width="0.234" height="52.81"/>
		</g>
		<g clip-path="url(#SVGID_2_)">
			
				<rect x="22.262" y="-1.776" transform="matrix(-0.2434 -0.9699 0.9699 -0.2434 3.9361 52.3292)" fill-rule="evenodd" clip-rule="evenodd" fill="#7AC11D" width="0.234" height="52.81"/>
		</g>
		<g clip-path="url(#SVGID_2_)">
			
				<rect x="22.3" y="-1.625" transform="matrix(-0.2433 -0.97 0.97 -0.2433 3.8345 52.5523)" fill-rule="evenodd" clip-rule="evenodd" fill="#78C01D" width="0.233" height="52.81"/>
		</g>
		<g clip-path="url(#SVGID_2_)">
			
				<rect x="22.338" y="-1.474" transform="matrix(-0.2432 -0.97 0.97 -0.2432 3.7319 52.7744)" fill-rule="evenodd" clip-rule="evenodd" fill="#78C01D" width="0.234" height="52.81"/>
		</g>
		<g clip-path="url(#SVGID_2_)">
			
				<rect x="22.376" y="-1.323" transform="matrix(-0.2432 -0.97 0.97 -0.2432 3.6324 52.9989)" fill-rule="evenodd" clip-rule="evenodd" fill="#78C01D" width="0.234" height="52.81"/>
		</g>
		<g clip-path="url(#SVGID_2_)">
			
				<rect x="22.414" y="-1.171" transform="matrix(-0.2432 -0.97 0.97 -0.2432 3.533 53.2234)" fill-rule="evenodd" clip-rule="evenodd" fill="#78C01D" width="0.234" height="52.81"/>
		</g>
		<g clip-path="url(#SVGID_2_)">
			
				<rect x="22.452" y="-1.02" transform="matrix(-0.2434 -0.9699 0.9699 -0.2434 3.4414 53.4532)" fill-rule="evenodd" clip-rule="evenodd" fill="#78C01D" width="0.233" height="52.81"/>
		</g>
		<g clip-path="url(#SVGID_2_)">
			
				<rect x="22.49" y="-0.869" transform="matrix(-0.2433 -0.97 0.97 -0.2433 3.3376 53.6746)" fill-rule="evenodd" clip-rule="evenodd" fill="#78C01D" width="0.233" height="52.81"/>
		</g>
		<g clip-path="url(#SVGID_2_)">
			
				<rect x="22.527" y="-0.718" transform="matrix(-0.2432 -0.97 0.97 -0.2432 3.2359 53.8975)" fill-rule="evenodd" clip-rule="evenodd" fill="#78C01D" width="0.234" height="52.81"/>
		</g>
		<g clip-path="url(#SVGID_2_)">
			
				<rect x="22.565" y="-0.567" transform="matrix(-0.2432 -0.97 0.97 -0.2432 3.1365 54.122)" fill-rule="evenodd" clip-rule="evenodd" fill="#75BF1E" width="0.234" height="52.81"/>
		</g>
		<g clip-path="url(#SVGID_2_)">
			
				<rect x="22.603" y="-0.416" transform="matrix(-0.2433 -0.9699 0.9699 -0.2433 3.0405 54.3489)" fill-rule="evenodd" clip-rule="evenodd" fill="#75BF1E" width="0.234" height="52.81"/>
		</g>
		<g clip-path="url(#SVGID_2_)">
			
				<rect x="22.641" y="-0.265" transform="matrix(-0.2433 -0.97 0.97 -0.2433 2.9399 54.5726)" fill-rule="evenodd" clip-rule="evenodd" fill="#75BF1E" width="0.233" height="52.81"/>
		</g>
		<g clip-path="url(#SVGID_2_)">
			
				<rect x="22.679" y="-0.114" transform="matrix(-0.2427 -0.9701 0.9701 -0.2427 2.8234 54.7849)" fill-rule="evenodd" clip-rule="evenodd" fill="#75BF1E" width="0.234" height="52.81"/>
		</g>
		<g clip-path="url(#SVGID_2_)">
			
				<rect x="22.717" y="0.037" transform="matrix(-0.2432 -0.97 0.97 -0.2432 2.7376 55.019)" fill-rule="evenodd" clip-rule="evenodd" fill="#75BF1E" width="0.234" height="52.81"/>
		</g>
		<g clip-path="url(#SVGID_2_)">
			
				<rect x="22.754" y="0.188" transform="matrix(-0.2432 -0.97 0.97 -0.2432 2.6394 55.2443)" fill-rule="evenodd" clip-rule="evenodd" fill="#73BE1E" width="0.234" height="52.81"/>
		</g>
		<g clip-path="url(#SVGID_2_)">
			
				<rect x="22.792" y="0.339" transform="matrix(-0.2433 -0.9699 0.9699 -0.2433 2.5434 55.4713)" fill-rule="evenodd" clip-rule="evenodd" fill="#73BE1E" width="0.233" height="52.81"/>
		</g>
		<g clip-path="url(#SVGID_2_)">
			
				<rect x="22.83" y="0.49" transform="matrix(-0.2434 -0.9699 0.9699 -0.2434 2.4475 55.6981)" fill-rule="evenodd" clip-rule="evenodd" fill="#73BE1E" width="0.233" height="52.81"/>
		</g>
		<g clip-path="url(#SVGID_2_)">
			
				<rect x="22.868" y="0.641" transform="matrix(-0.2432 -0.97 0.97 -0.2432 2.34 55.9168)" fill-rule="evenodd" clip-rule="evenodd" fill="#73BE1E" width="0.234" height="52.81"/>
		</g>
		<g clip-path="url(#SVGID_2_)">
			
				<rect x="22.906" y="0.792" transform="matrix(-0.2432 -0.97 0.97 -0.2432 2.2406 56.1413)" fill-rule="evenodd" clip-rule="evenodd" fill="#73BE1E" width="0.234" height="52.81"/>
		</g>
		<g clip-path="url(#SVGID_2_)">
			
				<rect x="22.944" y="0.943" transform="matrix(-0.2432 -0.97 0.97 -0.2432 2.1412 56.3658)" fill-rule="evenodd" clip-rule="evenodd" fill="#73BE1E" width="0.234" height="52.81"/>
		</g>
		<g clip-path="url(#SVGID_2_)">
			
				<rect x="22.982" y="1.094" transform="matrix(-0.2433 -0.97 0.97 -0.2433 2.0453 56.5929)" fill-rule="evenodd" clip-rule="evenodd" fill="#73BE1E" width="0.233" height="52.81"/>
		</g>
		<g clip-path="url(#SVGID_2_)">
			
				<rect x="23.02" y="1.245" transform="matrix(-0.2432 -0.97 0.97 -0.2432 1.9436 56.8155)" fill-rule="evenodd" clip-rule="evenodd" fill="#70BC1F" width="0.234" height="52.81"/>
		</g>
		<g clip-path="url(#SVGID_2_)">
			
				<rect x="23.057" y="1.396" transform="matrix(-0.2432 -0.97 0.97 -0.2432 1.8442 57.0401)" fill-rule="evenodd" clip-rule="evenodd" fill="#70BC1F" width="0.234" height="52.81"/>
		</g>
		<g clip-path="url(#SVGID_2_)">
			
				<rect x="23.095" y="1.547" transform="matrix(-0.2432 -0.97 0.97 -0.2432 1.7436 57.2637)" fill-rule="evenodd" clip-rule="evenodd" fill="#70BC1F" width="0.234" height="52.81"/>
		</g>
		<g clip-path="url(#SVGID_2_)">
			
				<rect x="23.133" y="1.698" transform="matrix(-0.2433 -0.97 0.97 -0.2433 1.6477 57.4908)" fill-rule="evenodd" clip-rule="evenodd" fill="#70BC1F" width="0.233" height="52.81"/>
		</g>
		<g clip-path="url(#SVGID_2_)">
			
				<rect x="23.171" y="1.849" transform="matrix(-0.2434 -0.9699 0.9699 -0.2434 1.553 57.7188)" fill-rule="evenodd" clip-rule="evenodd" fill="#70BC1F" width="0.233" height="52.81"/>
		</g>
		<g clip-path="url(#SVGID_2_)">
			
				<rect x="23.209" y="2" transform="matrix(-0.2432 -0.97 0.97 -0.2432 1.4454 57.937)" fill-rule="evenodd" clip-rule="evenodd" fill="#70BC1F" width="0.234" height="52.81"/>
		</g>
		<g clip-path="url(#SVGID_2_)">
			
				<rect x="23.247" y="2.151" transform="matrix(-0.2432 -0.97 0.97 -0.2432 1.3471 58.1624)" fill-rule="evenodd" clip-rule="evenodd" fill="#70BC1F" width="0.234" height="52.81"/>
		</g>
		<g clip-path="url(#SVGID_2_)">
			
				<rect x="23.285" y="2.302" transform="matrix(-0.2427 -0.9701 0.9701 -0.2427 1.2334 58.3763)" fill-rule="evenodd" clip-rule="evenodd" fill="#6EBB20" width="0.234" height="52.81"/>
		</g>
		<g clip-path="url(#SVGID_2_)">
			
				<rect x="23.323" y="2.453" transform="matrix(-0.2428 -0.9701 0.9701 -0.2428 1.1363 58.6024)" fill-rule="evenodd" clip-rule="evenodd" fill="#6EBB20" width="0.233" height="52.81"/>
		</g>
		<g clip-path="url(#SVGID_2_)">
			
				<rect x="23.36" y="2.604" transform="matrix(-0.2432 -0.97 0.97 -0.2432 1.0476 58.8348)" fill-rule="evenodd" clip-rule="evenodd" fill="#6EBB20" width="0.234" height="52.81"/>
		</g>
		<g clip-path="url(#SVGID_2_)">
			
				<rect x="23.398" y="2.755" transform="matrix(-0.2433 -0.9699 0.9699 -0.2433 0.953 59.0629)" fill-rule="evenodd" clip-rule="evenodd" fill="#6EBB20" width="0.234" height="52.81"/>
		</g>
		<g clip-path="url(#SVGID_2_)">
			
				<rect x="23.436" y="2.906" transform="matrix(-0.2432 -0.97 0.97 -0.2432 0.8488 59.2838)" fill-rule="evenodd" clip-rule="evenodd" fill="#6EBB20" width="0.234" height="52.81"/>
		</g>
		<g clip-path="url(#SVGID_2_)">
			
				<rect x="23.474" y="3.057" transform="matrix(-0.2433 -0.97 0.97 -0.2433 0.753 59.511)" fill-rule="evenodd" clip-rule="evenodd" fill="#6BBA20" width="0.233" height="52.81"/>
		</g>
		<g clip-path="url(#SVGID_2_)">
			
				<rect x="23.512" y="3.208" transform="matrix(-0.2433 -0.9699 0.9699 -0.2433 0.6548 59.7365)" fill-rule="evenodd" clip-rule="evenodd" fill="#6BBA20" width="0.233" height="52.81"/>
		</g>
		<g clip-path="url(#SVGID_2_)">
			
				<rect x="23.55" y="3.359" transform="matrix(-0.2432 -0.97 0.97 -0.2432 0.5518 59.9581)" fill-rule="evenodd" clip-rule="evenodd" fill="#6BBA20" width="0.234" height="52.81"/>
		</g>
		<g clip-path="url(#SVGID_2_)">
			
				<rect x="23.587" y="3.51" transform="matrix(-0.2432 -0.97 0.97 -0.2432 0.4512 60.1816)" fill-rule="evenodd" clip-rule="evenodd" fill="#6BBA20" width="0.234" height="52.81"/>
		</g>
		<g clip-path="url(#SVGID_2_)">
			
				<rect x="23.625" y="3.661" transform="matrix(-0.2432 -0.97 0.97 -0.2432 0.3518 60.4061)" fill-rule="evenodd" clip-rule="evenodd" fill="#6BBA20" width="0.234" height="52.81"/>
		</g>
		<g clip-path="url(#SVGID_2_)">
			
				<rect x="23.663" y="3.812" transform="matrix(-0.2433 -0.97 0.97 -0.2433 0.256 60.6335)" fill-rule="evenodd" clip-rule="evenodd" fill="#6BBA20" width="0.233" height="52.81"/>
		</g>
		<g clip-path="url(#SVGID_2_)">
			
				<rect x="23.701" y="3.963" transform="matrix(-0.2432 -0.97 0.97 -0.2432 0.153 60.855)" fill-rule="evenodd" clip-rule="evenodd" fill="#6BBA20" width="0.234" height="52.81"/>
		</g>
		<g clip-path="url(#SVGID_2_)">
			
				<rect x="23.739" y="4.114" transform="matrix(-0.2433 -0.9699 0.9699 -0.2433 0.0585 61.0833)" fill-rule="evenodd" clip-rule="evenodd" fill="#69B921" width="0.234" height="52.81"/>
		</g>
		<g clip-path="url(#SVGID_2_)">
			
				<rect x="23.777" y="4.265" transform="matrix(-0.2432 -0.97 0.97 -0.2432 -0.0446 61.3049)" fill-rule="evenodd" clip-rule="evenodd" fill="#69B921" width="0.234" height="52.81"/>
		</g>
		<g clip-path="url(#SVGID_2_)">
			
				<rect x="23.815" y="4.416" transform="matrix(-0.2433 -0.97 0.97 -0.2433 -0.1416 61.5314)" fill-rule="evenodd" clip-rule="evenodd" fill="#69B921" width="0.233" height="52.81"/>
		</g>
		<g clip-path="url(#SVGID_2_)">
			
				<rect x="23.853" y="4.567" transform="matrix(-0.2433 -0.97 0.97 -0.2433 -0.241 61.7559)" fill-rule="evenodd" clip-rule="evenodd" fill="#69B921" width="0.233" height="52.81"/>
		</g>
		<g clip-path="url(#SVGID_2_)">
			
				<rect x="23.89" y="4.718" transform="matrix(-0.2432 -0.97 0.97 -0.2432 -0.344 61.9773)" fill-rule="evenodd" clip-rule="evenodd" fill="#69B921" width="0.234" height="52.81"/>
		</g>
		<g clip-path="url(#SVGID_2_)">
			
				<rect x="23.928" y="4.869" transform="matrix(-0.2428 -0.9701 0.9701 -0.2428 -0.4535 62.1939)" fill-rule="evenodd" clip-rule="evenodd" fill="#66B821" width="0.234" height="52.81"/>
		</g>
		<g clip-path="url(#SVGID_2_)">
			
				<rect x="23.966" y="5.02" transform="matrix(-0.2433 -0.9699 0.9699 -0.2433 -0.5381 62.4302)" fill-rule="evenodd" clip-rule="evenodd" fill="#66B821" width="0.234" height="52.81"/>
		</g>
		<g clip-path="url(#SVGID_2_)">
			
				<rect x="24.004" y="5.171" transform="matrix(-0.2433 -0.97 0.97 -0.2433 -0.6387 62.6537)" fill-rule="evenodd" clip-rule="evenodd" fill="#66B821" width="0.233" height="52.81"/>
		</g>
		<g clip-path="url(#SVGID_2_)">
			
				<rect x="24.042" y="5.322" transform="matrix(-0.2432 -0.97 0.97 -0.2432 -0.7405 62.8761)" fill-rule="evenodd" clip-rule="evenodd" fill="#66B821" width="0.234" height="52.81"/>
		</g>
		<g clip-path="url(#SVGID_2_)">
			
				<rect x="24.08" y="5.473" transform="matrix(-0.2432 -0.97 0.97 -0.2432 -0.8412 63.0996)" fill-rule="evenodd" clip-rule="evenodd" fill="#66B821" width="0.234" height="52.81"/>
		</g>
		<g clip-path="url(#SVGID_2_)">
			
				<rect x="24.118" y="5.624" transform="matrix(-0.2433 -0.9699 0.9699 -0.2433 -0.9356 63.3281)" fill-rule="evenodd" clip-rule="evenodd" fill="#66B821" width="0.234" height="52.81"/>
		</g>
		<g clip-path="url(#SVGID_2_)">
			
				<rect x="24.155" y="5.775" transform="matrix(-0.2433 -0.97 0.97 -0.2433 -1.0363 63.5516)" fill-rule="evenodd" clip-rule="evenodd" fill="#66B821" width="0.233" height="52.81"/>
		</g>
		<g clip-path="url(#SVGID_2_)">
			
				<rect x="24.193" y="5.926" transform="matrix(-0.2433 -0.97 0.97 -0.2433 -1.1357 63.7761)" fill-rule="evenodd" clip-rule="evenodd" fill="#64B622" width="0.233" height="52.81"/>
		</g>
		<g clip-path="url(#SVGID_2_)">
			
				<rect x="24.231" y="6.077" transform="matrix(-0.2432 -0.97 0.97 -0.2432 -1.2388 63.9974)" fill-rule="evenodd" clip-rule="evenodd" fill="#64B622" width="0.234" height="52.81"/>
		</g>
		<g clip-path="url(#SVGID_2_)">
			
				<rect x="24.269" y="6.228" transform="matrix(-0.2432 -0.97 0.97 -0.2432 -1.337 64.223)" fill-rule="evenodd" clip-rule="evenodd" fill="#64B622" width="0.234" height="52.81"/>
		</g>
		<g clip-path="url(#SVGID_2_)">
			
				<rect x="24.307" y="6.379" transform="matrix(-0.2433 -0.9699 0.9699 -0.2433 -1.4326 64.4505)" fill-rule="evenodd" clip-rule="evenodd" fill="#64B622" width="0.234" height="52.81"/>
		</g>
		<g clip-path="url(#SVGID_2_)">
			
				<rect x="24.345" y="6.53" transform="matrix(-0.2433 -0.97 0.97 -0.2433 -1.5333 64.6741)" fill-rule="evenodd" clip-rule="evenodd" fill="#64B622" width="0.233" height="52.81"/>
		</g>
		<g clip-path="url(#SVGID_2_)">
			
				<rect x="24.383" y="6.681" transform="matrix(-0.2432 -0.97 0.97 -0.2432 -1.6364 64.8953)" fill-rule="evenodd" clip-rule="evenodd" fill="#61B522" width="0.234" height="52.81"/>
		</g>
		<g clip-path="url(#SVGID_2_)">
			
				<rect x="24.42" y="6.832" transform="matrix(-0.2432 -0.97 0.97 -0.2432 -1.7358 65.1198)" fill-rule="evenodd" clip-rule="evenodd" fill="#61B522" width="0.234" height="52.81"/>
		</g>
		<g clip-path="url(#SVGID_2_)">
			
				<rect x="24.458" y="6.983" transform="matrix(-0.2432 -0.97 0.97 -0.2432 -1.8353 65.3443)" fill-rule="evenodd" clip-rule="evenodd" fill="#61B522" width="0.234" height="52.81"/>
		</g>
		<g clip-path="url(#SVGID_2_)">
			
				<rect x="24.496" y="7.134" transform="matrix(-0.2434 -0.9699 0.9699 -0.2434 -1.9257 65.5762)" fill-rule="evenodd" clip-rule="evenodd" fill="#61B522" width="0.233" height="52.81"/>
		</g>
		<g clip-path="url(#SVGID_2_)">
			
				<rect x="24.534" y="7.285" transform="matrix(-0.2433 -0.97 0.97 -0.2433 -2.0302 65.7965)" fill-rule="evenodd" clip-rule="evenodd" fill="#61B522" width="0.233" height="52.81"/>
		</g>
		<g clip-path="url(#SVGID_2_)">
			
				<rect x="24.572" y="7.436" transform="matrix(-0.2427 -0.9701 0.9701 -0.2427 -2.149 66.0047)" fill-rule="evenodd" clip-rule="evenodd" fill="#61B522" width="0.234" height="52.81"/>
		</g>
		<g clip-path="url(#SVGID_2_)">
			
				<rect x="24.61" y="7.587" transform="matrix(-0.2432 -0.97 0.97 -0.2432 -2.233 66.242)" fill-rule="evenodd" clip-rule="evenodd" fill="#61B522" width="0.234" height="52.81"/>
		</g>
		<g clip-path="url(#SVGID_2_)">
			
				<rect x="24.648" y="7.738" transform="matrix(-0.2432 -0.97 0.97 -0.2432 -2.3324 66.4665)" fill-rule="evenodd" clip-rule="evenodd" fill="#5EB423" width="0.234" height="52.81"/>
		</g>
		<g clip-path="url(#SVGID_2_)">
			
				<rect x="24.685" y="7.889" transform="matrix(-0.2434 -0.9699 0.9699 -0.2434 -2.4228 66.6987)" fill-rule="evenodd" clip-rule="evenodd" fill="#5EB423" width="0.233" height="52.81"/>
		</g>
		<g clip-path="url(#SVGID_2_)">
			
				<rect x="24.723" y="8.04" transform="matrix(-0.2432 -0.97 0.97 -0.2432 -2.5312 66.9154)" fill-rule="evenodd" clip-rule="evenodd" fill="#5EB423" width="0.234" height="52.81"/>
		</g>
		<g clip-path="url(#SVGID_2_)">
			
				<rect x="24.761" y="8.191" transform="matrix(-0.2432 -0.97 0.97 -0.2432 -2.6293 67.141)" fill-rule="evenodd" clip-rule="evenodd" fill="#5EB423" width="0.234" height="52.81"/>
		</g>
		<g clip-path="url(#SVGID_2_)">
			
				<rect x="24.799" y="8.342" transform="matrix(-0.2432 -0.97 0.97 -0.2432 -2.7287 67.3655)" fill-rule="evenodd" clip-rule="evenodd" fill="#5CB323" width="0.234" height="52.81"/>
		</g>
		<g clip-path="url(#SVGID_2_)">
			
				<rect x="24.837" y="8.493" transform="matrix(-0.2433 -0.97 0.97 -0.2433 -2.8255 67.5922)" fill-rule="evenodd" clip-rule="evenodd" fill="#5CB323" width="0.233" height="52.81"/>
		</g>
		<g clip-path="url(#SVGID_2_)">
			
				<rect x="24.875" y="8.644" transform="matrix(-0.2434 -0.9699 0.9699 -0.2434 -2.9197 67.8212)" fill-rule="evenodd" clip-rule="evenodd" fill="#5CB323" width="0.233" height="52.81"/>
		</g>
		<g clip-path="url(#SVGID_2_)">
			
				<rect x="24.913" y="8.795" transform="matrix(-0.2432 -0.97 0.97 -0.2432 -3.0282 68.0377)" fill-rule="evenodd" clip-rule="evenodd" fill="#5CB323" width="0.234" height="52.81"/>
		</g>
		<g clip-path="url(#SVGID_2_)">
			
				<rect x="24.951" y="8.946" transform="matrix(-0.2432 -0.97 0.97 -0.2432 -3.1276 68.2622)" fill-rule="evenodd" clip-rule="evenodd" fill="#5CB323" width="0.234" height="52.81"/>
		</g>
		<g clip-path="url(#SVGID_2_)">
			
				<rect x="24.988" y="9.097" transform="matrix(-0.2432 -0.97 0.97 -0.2432 -3.2257 68.4879)" fill-rule="evenodd" clip-rule="evenodd" fill="#5CB323" width="0.234" height="52.81"/>
		</g>
		<g clip-path="url(#SVGID_2_)">
			
				<rect x="25.026" y="9.249" transform="matrix(-0.2433 -0.9699 0.9699 -0.2433 -3.3212 68.7158)" fill-rule="evenodd" clip-rule="evenodd" fill="#5CB323" width="0.233" height="52.81"/>
		</g>
		<g clip-path="url(#SVGID_2_)">
			
				<rect x="25.064" y="9.399" transform="matrix(-0.2434 -0.9699 0.9699 -0.2434 -3.4192 68.9413)" fill-rule="evenodd" clip-rule="evenodd" fill="#5CB323" width="0.234" height="52.81"/>
		</g>
		<g clip-path="url(#SVGID_2_)">
			
				<rect x="25.102" y="9.55" transform="matrix(-0.2432 -0.97 0.97 -0.2432 -3.5253 69.1601)" fill-rule="evenodd" clip-rule="evenodd" fill="#59B224" width="0.234" height="52.81"/>
		</g>
		<g clip-path="url(#SVGID_2_)">
			
				<rect x="25.14" y="9.702" transform="matrix(-0.2432 -0.97 0.97 -0.2432 -3.6247 69.3846)" fill-rule="evenodd" clip-rule="evenodd" fill="#59B224" width="0.234" height="52.81"/>
		</g>
		<g clip-path="url(#SVGID_2_)">
			
				<rect x="25.178" y="9.853" transform="matrix(-0.2428 -0.9701 0.9701 -0.2428 -3.7362 69.5986)" fill-rule="evenodd" clip-rule="evenodd" fill="#59B224" width="0.233" height="52.81"/>
		</g>
		<g clip-path="url(#SVGID_2_)">
			
				<rect x="25.216" y="10.004" transform="matrix(-0.243 -0.97 0.97 -0.243 -3.8303 69.8277)" fill-rule="evenodd" clip-rule="evenodd" fill="#59B224" width="0.233" height="52.81"/>
		</g>
		<g clip-path="url(#SVGID_2_)">
			
				<rect x="25.253" y="10.155" transform="matrix(-0.2434 -0.9699 0.9699 -0.2434 -3.9163 70.0637)" fill-rule="evenodd" clip-rule="evenodd" fill="#59B224" width="0.234" height="52.81"/>
		</g>
		<g clip-path="url(#SVGID_2_)">
			
				<rect x="18.951" y="18.432" transform="matrix(-0.2432 -0.97 0.97 -0.2432 -9.3701 82.3619)" fill-rule="evenodd" clip-rule="evenodd" fill="#59B224" width="16.988" height="52.81"/>
		</g>
	</g>
</g>
<g>
	<path fill-rule="evenodd" clip-rule="evenodd" fill="#FFFFFF" d="M33.844,19.14c-4.916,3.587-8.133,1.505-8.225-3.052
		c0.672-0.613,3.996-0.661,5.011,2.408c-1.211-0.826-2.642-1.193-3.578-0.933c0.619,2.153,2.234,2.557,5.139,0.938
		c-0.846-1.925-2.35-3.572-4.396-4.303c2.637-0.682,5.162,0.982,6.058,4.928c-0.003-0.004-0.007-0.007-0.011-0.011
		C33.844,19.126,33.844,19.135,33.844,19.14z"/>
	<path fill-rule="evenodd" clip-rule="evenodd" fill="#FFFFFF" d="M27.539,23.706c-0.317-1.454-0.574-2.622-1.035-3.549
		c-0.524-1.055-1.284-1.798-2.187-2.295c-3.085,1.836-8.044,8.634-7.798,13.336c0.007,0.412,3.106,0.798,4.591,0.266
		C21.963,29.134,20.617,26.74,27.539,23.706z"/>
	<path fill-rule="evenodd" clip-rule="evenodd" fill="#FFFFFF" d="M20.103,27.843c2.555,1.76,7.445,5.001,9.424,7.868
		c0.076,2.973,0.876,7.151-1.449,11.749c-0.231-3.857-1.075-8.007-1.879-10.438c-1.779-1.796-6.036-4.017-8.215-4.748
		C17.984,32.273,19.998,27.756,20.103,27.843z"/>
	<path fill-rule="evenodd" clip-rule="evenodd" fill="#FFFFFF" d="M26.692,20.533c0.634,1.896,0.586,3.285,2.365,6.466
		c2.931-0.394,3.193-0.937,6.401-2.408c-1.568,2.874-6.31,6.526-8.093,4.447c-1.324-1.543-2.269-3.575-2.991-6.551
		C24.374,22.487,26.636,20.511,26.692,20.533z"/>
	<path fill-rule="evenodd" clip-rule="evenodd" fill="#FFFFFF" d="M24.301,17.925c-2.932-0.396-5.864-0.374-8.797,0.259
		c-0.312,2.868,0.373,5.735,1.1,8.602c0.261-2.091,0.373-4.183,1.132-6.274c1.585-0.501,3.169-0.398,4.754,0.129
		C22.49,20.641,24.301,17.989,24.301,17.925z"/>
	<path fill-rule="evenodd" clip-rule="evenodd" fill="#FFFFFF" d="M21.535,28.372c-0.314,2.692-0.805,7.79-2.366,10.506
		c-2.57,1.305-5.849,3.669-10.998,3.82c3.27-1.794,6.503-4.18,8.248-5.815c0.719-2.114,0.423-4.702,0.015-6.675
		c0,0,1.94-2.013,2.681-2.223C20.536,27.582,21.551,28.295,21.535,28.372z"/>
	<g>
		<polygon fill-rule="evenodd" clip-rule="evenodd" fill="#FFFFFF" points="28.001,45.153 34.926,48.157 28.001,48.157 		"/>
		<circle fill-rule="evenodd" clip-rule="evenodd" fill="#FFFFFF" cx="29.146" cy="49.608" r="0.942"/>
		<circle fill-rule="evenodd" clip-rule="evenodd" fill="#FFFFFF" cx="33.474" cy="49.608" r="0.942"/>
	</g>
	<g>
		<polygon fill-rule="evenodd" clip-rule="evenodd" fill="#FFFFFF" points="11.149,41.511 10.75,49.423 8.197,42.619 		"/>
		<circle fill-rule="evenodd" clip-rule="evenodd" fill="#FFFFFF" cx="7.193" cy="44.28" r="0.988"/>
		<circle fill-rule="evenodd" clip-rule="evenodd" fill="#FFFFFF" cx="8.789" cy="48.532" r="0.989"/>
	</g>
</g>
</svg>
