<?xml version="1.0" encoding="utf-8"?>
<!-- Generator: Adobe Illustrator 17.0.0, SVG Export Plug-In . SVG Version: 6.00 Build 0)  -->
<!DOCTYPE svg PUBLIC "-//W3C//DTD SVG 1.1//EN" "http://www.w3.org/Graphics/SVG/1.1/DTD/svg11.dtd">
<svg version="1.1" id="Layer_1" xmlns="http://www.w3.org/2000/svg" xmlns:xlink="http://www.w3.org/1999/xlink" x="0px" y="0px"
	 width="56px" height="56px" viewBox="0 0 56 56" enable-background="new 0 0 56 56" xml:space="preserve">
<g>
	<g>
		<defs>
			<path id="SVGID_1_" d="M0.505,3.271C5.845,23.652,14.509,38.25,26.732,53.233c10.368-11.507,21.3-24.39,28.763-41.982
				C36.435,9.724,19.223,7.414,0.505,3.271z"/>
		</defs>
		<clipPath id="SVGID_2_">
			<use xlink:href="#SVGID_1_"  overflow="visible"/>
		</clipPath>
		<g clip-path="url(#SVGID_2_)">
			
				<rect x="27.467" y="-25.856" transform="matrix(-0.0766 -0.9971 0.9971 -0.0766 28.3988 28.7994)" fill-rule="evenodd" clip-rule="evenodd" fill="#110E0E" width="0.136" height="54.21"/>
		</g>
		<g clip-path="url(#SVGID_2_)">
			
				<rect x="27.266" y="-25.694" transform="matrix(-0.0773 -0.997 0.997 -0.0773 28.2692 28.9849)" fill-rule="evenodd" clip-rule="evenodd" fill="#110E0E" width="0.562" height="54.21"/>
		</g>
		<g clip-path="url(#SVGID_2_)">
			
				<rect x="27.295" y="-25.32" transform="matrix(-0.0771 -0.997 0.997 -0.0771 27.922 29.4166)" fill-rule="evenodd" clip-rule="evenodd" fill="#110E0F" width="0.562" height="54.21"/>
		</g>
		<g clip-path="url(#SVGID_2_)">
			
				<rect x="27.324" y="-24.947" transform="matrix(-0.077 -0.997 0.997 -0.077 27.5803 29.8481)" fill-rule="evenodd" clip-rule="evenodd" fill="#120F0F" width="0.562" height="54.21"/>
		</g>
		<g clip-path="url(#SVGID_2_)">
			
				<rect x="27.353" y="-24.573" transform="matrix(-0.077 -0.997 0.997 -0.077 27.2386 30.2796)" fill-rule="evenodd" clip-rule="evenodd" fill="#120F0F" width="0.562" height="54.21"/>
		</g>
		<g clip-path="url(#SVGID_2_)">
			
				<rect x="27.382" y="-24.199" transform="matrix(-0.0771 -0.997 0.997 -0.0771 26.8972 30.7111)" fill-rule="evenodd" clip-rule="evenodd" fill="#120F0F" width="0.562" height="54.21"/>
		</g>
		<g clip-path="url(#SVGID_2_)">
			
				<rect x="27.411" y="-23.825" transform="matrix(-0.0773 -0.997 0.997 -0.0773 26.5612 31.1428)" fill-rule="evenodd" clip-rule="evenodd" fill="#120F0F" width="0.562" height="54.21"/>
		</g>
		<g clip-path="url(#SVGID_2_)">
			
				<rect x="27.44" y="-23.451" transform="matrix(-0.0771 -0.997 0.997 -0.0771 26.214 31.5741)" fill-rule="evenodd" clip-rule="evenodd" fill="#120F10" width="0.562" height="54.21"/>
		</g>
		<g clip-path="url(#SVGID_2_)">
			
				<rect x="27.469" y="-23.077" transform="matrix(-0.077 -0.997 0.997 -0.077 25.8719 32.0055)" fill-rule="evenodd" clip-rule="evenodd" fill="#131010" width="0.563" height="54.21"/>
		</g>
		<g clip-path="url(#SVGID_2_)">
			
				<rect x="27.498" y="-22.703" transform="matrix(-0.077 -0.997 0.997 -0.077 25.5305 32.4371)" fill-rule="evenodd" clip-rule="evenodd" fill="#131010" width="0.562" height="54.21"/>
		</g>
		<g clip-path="url(#SVGID_2_)">
			
				<rect x="27.527" y="-22.33" transform="matrix(-0.077 -0.997 0.997 -0.077 25.1889 32.8685)" fill-rule="evenodd" clip-rule="evenodd" fill="#131111" width="0.562" height="54.21"/>
		</g>
		<g clip-path="url(#SVGID_2_)">
			
				<rect x="27.555" y="-21.956" transform="matrix(-0.0773 -0.997 0.997 -0.0773 24.8532 33.3006)" fill-rule="evenodd" clip-rule="evenodd" fill="#131111" width="0.562" height="54.21"/>
		</g>
		<g clip-path="url(#SVGID_2_)">
			
				<rect x="27.584" y="-21.582" transform="matrix(-0.0773 -0.997 0.997 -0.0773 24.5116 33.7322)" fill-rule="evenodd" clip-rule="evenodd" fill="#151111" width="0.562" height="54.21"/>
		</g>
		<g clip-path="url(#SVGID_2_)">
			
				<rect x="27.613" y="-21.208" transform="matrix(-0.0771 -0.997 0.997 -0.0771 24.1643 34.163)" fill-rule="evenodd" clip-rule="evenodd" fill="#151111" width="0.562" height="54.21"/>
		</g>
		<g clip-path="url(#SVGID_2_)">
			
				<rect x="27.642" y="-20.834" transform="matrix(-0.0771 -0.997 0.997 -0.0771 23.8227 34.5945)" fill-rule="evenodd" clip-rule="evenodd" fill="#151212" width="0.562" height="54.21"/>
		</g>
		<g clip-path="url(#SVGID_2_)">
			
				<rect x="27.671" y="-20.46" transform="matrix(-0.0771 -0.997 0.997 -0.0771 23.481 35.026)" fill-rule="evenodd" clip-rule="evenodd" fill="#151212" width="0.562" height="54.21"/>
		</g>
		<g clip-path="url(#SVGID_2_)">
			
				<rect x="27.7" y="-20.086" transform="matrix(-0.077 -0.997 0.997 -0.077 23.1393 35.4575)" fill-rule="evenodd" clip-rule="evenodd" fill="#151212" width="0.562" height="54.21"/>
		</g>
		<g clip-path="url(#SVGID_2_)">
			
				<rect x="27.729" y="-19.713" transform="matrix(-0.0773 -0.997 0.997 -0.0773 22.8036 35.89)" fill-rule="evenodd" clip-rule="evenodd" fill="#151212" width="0.562" height="54.21"/>
		</g>
		<g clip-path="url(#SVGID_2_)">
			
				<rect x="27.758" y="-19.339" transform="matrix(-0.0771 -0.997 0.997 -0.0771 22.4562 36.3205)" fill-rule="evenodd" clip-rule="evenodd" fill="#161313" width="0.562" height="54.21"/>
		</g>
		<g clip-path="url(#SVGID_2_)">
			
				<rect x="27.787" y="-18.965" transform="matrix(-0.077 -0.997 0.997 -0.077 22.1142 36.7519)" fill-rule="evenodd" clip-rule="evenodd" fill="#171313" width="0.563" height="54.21"/>
		</g>
		<g clip-path="url(#SVGID_2_)">
			
				<rect x="27.816" y="-18.591" transform="matrix(-0.0771 -0.997 0.997 -0.0771 21.7729 37.1835)" fill-rule="evenodd" clip-rule="evenodd" fill="#171313" width="0.562" height="54.21"/>
		</g>
		<g clip-path="url(#SVGID_2_)">
			
				<rect x="27.845" y="-18.217" transform="matrix(-0.077 -0.997 0.997 -0.077 21.4312 37.615)" fill-rule="evenodd" clip-rule="evenodd" fill="#171313" width="0.562" height="54.21"/>
		</g>
		<g clip-path="url(#SVGID_2_)">
			
				<rect x="27.873" y="-17.843" transform="matrix(-0.0772 -0.997 0.997 -0.0772 21.0955 38.0478)" fill-rule="evenodd" clip-rule="evenodd" fill="#181414" width="0.562" height="54.21"/>
		</g>
		<g clip-path="url(#SVGID_2_)">
			
				<rect x="27.902" y="-17.469" transform="matrix(-0.0773 -0.997 0.997 -0.0773 20.754 38.4794)" fill-rule="evenodd" clip-rule="evenodd" fill="#181514" width="0.562" height="54.21"/>
		</g>
		<g clip-path="url(#SVGID_2_)">
			
				<rect x="27.931" y="-17.096" transform="matrix(-0.0771 -0.997 0.997 -0.0771 20.4066 38.9094)" fill-rule="evenodd" clip-rule="evenodd" fill="#181514" width="0.562" height="54.21"/>
		</g>
		<g clip-path="url(#SVGID_2_)">
			
				<rect x="27.96" y="-16.722" transform="matrix(-0.0771 -0.997 0.997 -0.0771 20.0649 39.3409)" fill-rule="evenodd" clip-rule="evenodd" fill="#181515" width="0.562" height="54.21"/>
		</g>
		<g clip-path="url(#SVGID_2_)">
			
				<rect x="27.989" y="-16.348" transform="matrix(-0.0771 -0.997 0.997 -0.0771 19.7233 39.7724)" fill-rule="evenodd" clip-rule="evenodd" fill="#191515" width="0.562" height="54.21"/>
		</g>
		<g clip-path="url(#SVGID_2_)">
			
				<rect x="28.018" y="-15.974" transform="matrix(-0.0773 -0.997 0.997 -0.0773 19.3876 40.2058)" fill-rule="evenodd" clip-rule="evenodd" fill="#191515" width="0.562" height="54.21"/>
		</g>
		<g clip-path="url(#SVGID_2_)">
			
				<rect x="28.047" y="-15.6" transform="matrix(-0.0772 -0.997 0.997 -0.0772 19.0459 40.6372)" fill-rule="evenodd" clip-rule="evenodd" fill="#1A1616" width="0.562" height="54.21"/>
		</g>
		<g clip-path="url(#SVGID_2_)">
			
				<rect x="28.076" y="-15.226" transform="matrix(-0.077 -0.997 0.997 -0.077 18.6981 41.0668)" fill-rule="evenodd" clip-rule="evenodd" fill="#1A1616" width="0.563" height="54.21"/>
		</g>
		<g clip-path="url(#SVGID_2_)">
			
				<rect x="28.105" y="-14.852" transform="matrix(-0.077 -0.997 0.997 -0.077 18.3564 41.4982)" fill-rule="evenodd" clip-rule="evenodd" fill="#1A1716" width="0.563" height="54.21"/>
		</g>
		<g clip-path="url(#SVGID_2_)">
			
				<rect x="28.134" y="-14.478" transform="matrix(-0.0771 -0.997 0.997 -0.0771 18.0152 41.9299)" fill-rule="evenodd" clip-rule="evenodd" fill="#1A1716" width="0.562" height="54.21"/>
		</g>
		<g clip-path="url(#SVGID_2_)">
			
				<rect x="28.163" y="-14.105" transform="matrix(-0.0771 -0.997 0.997 -0.0771 17.6737 42.3614)" fill-rule="evenodd" clip-rule="evenodd" fill="#1C1818" width="0.562" height="54.21"/>
		</g>
		<g clip-path="url(#SVGID_2_)">
			
				<rect x="28.191" y="-13.731" transform="matrix(-0.0772 -0.997 0.997 -0.0772 17.3379 42.7951)" fill-rule="evenodd" clip-rule="evenodd" fill="#1C1818" width="0.562" height="54.21"/>
		</g>
		<g clip-path="url(#SVGID_2_)">
			
				<rect x="28.22" y="-13.357" transform="matrix(-0.077 -0.997 0.997 -0.077 16.9903 43.2243)" fill-rule="evenodd" clip-rule="evenodd" fill="#1C1818" width="0.562" height="54.21"/>
		</g>
		<g clip-path="url(#SVGID_2_)">
			
				<rect x="28.249" y="-12.983" transform="matrix(-0.0771 -0.997 0.997 -0.0771 16.6489 43.6559)" fill-rule="evenodd" clip-rule="evenodd" fill="#1C1818" width="0.562" height="54.21"/>
		</g>
		<g clip-path="url(#SVGID_2_)">
			
				<rect x="28.278" y="-12.609" transform="matrix(-0.0771 -0.997 0.997 -0.0771 16.3072 44.0873)" fill-rule="evenodd" clip-rule="evenodd" fill="#1D1918" width="0.562" height="54.21"/>
		</g>
		<g clip-path="url(#SVGID_2_)">
			
				<rect x="28.307" y="-12.235" transform="matrix(-0.0771 -0.997 0.997 -0.0771 15.9656 44.5189)" fill-rule="evenodd" clip-rule="evenodd" fill="#1D1918" width="0.562" height="54.21"/>
		</g>
		<g clip-path="url(#SVGID_2_)">
			
				<rect x="28.336" y="-11.861" transform="matrix(-0.0772 -0.997 0.997 -0.0772 15.628 44.9521)" fill-rule="evenodd" clip-rule="evenodd" fill="#1E1A19" width="0.562" height="54.21"/>
		</g>
		<g clip-path="url(#SVGID_2_)">
			
				<rect x="28.365" y="-11.488" transform="matrix(-0.0772 -0.997 0.997 -0.0772 15.2864 45.3837)" fill-rule="evenodd" clip-rule="evenodd" fill="#1E1A1A" width="0.562" height="54.21"/>
		</g>
		<g clip-path="url(#SVGID_2_)">
			
				<rect x="28.394" y="-11.114" transform="matrix(-0.077 -0.997 0.997 -0.077 14.9402 45.813)" fill-rule="evenodd" clip-rule="evenodd" fill="#1F1A1A" width="0.563" height="54.21"/>
		</g>
		<g clip-path="url(#SVGID_2_)">
			
				<rect x="28.423" y="-10.74" transform="matrix(-0.0771 -0.997 0.997 -0.0771 14.6007 46.2455)" fill-rule="evenodd" clip-rule="evenodd" fill="#1F1A1A" width="0.563" height="54.21"/>
		</g>
		<g clip-path="url(#SVGID_2_)">
			
				<rect x="28.452" y="-10.366" transform="matrix(-0.0771 -0.997 0.997 -0.0771 14.2595 46.6773)" fill-rule="evenodd" clip-rule="evenodd" fill="#1F1A1A" width="0.562" height="54.21"/>
		</g>
		<g clip-path="url(#SVGID_2_)">
			
				<rect x="28.481" y="-9.992" transform="matrix(-0.0772 -0.997 0.997 -0.0772 13.92 47.1099)" fill-rule="evenodd" clip-rule="evenodd" fill="#1F1B1A" width="0.562" height="54.21"/>
		</g>
		<g clip-path="url(#SVGID_2_)">
			
				<rect x="28.51" y="-9.618" transform="matrix(-0.0772 -0.997 0.997 -0.0772 13.5784 47.5414)" fill-rule="evenodd" clip-rule="evenodd" fill="#211C1B" width="0.562" height="54.21"/>
		</g>
		<g clip-path="url(#SVGID_2_)">
			
				<rect x="28.538" y="-9.244" transform="matrix(-0.0771 -0.997 0.997 -0.0771 13.2327 47.9708)" fill-rule="evenodd" clip-rule="evenodd" fill="#211C1C" width="0.562" height="54.21"/>
		</g>
		<g clip-path="url(#SVGID_2_)">
			
				<rect x="28.567" y="-8.871" transform="matrix(-0.077 -0.997 0.997 -0.077 12.891 48.4022)" fill-rule="evenodd" clip-rule="evenodd" fill="#211C1C" width="0.562" height="54.21"/>
		</g>
		<g clip-path="url(#SVGID_2_)">
			
				<rect x="28.596" y="-8.497" transform="matrix(-0.077 -0.997 0.997 -0.077 12.5494 48.8336)" fill-rule="evenodd" clip-rule="evenodd" fill="#211D1C" width="0.562" height="54.21"/>
		</g>
		<g clip-path="url(#SVGID_2_)">
			
				<rect x="28.625" y="-8.123" transform="matrix(-0.0771 -0.997 0.997 -0.0771 12.2079 49.2653)" fill-rule="evenodd" clip-rule="evenodd" fill="#221E1D" width="0.562" height="54.21"/>
		</g>
		<g clip-path="url(#SVGID_2_)">
			
				<rect x="28.654" y="-7.749" transform="matrix(-0.0773 -0.997 0.997 -0.0773 11.8724 49.7003)" fill-rule="evenodd" clip-rule="evenodd" fill="#221E1D" width="0.562" height="54.21"/>
		</g>
		<g clip-path="url(#SVGID_2_)">
			
				<rect x="28.683" y="-7.375" transform="matrix(-0.0771 -0.997 0.997 -0.0771 11.5247 50.1283)" fill-rule="evenodd" clip-rule="evenodd" fill="#231E1D" width="0.562" height="54.21"/>
		</g>
		<g clip-path="url(#SVGID_2_)">
			
				<rect x="28.712" y="-7.001" transform="matrix(-0.077 -0.997 0.997 -0.077 11.1826 50.5595)" fill-rule="evenodd" clip-rule="evenodd" fill="#231F1E" width="0.563" height="54.21"/>
		</g>
		<g clip-path="url(#SVGID_2_)">
			
				<rect x="28.741" y="-6.627" transform="matrix(-0.077 -0.997 0.997 -0.077 10.8408 50.9908)" fill-rule="evenodd" clip-rule="evenodd" fill="#231F1E" width="0.563" height="54.21"/>
		</g>
		<g clip-path="url(#SVGID_2_)">
			
				<rect x="28.77" y="-6.254" transform="matrix(-0.0771 -0.997 0.997 -0.0771 10.4998 51.4227)" fill-rule="evenodd" clip-rule="evenodd" fill="#231F1E" width="0.562" height="54.21"/>
		</g>
		<g clip-path="url(#SVGID_2_)">
			
				<rect x="28.799" y="-5.88" transform="matrix(-0.0773 -0.997 0.997 -0.0773 10.1645 51.8581)" fill-rule="evenodd" clip-rule="evenodd" fill="#25201F" width="0.562" height="54.21"/>
		</g>
		<g clip-path="url(#SVGID_2_)">
			
				<rect x="28.828" y="-5.506" transform="matrix(-0.0773 -0.997 0.997 -0.0773 9.8228 52.2896)" fill-rule="evenodd" clip-rule="evenodd" fill="#25201F" width="0.562" height="54.21"/>
		</g>
		<g clip-path="url(#SVGID_2_)">
			
				<rect x="28.857" y="-5.132" transform="matrix(-0.0771 -0.997 0.997 -0.0771 9.475 52.7172)" fill-rule="evenodd" clip-rule="evenodd" fill="#262120" width="0.562" height="54.21"/>
		</g>
		<g clip-path="url(#SVGID_2_)">
			
				<rect x="28.885" y="-4.758" transform="matrix(-0.0771 -0.997 0.997 -0.0771 9.1334 53.1487)" fill-rule="evenodd" clip-rule="evenodd" fill="#262120" width="0.562" height="54.21"/>
		</g>
		<g clip-path="url(#SVGID_2_)">
			
				<rect x="28.914" y="-4.384" transform="matrix(-0.077 -0.997 0.997 -0.077 8.7916 53.5801)" fill-rule="evenodd" clip-rule="evenodd" fill="#272221" width="0.562" height="54.21"/>
		</g>
		<g clip-path="url(#SVGID_2_)">
			
				<rect x="28.943" y="-4.01" transform="matrix(-0.077 -0.997 0.997 -0.077 8.45 54.0116)" fill-rule="evenodd" clip-rule="evenodd" fill="#272321" width="0.562" height="54.21"/>
		</g>
		<g clip-path="url(#SVGID_2_)">
			
				<rect x="28.972" y="-3.637" transform="matrix(-0.0773 -0.997 0.997 -0.0773 8.1149 54.4475)" fill-rule="evenodd" clip-rule="evenodd" fill="#282322" width="0.562" height="54.21"/>
		</g>
		<g clip-path="url(#SVGID_2_)">
			
				<rect x="29.001" y="-3.263" transform="matrix(-0.0771 -0.997 0.997 -0.0771 7.767 54.8747)" fill-rule="evenodd" clip-rule="evenodd" fill="#282322" width="0.562" height="54.21"/>
		</g>
		<g clip-path="url(#SVGID_2_)">
			
				<rect x="29.03" y="-2.889" transform="matrix(-0.077 -0.997 0.997 -0.077 7.4249 55.3058)" fill-rule="evenodd" clip-rule="evenodd" fill="#282322" width="0.563" height="54.21"/>
		</g>
		<g clip-path="url(#SVGID_2_)">
			
				<rect x="29.059" y="-2.515" transform="matrix(-0.0771 -0.997 0.997 -0.0771 7.0837 55.7377)" fill-rule="evenodd" clip-rule="evenodd" fill="#292422" width="0.562" height="54.21"/>
		</g>
		<g clip-path="url(#SVGID_2_)">
			
				<rect x="29.088" y="-2.141" transform="matrix(-0.077 -0.997 0.997 -0.077 6.742 56.1691)" fill-rule="evenodd" clip-rule="evenodd" fill="#2A2523" width="0.562" height="54.21"/>
		</g>
		<g clip-path="url(#SVGID_2_)">
			
				<rect x="29.117" y="-1.767" transform="matrix(-0.0773 -0.997 0.997 -0.0773 6.4069 56.6054)" fill-rule="evenodd" clip-rule="evenodd" fill="#2A2524" width="0.562" height="54.21"/>
		</g>
		<g clip-path="url(#SVGID_2_)">
			
				<rect x="29.146" y="-1.393" transform="matrix(-0.0771 -0.997 0.997 -0.0771 6.0589 57.0322)" fill-rule="evenodd" clip-rule="evenodd" fill="#2A2624" width="0.562" height="54.21"/>
		</g>
		<g clip-path="url(#SVGID_2_)">
			
				<rect x="29.175" y="-1.02" transform="matrix(-0.0771 -0.997 0.997 -0.0771 5.7173 57.4637)" fill-rule="evenodd" clip-rule="evenodd" fill="#2B2624" width="0.562" height="54.21"/>
		</g>
		<g clip-path="url(#SVGID_2_)">
			
				<rect x="29.203" y="-0.646" transform="matrix(-0.0771 -0.997 0.997 -0.0771 5.3757 57.8951)" fill-rule="evenodd" clip-rule="evenodd" fill="#2C2726" width="0.562" height="54.21"/>
		</g>
		<g clip-path="url(#SVGID_2_)">
			
				<rect x="29.232" y="-0.272" transform="matrix(-0.0771 -0.997 0.997 -0.0771 5.034 58.3267)" fill-rule="evenodd" clip-rule="evenodd" fill="#2C2726" width="0.562" height="54.21"/>
		</g>
		<g clip-path="url(#SVGID_2_)">
			
				<rect x="29.261" y="0.102" transform="matrix(-0.0772 -0.997 0.997 -0.0772 4.6987 58.7631)" fill-rule="evenodd" clip-rule="evenodd" fill="#2C2826" width="0.562" height="54.21"/>
		</g>
		<g clip-path="url(#SVGID_2_)">
			
				<rect x="29.29" y="0.476" transform="matrix(-0.0772 -0.997 0.997 -0.0772 4.3571 59.1946)" fill-rule="evenodd" clip-rule="evenodd" fill="#2D2826" width="0.562" height="54.21"/>
		</g>
		<g clip-path="url(#SVGID_2_)">
			
				<rect x="29.319" y="0.85" transform="matrix(-0.0771 -0.997 0.997 -0.0771 4.0093 59.6211)" fill-rule="evenodd" clip-rule="evenodd" fill="#2D2826" width="0.562" height="54.21"/>
		</g>
		<g clip-path="url(#SVGID_2_)">
			
				<rect x="29.348" y="1.224" transform="matrix(-0.077 -0.997 0.997 -0.077 3.6672 60.0522)" fill-rule="evenodd" clip-rule="evenodd" fill="#2D2927" width="0.563" height="54.21"/>
		</g>
		<g clip-path="url(#SVGID_2_)">
			
				<rect x="29.377" y="1.598" transform="matrix(-0.0771 -0.997 0.997 -0.0771 3.326 60.4841)" fill-rule="evenodd" clip-rule="evenodd" fill="#2F2A28" width="0.562" height="54.21"/>
		</g>
		<g clip-path="url(#SVGID_2_)">
			
				<rect x="29.406" y="1.971" transform="matrix(-0.0771 -0.997 0.997 -0.0771 2.9844 60.9157)" fill-rule="evenodd" clip-rule="evenodd" fill="#2F2A28" width="0.562" height="54.21"/>
		</g>
		<g clip-path="url(#SVGID_2_)">
			
				<rect x="29.435" y="2.345" transform="matrix(-0.0772 -0.997 0.997 -0.0772 2.6491 61.3525)" fill-rule="evenodd" clip-rule="evenodd" fill="#2F2A29" width="0.562" height="54.21"/>
		</g>
		<g clip-path="url(#SVGID_2_)">
			
				<rect x="29.464" y="2.719" transform="matrix(-0.077 -0.997 0.997 -0.077 2.3011 61.7785)" fill-rule="evenodd" clip-rule="evenodd" fill="#2F2A29" width="0.562" height="54.21"/>
		</g>
		<g clip-path="url(#SVGID_2_)">
			
				<rect x="29.493" y="3.093" transform="matrix(-0.0771 -0.997 0.997 -0.0771 1.9596 62.2101)" fill-rule="evenodd" clip-rule="evenodd" fill="#322C2A" width="0.562" height="54.21"/>
		</g>
		<g clip-path="url(#SVGID_2_)">
			
				<rect x="29.521" y="3.467" transform="matrix(-0.0771 -0.997 0.997 -0.0771 1.618 62.6415)" fill-rule="evenodd" clip-rule="evenodd" fill="#322C2A" width="0.562" height="54.21"/>
		</g>
		<g clip-path="url(#SVGID_2_)">
			
				<rect x="29.55" y="3.841" transform="matrix(-0.0771 -0.997 0.997 -0.0771 1.2763 63.0731)" fill-rule="evenodd" clip-rule="evenodd" fill="#322C2B" width="0.562" height="54.21"/>
		</g>
		<g clip-path="url(#SVGID_2_)">
			
				<rect x="29.579" y="4.215" transform="matrix(-0.0773 -0.997 0.997 -0.0773 0.9413 63.5105)" fill-rule="evenodd" clip-rule="evenodd" fill="#322D2B" width="0.562" height="54.21"/>
		</g>
		<g clip-path="url(#SVGID_2_)">
			
				<rect x="29.608" y="4.588" transform="matrix(-0.0772 -0.997 0.997 -0.0772 0.5995 63.9418)" fill-rule="evenodd" clip-rule="evenodd" fill="#322D2B" width="0.562" height="54.21"/>
		</g>
		<g clip-path="url(#SVGID_2_)">
			
				<rect x="29.637" y="4.962" transform="matrix(-0.077 -0.997 0.997 -0.077 0.2514 64.3674)" fill-rule="evenodd" clip-rule="evenodd" fill="#322D2B" width="0.562" height="54.21"/>
		</g>
		<g clip-path="url(#SVGID_2_)">
			
				<rect x="29.666" y="5.336" transform="matrix(-0.077 -0.997 0.997 -0.077 -0.0906 64.7985)" fill-rule="evenodd" clip-rule="evenodd" fill="#352F2C" width="0.563" height="54.21"/>
		</g>
		<g clip-path="url(#SVGID_2_)">
			
				<rect x="29.695" y="5.71" transform="matrix(-0.0771 -0.997 0.997 -0.0771 -0.4318 65.2305)" fill-rule="evenodd" clip-rule="evenodd" fill="#35302D" width="0.562" height="54.21"/>
		</g>
		<g clip-path="url(#SVGID_2_)">
			
				<rect x="29.724" y="6.084" transform="matrix(-0.0773 -0.997 0.997 -0.0773 -0.7667 65.6683)" fill-rule="evenodd" clip-rule="evenodd" fill="#35302D" width="0.562" height="54.21"/>
		</g>
		<g clip-path="url(#SVGID_2_)">
			
				<rect x="29.753" y="6.458" transform="matrix(-0.0773 -0.997 0.997 -0.0773 -1.1083 66.0999)" fill-rule="evenodd" clip-rule="evenodd" fill="#36302D" width="0.562" height="54.21"/>
		</g>
		<g clip-path="url(#SVGID_2_)">
			
				<rect x="29.782" y="6.832" transform="matrix(-0.077 -0.997 0.997 -0.077 -1.4567 66.5249)" fill-rule="evenodd" clip-rule="evenodd" fill="#37312F" width="0.562" height="54.21"/>
		</g>
		<g clip-path="url(#SVGID_2_)">
			
				<rect x="29.811" y="7.205" transform="matrix(-0.077 -0.997 0.997 -0.077 -1.7983 66.9563)" fill-rule="evenodd" clip-rule="evenodd" fill="#37312F" width="0.562" height="54.21"/>
		</g>
		<g clip-path="url(#SVGID_2_)">
			
				<rect x="29.839" y="7.579" transform="matrix(-0.0771 -0.997 0.997 -0.0771 -2.1397 67.3879)" fill-rule="evenodd" clip-rule="evenodd" fill="#373230" width="0.562" height="54.21"/>
		</g>
		<g clip-path="url(#SVGID_2_)">
			
				<rect x="29.868" y="7.953" transform="matrix(-0.0771 -0.997 0.997 -0.0771 -2.4814 67.8195)" fill-rule="evenodd" clip-rule="evenodd" fill="#383230" width="0.562" height="54.21"/>
		</g>
		<g clip-path="url(#SVGID_2_)">
			
				<rect x="29.897" y="8.327" transform="matrix(-0.0773 -0.997 0.997 -0.0773 -2.8163 68.2577)" fill-rule="evenodd" clip-rule="evenodd" fill="#383330" width="0.562" height="54.21"/>
		</g>
		<g clip-path="url(#SVGID_2_)">
			
				<rect x="29.926" y="8.701" transform="matrix(-0.0771 -0.997 0.997 -0.0771 -3.1646 68.6825)" fill-rule="evenodd" clip-rule="evenodd" fill="#383331" width="0.562" height="54.21"/>
		</g>
		<g clip-path="url(#SVGID_2_)">
			
				<rect x="29.955" y="9.075" transform="matrix(-0.077 -0.997 0.997 -0.077 -3.5067 69.1134)" fill-rule="evenodd" clip-rule="evenodd" fill="#3A3532" width="0.563" height="54.21"/>
		</g>
		<g clip-path="url(#SVGID_2_)">
			
				<rect x="29.984" y="9.449" transform="matrix(-0.077 -0.997 0.997 -0.077 -3.8483 69.5449)" fill-rule="evenodd" clip-rule="evenodd" fill="#3A3532" width="0.563" height="54.21"/>
		</g>
		<g clip-path="url(#SVGID_2_)">
			
				<rect x="30.013" y="9.823" transform="matrix(-0.0771 -0.997 0.997 -0.0771 -4.1894 69.977)" fill-rule="evenodd" clip-rule="evenodd" fill="#3A3533" width="0.562" height="54.21"/>
		</g>
		<g clip-path="url(#SVGID_2_)">
			
				<rect x="30.042" y="10.196" transform="matrix(-0.0773 -0.997 0.997 -0.0773 -4.5243 70.4156)" fill-rule="evenodd" clip-rule="evenodd" fill="#3A3533" width="0.562" height="54.21"/>
		</g>
		<g clip-path="url(#SVGID_2_)">
			
				<rect x="30.071" y="10.57" transform="matrix(-0.0773 -0.997 0.997 -0.0773 -4.8659 70.8471)" fill-rule="evenodd" clip-rule="evenodd" fill="#3B3633" width="0.562" height="54.21"/>
		</g>
		<g clip-path="url(#SVGID_2_)">
			
				<rect x="30.1" y="10.944" transform="matrix(-0.0771 -0.997 0.997 -0.0771 -5.2142 71.2715)" fill-rule="evenodd" clip-rule="evenodd" fill="#3B3633" width="0.562" height="54.21"/>
		</g>
		<g clip-path="url(#SVGID_2_)">
			
				<rect x="30.129" y="11.318" transform="matrix(-0.077 -0.997 0.997 -0.077 -5.556 71.7027)" fill-rule="evenodd" clip-rule="evenodd" fill="#3D3835" width="0.562" height="54.21"/>
		</g>
		<g clip-path="url(#SVGID_2_)">
			
				<rect x="30.157" y="11.692" transform="matrix(-0.077 -0.997 0.997 -0.077 -5.8976 72.1342)" fill-rule="evenodd" clip-rule="evenodd" fill="#3D3835" width="0.562" height="54.21"/>
		</g>
		<g clip-path="url(#SVGID_2_)">
			
				<rect x="30.186" y="12.066" transform="matrix(-0.0772 -0.997 0.997 -0.0772 -6.2345 72.5709)" fill-rule="evenodd" clip-rule="evenodd" fill="#3E3836" width="0.562" height="54.21"/>
		</g>
		<g clip-path="url(#SVGID_2_)">
			
				<rect x="30.215" y="12.44" transform="matrix(-0.0772 -0.997 0.997 -0.0772 -6.5762 73.0025)" fill-rule="evenodd" clip-rule="evenodd" fill="#3E3836" width="0.562" height="54.21"/>
		</g>
		<g clip-path="url(#SVGID_2_)">
			
				<rect x="30.244" y="12.813" transform="matrix(-0.0771 -0.997 0.997 -0.0771 -6.92 73.4315)" fill-rule="evenodd" clip-rule="evenodd" fill="#413B38" width="0.562" height="54.21"/>
		</g>
		<g clip-path="url(#SVGID_2_)">
			
				<rect x="30.273" y="13.187" transform="matrix(-0.077 -0.997 0.997 -0.077 -7.2644 73.8598)" fill-rule="evenodd" clip-rule="evenodd" fill="#413B38" width="0.563" height="54.21"/>
		</g>
		<g clip-path="url(#SVGID_2_)">
			
				<rect x="30.302" y="13.561" transform="matrix(-0.077 -0.997 0.997 -0.077 -7.6061 74.2913)" fill-rule="evenodd" clip-rule="evenodd" fill="#413B38" width="0.563" height="54.21"/>
		</g>
		<g clip-path="url(#SVGID_2_)">
			
				<rect x="30.331" y="13.935" transform="matrix(-0.077 -0.997 0.997 -0.077 -7.9473 74.7232)" fill-rule="evenodd" clip-rule="evenodd" fill="#413C38" width="0.562" height="54.21"/>
		</g>
		<g clip-path="url(#SVGID_2_)">
			
				<rect x="30.36" y="14.309" transform="matrix(-0.0772 -0.997 0.997 -0.0772 -8.2842 75.1602)" fill-rule="evenodd" clip-rule="evenodd" fill="#423C39" width="0.562" height="54.21"/>
		</g>
		<g clip-path="url(#SVGID_2_)">
			
				<rect x="30.389" y="14.683" transform="matrix(-0.0771 -0.997 0.997 -0.0771 -8.6303 75.5864)" fill-rule="evenodd" clip-rule="evenodd" fill="#423C39" width="0.562" height="54.21"/>
		</g>
		<g clip-path="url(#SVGID_2_)">
			
				<rect x="30.418" y="15.057" transform="matrix(-0.0771 -0.997 0.997 -0.0771 -8.972 76.0179)" fill-rule="evenodd" clip-rule="evenodd" fill="#433E3B" width="0.562" height="54.21"/>
		</g>
		<g clip-path="url(#SVGID_2_)">
			
				<rect x="30.447" y="15.43" transform="matrix(-0.0771 -0.997 0.997 -0.0771 -9.3136 76.4493)" fill-rule="evenodd" clip-rule="evenodd" fill="#443E3C" width="0.562" height="54.21"/>
		</g>
		<g clip-path="url(#SVGID_2_)">
			
				<rect x="30.476" y="15.804" transform="matrix(-0.0771 -0.997 0.997 -0.0771 -9.6552 76.8808)" fill-rule="evenodd" clip-rule="evenodd" fill="#443F3C" width="0.562" height="54.21"/>
		</g>
		<g clip-path="url(#SVGID_2_)">
			
				<rect x="30.504" y="16.178" transform="matrix(-0.0772 -0.997 0.997 -0.0772 -9.99 77.3204)" fill-rule="evenodd" clip-rule="evenodd" fill="#443F3C" width="0.562" height="54.21"/>
		</g>
		<g clip-path="url(#SVGID_2_)">
			
				<rect x="30.533" y="16.552" transform="matrix(-0.0773 -0.997 0.997 -0.0773 -10.3315 77.7522)" fill-rule="evenodd" clip-rule="evenodd" fill="#46413E" width="0.562" height="54.21"/>
		</g>
		<g clip-path="url(#SVGID_2_)">
			
				<rect x="30.562" y="16.926" transform="matrix(-0.0771 -0.997 0.997 -0.0771 -10.68 78.1753)" fill-rule="evenodd" clip-rule="evenodd" fill="#47423F" width="0.562" height="54.21"/>
		</g>
		<g clip-path="url(#SVGID_2_)">
			
				<rect x="30.591" y="17.3" transform="matrix(-0.077 -0.997 0.997 -0.077 -11.0222 78.6062)" fill-rule="evenodd" clip-rule="evenodd" fill="#47423F" width="0.563" height="54.21"/>
		</g>
		<g clip-path="url(#SVGID_2_)">
			
				<rect x="30.62" y="17.674" transform="matrix(-0.077 -0.997 0.997 -0.077 -11.3638 79.0376)" fill-rule="evenodd" clip-rule="evenodd" fill="#47423F" width="0.563" height="54.21"/>
		</g>
		<g clip-path="url(#SVGID_2_)">
			
				<rect x="30.649" y="18.048" transform="matrix(-0.077 -0.997 0.997 -0.077 -11.705 79.4696)" fill-rule="evenodd" clip-rule="evenodd" fill="#484240" width="0.562" height="54.21"/>
		</g>
		<g clip-path="url(#SVGID_2_)">
			
				<rect x="30.678" y="18.421" transform="matrix(-0.0772 -0.997 0.997 -0.0772 -12.0396 79.9098)" fill-rule="evenodd" clip-rule="evenodd" fill="#484340" width="0.562" height="54.21"/>
		</g>
		<g clip-path="url(#SVGID_2_)">
			
				<rect x="30.707" y="18.795" transform="matrix(-0.0771 -0.997 0.997 -0.0771 -12.388 80.3328)" fill-rule="evenodd" clip-rule="evenodd" fill="#4A4541" width="0.562" height="54.21"/>
		</g>
		<g clip-path="url(#SVGID_2_)">
			
				<rect x="30.736" y="19.169" transform="matrix(-0.0771 -0.997 0.997 -0.0771 -12.7297 80.7643)" fill-rule="evenodd" clip-rule="evenodd" fill="#4A4541" width="0.562" height="54.21"/>
		</g>
		<g clip-path="url(#SVGID_2_)">
			
				<rect x="30.765" y="19.543" transform="matrix(-0.0771 -0.997 0.997 -0.0771 -13.0713 81.1958)" fill-rule="evenodd" clip-rule="evenodd" fill="#4B4642" width="0.562" height="54.21"/>
		</g>
		<g clip-path="url(#SVGID_2_)">
			
				<rect x="30.794" y="19.917" transform="matrix(-0.0771 -0.997 0.997 -0.0771 -13.4129 81.6273)" fill-rule="evenodd" clip-rule="evenodd" fill="#4B4643" width="0.562" height="54.21"/>
		</g>
		<g clip-path="url(#SVGID_2_)">
			
				<rect x="30.822" y="20.291" transform="matrix(-0.0773 -0.997 0.997 -0.0773 -13.7475 82.0679)" fill-rule="evenodd" clip-rule="evenodd" fill="#4E4844" width="0.562" height="54.21"/>
		</g>
		<g clip-path="url(#SVGID_2_)">
			
				<rect x="30.851" y="20.664" transform="matrix(-0.077 -0.997 0.997 -0.077 -14.0963 82.4901)" fill-rule="evenodd" clip-rule="evenodd" fill="#4E4844" width="0.562" height="54.21"/>
		</g>
		<g clip-path="url(#SVGID_2_)">
			
				<rect x="30.88" y="21.038" transform="matrix(-0.077 -0.997 0.997 -0.077 -14.4379 82.9215)" fill-rule="evenodd" clip-rule="evenodd" fill="#4E4945" width="0.562" height="54.21"/>
		</g>
		<g clip-path="url(#SVGID_2_)">
			
				<rect x="30.909" y="21.412" transform="matrix(-0.077 -0.997 0.997 -0.077 -14.7799 83.3525)" fill-rule="evenodd" clip-rule="evenodd" fill="#4E4945" width="0.563" height="54.21"/>
		</g>
		<g clip-path="url(#SVGID_2_)">
			
				<rect x="30.938" y="21.786" transform="matrix(-0.0771 -0.997 0.997 -0.0771 -15.121 83.7848)" fill-rule="evenodd" clip-rule="evenodd" fill="#4F4946" width="0.562" height="54.21"/>
		</g>
		<g clip-path="url(#SVGID_2_)">
			
				<rect x="30.967" y="22.16" transform="matrix(-0.0773 -0.997 0.997 -0.0773 -15.4555 84.2258)" fill-rule="evenodd" clip-rule="evenodd" fill="#4F4946" width="0.562" height="54.21"/>
		</g>
		<g clip-path="url(#SVGID_2_)">
			
				<rect x="30.996" y="22.534" transform="matrix(-0.0772 -0.997 0.997 -0.0772 -15.7972 84.6571)" fill-rule="evenodd" clip-rule="evenodd" fill="#514B47" width="0.562" height="54.21"/>
		</g>
		<g clip-path="url(#SVGID_2_)">
			
				<rect x="31.025" y="22.908" transform="matrix(-0.077 -0.997 0.997 -0.077 -16.1459 85.079)" fill-rule="evenodd" clip-rule="evenodd" fill="#524C49" width="0.562" height="54.21"/>
		</g>
		<g clip-path="url(#SVGID_2_)">
			
				<rect x="31.054" y="23.281" transform="matrix(-0.0771 -0.997 0.997 -0.0771 -16.4874 85.5107)" fill-rule="evenodd" clip-rule="evenodd" fill="#524C49" width="0.562" height="54.21"/>
		</g>
		<g clip-path="url(#SVGID_2_)">
			
				<rect x="31.083" y="23.655" transform="matrix(-0.0771 -0.997 0.997 -0.0771 -16.829 85.9422)" fill-rule="evenodd" clip-rule="evenodd" fill="#524C49" width="0.562" height="54.21"/>
		</g>
		<g clip-path="url(#SVGID_2_)">
			
				<rect x="31.112" y="24.029" transform="matrix(-0.0771 -0.997 0.997 -0.0771 -17.1706 86.3738)" fill-rule="evenodd" clip-rule="evenodd" fill="#544F4B" width="0.562" height="54.21"/>
		</g>
		<g clip-path="url(#SVGID_2_)">
			
				<rect x="31.141" y="24.403" transform="matrix(-0.0773 -0.997 0.997 -0.0773 -17.5051 86.8152)" fill-rule="evenodd" clip-rule="evenodd" fill="#554F4C" width="0.562" height="54.21"/>
		</g>
		<g clip-path="url(#SVGID_2_)">
			
				<rect x="31.169" y="24.777" transform="matrix(-0.0771 -0.997 0.997 -0.0771 -17.8538 87.2368)" fill-rule="evenodd" clip-rule="evenodd" fill="#554F4C" width="0.562" height="54.21"/>
		</g>
		<g clip-path="url(#SVGID_2_)">
			
				<rect x="31.198" y="25.151" transform="matrix(-0.077 -0.997 0.997 -0.077 -18.1956 87.6679)" fill-rule="evenodd" clip-rule="evenodd" fill="#554F4C" width="0.562" height="54.21"/>
		</g>
		<g clip-path="url(#SVGID_2_)">
			
				<rect x="31.227" y="25.525" transform="matrix(-0.077 -0.997 0.997 -0.077 -18.5376 88.0989)" fill-rule="evenodd" clip-rule="evenodd" fill="#55504D" width="0.563" height="54.21"/>
		</g>
		<g clip-path="url(#SVGID_2_)">
			
				<rect x="31.451" y="25.688" transform="matrix(-0.0773 -0.997 0.997 -0.0773 -18.6776 88.2996)" fill-rule="evenodd" clip-rule="evenodd" fill="#56514D" width="0.139" height="54.21"/>
		</g>
	</g>
</g>
<g>
	<path fill-rule="evenodd" clip-rule="evenodd" fill="#FFFFFF" d="M23.296,21.522c1.78,5.942,0.849,9.102-1.181,15.153
		c-3.745,3.115-9.371,9.122-11.543,12.461c2.635-2.487,11.173-7.676,14.112-8.791c2.329-3.267,3.858-5.993,4.856-10.244
		c0.627-2.67,0.385-5.379,0.227-8.841C29.178,19.127,23.321,21.396,23.296,21.522z"/>
	<path fill-rule="evenodd" clip-rule="evenodd" fill="#FFFFFF" d="M27.344,30.678c3.639,0.433,6.973,3.065,9.717,5.632
		c-0.864,4.387-1.18,7.848-1.106,12.552c-1.509-3.553-2.604-7.148-2.128-10.902c-1.616-1.527-3.681-2.373-6.19-2.548
		C27.54,33.834,27.442,32.256,27.344,30.678z"/>
	<path fill-rule="evenodd" clip-rule="evenodd" fill="#FFFFFF" d="M30.795,13.578c-1.732,7.099-6.298,7.679-9.91,3.57
		c0.142-1.082,3.155-3.701,6.462-1.671c-1.751,0.18-3.348,0.952-4.006,1.914c2.235,1.496,4.03,0.616,5.442-3.119
		c-2.267-1.111-4.923-1.457-7.366-0.544c1.891-2.668,5.496-3.096,9.375-0.17c-0.006-0.001-0.012-0.001-0.019-0.001
		C30.784,13.566,30.792,13.573,30.795,13.578z"/>
	<path fill-rule="evenodd" clip-rule="evenodd" fill="#FFFFFF" d="M18.114,8.762c0,0-3.473,7.887,0.967,10.393
		c4.44,2.506,13.734,0.042,18.195-0.799c4.461-0.842,7.963-1.836,7.963-1.836s-8.044,5.238-16.598,6.256
		c-8.555,1.017-13.563-1.455-14.541-5.354c-0.978-3.899,1.13-8.173,0.978-8.476C14.927,8.643,17.987,8.651,18.114,8.762z"/>
	<circle fill-rule="evenodd" clip-rule="evenodd" fill="#FFFFFF" cx="19.828" cy="10.6" r="1.597"/>
	<path fill-rule="evenodd" clip-rule="evenodd" fill="#FFFFFF" d="M43.228,15.518c1.548-1.648,2.565-3.273,3.461-1.317
		c0.675,1.474,1.689,3.982,0.948,4.323C47.08,18.781,40.354,18.578,43.228,15.518z"/>
</g>
</svg>
