<?xml version="1.0" encoding="utf-8"?>
<!-- Generator: Adobe Illustrator 17.0.0, SVG Export Plug-In . SVG Version: 6.00 Build 0)  -->
<!DOCTYPE svg PUBLIC "-//W3C//DTD SVG 1.1//EN" "http://www.w3.org/Graphics/SVG/1.1/DTD/svg11.dtd">
<svg version="1.1" id="Layer_1" xmlns="http://www.w3.org/2000/svg" xmlns:xlink="http://www.w3.org/1999/xlink" x="0px" y="0px"
	 width="56px" height="56px" viewBox="0 0 56 56" enable-background="new 0 0 56 56" xml:space="preserve">
<g>
	<g>
		<defs>
			<path id="SVGID_1_" d="M46.205,0.275c4.978,19.377,4.527,35.491,1.301,53.567C33.59,49.079,18.571,43.434,4.257,32.281
				C19.368,22.216,32.584,12.353,46.205,0.275z"/>
		</defs>
		<clipPath id="SVGID_2_">
			<use xlink:href="#SVGID_1_"  overflow="visible"/>
		</clipPath>
		<g clip-path="url(#SVGID_2_)">
			
				<rect x="57.633" y="12.107" transform="matrix(-0.8473 -0.5311 0.5311 -0.8473 86.4668 100.3216)" fill-rule="evenodd" clip-rule="evenodd" fill="#0F218B" width="0.046" height="51.246"/>
		</g>
		<g clip-path="url(#SVGID_2_)">
			
				<rect x="57.37" y="12.077" transform="matrix(0.8468 0.5319 -0.5319 0.8468 28.8799 -24.8672)" fill-rule="evenodd" clip-rule="evenodd" fill="#0F218B" width="0.476" height="51.246"/>
		</g>
		<g clip-path="url(#SVGID_2_)">
			
				<rect x="57.101" y="11.908" transform="matrix(0.8467 0.5321 -0.5321 0.8467 28.761 -24.7556)" fill-rule="evenodd" clip-rule="evenodd" fill="#0F218B" width="0.476" height="51.246"/>
		</g>
		<g clip-path="url(#SVGID_2_)">
			
				<rect x="56.832" y="11.739" transform="matrix(0.8467 0.5321 -0.5321 0.8467 28.6299 -24.6385)" fill-rule="evenodd" clip-rule="evenodd" fill="#0F228C" width="0.476" height="51.246"/>
		</g>
		<g clip-path="url(#SVGID_2_)">
			
				<rect x="56.563" y="11.57" transform="matrix(0.8468 0.5319 -0.5319 0.8468 28.4868 -24.5159)" fill-rule="evenodd" clip-rule="evenodd" fill="#0F228C" width="0.476" height="51.246"/>
		</g>
		<g clip-path="url(#SVGID_2_)">
			
				<rect x="56.295" y="11.402" transform="matrix(0.8467 0.532 -0.532 0.8467 28.3637 -24.4024)" fill-rule="evenodd" clip-rule="evenodd" fill="#0F248C" width="0.476" height="51.246"/>
		</g>
		<g clip-path="url(#SVGID_2_)">
			
				<rect x="56.026" y="11.233" transform="matrix(0.8468 0.5319 -0.5319 0.8468 28.2247 -24.2816)" fill-rule="evenodd" clip-rule="evenodd" fill="#0F248C" width="0.476" height="51.246"/>
		</g>
		<g clip-path="url(#SVGID_2_)">
			
				<rect x="55.757" y="11.064" transform="matrix(0.8468 0.5319 -0.5319 0.8468 28.0937 -24.1645)" fill-rule="evenodd" clip-rule="evenodd" fill="#0F248C" width="0.476" height="51.246"/>
		</g>
		<g clip-path="url(#SVGID_2_)">
			
				<rect x="55.488" y="10.895" transform="matrix(0.8467 0.5321 -0.5321 0.8467 27.9745 -24.0528)" fill-rule="evenodd" clip-rule="evenodd" fill="#0F268D" width="0.476" height="51.246"/>
		</g>
		<g clip-path="url(#SVGID_2_)">
			
				<rect x="55.219" y="10.726" transform="matrix(0.8468 0.5319 -0.5319 0.8468 27.8316 -23.9303)" fill-rule="evenodd" clip-rule="evenodd" fill="#0F268D" width="0.476" height="51.246"/>
		</g>
		<g clip-path="url(#SVGID_2_)">
			
				<rect x="54.95" y="10.557" transform="matrix(0.8468 0.532 -0.532 0.8468 27.704 -23.8147)" fill-rule="evenodd" clip-rule="evenodd" fill="#0F278E" width="0.476" height="51.246"/>
		</g>
		<g clip-path="url(#SVGID_2_)">
			
				<rect x="54.682" y="10.388" transform="matrix(0.8467 0.5321 -0.5321 0.8467 27.5812 -23.7013)" fill-rule="evenodd" clip-rule="evenodd" fill="#0F278E" width="0.476" height="51.246"/>
		</g>
		<g clip-path="url(#SVGID_2_)">
			
				<rect x="54.413" y="10.219" transform="matrix(0.8467 0.532 -0.532 0.8467 27.4458 -23.5822)" fill-rule="evenodd" clip-rule="evenodd" fill="#0F278E" width="0.476" height="51.246"/>
		</g>
		<g clip-path="url(#SVGID_2_)">
			
				<rect x="54.144" y="10.05" transform="matrix(0.8467 0.5321 -0.5321 0.8467 27.319 -23.467)" fill-rule="evenodd" clip-rule="evenodd" fill="#0F298F" width="0.476" height="51.246"/>
		</g>
		<g clip-path="url(#SVGID_2_)">
			
				<rect x="53.875" y="9.881" transform="matrix(0.8467 0.5321 -0.5321 0.8467 27.1913 -23.3514)" fill-rule="evenodd" clip-rule="evenodd" fill="#0F298F" width="0.476" height="51.246"/>
		</g>
		<g clip-path="url(#SVGID_2_)">
			
				<rect x="53.606" y="9.712" transform="matrix(0.8468 0.5319 -0.5319 0.8468 27.0454 -23.2275)" fill-rule="evenodd" clip-rule="evenodd" fill="#0F298F" width="0.476" height="51.246"/>
		</g>
		<g clip-path="url(#SVGID_2_)">
			
				<rect x="53.337" y="9.544" transform="matrix(0.8466 0.5322 -0.5322 0.8466 26.9329 -23.1188)" fill-rule="evenodd" clip-rule="evenodd" fill="#0F2A8F" width="0.476" height="51.246"/>
		</g>
		<g clip-path="url(#SVGID_2_)">
			
				<rect x="53.069" y="9.375" transform="matrix(0.8467 0.5321 -0.5321 0.8467 26.7946 -22.9984)" fill-rule="evenodd" clip-rule="evenodd" fill="#0F2A8F" width="0.476" height="51.246"/>
		</g>
		<g clip-path="url(#SVGID_2_)">
			
				<rect x="52.8" y="9.206" transform="matrix(0.8467 0.532 -0.532 0.8467 26.6594 -22.8794)" fill-rule="evenodd" clip-rule="evenodd" fill="#0F2C90" width="0.476" height="51.246"/>
		</g>
		<g clip-path="url(#SVGID_2_)">
			
				<rect x="52.531" y="9.037" transform="matrix(0.8467 0.532 -0.532 0.8467 26.5287 -22.7624)" fill-rule="evenodd" clip-rule="evenodd" fill="#0F2C90" width="0.476" height="51.246"/>
		</g>
		<g clip-path="url(#SVGID_2_)">
			
				<rect x="52.262" y="8.868" transform="matrix(0.8467 0.532 -0.532 0.8467 26.3972 -22.6451)" fill-rule="evenodd" clip-rule="evenodd" fill="#0F2C90" width="0.476" height="51.246"/>
		</g>
		<g clip-path="url(#SVGID_2_)">
			
				<rect x="51.993" y="8.699" transform="matrix(0.8468 0.5319 -0.5319 0.8468 26.2592 -22.5248)" fill-rule="evenodd" clip-rule="evenodd" fill="#0E2E91" width="0.476" height="51.246"/>
		</g>
		<g clip-path="url(#SVGID_2_)">
			
				<rect x="51.724" y="8.53" transform="matrix(0.8466 0.5322 -0.5322 0.8466 26.1461 -22.4158)" fill-rule="evenodd" clip-rule="evenodd" fill="#0E2E91" width="0.476" height="51.246"/>
		</g>
		<g clip-path="url(#SVGID_2_)">
			
				<rect x="51.456" y="8.361" transform="matrix(0.8468 0.5319 -0.5319 0.8468 25.9972 -22.2906)" fill-rule="evenodd" clip-rule="evenodd" fill="#0E2F91" width="0.476" height="51.246"/>
		</g>
		<g clip-path="url(#SVGID_2_)">
			
				<rect x="51.187" y="8.192" transform="matrix(0.8468 0.5319 -0.5319 0.8468 25.8625 -22.1718)" fill-rule="evenodd" clip-rule="evenodd" fill="#0E2F91" width="0.476" height="51.246"/>
		</g>
		<g clip-path="url(#SVGID_2_)">
			
				<rect x="50.918" y="8.023" transform="matrix(0.8467 0.5321 -0.5321 0.8467 25.7459 -22.0613)" fill-rule="evenodd" clip-rule="evenodd" fill="#0E2F91" width="0.476" height="51.246"/>
		</g>
		<g clip-path="url(#SVGID_2_)">
			
				<rect x="50.649" y="7.854" transform="matrix(0.8468 0.5319 -0.5319 0.8468 25.6041 -21.9392)" fill-rule="evenodd" clip-rule="evenodd" fill="#0E3192" width="0.476" height="51.246"/>
		</g>
		<g clip-path="url(#SVGID_2_)">
			
				<rect x="50.38" y="7.686" transform="matrix(0.8467 0.5321 -0.5321 0.8467 25.4838 -21.8269)" fill-rule="evenodd" clip-rule="evenodd" fill="#0E3192" width="0.476" height="51.246"/>
		</g>
		<g clip-path="url(#SVGID_2_)">
			
				<rect x="50.111" y="7.517" transform="matrix(0.8467 0.5321 -0.5321 0.8467 25.3527 -21.7098)" fill-rule="evenodd" clip-rule="evenodd" fill="#0E3293" width="0.476" height="51.246"/>
		</g>
		<g clip-path="url(#SVGID_2_)">
			
				<rect x="49.843" y="7.348" transform="matrix(0.8468 0.5319 -0.5319 0.8468 25.2074 -21.5862)" fill-rule="evenodd" clip-rule="evenodd" fill="#0E3293" width="0.476" height="51.246"/>
		</g>
		<g clip-path="url(#SVGID_2_)">
			
				<rect x="49.574" y="7.179" transform="matrix(0.8467 0.5321 -0.5321 0.8467 25.0905 -21.4755)" fill-rule="evenodd" clip-rule="evenodd" fill="#0E3293" width="0.476" height="51.246"/>
		</g>
		<g clip-path="url(#SVGID_2_)">
			
				<rect x="49.305" y="7.01" transform="matrix(0.8467 0.5321 -0.5321 0.8467 24.9594 -21.3584)" fill-rule="evenodd" clip-rule="evenodd" fill="#0E3494" width="0.476" height="51.246"/>
		</g>
		<g clip-path="url(#SVGID_2_)">
			
				<rect x="49.036" y="6.841" transform="matrix(0.8468 0.5319 -0.5319 0.8468 24.8179 -21.2365)" fill-rule="evenodd" clip-rule="evenodd" fill="#0E3494" width="0.476" height="51.246"/>
		</g>
		<g clip-path="url(#SVGID_2_)">
			
				<rect x="48.767" y="6.672" transform="matrix(0.8467 0.5321 -0.5321 0.8467 24.6981 -21.1245)" fill-rule="evenodd" clip-rule="evenodd" fill="#0D3594" width="0.476" height="51.246"/>
		</g>
		<g clip-path="url(#SVGID_2_)">
			
				<rect x="48.498" y="6.503" transform="matrix(0.8468 0.5319 -0.5319 0.8468 24.5558 -21.0022)" fill-rule="evenodd" clip-rule="evenodd" fill="#0D3594" width="0.476" height="51.246"/>
		</g>
		<g clip-path="url(#SVGID_2_)">
			
				<rect x="48.23" y="6.334" transform="matrix(0.8467 0.532 -0.532 0.8467 24.4291 -20.8871)" fill-rule="evenodd" clip-rule="evenodd" fill="#0D3594" width="0.476" height="51.246"/>
		</g>
		<g clip-path="url(#SVGID_2_)">
			
				<rect x="47.961" y="6.165" transform="matrix(0.8467 0.5321 -0.5321 0.8467 24.3039 -20.7726)" fill-rule="evenodd" clip-rule="evenodd" fill="#0D3795" width="0.476" height="51.246"/>
		</g>
		<g clip-path="url(#SVGID_2_)">
			
				<rect x="47.692" y="5.996" transform="matrix(0.8467 0.532 -0.532 0.8467 24.1669 -20.6528)" fill-rule="evenodd" clip-rule="evenodd" fill="#0D3795" width="0.476" height="51.246"/>
		</g>
		<g clip-path="url(#SVGID_2_)">
			
				<rect x="47.423" y="5.828" transform="matrix(0.8468 0.5319 -0.5319 0.8468 24.0317 -20.5337)" fill-rule="evenodd" clip-rule="evenodd" fill="#0D3996" width="0.476" height="51.246"/>
		</g>
		<g clip-path="url(#SVGID_2_)">
			
				<rect x="47.154" y="5.659" transform="matrix(0.8467 0.5321 -0.5321 0.8467 23.9115 -20.4216)" fill-rule="evenodd" clip-rule="evenodd" fill="#0D3996" width="0.476" height="51.246"/>
		</g>
		<g clip-path="url(#SVGID_2_)">
			
				<rect x="46.885" y="5.49" transform="matrix(0.8468 0.5319 -0.5319 0.8468 23.7696 -20.2995)" fill-rule="evenodd" clip-rule="evenodd" fill="#0D3996" width="0.476" height="51.246"/>
		</g>
		<g clip-path="url(#SVGID_2_)">
			
				<rect x="46.617" y="5.321" transform="matrix(0.8466 0.5322 -0.5322 0.8466 23.6527 -20.1887)" fill-rule="evenodd" clip-rule="evenodd" fill="#0D3A97" width="0.476" height="51.246"/>
		</g>
		<g clip-path="url(#SVGID_2_)">
			
				<rect x="46.348" y="5.152" transform="matrix(0.8467 0.5321 -0.5321 0.8467 23.5153 -20.0688)" fill-rule="evenodd" clip-rule="evenodd" fill="#0D3A97" width="0.476" height="51.246"/>
		</g>
		<g clip-path="url(#SVGID_2_)">
			
				<rect x="46.079" y="4.983" transform="matrix(0.8468 0.5319 -0.5319 0.8468 23.3773 -19.9485)" fill-rule="evenodd" clip-rule="evenodd" fill="#0D3A97" width="0.476" height="51.246"/>
		</g>
		<g clip-path="url(#SVGID_2_)">
			
				<rect x="45.81" y="4.814" transform="matrix(0.8467 0.5321 -0.5321 0.8467 23.2532 -19.8345)" fill-rule="evenodd" clip-rule="evenodd" fill="#0D3C97" width="0.476" height="51.246"/>
		</g>
		<g clip-path="url(#SVGID_2_)">
			
				<rect x="45.541" y="4.645" transform="matrix(0.8467 0.532 -0.532 0.8467 23.1185 -19.7157)" fill-rule="evenodd" clip-rule="evenodd" fill="#0D3C97" width="0.476" height="51.246"/>
		</g>
		<g clip-path="url(#SVGID_2_)">
			
				<rect x="45.272" y="4.476" transform="matrix(0.8468 0.5319 -0.5319 0.8468 22.9814 -19.5959)" fill-rule="evenodd" clip-rule="evenodd" fill="#0C3D98" width="0.476" height="51.246"/>
		</g>
		<g clip-path="url(#SVGID_2_)">
			
				<rect x="45.004" y="4.307" transform="matrix(0.8467 0.5321 -0.5321 0.8467 22.86 -19.4831)" fill-rule="evenodd" clip-rule="evenodd" fill="#0C3D98" width="0.476" height="51.246"/>
		</g>
		<g clip-path="url(#SVGID_2_)">
			
				<rect x="44.735" y="4.138" transform="matrix(0.8468 0.5318 -0.5318 0.8468 22.7161 -19.3602)" fill-rule="evenodd" clip-rule="evenodd" fill="#0C3D98" width="0.476" height="51.246"/>
		</g>
		<g clip-path="url(#SVGID_2_)">
			
				<rect x="44.466" y="3.97" transform="matrix(0.8468 0.5319 -0.5319 0.8468 22.5883 -19.2445)" fill-rule="evenodd" clip-rule="evenodd" fill="#0C3F99" width="0.476" height="51.246"/>
		</g>
		<g clip-path="url(#SVGID_2_)">
			
				<rect x="44.197" y="3.801" transform="matrix(0.8467 0.5321 -0.5321 0.8467 22.4667 -19.1317)" fill-rule="evenodd" clip-rule="evenodd" fill="#0C3F99" width="0.476" height="51.246"/>
		</g>
		<g clip-path="url(#SVGID_2_)">
			
				<rect x="43.928" y="3.632" transform="matrix(0.8468 0.5319 -0.5319 0.8468 22.3263 -19.0103)" fill-rule="evenodd" clip-rule="evenodd" fill="#0C419A" width="0.476" height="51.246"/>
		</g>
		<g clip-path="url(#SVGID_2_)">
			
				<rect x="43.659" y="3.463" transform="matrix(0.8468 0.5319 -0.5319 0.8468 22.1952 -18.8932)" fill-rule="evenodd" clip-rule="evenodd" fill="#0C419A" width="0.476" height="51.246"/>
		</g>
		<g clip-path="url(#SVGID_2_)">
			
				<rect x="43.391" y="3.294" transform="matrix(0.8467 0.532 -0.532 0.8467 22.0704 -18.7788)" fill-rule="evenodd" clip-rule="evenodd" fill="#0C419A" width="0.476" height="51.246"/>
		</g>
		<g clip-path="url(#SVGID_2_)">
			
				<rect x="43.122" y="3.125" transform="matrix(0.8468 0.5319 -0.5319 0.8468 21.9332 -18.6589)" fill-rule="evenodd" clip-rule="evenodd" fill="#0C429A" width="0.476" height="51.246"/>
		</g>
		<g clip-path="url(#SVGID_2_)">
			
				<rect x="42.853" y="2.956" transform="matrix(0.8467 0.5321 -0.5321 0.8467 21.8113 -18.5459)" fill-rule="evenodd" clip-rule="evenodd" fill="#0C429A" width="0.476" height="51.246"/>
		</g>
		<g clip-path="url(#SVGID_2_)">
			
				<rect x="42.584" y="2.787" transform="matrix(0.8466 0.5322 -0.5322 0.8466 21.686 -18.4314)" fill-rule="evenodd" clip-rule="evenodd" fill="#0C449B" width="0.476" height="51.246"/>
		</g>
		<g clip-path="url(#SVGID_2_)">
			
				<rect x="42.315" y="2.618" transform="matrix(0.8468 0.5319 -0.5319 0.8468 21.5401 -18.3076)" fill-rule="evenodd" clip-rule="evenodd" fill="#0C449B" width="0.476" height="51.246"/>
		</g>
		<g clip-path="url(#SVGID_2_)">
			
				<rect x="42.046" y="2.449" transform="matrix(0.8467 0.5321 -0.5321 0.8467 21.4207 -18.1957)" fill-rule="evenodd" clip-rule="evenodd" fill="#0C449B" width="0.476" height="51.246"/>
		</g>
		<g clip-path="url(#SVGID_2_)">
			
				<rect x="41.778" y="2.28" transform="matrix(0.8468 0.5319 -0.5319 0.8468 21.2781 -18.0733)" fill-rule="evenodd" clip-rule="evenodd" fill="#0C459C" width="0.476" height="51.246"/>
		</g>
		<g clip-path="url(#SVGID_2_)">
			
				<rect x="41.509" y="2.112" transform="matrix(0.8467 0.532 -0.532 0.8467 21.1526 -17.9587)" fill-rule="evenodd" clip-rule="evenodd" fill="#0C459C" width="0.476" height="51.246"/>
		</g>
		<g clip-path="url(#SVGID_2_)">
			
				<rect x="41.24" y="1.943" transform="matrix(0.8467 0.5321 -0.5321 0.8467 21.0249 -17.8431)" fill-rule="evenodd" clip-rule="evenodd" fill="#0C479D" width="0.476" height="51.246"/>
		</g>
		<g clip-path="url(#SVGID_2_)">
			
				<rect x="40.971" y="1.774" transform="matrix(0.8468 0.5319 -0.5319 0.8468 20.8876 -17.7232)" fill-rule="evenodd" clip-rule="evenodd" fill="#0C479D" width="0.476" height="51.246"/>
		</g>
		<g clip-path="url(#SVGID_2_)">
			
				<rect x="40.702" y="1.605" transform="matrix(0.8468 0.5319 -0.5319 0.8468 20.754 -17.6049)" fill-rule="evenodd" clip-rule="evenodd" fill="#0C479D" width="0.476" height="51.246"/>
		</g>
		<g clip-path="url(#SVGID_2_)">
			
				<rect x="40.433" y="1.436" transform="matrix(0.8466 0.5322 -0.5322 0.8466 20.6371 -17.4941)" fill-rule="evenodd" clip-rule="evenodd" fill="#0B489D" width="0.476" height="51.246"/>
		</g>
		<g clip-path="url(#SVGID_2_)">
			
				<rect x="40.165" y="1.267" transform="matrix(0.8468 0.5319 -0.5319 0.8468 20.4919 -17.3706)" fill-rule="evenodd" clip-rule="evenodd" fill="#0B489D" width="0.476" height="51.246"/>
		</g>
		<g clip-path="url(#SVGID_2_)">
			
				<rect x="39.896" y="1.098" transform="matrix(0.8467 0.532 -0.532 0.8467 20.3663 -17.2559)" fill-rule="evenodd" clip-rule="evenodd" fill="#0B489D" width="0.476" height="51.246"/>
		</g>
		<g clip-path="url(#SVGID_2_)">
			
				<rect x="39.627" y="0.929" transform="matrix(0.8467 0.532 -0.532 0.8467 20.2355 -17.1389)" fill-rule="evenodd" clip-rule="evenodd" fill="#0B4A9E" width="0.476" height="51.246"/>
		</g>
		<g clip-path="url(#SVGID_2_)">
			
				<rect x="39.358" y="0.76" transform="matrix(0.8467 0.532 -0.532 0.8467 20.1041 -17.0217)" fill-rule="evenodd" clip-rule="evenodd" fill="#0B4A9E" width="0.476" height="51.246"/>
		</g>
		<g clip-path="url(#SVGID_2_)">
			
				<rect x="39.089" y="0.591" transform="matrix(0.8467 0.5321 -0.5321 0.8467 19.9762 -16.906)" fill-rule="evenodd" clip-rule="evenodd" fill="#0B4C9F" width="0.476" height="51.246"/>
		</g>
		<g clip-path="url(#SVGID_2_)">
			
				<rect x="38.82" y="0.423" transform="matrix(0.8467 0.5321 -0.5321 0.8467 19.8452 -16.7888)" fill-rule="evenodd" clip-rule="evenodd" fill="#0B4C9F" width="0.476" height="51.246"/>
		</g>
		<g clip-path="url(#SVGID_2_)">
			
				<rect x="38.552" y="0.254" transform="matrix(0.8468 0.5319 -0.5319 0.8468 19.7058 -16.668)" fill-rule="evenodd" clip-rule="evenodd" fill="#0B4C9F" width="0.476" height="51.246"/>
		</g>
		<g clip-path="url(#SVGID_2_)">
			
				<rect x="38.283" y="0.085" transform="matrix(0.8467 0.532 -0.532 0.8467 19.5803 -16.5533)" fill-rule="evenodd" clip-rule="evenodd" fill="#0B4DA0" width="0.476" height="51.246"/>
		</g>
		<g clip-path="url(#SVGID_2_)">
			
				<rect x="38.014" y="-0.084" transform="matrix(0.8468 0.5319 -0.5319 0.8468 19.4438 -16.4337)" fill-rule="evenodd" clip-rule="evenodd" fill="#0B4DA0" width="0.476" height="51.246"/>
		</g>
		<g clip-path="url(#SVGID_2_)">
			
				<rect x="37.745" y="-0.253" transform="matrix(0.8468 0.5319 -0.5319 0.8468 19.3128 -16.3166)" fill-rule="evenodd" clip-rule="evenodd" fill="#0A4FA0" width="0.476" height="51.246"/>
		</g>
		<g clip-path="url(#SVGID_2_)">
			
				<rect x="37.476" y="-0.422" transform="matrix(0.8467 0.5321 -0.5321 0.8467 19.1898 -16.2031)" fill-rule="evenodd" clip-rule="evenodd" fill="#0A4FA0" width="0.476" height="51.246"/>
		</g>
		<g clip-path="url(#SVGID_2_)">
			
				<rect x="37.207" y="-0.591" transform="matrix(0.8468 0.5319 -0.5319 0.8468 19.0507 -16.0824)" fill-rule="evenodd" clip-rule="evenodd" fill="#0A4FA0" width="0.476" height="51.246"/>
		</g>
		<g clip-path="url(#SVGID_2_)">
			
				<rect x="36.939" y="-0.76" transform="matrix(0.8468 0.5318 -0.5318 0.8468 18.917 -15.9641)" fill-rule="evenodd" clip-rule="evenodd" fill="#0A51A1" width="0.476" height="51.246"/>
		</g>
		<g clip-path="url(#SVGID_2_)">
			
				<rect x="36.67" y="-0.929" transform="matrix(0.8467 0.5321 -0.5321 0.8467 18.7965 -15.8517)" fill-rule="evenodd" clip-rule="evenodd" fill="#0A51A1" width="0.476" height="51.246"/>
		</g>
		<g clip-path="url(#SVGID_2_)">
			
				<rect x="36.401" y="-1.098" transform="matrix(0.8467 0.532 -0.532 0.8467 18.6625 -15.7332)" fill-rule="evenodd" clip-rule="evenodd" fill="#0A52A2" width="0.476" height="51.246"/>
		</g>
		<g clip-path="url(#SVGID_2_)">
			
				<rect x="36.132" y="-1.267" transform="matrix(0.8468 0.5319 -0.5319 0.8468 18.5266 -15.6139)" fill-rule="evenodd" clip-rule="evenodd" fill="#0A52A2" width="0.476" height="51.246"/>
		</g>
		<g clip-path="url(#SVGID_2_)">
			
				<rect x="35.863" y="-1.435" transform="matrix(0.8467 0.5321 -0.5321 0.8467 18.4056 -15.5013)" fill-rule="evenodd" clip-rule="evenodd" fill="#0A52A2" width="0.476" height="51.246"/>
		</g>
		<g clip-path="url(#SVGID_2_)">
			
				<rect x="35.594" y="-1.604" transform="matrix(0.8468 0.5319 -0.5319 0.8468 18.2645 -15.3797)" fill-rule="evenodd" clip-rule="evenodd" fill="#0A54A3" width="0.476" height="51.246"/>
		</g>
		<g clip-path="url(#SVGID_2_)">
			
				<rect x="35.326" y="-1.773" transform="matrix(0.8466 0.5322 -0.5322 0.8466 18.1459 -15.2681)" fill-rule="evenodd" clip-rule="evenodd" fill="#0A54A3" width="0.476" height="51.246"/>
		</g>
		<g clip-path="url(#SVGID_2_)">
			
				<rect x="35.057" y="-1.942" transform="matrix(0.8467 0.5321 -0.5321 0.8467 18.0101 -15.1488)" fill-rule="evenodd" clip-rule="evenodd" fill="#0A55A3" width="0.476" height="51.246"/>
		</g>
		<g clip-path="url(#SVGID_2_)">
			
				<rect x="34.788" y="-2.111" transform="matrix(0.8467 0.532 -0.532 0.8467 17.8762 -15.0304)" fill-rule="evenodd" clip-rule="evenodd" fill="#0A55A3" width="0.476" height="51.246"/>
		</g>
		<g clip-path="url(#SVGID_2_)">
			
				<rect x="34.519" y="-2.28" transform="matrix(0.8467 0.532 -0.532 0.8467 17.7454 -14.9134)" fill-rule="evenodd" clip-rule="evenodd" fill="#0A55A3" width="0.476" height="51.246"/>
		</g>
		<g clip-path="url(#SVGID_2_)">
			
				<rect x="34.25" y="-2.449" transform="matrix(0.8467 0.532 -0.532 0.8467 17.6141 -14.7962)" fill-rule="evenodd" clip-rule="evenodd" fill="#0A57A4" width="0.476" height="51.246"/>
		</g>
		<g clip-path="url(#SVGID_2_)">
			
				<rect x="33.981" y="-2.618" transform="matrix(0.8468 0.5319 -0.5319 0.8468 17.4784 -14.677)" fill-rule="evenodd" clip-rule="evenodd" fill="#0A57A4" width="0.476" height="51.246"/>
		</g>
		<g clip-path="url(#SVGID_2_)">
			
				<rect x="33.713" y="-2.787" transform="matrix(0.8466 0.5322 -0.5322 0.8466 17.3592 -14.5651)" fill-rule="evenodd" clip-rule="evenodd" fill="#0A58A5" width="0.476" height="51.246"/>
		</g>
		<g clip-path="url(#SVGID_2_)">
			
				<rect x="33.444" y="-2.956" transform="matrix(0.8468 0.5319 -0.5319 0.8468 17.2164 -14.4428)" fill-rule="evenodd" clip-rule="evenodd" fill="#0A58A5" width="0.476" height="51.246"/>
		</g>
		<g clip-path="url(#SVGID_2_)">
			
				<rect x="33.175" y="-3.125" transform="matrix(0.8468 0.5319 -0.5319 0.8468 17.0875 -14.3266)" fill-rule="evenodd" clip-rule="evenodd" fill="#0A58A5" width="0.476" height="51.246"/>
		</g>
		<g clip-path="url(#SVGID_2_)">
			
				<rect x="32.906" y="-3.293" transform="matrix(0.8467 0.5321 -0.5321 0.8467 16.9614 -14.2117)" fill-rule="evenodd" clip-rule="evenodd" fill="#095AA5" width="0.476" height="51.246"/>
		</g>
		<g clip-path="url(#SVGID_2_)">
			
				<rect x="32.637" y="-3.462" transform="matrix(0.8468 0.5319 -0.5319 0.8468 16.8233 -14.0914)" fill-rule="evenodd" clip-rule="evenodd" fill="#095AA5" width="0.476" height="51.246"/>
		</g>
		<g clip-path="url(#SVGID_2_)">
			
				<rect x="32.368" y="-3.631" transform="matrix(0.8467 0.5321 -0.5321 0.8467 16.6993 -13.9774)" fill-rule="evenodd" clip-rule="evenodd" fill="#095AA5" width="0.476" height="51.246"/>
		</g>
		<g clip-path="url(#SVGID_2_)">
			
				<rect x="32.1" y="-3.8" transform="matrix(0.8467 0.5321 -0.5321 0.8467 16.5682 -13.8603)" fill-rule="evenodd" clip-rule="evenodd" fill="#095CA6" width="0.476" height="51.246"/>
		</g>
		<g clip-path="url(#SVGID_2_)">
			
				<rect x="31.831" y="-3.969" transform="matrix(0.8468 0.5318 -0.5318 0.8468 16.4279 -13.7391)" fill-rule="evenodd" clip-rule="evenodd" fill="#095CA6" width="0.476" height="51.246"/>
		</g>
		<g clip-path="url(#SVGID_2_)">
			
				<rect x="31.562" y="-4.138" transform="matrix(0.8467 0.5321 -0.5321 0.8467 16.3075 -13.6266)" fill-rule="evenodd" clip-rule="evenodd" fill="#095DA7" width="0.476" height="51.246"/>
		</g>
		<g clip-path="url(#SVGID_2_)">
			
				<rect x="31.293" y="-4.307" transform="matrix(0.8467 0.5321 -0.5321 0.8467 16.175 -13.5088)" fill-rule="evenodd" clip-rule="evenodd" fill="#095DA7" width="0.476" height="51.246"/>
		</g>
		<g clip-path="url(#SVGID_2_)">
			
				<rect x="31.024" y="-4.476" transform="matrix(0.8468 0.5319 -0.5319 0.8468 16.0386 -13.3893)" fill-rule="evenodd" clip-rule="evenodd" fill="#095DA7" width="0.476" height="51.246"/>
		</g>
		<g clip-path="url(#SVGID_2_)">
			
				<rect x="30.755" y="-4.645" transform="matrix(0.8467 0.532 -0.532 0.8467 15.9102 -13.2734)" fill-rule="evenodd" clip-rule="evenodd" fill="#095FA8" width="0.476" height="51.246"/>
		</g>
		<g clip-path="url(#SVGID_2_)">
			
				<rect x="30.487" y="-4.814" transform="matrix(0.8468 0.5319 -0.5319 0.8468 15.7765 -13.1551)" fill-rule="evenodd" clip-rule="evenodd" fill="#095FA8" width="0.476" height="51.246"/>
		</g>
		<g clip-path="url(#SVGID_2_)">
			
				<rect x="30.218" y="-4.982" transform="matrix(0.8467 0.532 -0.532 0.8467 15.6482 -13.0392)" fill-rule="evenodd" clip-rule="evenodd" fill="#0860A8" width="0.476" height="51.246"/>
		</g>
		<g clip-path="url(#SVGID_2_)">
			
				<rect x="29.949" y="-5.151" transform="matrix(0.8467 0.5321 -0.5321 0.8467 15.5209 -12.9237)" fill-rule="evenodd" clip-rule="evenodd" fill="#0860A8" width="0.476" height="51.246"/>
		</g>
		<g clip-path="url(#SVGID_2_)">
			
				<rect x="29.68" y="-5.32" transform="matrix(0.8467 0.532 -0.532 0.8467 15.3861 -12.8049)" fill-rule="evenodd" clip-rule="evenodd" fill="#0860A8" width="0.476" height="51.246"/>
		</g>
		<g clip-path="url(#SVGID_2_)">
			
				<rect x="29.411" y="-5.489" transform="matrix(0.8468 0.5319 -0.5319 0.8468 15.2524 -12.6866)" fill-rule="evenodd" clip-rule="evenodd" fill="#0862A9" width="0.476" height="51.246"/>
		</g>
		<g clip-path="url(#SVGID_2_)">
			
				<rect x="29.142" y="-5.658" transform="matrix(0.8467 0.5321 -0.5321 0.8467 15.1282 -12.5725)" fill-rule="evenodd" clip-rule="evenodd" fill="#0862A9" width="0.476" height="51.246"/>
		</g>
		<g clip-path="url(#SVGID_2_)">
			
				<rect x="28.874" y="-5.827" transform="matrix(0.8468 0.5319 -0.5319 0.8468 14.9903 -12.4524)" fill-rule="evenodd" clip-rule="evenodd" fill="#0864AA" width="0.476" height="51.246"/>
		</g>
		<g clip-path="url(#SVGID_2_)">
			
				<rect x="28.605" y="-5.996" transform="matrix(0.8466 0.5322 -0.5322 0.8466 14.8681 -12.3391)" fill-rule="evenodd" clip-rule="evenodd" fill="#0864AA" width="0.476" height="51.246"/>
		</g>
		<g clip-path="url(#SVGID_2_)">
			
				<rect x="28.336" y="-6.165" transform="matrix(0.8467 0.5321 -0.5321 0.8467 14.7344 -12.2208)" fill-rule="evenodd" clip-rule="evenodd" fill="#0864AA" width="0.476" height="51.246"/>
		</g>
		<g clip-path="url(#SVGID_2_)">
			
				<rect x="28.067" y="-6.334" transform="matrix(0.8468 0.5319 -0.5319 0.8468 14.5977 -12.1012)" fill-rule="evenodd" clip-rule="evenodd" fill="#0865AB" width="0.476" height="51.246"/>
		</g>
		<g clip-path="url(#SVGID_2_)">
			
				<rect x="27.798" y="-6.503" transform="matrix(0.8467 0.5321 -0.5321 0.8467 14.4722 -11.9865)" fill-rule="evenodd" clip-rule="evenodd" fill="#0865AB" width="0.476" height="51.246"/>
		</g>
		<g clip-path="url(#SVGID_2_)">
			
				<rect x="27.529" y="-6.672" transform="matrix(0.8466 0.5322 -0.5322 0.8466 14.3436 -11.8704)" fill-rule="evenodd" clip-rule="evenodd" fill="#0867AB" width="0.476" height="51.246"/>
		</g>
		<g clip-path="url(#SVGID_2_)">
			
				<rect x="27.261" y="-6.84" transform="matrix(0.8468 0.5319 -0.5319 0.8468 14.2041 -11.7496)" fill-rule="evenodd" clip-rule="evenodd" fill="#0867AB" width="0.476" height="51.246"/>
		</g>
		<g clip-path="url(#SVGID_2_)">
			
				<rect x="26.992" y="-7.009" transform="matrix(0.8466 0.5322 -0.5322 0.8466 14.0814 -11.6361)" fill-rule="evenodd" clip-rule="evenodd" fill="#0867AB" width="0.476" height="51.246"/>
		</g>
		<g clip-path="url(#SVGID_2_)">
			
				<rect x="26.723" y="-7.178" transform="matrix(0.8468 0.5319 -0.5319 0.8468 13.9401 -11.5146)" fill-rule="evenodd" clip-rule="evenodd" fill="#0868AC" width="0.476" height="51.246"/>
		</g>
		<g clip-path="url(#SVGID_2_)">
			
				<rect x="26.454" y="-7.347" transform="matrix(0.8468 0.5319 -0.5319 0.8468 13.811 -11.3983)" fill-rule="evenodd" clip-rule="evenodd" fill="#0868AC" width="0.476" height="51.246"/>
		</g>
		<g clip-path="url(#SVGID_2_)">
			
				<rect x="26.185" y="-7.516" transform="matrix(0.8467 0.5321 -0.5321 0.8467 13.6857 -11.2836)" fill-rule="evenodd" clip-rule="evenodd" fill="#0868AC" width="0.476" height="51.246"/>
		</g>
		<g clip-path="url(#SVGID_2_)">
			
				<rect x="25.916" y="-7.685" transform="matrix(0.8468 0.5319 -0.5319 0.8468 13.5489 -11.164)" fill-rule="evenodd" clip-rule="evenodd" fill="#086AAD" width="0.476" height="51.246"/>
		</g>
		<g clip-path="url(#SVGID_2_)">
			
				<rect x="25.648" y="-7.854" transform="matrix(0.8468 0.5319 -0.5319 0.8468 13.4179 -11.0469)" fill-rule="evenodd" clip-rule="evenodd" fill="#086AAD" width="0.476" height="51.246"/>
		</g>
		<g clip-path="url(#SVGID_2_)">
			
				<rect x="25.379" y="-8.023" transform="matrix(0.8467 0.532 -0.532 0.8467 13.2906 -10.9314)" fill-rule="evenodd" clip-rule="evenodd" fill="#076BAE" width="0.476" height="51.246"/>
		</g>
		<g clip-path="url(#SVGID_2_)">
			
				<rect x="25.11" y="-8.192" transform="matrix(0.8468 0.5319 -0.5319 0.8468 13.1558 -10.8127)" fill-rule="evenodd" clip-rule="evenodd" fill="#076BAE" width="0.476" height="51.246"/>
		</g>
		<g clip-path="url(#SVGID_2_)">
			
				<rect x="24.841" y="-8.361" transform="matrix(0.8467 0.5321 -0.5321 0.8467 13.0303 -10.6979)" fill-rule="evenodd" clip-rule="evenodd" fill="#076BAE" width="0.476" height="51.246"/>
		</g>
		<g clip-path="url(#SVGID_2_)">
			
				<rect x="24.572" y="-8.53" transform="matrix(0.8467 0.5321 -0.5321 0.8467 12.8991 -10.5807)" fill-rule="evenodd" clip-rule="evenodd" fill="#076DAE" width="0.476" height="51.246"/>
		</g>
		<g clip-path="url(#SVGID_2_)">
			
				<rect x="24.303" y="-8.699" transform="matrix(0.8468 0.5319 -0.5319 0.8468 12.7627 -10.4613)" fill-rule="evenodd" clip-rule="evenodd" fill="#076DAE" width="0.476" height="51.246"/>
		</g>
		<g clip-path="url(#SVGID_2_)">
			
				<rect x="24.035" y="-8.867" transform="matrix(0.8467 0.5321 -0.5321 0.8467 12.6385 -10.3471)" fill-rule="evenodd" clip-rule="evenodd" fill="#076FAF" width="0.476" height="51.246"/>
		</g>
		<g clip-path="url(#SVGID_2_)">
			
				<rect x="23.766" y="-9.036" transform="matrix(0.8467 0.5321 -0.5321 0.8467 12.5059 -10.2293)" fill-rule="evenodd" clip-rule="evenodd" fill="#076FAF" width="0.476" height="51.246"/>
		</g>
		<g clip-path="url(#SVGID_2_)">
			
				<rect x="23.497" y="-9.205" transform="matrix(0.8467 0.532 -0.532 0.8467 12.3729 -10.1113)" fill-rule="evenodd" clip-rule="evenodd" fill="#076FAF" width="0.476" height="51.246"/>
		</g>
		<g clip-path="url(#SVGID_2_)">
			
				<rect x="23.228" y="-9.374" transform="matrix(0.8467 0.5321 -0.5321 0.8467 12.2437 -9.995)" fill-rule="evenodd" clip-rule="evenodd" fill="#0670B0" width="0.476" height="51.246"/>
		</g>
		<g clip-path="url(#SVGID_2_)">
			
				<rect x="22.959" y="-9.543" transform="matrix(0.8468 0.532 -0.532 0.8468 12.109 -9.8763)" fill-rule="evenodd" clip-rule="evenodd" fill="#0670B0" width="0.476" height="51.246"/>
		</g>
		<g clip-path="url(#SVGID_2_)">
			
				<rect x="22.69" y="-9.712" transform="matrix(0.8468 0.5319 -0.5319 0.8468 11.9765 -9.7586)" fill-rule="evenodd" clip-rule="evenodd" fill="#0672B1" width="0.476" height="51.246"/>
		</g>
		<g clip-path="url(#SVGID_2_)">
			
				<rect x="22.422" y="-9.881" transform="matrix(0.8466 0.5322 -0.5322 0.8466 11.8535 -9.6448)" fill-rule="evenodd" clip-rule="evenodd" fill="#0672B1" width="0.476" height="51.246"/>
		</g>
		<g clip-path="url(#SVGID_2_)">
			
				<rect x="22.153" y="-10.05" transform="matrix(0.8468 0.5319 -0.5319 0.8468 11.7145 -9.5243)" fill-rule="evenodd" clip-rule="evenodd" fill="#0672B1" width="0.476" height="51.246"/>
		</g>
		<g clip-path="url(#SVGID_2_)">
			
				<rect x="21.884" y="-10.219" transform="matrix(0.8467 0.532 -0.532 0.8467 11.5864 -9.4085)" fill-rule="evenodd" clip-rule="evenodd" fill="#0673B1" width="0.476" height="51.246"/>
		</g>
		<g clip-path="url(#SVGID_2_)">
			
				<rect x="21.615" y="-10.388" transform="matrix(0.8467 0.532 -0.532 0.8467 11.4556 -9.2914)" fill-rule="evenodd" clip-rule="evenodd" fill="#0673B1" width="0.476" height="51.246"/>
		</g>
		<g clip-path="url(#SVGID_2_)">
			
				<rect x="21.346" y="-10.556" transform="matrix(0.8467 0.532 -0.532 0.8467 11.3243 -9.1742)" fill-rule="evenodd" clip-rule="evenodd" fill="#0675B2" width="0.476" height="51.246"/>
		</g>
		<g clip-path="url(#SVGID_2_)">
			
				<rect x="21.077" y="-10.725" transform="matrix(0.8467 0.5321 -0.5321 0.8467 11.195 -9.0578)" fill-rule="evenodd" clip-rule="evenodd" fill="#0675B2" width="0.476" height="51.246"/>
		</g>
		<g clip-path="url(#SVGID_2_)">
			
				<rect x="20.809" y="-10.894" transform="matrix(0.8466 0.5322 -0.5322 0.8466 11.0668 -8.9419)" fill-rule="evenodd" clip-rule="evenodd" fill="#0675B2" width="0.476" height="51.246"/>
		</g>
		<g clip-path="url(#SVGID_2_)">
			
				<rect x="20.54" y="-11.063" transform="matrix(0.8468 0.5319 -0.5319 0.8468 10.9282 -8.8216)" fill-rule="evenodd" clip-rule="evenodd" fill="#0677B3" width="0.476" height="51.246"/>
		</g>
		<g clip-path="url(#SVGID_2_)">
			
				<rect x="20.271" y="-11.232" transform="matrix(0.8467 0.532 -0.532 0.8467 10.8002 -8.7057)" fill-rule="evenodd" clip-rule="evenodd" fill="#0677B3" width="0.476" height="51.246"/>
		</g>
		<g clip-path="url(#SVGID_2_)">
			
				<rect x="20.002" y="-11.401" transform="matrix(0.8467 0.5321 -0.5321 0.8467 10.6706 -8.5892)" fill-rule="evenodd" clip-rule="evenodd" fill="#0678B4" width="0.476" height="51.246"/>
		</g>
		<g clip-path="url(#SVGID_2_)">
			
				<rect x="19.733" y="-11.57" transform="matrix(0.8468 0.5319 -0.5319 0.8468 10.5352 -8.4702)" fill-rule="evenodd" clip-rule="evenodd" fill="#0678B4" width="0.476" height="51.246"/>
		</g>
		<g clip-path="url(#SVGID_2_)">
			
				<rect x="19.464" y="-11.739" transform="matrix(0.8467 0.5321 -0.5321 0.8467 10.4085 -8.3549)" fill-rule="evenodd" clip-rule="evenodd" fill="#0678B4" width="0.476" height="51.246"/>
		</g>
		<g clip-path="url(#SVGID_2_)">
			
				<rect x="19.196" y="-11.908" transform="matrix(0.8468 0.5319 -0.5319 0.8468 10.2731 -8.236)" fill-rule="evenodd" clip-rule="evenodd" fill="#067AB4" width="0.476" height="51.246"/>
		</g>
		<g clip-path="url(#SVGID_2_)">
			
				<rect x="18.927" y="-12.077" transform="matrix(0.8468 0.5319 -0.5319 0.8468 10.1406 -8.1183)" fill-rule="evenodd" clip-rule="evenodd" fill="#067AB4" width="0.476" height="51.246"/>
		</g>
		<g clip-path="url(#SVGID_2_)">
			
				<rect x="18.658" y="-12.245" transform="matrix(0.8467 0.5321 -0.5321 0.8467 10.0152 -8.0035)" fill-rule="evenodd" clip-rule="evenodd" fill="#067AB4" width="0.476" height="51.246"/>
		</g>
		<g clip-path="url(#SVGID_2_)">
			
				<rect x="18.389" y="-12.414" transform="matrix(0.8468 0.5319 -0.5319 0.8468 9.88 -7.8846)" fill-rule="evenodd" clip-rule="evenodd" fill="#067BB5" width="0.476" height="51.246"/>
		</g>
		<g clip-path="url(#SVGID_2_)">
			
				<rect x="18.12" y="-12.583" transform="matrix(0.8468 0.5319 -0.5319 0.8468 9.7489 -7.7675)" fill-rule="evenodd" clip-rule="evenodd" fill="#067BB5" width="0.476" height="51.246"/>
		</g>
		<g clip-path="url(#SVGID_2_)">
			
				<rect x="17.851" y="-12.752" transform="matrix(0.8467 0.5321 -0.5321 0.8467 9.6231 -7.6525)" fill-rule="evenodd" clip-rule="evenodd" fill="#057DB6" width="0.476" height="51.246"/>
		</g>
		<g clip-path="url(#SVGID_2_)">
			
				<rect x="17.583" y="-12.921" transform="matrix(0.8468 0.5319 -0.5319 0.8468 9.4869 -7.5333)" fill-rule="evenodd" clip-rule="evenodd" fill="#057DB6" width="0.476" height="51.246"/>
		</g>
		<g clip-path="url(#SVGID_2_)">
			
				<rect x="17.314" y="-13.09" transform="matrix(0.8466 0.5322 -0.5322 0.8466 9.3622 -7.4187)" fill-rule="evenodd" clip-rule="evenodd" fill="#057DB6" width="0.476" height="51.246"/>
		</g>
		<g clip-path="url(#SVGID_2_)">
			
				<rect x="17.045" y="-13.259" transform="matrix(0.8467 0.5321 -0.5321 0.8467 9.2286 -7.3006)" fill-rule="evenodd" clip-rule="evenodd" fill="#057FB6" width="0.476" height="51.246"/>
		</g>
		<g clip-path="url(#SVGID_2_)">
			
				<rect x="16.776" y="-13.428" transform="matrix(0.8467 0.532 -0.532 0.8467 9.0961 -7.1829)" fill-rule="evenodd" clip-rule="evenodd" fill="#057FB6" width="0.476" height="51.246"/>
		</g>
		<g clip-path="url(#SVGID_2_)">
			
				<rect x="16.913" y="-13.48" transform="matrix(0.8457 0.5336 -0.5336 0.8457 9.0912 -7.1612)" fill-rule="evenodd" clip-rule="evenodd" fill="#0480B7" width="0.037" height="51.246"/>
		</g>
	</g>
</g>
<path fill-rule="evenodd" clip-rule="evenodd" fill="#FFFFFF" d="M33.044,21.864c1.388,3.526,2.295,7.102,2.848,10.326
	c0.395,0.205,1.516,0.727,2.944,0.869c1.358,0.135,2.567-0.224,3.187-0.486c-0.286-4.337-1.499-9.324-2.815-11.89
	C38.102,18.723,33.037,21.734,33.044,21.864L33.044,21.864z M36.121,33.641c0.172,1.194,0.295,2.327,0.376,3.376l5.583-2.058
	c0.007-0.271,0.008-0.549,0.005-0.831c-0.873,0.18-2.439,0.436-3.638,0.258C37.345,34.222,36.609,33.932,36.121,33.641z"/>
<path fill-rule="evenodd" clip-rule="evenodd" fill="#FFFFFF" d="M36.014,33.391c-1.714,1.324-5.749,4.207-7.575,5.981
	c-1.825,1.774-1.496,12.407-1.291,13.053c0.205,0.646,2.181-9.02,4.616-10.659c2.436-1.638,8.98-5.271,8.47-5.465
	c-0.51-0.193-1.9-1.152-3.034-1.965C35.852,34.635,36.481,33.567,36.014,33.391z"/>
<path fill-rule="evenodd" clip-rule="evenodd" fill="#FFFFFF" d="M36.955,35.383c0.412,2.156,1.162,7.057,1.943,9.628
	c0.781,2.571,10.922,10.355,11.627,10.703c0.705,0.348-7.41-8.268-7.768-11.15c-0.357-2.882-0.596-10.044-1.024-9.845
	c-0.428,0.199-2.002,0.418-3.315,0.573C38.044,36.43,37.346,35.2,36.955,35.383z"/>
<path fill-rule="evenodd" clip-rule="evenodd" fill="#FFFFFF" d="M30.23,18.807c5.093,3.659,8.393,1.488,8.452-3.208
	c-0.697-0.626-4.123-0.651-5.145,2.52c1.242-0.861,2.713-1.249,3.68-0.989c-0.622,2.223-2.283,2.652-5.288,1.006
	c0.857-1.99,2.394-3.699,4.497-4.468c-2.722-0.683-5.311,1.051-6.205,5.125c0.003-0.004,0.007-0.008,0.012-0.012
	C30.23,18.793,30.229,18.802,30.23,18.807z"/>
<path fill-rule="evenodd" clip-rule="evenodd" fill="#FFFFFF" d="M35.896,22.285c-2.392,0.408-7.525,4.59-7.976,5.198
	c0.094-2.976,1.211-4.678,2.861-6.946c0,0-3.104,1.191-4.405,4.357c-1.301,3.166-0.154,6.173-0.154,6.173s2.458-1.931,5.281-3.323
	s3.581-1.128,3.581-1.128S35.891,22.428,35.896,22.285z"/>
<path fill-rule="evenodd" clip-rule="evenodd" fill="#FFFFFF" d="M36.007,33.27c1.529,1.34,4.448,1.075,6.21,0.616
	c0.569-0.148,1.074-0.379,1.887-0.623c1.321-0.397,3.415-0.716,6.706,1.373l0.66-1.082c-1.772-1.196-3.326-1.649-4.638-1.737
	c-2.409-0.161-3.721,0.915-5.878,1.377c-1.129,0.242-2.9,0.355-5.004-0.733C35.922,32.456,35.994,33.291,36.007,33.27z"/>
<path fill-rule="evenodd" clip-rule="evenodd" fill="#FFFFFF" d="M38.64,20.869c0,0-10.403,0.888-13.622,1.131
	c-3.22,0.242-4.706,0.242-4.706,0.242s5.635,1.817,10.155,1.575c4.52-0.242,7.74-0.283,7.74-0.283S38.516,20.949,38.64,20.869z"/>
</svg>
